{
    "asset": {
        "format": "jpg",
        "id": "040cbce79d77b4b92617a8030bc09afd",
        "name": "08708-receipt.jpg",
        "path": "file:/home/administrator/ocr/Train-OCR/TrainYourOwnYOLO/Data/receipts_Source_Images/Train_receipt/08708-receipt.jpg",
        "size": {
            "width": 338,
            "height": 450
        },
        "state": 2,
        "type": 1
    },
    "regions": [
        {
            "id": "K5yro6hTn",
            "type": "RECTANGLE",
            "tags": [
                "Shop_Name"
            ],
            "boundingBox": {
                "height": 51.92307692307692,
                "width": 152.710843373494,
                "left": 81.70030120481928,
                "top": 15.271493212669682
            },
            "points": [
                {
                    "x": 81.70030120481928,
                    "y": 15.271493212669682
                },
                {
                    "x": 234.41114457831324,
                    "y": 15.271493212669682
                },
                {
                    "x": 234.41114457831324,
                    "y": 67.1945701357466
                },
                {
                    "x": 81.70030120481928,
                    "y": 67.1945701357466
                }
            ]
        },
        {
            "id": "8d9spDR5i",
            "type": "RECTANGLE",
            "tags": [
                "Shop_Address"
            ],
            "boundingBox": {
                "height": 49.886877828054295,
                "width": 271.31626506024094,
                "left": 23.16114457831325,
                "top": 61.08597285067873
            },
            "points": [
                {
                    "x": 23.16114457831325,
                    "y": 61.08597285067873
                },
                {
                    "x": 294.4774096385542,
                    "y": 61.08597285067873
                },
                {
                    "x": 294.4774096385542,
                    "y": 110.97285067873302
                },
                {
                    "x": 23.16114457831325,
                    "y": 110.97285067873302
                }
            ]
        },
        {
            "id": "wFmX6_KMN",
            "type": "RECTANGLE",
            "tags": [
                "Mobile_no"
            ],
            "boundingBox": {
                "height": 18.834841628959275,
                "width": 124.71385542168674,
                "left": 110.71536144578313,
                "top": 106.39140271493213
            },
            "points": [
                {
                    "x": 110.71536144578313,
                    "y": 106.39140271493213
                },
                {
                    "x": 235.42921686746988,
                    "y": 106.39140271493213
                },
                {
                    "x": 235.42921686746988,
                    "y": 125.2262443438914
                },
                {
                    "x": 110.71536144578313,
                    "y": 125.2262443438914
                }
            ]
        },
        {
            "id": "72Qt6-kR7",
            "type": "RECTANGLE",
            "tags": [
                "Content_Items"
            ],
            "boundingBox": {
                "height": 37.160633484162894,
                "width": 300.3313253012048,
                "left": 26.21536144578313,
                "top": 242.3076923076923
            },
            "points": [
                {
                    "x": 26.21536144578313,
                    "y": 242.3076923076923
                },
                {
                    "x": 326.546686746988,
                    "y": 242.3076923076923
                },
                {
                    "x": 326.546686746988,
                    "y": 279.4683257918552
                },
                {
                    "x": 26.21536144578313,
                    "y": 279.4683257918552
                }
            ]
        },
        {
            "id": "MW2Cex-pi",
            "type": "RECTANGLE",
            "tags": [
                "Date"
            ],
            "boundingBox": {
                "height": 18.32579185520362,
                "width": 80.9367469879518,
                "left": 243.06475903614458,
                "top": 182.23981900452486
            },
            "points": [
                {
                    "x": 243.06475903614458,
                    "y": 182.23981900452486
                },
                {
                    "x": 324.0015060240964,
                    "y": 182.23981900452486
                },
                {
                    "x": 324.0015060240964,
                    "y": 200.5656108597285
                },
                {
                    "x": 243.06475903614458,
                    "y": 200.5656108597285
                }
            ]
        },
        {
            "id": "d-vLa_dkq",
            "type": "RECTANGLE",
            "tags": [
                "amount_details"
            ],
            "boundingBox": {
                "height": 23.925339366515836,
                "width": 85.51807228915662,
                "left": 244.0828313253012,
                "top": 318.6651583710407
            },
            "points": [
                {
                    "x": 244.0828313253012,
                    "y": 318.6651583710407
                },
                {
                    "x": 329.6009036144578,
                    "y": 318.6651583710407
                },
                {
                    "x": 329.6009036144578,
                    "y": 342.5904977375565
                },
                {
                    "x": 244.0828313253012,
                    "y": 342.5904977375565
                }
            ]
        },
        {
            "id": "rrtH3Z2Ge",
            "type": "RECTANGLE",
            "tags": [
                "tax"
            ],
            "boundingBox": {
                "height": 20.361990950226243,
                "width": 36.14156626506024,
                "left": 294.4774096385542,
                "top": 344.11764705882354
            },
            "points": [
                {
                    "x": 294.4774096385542,
                    "y": 344.11764705882354
                },
                {
                    "x": 330.61897590361446,
                    "y": 344.11764705882354
                },
                {
                    "x": 330.61897590361446,
                    "y": 364.4796380090497
                },
                {
                    "x": 294.4774096385542,
                    "y": 364.4796380090497
                }
            ]
        }
    ],
    "version": "2.2.0"
}