{
    "asset": {
        "format": "jpg",
        "id": "04189bf3c5ac207f5325a19a79b9fcc2",
        "name": "01086-receipt.jpg",
        "path": "file:/home/administrator/ocr/Train-OCR/TrainYourOwnYOLO/Data/receipts_Source_Images/Train_receipt/01086-receipt.jpg",
        "size": {
            "width": 293,
            "height": 450
        },
        "state": 2,
        "type": 1
    },
    "regions": [
        {
            "id": "niTdK7pOp",
            "type": "RECTANGLE",
            "tags": [
                "others"
            ],
            "boundingBox": {
                "height": 16.289592760180994,
                "width": 171.42534722222223,
                "left": 67.80552842881944,
                "top": 21.88914027149321
            },
            "points": [
                {
                    "x": 67.80552842881944,
                    "y": 21.88914027149321
                },
                {
                    "x": 239.23087565104169,
                    "y": 21.88914027149321
                },
                {
                    "x": 239.23087565104169,
                    "y": 38.178733031674206
                },
                {
                    "x": 67.80552842881944,
                    "y": 38.178733031674206
                }
            ]
        },
        {
            "id": "ujRrUHOzm",
            "type": "RECTANGLE",
            "tags": [
                "Date"
            ],
            "boundingBox": {
                "height": 11.70814479638009,
                "width": 49.34201388888889,
                "left": 64.75344509548611,
                "top": 53.45022624434389
            },
            "points": [
                {
                    "x": 64.75344509548611,
                    "y": 53.45022624434389
                },
                {
                    "x": 114.095458984375,
                    "y": 53.45022624434389
                },
                {
                    "x": 114.095458984375,
                    "y": 65.15837104072398
                },
                {
                    "x": 64.75344509548611,
                    "y": 65.15837104072398
                }
            ]
        },
        {
            "id": "YIjtSFpoi",
            "type": "RECTANGLE",
            "tags": [
                "Content_Items"
            ],
            "boundingBox": {
                "height": 177.65837104072398,
                "width": 249.91316731770834,
                "left": 23.399305555555557,
                "top": 134.89819004524887
            },
            "points": [
                {
                    "x": 23.399305555555557,
                    "y": 134.89819004524887
                },
                {
                    "x": 273.3124728732639,
                    "y": 134.89819004524887
                },
                {
                    "x": 273.3124728732639,
                    "y": 312.5565610859728
                },
                {
                    "x": 23.399305555555557,
                    "y": 312.5565610859728
                }
            ]
        },
        {
            "id": "D3H9LPaax",
            "type": "RECTANGLE",
            "tags": [
                "amount_details"
            ],
            "boundingBox": {
                "height": 19.34389140271493,
                "width": 80.37152777777779,
                "left": 189.38018120659723,
                "top": 366.00678733031674
            },
            "points": [
                {
                    "x": 189.38018120659723,
                    "y": 366.00678733031674
                },
                {
                    "x": 269.751708984375,
                    "y": 366.00678733031674
                },
                {
                    "x": 269.751708984375,
                    "y": 385.35067873303166
                },
                {
                    "x": 189.38018120659723,
                    "y": 385.35067873303166
                }
            ]
        }
    ],
    "version": "2.2.0"
}