{
    "asset": {
        "format": "jpg",
        "id": "048aa1f15a2355b17b1c3d31ff943683",
        "name": "02246-receipt.jpg",
        "path": "file:/home/administrator/ocr/Train-OCR/TrainYourOwnYOLO/Data/receipts_Source_Images/Train_receipt/02246-receipt.jpg",
        "size": {
            "width": 338,
            "height": 450
        },
        "state": 2,
        "type": 1
    },
    "regions": [
        {
            "id": "ZP94kWJVe",
            "type": "RECTANGLE",
            "tags": [
                "amount_details"
            ],
            "boundingBox": {
                "height": 18.32579185520362,
                "width": 34.105421686746986,
                "left": 229.82981927710844,
                "top": 285.57692307692304
            },
            "points": [
                {
                    "x": 229.82981927710844,
                    "y": 285.57692307692304
                },
                {
                    "x": 263.93524096385545,
                    "y": 285.57692307692304
                },
                {
                    "x": 263.93524096385545,
                    "y": 303.9027149321267
                },
                {
                    "x": 229.82981927710844,
                    "y": 303.9027149321267
                }
            ]
        },
        {
            "id": "EEB_oOTkN",
            "type": "RECTANGLE",
            "tags": [
                "Date"
            ],
            "boundingBox": {
                "height": 14.25339366515837,
                "width": 43.77710843373494,
                "left": 221.1762048192771,
                "top": 162.38687782805428
            },
            "points": [
                {
                    "x": 221.1762048192771,
                    "y": 162.38687782805428
                },
                {
                    "x": 264.953313253012,
                    "y": 162.38687782805428
                },
                {
                    "x": 264.953313253012,
                    "y": 176.64027149321265
                },
                {
                    "x": 221.1762048192771,
                    "y": 176.64027149321265
                }
            ]
        },
        {
            "id": "3X5SfD_Df",
            "type": "RECTANGLE",
            "tags": [
                "Shop_Address"
            ],
            "boundingBox": {
                "height": 14.762443438914026,
                "width": 88.0632530120482,
                "left": 136.1671686746988,
                "top": 125.73529411764704
            },
            "points": [
                {
                    "x": 136.1671686746988,
                    "y": 125.73529411764704
                },
                {
                    "x": 224.23042168674698,
                    "y": 125.73529411764704
                },
                {
                    "x": 224.23042168674698,
                    "y": 140.49773755656108
                },
                {
                    "x": 136.1671686746988,
                    "y": 140.49773755656108
                }
            ]
        }
    ],
    "version": "2.2.0"
}