{
    "asset": {
        "format": "jpg",
        "id": "0c7df33dda8510075d10da2478226ae2",
        "name": "09437-receipt.jpg",
        "path": "file:/home/administrator/ocr/Train-OCR/TrainYourOwnYOLO/Data/receipts_Source_Images/Train_receipt/09437-receipt.jpg",
        "size": {
            "width": 338,
            "height": 450
        },
        "state": 2,
        "type": 1
    },
    "regions": [
        {
            "id": "30hi1Aa8Z",
            "type": "RECTANGLE",
            "tags": [
                "Shop_Name"
            ],
            "boundingBox": {
                "height": 35.12443438914027,
                "width": 143.54819277108433,
                "left": 98.24397590361446,
                "top": 53.959276018099544
            },
            "points": [
                {
                    "x": 98.24397590361446,
                    "y": 53.959276018099544
                },
                {
                    "x": 241.7921686746988,
                    "y": 53.959276018099544
                },
                {
                    "x": 241.7921686746988,
                    "y": 89.0837104072398
                },
                {
                    "x": 98.24397590361446,
                    "y": 89.0837104072398
                }
            ]
        },
        {
            "id": "QoB2W5q8a",
            "type": "RECTANGLE",
            "tags": [
                "Shop_Name"
            ],
            "boundingBox": {
                "height": 29.015837104072396,
                "width": 114.53313253012048,
                "left": 110.96987951807229,
                "top": 96.210407239819
            },
            "points": [
                {
                    "x": 110.96987951807229,
                    "y": 96.210407239819
                },
                {
                    "x": 225.50301204819277,
                    "y": 96.210407239819
                },
                {
                    "x": 225.50301204819277,
                    "y": 125.2262443438914
                },
                {
                    "x": 110.96987951807229,
                    "y": 125.2262443438914
                }
            ]
        },
        {
            "id": "DrYIil2qv",
            "type": "RECTANGLE",
            "tags": [
                "Mobile_no"
            ],
            "boundingBox": {
                "height": 17.307692307692307,
                "width": 91.11746987951807,
                "left": 136.42168674698794,
                "top": 125.73529411764704
            },
            "points": [
                {
                    "x": 136.42168674698794,
                    "y": 125.73529411764704
                },
                {
                    "x": 227.539156626506,
                    "y": 125.73529411764704
                },
                {
                    "x": 227.539156626506,
                    "y": 143.04298642533936
                },
                {
                    "x": 136.42168674698794,
                    "y": 143.04298642533936
                }
            ]
        },
        {
            "id": "vDxBH6M7G",
            "type": "RECTANGLE",
            "tags": [
                "Content_Items"
            ],
            "boundingBox": {
                "height": 71.77601809954751,
                "width": 245.35542168674698,
                "left": 40.72289156626506,
                "top": 201.5837104072398
            },
            "points": [
                {
                    "x": 40.72289156626506,
                    "y": 201.5837104072398
                },
                {
                    "x": 286.078313253012,
                    "y": 201.5837104072398
                },
                {
                    "x": 286.078313253012,
                    "y": 273.3597285067873
                },
                {
                    "x": 40.72289156626506,
                    "y": 273.3597285067873
                }
            ]
        },
        {
            "id": "DYX5vnZpv",
            "type": "RECTANGLE",
            "tags": [
                "amount_details"
            ],
            "boundingBox": {
                "height": 20.8710407239819,
                "width": 59.04819277108434,
                "left": 194.960843373494,
                "top": 280.4864253393665
            },
            "points": [
                {
                    "x": 194.960843373494,
                    "y": 280.4864253393665
                },
                {
                    "x": 254.00903614457832,
                    "y": 280.4864253393665
                },
                {
                    "x": 254.00903614457832,
                    "y": 301.3574660633484
                },
                {
                    "x": 194.960843373494,
                    "y": 301.3574660633484
                }
            ]
        },
        {
            "id": "-JMMJ8HQX",
            "type": "RECTANGLE",
            "tags": [
                "tax"
            ],
            "boundingBox": {
                "height": 14.25339366515837,
                "width": 52.93975903614458,
                "left": 39.19578313253012,
                "top": 319.17420814479635
            },
            "points": [
                {
                    "x": 39.19578313253012,
                    "y": 319.17420814479635
                },
                {
                    "x": 92.1355421686747,
                    "y": 319.17420814479635
                },
                {
                    "x": 92.1355421686747,
                    "y": 333.42760180995475
                },
                {
                    "x": 39.19578313253012,
                    "y": 333.42760180995475
                }
            ]
        },
        {
            "id": "aZgrPfN2v",
            "type": "RECTANGLE",
            "tags": [
                "tax"
            ],
            "boundingBox": {
                "height": 12.217194570135746,
                "width": 40.72289156626506,
                "left": 212.77710843373495,
                "top": 317.13800904977376
            },
            "points": [
                {
                    "x": 212.77710843373495,
                    "y": 317.13800904977376
                },
                {
                    "x": 253.5,
                    "y": 317.13800904977376
                },
                {
                    "x": 253.5,
                    "y": 329.3552036199095
                },
                {
                    "x": 212.77710843373495,
                    "y": 329.3552036199095
                }
            ]
        },
        {
            "id": "gXzFXHhfa",
            "type": "RECTANGLE",
            "tags": [
                "Date"
            ],
            "boundingBox": {
                "height": 14.762443438914026,
                "width": 54.46686746987952,
                "left": 74.31927710843374,
                "top": 347.17194570135746
            },
            "points": [
                {
                    "x": 74.31927710843374,
                    "y": 347.17194570135746
                },
                {
                    "x": 128.78614457831324,
                    "y": 347.17194570135746
                },
                {
                    "x": 128.78614457831324,
                    "y": 361.9343891402715
                },
                {
                    "x": 74.31927710843374,
                    "y": 361.9343891402715
                }
            ]
        }
    ],
    "version": "2.2.0"
}