{
    "asset": {
        "format": "JPG",
        "id": "1153317b27425af38fef4f61fbb262c5",
        "name": "IMG_3963.JPG",
        "path": "file:/home/administrator/ocr/Train-OCR/TrainYourOwnYOLO/Data/receipts_Source_Images/Train_receipt/IMG_3963.JPG",
        "size": {
            "width": 739,
            "height": 1024
        },
        "state": 2,
        "type": 1
    },
    "regions": [
        {
            "id": "lHRZ7TVsK",
            "type": "RECTANGLE",
            "tags": [
                "Shop_Logo"
            ],
            "boundingBox": {
                "height": 49.80995475113123,
                "width": 210.81191222570536,
                "left": 71.21779486677117,
                "top": 19.692307692307693
            },
            "points": [
                {
                    "x": 71.21779486677117,
                    "y": 19.692307692307693
                },
                {
                    "x": 282.02970709247654,
                    "y": 19.692307692307693
                },
                {
                    "x": 282.02970709247654,
                    "y": 69.50226244343892
                },
                {
                    "x": 71.21779486677117,
                    "y": 69.50226244343892
                }
            ]
        },
        {
            "id": "MP6IGS2oH",
            "type": "RECTANGLE",
            "tags": [
                "Date"
            ],
            "boundingBox": {
                "height": 22.00904977375566,
                "width": 70.65673981191223,
                "left": 608.6723403213167,
                "top": 396.1628959276018
            },
            "points": [
                {
                    "x": 608.6723403213167,
                    "y": 396.1628959276018
                },
                {
                    "x": 679.3290801332289,
                    "y": 396.1628959276018
                },
                {
                    "x": 679.3290801332289,
                    "y": 418.1719457013575
                },
                {
                    "x": 608.6723403213167,
                    "y": 418.1719457013575
                }
            ]
        },
        {
            "id": "PW-WU9rlU",
            "type": "RECTANGLE",
            "tags": [
                "Content_Items"
            ],
            "boundingBox": {
                "height": 60.235294117647065,
                "width": 456.37304075235113,
                "left": 64.26795160658308,
                "top": 429.75565610859735
            },
            "points": [
                {
                    "x": 64.26795160658308,
                    "y": 429.75565610859735
                },
                {
                    "x": 520.6409923589342,
                    "y": 429.75565610859735
                },
                {
                    "x": 520.6409923589342,
                    "y": 489.99095022624437
                },
                {
                    "x": 64.26795160658308,
                    "y": 489.99095022624437
                }
            ]
        },
        {
            "id": "6uhwInnwY",
            "type": "RECTANGLE",
            "tags": [
                "tax"
            ],
            "boundingBox": {
                "height": 60.235294117647065,
                "width": 98.45611285266459,
                "left": 520.6409923589342,
                "top": 429.75565610859735
            },
            "points": [
                {
                    "x": 520.6409923589342,
                    "y": 429.75565610859735
                },
                {
                    "x": 619.0971052115988,
                    "y": 429.75565610859735
                },
                {
                    "x": 619.0971052115988,
                    "y": 489.99095022624437
                },
                {
                    "x": 520.6409923589342,
                    "y": 489.99095022624437
                }
            ]
        },
        {
            "id": "5Nf74f9Dj",
            "type": "RECTANGLE",
            "tags": [
                "amount_details"
            ],
            "boundingBox": {
                "height": 30.117647058823533,
                "width": 55.59874608150471,
                "left": 619.0971052115988,
                "top": 486.51583710407243
            },
            "points": [
                {
                    "x": 619.0971052115988,
                    "y": 486.51583710407243
                },
                {
                    "x": 674.6958512931035,
                    "y": 486.51583710407243
                },
                {
                    "x": 674.6958512931035,
                    "y": 516.633484162896
                },
                {
                    "x": 619.0971052115988,
                    "y": 516.633484162896
                }
            ]
        },
        {
            "id": "-Ln584rMh",
            "type": "RECTANGLE",
            "tags": [
                "Shop_Address"
            ],
            "boundingBox": {
                "height": 89.19457013574662,
                "width": 303.47648902821317,
                "left": 378.1692055250784,
                "top": 142.47963800904978
            },
            "points": [
                {
                    "x": 378.1692055250784,
                    "y": 142.47963800904978
                },
                {
                    "x": 681.6456945532916,
                    "y": 142.47963800904978
                },
                {
                    "x": 681.6456945532916,
                    "y": 231.6742081447964
                },
                {
                    "x": 378.1692055250784,
                    "y": 231.6742081447964
                }
            ]
        }
    ],
    "version": "2.2.0"
}