{
    "asset": {
        "format": "jpg",
        "id": "11e8030298f060d6d7edd649f79e6d6b",
        "name": "02573-receipt.jpg",
        "path": "file:/home/administrator/ocr/Train-OCR/TrainYourOwnYOLO/Data/receipts_Source_Images/Train_receipt/02573-receipt.jpg",
        "size": {
            "width": 750,
            "height": 1000
        },
        "state": 2,
        "type": 1
    },
    "regions": [
        {
            "id": "s9vLCpVjL",
            "type": "RECTANGLE",
            "tags": [
                "Shop_Name"
            ],
            "boundingBox": {
                "height": 40.723981900452486,
                "width": 283.9366515837104,
                "left": 193.4389140271493,
                "top": 54.29864253393665
            },
            "points": [
                {
                    "x": 193.4389140271493,
                    "y": 54.29864253393665
                },
                {
                    "x": 477.3755656108597,
                    "y": 54.29864253393665
                },
                {
                    "x": 477.3755656108597,
                    "y": 95.02262443438914
                },
                {
                    "x": 193.4389140271493,
                    "y": 95.02262443438914
                }
            ]
        },
        {
            "id": "Hj9KhEktD",
            "type": "RECTANGLE",
            "tags": [
                "Shop_Address"
            ],
            "boundingBox": {
                "height": 72.39819004524887,
                "width": 263.57466063348414,
                "left": 205.88235294117646,
                "top": 100.67873303167421
            },
            "points": [
                {
                    "x": 205.88235294117646,
                    "y": 100.67873303167421
                },
                {
                    "x": 469.4570135746606,
                    "y": 100.67873303167421
                },
                {
                    "x": 469.4570135746606,
                    "y": 173.07692307692307
                },
                {
                    "x": 205.88235294117646,
                    "y": 173.07692307692307
                }
            ]
        },
        {
            "id": "eFkRfqq_n",
            "type": "RECTANGLE",
            "tags": [
                "Mobile_no"
            ],
            "boundingBox": {
                "height": 35.06787330316742,
                "width": 169.68325791855204,
                "left": 255.65610859728505,
                "top": 171.94570135746605
            },
            "points": [
                {
                    "x": 255.65610859728505,
                    "y": 171.94570135746605
                },
                {
                    "x": 425.33936651583707,
                    "y": 171.94570135746605
                },
                {
                    "x": 425.33936651583707,
                    "y": 207.01357466063348
                },
                {
                    "x": 255.65610859728505,
                    "y": 207.01357466063348
                }
            ]
        },
        {
            "id": "W-haVeSlk",
            "type": "RECTANGLE",
            "tags": [
                "others"
            ],
            "boundingBox": {
                "height": 36.199095022624434,
                "width": 295.24886877828055,
                "left": 195.70135746606334,
                "top": 205.88235294117646
            },
            "points": [
                {
                    "x": 195.70135746606334,
                    "y": 205.88235294117646
                },
                {
                    "x": 490.95022624434387,
                    "y": 205.88235294117646
                },
                {
                    "x": 490.95022624434387,
                    "y": 242.0814479638009
                },
                {
                    "x": 195.70135746606334,
                    "y": 242.0814479638009
                }
            ]
        },
        {
            "id": "HfBaengDJ",
            "type": "RECTANGLE",
            "tags": [
                "Date"
            ],
            "boundingBox": {
                "height": 40.723981900452486,
                "width": 138.00904977375566,
                "left": 208.1447963800905,
                "top": 385.7466063348416
            },
            "points": [
                {
                    "x": 208.1447963800905,
                    "y": 385.7466063348416
                },
                {
                    "x": 346.15384615384613,
                    "y": 385.7466063348416
                },
                {
                    "x": 346.15384615384613,
                    "y": 426.4705882352941
                },
                {
                    "x": 208.1447963800905,
                    "y": 426.4705882352941
                }
            ]
        },
        {
            "id": "5NjCrnEjG",
            "type": "RECTANGLE",
            "tags": [
                "Content_Items"
            ],
            "boundingBox": {
                "height": 40.723981900452486,
                "width": 496.60633484162895,
                "left": 106.33484162895927,
                "top": 454.75113122171945
            },
            "points": [
                {
                    "x": 106.33484162895927,
                    "y": 454.75113122171945
                },
                {
                    "x": 602.9411764705882,
                    "y": 454.75113122171945
                },
                {
                    "x": 602.9411764705882,
                    "y": 495.47511312217193
                },
                {
                    "x": 106.33484162895927,
                    "y": 495.47511312217193
                }
            ]
        },
        {
            "id": "zBNirmTeV",
            "type": "RECTANGLE",
            "tags": [
                "amount_details"
            ],
            "boundingBox": {
                "height": 36.199095022624434,
                "width": 75.7918552036199,
                "left": 510.1809954751131,
                "top": 673.0769230769231
            },
            "points": [
                {
                    "x": 510.1809954751131,
                    "y": 673.0769230769231
                },
                {
                    "x": 585.972850678733,
                    "y": 673.0769230769231
                },
                {
                    "x": 585.972850678733,
                    "y": 709.2760180995475
                },
                {
                    "x": 510.1809954751131,
                    "y": 709.2760180995475
                }
            ]
        },
        {
            "id": "fm9brLyk9",
            "type": "RECTANGLE",
            "tags": [
                "tax"
            ],
            "boundingBox": {
                "height": 32.80542986425339,
                "width": 62.217194570135746,
                "left": 113.12217194570135,
                "top": 641.4027149321266
            },
            "points": [
                {
                    "x": 113.12217194570135,
                    "y": 641.4027149321266
                },
                {
                    "x": 175.3393665158371,
                    "y": 641.4027149321266
                },
                {
                    "x": 175.3393665158371,
                    "y": 674.2081447963801
                },
                {
                    "x": 113.12217194570135,
                    "y": 674.2081447963801
                }
            ]
        },
        {
            "id": "S1rpPY2dy",
            "type": "RECTANGLE",
            "tags": [
                "tax"
            ],
            "boundingBox": {
                "height": 37.33031674208145,
                "width": 75.7918552036199,
                "left": 507.91855203619906,
                "top": 631.2217194570136
            },
            "points": [
                {
                    "x": 507.91855203619906,
                    "y": 631.2217194570136
                },
                {
                    "x": 583.710407239819,
                    "y": 631.2217194570136
                },
                {
                    "x": 583.710407239819,
                    "y": 668.552036199095
                },
                {
                    "x": 507.91855203619906,
                    "y": 668.552036199095
                }
            ]
        }
    ],
    "version": "2.2.0"
}