{
    "asset": {
        "format": "jpg",
        "id": "140e36f883a6f3bf7a1fb5c873778a95",
        "name": "02337-receipt.jpg",
        "path": "file:/home/administrator/ocr/Train-OCR/TrainYourOwnYOLO/Data/receipts_Source_Images/Train_receipt/02337-receipt.jpg",
        "size": {
            "width": 512,
            "height": 512
        },
        "state": 2,
        "type": 1
    },
    "regions": [
        {
            "id": "FFGddMx9i",
            "type": "RECTANGLE",
            "tags": [
                "Content_Items"
            ],
            "boundingBox": {
                "height": 188.23529411764707,
                "width": 286.9864253393665,
                "left": 134.9502262443439,
                "top": 11.583710407239822
            },
            "points": [
                {
                    "x": 134.9502262443439,
                    "y": 11.583710407239822
                },
                {
                    "x": 421.93665158371044,
                    "y": 11.583710407239822
                },
                {
                    "x": 421.93665158371044,
                    "y": 199.8190045248869
                },
                {
                    "x": 134.9502262443439,
                    "y": 199.8190045248869
                }
            ]
        },
        {
            "id": "acjILlkNk",
            "type": "RECTANGLE",
            "tags": [
                "amount_details"
            ],
            "boundingBox": {
                "height": 45.755656108597286,
                "width": 75.87330316742081,
                "left": 336.2171945701358,
                "top": 406.0090497737557
            },
            "points": [
                {
                    "x": 336.2171945701358,
                    "y": 406.0090497737557
                },
                {
                    "x": 412.0904977375566,
                    "y": 406.0090497737557
                },
                {
                    "x": 412.0904977375566,
                    "y": 451.764705882353
                },
                {
                    "x": 336.2171945701358,
                    "y": 451.764705882353
                }
            ]
        }
    ],
    "version": "2.2.0"
}