{
    "asset": {
        "format": "jpg",
        "id": "14839efa9be00df77da59f25dbbe9180",
        "name": "08956-receipt.jpg",
        "path": "file:/home/administrator/ocr/Train-OCR/TrainYourOwnYOLO/Data/receipts_Source_Images/Train_receipt/08956-receipt.jpg",
        "size": {
            "width": 239,
            "height": 320
        },
        "state": 2,
        "type": 1
    },
    "regions": [
        {
            "id": "r47ph-k7R",
            "type": "RECTANGLE",
            "tags": [
                "Shop_Name"
            ],
            "boundingBox": {
                "height": 12.307692307692307,
                "width": 30.056060606060605,
                "left": 97.45587121212121,
                "top": 81.08597285067873
            },
            "points": [
                {
                    "x": 97.45587121212121,
                    "y": 81.08597285067873
                },
                {
                    "x": 127.51193181818182,
                    "y": 81.08597285067873
                },
                {
                    "x": 127.51193181818182,
                    "y": 93.39366515837104
                },
                {
                    "x": 97.45587121212121,
                    "y": 93.39366515837104
                }
            ]
        },
        {
            "id": "UThRUGD8c",
            "type": "RECTANGLE",
            "tags": [
                "Content_Items"
            ],
            "boundingBox": {
                "height": 22.081447963800905,
                "width": 184.6818181818182,
                "left": 18.87556818181818,
                "top": 151.67420814479638
            },
            "points": [
                {
                    "x": 18.87556818181818,
                    "y": 151.67420814479638
                },
                {
                    "x": 203.55738636363637,
                    "y": 151.67420814479638
                },
                {
                    "x": 203.55738636363637,
                    "y": 173.7556561085973
                },
                {
                    "x": 18.87556818181818,
                    "y": 173.7556561085973
                }
            ]
        },
        {
            "id": "V1MKi-uBF",
            "type": "RECTANGLE",
            "tags": [
                "tax"
            ],
            "boundingBox": {
                "height": 9.049773755656108,
                "width": 19.554545454545455,
                "left": 57.62253787878788,
                "top": 191.49321266968326
            },
            "points": [
                {
                    "x": 57.62253787878788,
                    "y": 191.49321266968326
                },
                {
                    "x": 77.17708333333333,
                    "y": 191.49321266968326
                },
                {
                    "x": 77.17708333333333,
                    "y": 200.54298642533936
                },
                {
                    "x": 57.62253787878788,
                    "y": 200.54298642533936
                }
            ]
        },
        {
            "id": "C2876QLkw",
            "type": "RECTANGLE",
            "tags": [
                "tax"
            ],
            "boundingBox": {
                "height": 10.497737556561086,
                "width": 26.434848484848484,
                "left": 172.05284090909092,
                "top": 187.14932126696831
            },
            "points": [
                {
                    "x": 172.05284090909092,
                    "y": 187.14932126696831
                },
                {
                    "x": 198.4876893939394,
                    "y": 187.14932126696831
                },
                {
                    "x": 198.4876893939394,
                    "y": 197.64705882352942
                },
                {
                    "x": 172.05284090909092,
                    "y": 197.64705882352942
                }
            ]
        },
        {
            "id": "2u0OGGv2w",
            "type": "RECTANGLE",
            "tags": [
                "tax"
            ],
            "boundingBox": {
                "height": 19.547511312217193,
                "width": 43.092424242424244,
                "left": 145.2558712121212,
                "top": 235.2941176470588
            },
            "points": [
                {
                    "x": 145.2558712121212,
                    "y": 235.2941176470588
                },
                {
                    "x": 188.34829545454545,
                    "y": 235.2941176470588
                },
                {
                    "x": 188.34829545454545,
                    "y": 254.84162895927602
                },
                {
                    "x": 145.2558712121212,
                    "y": 254.84162895927602
                }
            ]
        },
        {
            "id": "JyfVRlbrb",
            "type": "RECTANGLE",
            "tags": [
                "tax"
            ],
            "boundingBox": {
                "height": 11.945701357466064,
                "width": 52.50757575757576,
                "left": 13.805871212121213,
                "top": 245.42986425339365
            },
            "points": [
                {
                    "x": 13.805871212121213,
                    "y": 245.42986425339365
                },
                {
                    "x": 66.31344696969697,
                    "y": 245.42986425339365
                },
                {
                    "x": 66.31344696969697,
                    "y": 257.3755656108597
                },
                {
                    "x": 13.805871212121213,
                    "y": 257.3755656108597
                }
            ]
        },
        {
            "id": "mNizI_6oj",
            "type": "RECTANGLE",
            "tags": [
                "amount_details"
            ],
            "boundingBox": {
                "height": 24.615384615384613,
                "width": 65.5439393939394,
                "left": 128.59829545454545,
                "top": 254.11764705882354
            },
            "points": [
                {
                    "x": 128.59829545454545,
                    "y": 254.11764705882354
                },
                {
                    "x": 194.14223484848486,
                    "y": 254.11764705882354
                },
                {
                    "x": 194.14223484848486,
                    "y": 278.7330316742081
                },
                {
                    "x": 128.59829545454545,
                    "y": 278.7330316742081
                }
            ]
        }
    ],
    "version": "2.2.0"
}