{
    "asset": {
        "format": "jpg",
        "id": "15693e6263130f28d21b5c80e177d10c",
        "name": "PHOTO-2020-06-12-07-04-06(1).jpg",
        "path": "file:/home/administrator/ocr/Train-OCR/TrainYourOwnYOLO/Data/receipts_Source_Images/Train_receipt/PHOTO-2020-06-12-07-04-06(1).jpg",
        "size": {
            "width": 648,
            "height": 1152
        },
        "state": 2,
        "type": 1
    },
    "regions": [
        {
            "id": "ru-u-XmeS",
            "type": "RECTANGLE",
            "tags": [
                "Shop_Name"
            ],
            "boundingBox": {
                "height": 29.97285067873303,
                "width": 402.88128772635815,
                "left": 54.92354124748491,
                "top": 58.64253393665159
            },
            "points": [
                {
                    "x": 54.92354124748491,
                    "y": 58.64253393665159
                },
                {
                    "x": 457.8048289738431,
                    "y": 58.64253393665159
                },
                {
                    "x": 457.8048289738431,
                    "y": 88.61538461538461
                },
                {
                    "x": 54.92354124748491,
                    "y": 88.61538461538461
                }
            ]
        },
        {
            "id": "mTXnzrd8Q",
            "type": "RECTANGLE",
            "tags": [
                "Shop_Address"
            ],
            "boundingBox": {
                "height": 29.97285067873303,
                "width": 421.1348088531187,
                "left": 58.83501006036218,
                "top": 91.22171945701358
            },
            "points": [
                {
                    "x": 58.83501006036218,
                    "y": 91.22171945701358
                },
                {
                    "x": 479.96981891348094,
                    "y": 91.22171945701358
                },
                {
                    "x": 479.96981891348094,
                    "y": 121.19457013574662
                },
                {
                    "x": 58.83501006036218,
                    "y": 121.19457013574662
                }
            ]
        },
        {
            "id": "j4TqJgDLf",
            "type": "RECTANGLE",
            "tags": [
                "Mobile_no"
            ],
            "boundingBox": {
                "height": 37.79185520361991,
                "width": 172.1046277665996,
                "left": 105.77263581488934,
                "top": 122.49773755656109
            },
            "points": [
                {
                    "x": 105.77263581488934,
                    "y": 122.49773755656109
                },
                {
                    "x": 277.87726358148893,
                    "y": 122.49773755656109
                },
                {
                    "x": 277.87726358148893,
                    "y": 160.289592760181
                },
                {
                    "x": 105.77263581488934,
                    "y": 160.289592760181
                }
            ]
        },
        {
            "id": "zUAEvuXk8",
            "type": "RECTANGLE",
            "tags": [
                "Content_Items"
            ],
            "boundingBox": {
                "height": 82.09954751131222,
                "width": 457.6418511066399,
                "left": 56.227364185110666,
                "top": 576
            },
            "points": [
                {
                    "x": 56.227364185110666,
                    "y": 576
                },
                {
                    "x": 513.8692152917505,
                    "y": 576
                },
                {
                    "x": 513.8692152917505,
                    "y": 658.0995475113123
                },
                {
                    "x": 56.227364185110666,
                    "y": 658.0995475113123
                }
            ]
        },
        {
            "id": "xy81_N1QY",
            "type": "RECTANGLE",
            "tags": [
                "tax"
            ],
            "boundingBox": {
                "height": 108.16289592760181,
                "width": 444.6036217303823,
                "left": 62.74647887323944,
                "top": 768.868778280543
            },
            "points": [
                {
                    "x": 62.74647887323944,
                    "y": 768.868778280543
                },
                {
                    "x": 507.3501006036218,
                    "y": 768.868778280543
                },
                {
                    "x": 507.3501006036218,
                    "y": 877.0316742081449
                },
                {
                    "x": 62.74647887323944,
                    "y": 877.0316742081449
                }
            ]
        },
        {
            "id": "2KLmg_Lb1",
            "type": "RECTANGLE",
            "tags": [
                "amount_details"
            ],
            "boundingBox": {
                "height": 29.97285067873303,
                "width": 59.975855130784716,
                "left": 451.28571428571433,
                "top": 955.2217194570136
            },
            "points": [
                {
                    "x": 451.28571428571433,
                    "y": 955.2217194570136
                },
                {
                    "x": 511.261569416499,
                    "y": 955.2217194570136
                },
                {
                    "x": 511.261569416499,
                    "y": 985.1945701357466
                },
                {
                    "x": 451.28571428571433,
                    "y": 985.1945701357466
                }
            ]
        },
        {
            "id": "wbiUtHOhs",
            "type": "RECTANGLE",
            "tags": [
                "Date"
            ],
            "boundingBox": {
                "height": 32.57918552036199,
                "width": 160.3702213279678,
                "left": 148.79879275653926,
                "top": 443.0769230769231
            },
            "points": [
                {
                    "x": 148.79879275653926,
                    "y": 443.0769230769231
                },
                {
                    "x": 309.16901408450707,
                    "y": 443.0769230769231
                },
                {
                    "x": 309.16901408450707,
                    "y": 475.6561085972851
                },
                {
                    "x": 148.79879275653926,
                    "y": 475.6561085972851
                }
            ]
        },
        {
            "id": "BGYSTeJRz",
            "type": "RECTANGLE",
            "tags": [
                "others"
            ],
            "boundingBox": {
                "height": 35.18552036199095,
                "width": 387.2354124748491,
                "left": 159.22937625754528,
                "top": 151.16742081447964
            },
            "points": [
                {
                    "x": 159.22937625754528,
                    "y": 151.16742081447964
                },
                {
                    "x": 546.4647887323944,
                    "y": 151.16742081447964
                },
                {
                    "x": 546.4647887323944,
                    "y": 186.35294117647058
                },
                {
                    "x": 159.22937625754528,
                    "y": 186.35294117647058
                }
            ]
        }
    ],
    "version": "2.2.0"
}