{
    "asset": {
        "format": "jpg",
        "id": "1a1299668a127793b3f11fb62f165f8f",
        "name": "08607-receipt.jpg",
        "path": "file:/home/administrator/ocr/Train-OCR/TrainYourOwnYOLO/Data/receipts_Source_Images/Train_receipt/08607-receipt.jpg",
        "size": {
            "width": 338,
            "height": 450
        },
        "state": 2,
        "type": 1
    },
    "regions": [
        {
            "id": "DzU2SOrnn",
            "type": "RECTANGLE",
            "tags": [
                "Shop_Name"
            ],
            "boundingBox": {
                "height": 27.488687782805428,
                "width": 200.56024096385542,
                "left": 71.519578313253,
                "top": 37.66968325791855
            },
            "points": [
                {
                    "x": 71.519578313253,
                    "y": 37.66968325791855
                },
                {
                    "x": 272.0798192771084,
                    "y": 37.66968325791855
                },
                {
                    "x": 272.0798192771084,
                    "y": 65.15837104072398
                },
                {
                    "x": 71.519578313253,
                    "y": 65.15837104072398
                }
            ]
        },
        {
            "id": "yB1x6uSoq",
            "type": "RECTANGLE",
            "tags": [
                "Shop_Address"
            ],
            "boundingBox": {
                "height": 31.05203619909502,
                "width": 135.91265060240963,
                "left": 104.09789156626506,
                "top": 62.6131221719457
            },
            "points": [
                {
                    "x": 104.09789156626506,
                    "y": 62.6131221719457
                },
                {
                    "x": 240.0105421686747,
                    "y": 62.6131221719457
                },
                {
                    "x": 240.0105421686747,
                    "y": 93.66515837104072
                },
                {
                    "x": 104.09789156626506,
                    "y": 93.66515837104072
                }
            ]
        },
        {
            "id": "I8x8rPwdu",
            "type": "RECTANGLE",
            "tags": [
                "Mobile_no"
            ],
            "boundingBox": {
                "height": 17.307692307692307,
                "width": 102.82530120481928,
                "left": 134.64006024096386,
                "top": 93.66515837104072
            },
            "points": [
                {
                    "x": 134.64006024096386,
                    "y": 93.66515837104072
                },
                {
                    "x": 237.46536144578315,
                    "y": 93.66515837104072
                },
                {
                    "x": 237.46536144578315,
                    "y": 110.97285067873302
                },
                {
                    "x": 134.64006024096386,
                    "y": 110.97285067873302
                }
            ]
        },
        {
            "id": "Dof-GmDfm",
            "type": "RECTANGLE",
            "tags": [
                "Content_Items"
            ],
            "boundingBox": {
                "height": 43.77828054298642,
                "width": 273.3524096385542,
                "left": 12.471385542168674,
                "top": 156.2782805429864
            },
            "points": [
                {
                    "x": 12.471385542168674,
                    "y": 156.2782805429864
                },
                {
                    "x": 285.82379518072287,
                    "y": 156.2782805429864
                },
                {
                    "x": 285.82379518072287,
                    "y": 200.05656108597285
                },
                {
                    "x": 12.471385542168674,
                    "y": 200.05656108597285
                }
            ]
        },
        {
            "id": "EQ_6WMc1T",
            "type": "RECTANGLE",
            "tags": [
                "tax"
            ],
            "boundingBox": {
                "height": 20.361990950226243,
                "width": 35.123493975903614,
                "left": 302.6219879518072,
                "top": 339.5361990950226
            },
            "points": [
                {
                    "x": 302.6219879518072,
                    "y": 339.5361990950226
                },
                {
                    "x": 337.74548192771084,
                    "y": 339.5361990950226
                },
                {
                    "x": 337.74548192771084,
                    "y": 359.89819004524884
                },
                {
                    "x": 302.6219879518072,
                    "y": 359.89819004524884
                }
            ]
        },
        {
            "id": "3Kzn69_tr",
            "type": "RECTANGLE",
            "tags": [
                "amount_details"
            ],
            "boundingBox": {
                "height": 29.015837104072396,
                "width": 44.286144578313255,
                "left": 289.8960843373494,
                "top": 273.868778280543
            },
            "points": [
                {
                    "x": 289.8960843373494,
                    "y": 273.868778280543
                },
                {
                    "x": 334.1822289156627,
                    "y": 273.868778280543
                },
                {
                    "x": 334.1822289156627,
                    "y": 302.88461538461536
                },
                {
                    "x": 289.8960843373494,
                    "y": 302.88461538461536
                }
            ]
        }
    ],
    "version": "2.2.0"
}