{
    "asset": {
        "format": "jpg",
        "id": "1b7598eafe5b4d95f6b134f29f4a2f38",
        "name": "02315-receipt.jpg",
        "path": "file:/home/administrator/ocr/Train-OCR/TrainYourOwnYOLO/Data/receipts_Source_Images/Train_receipt/02315-receipt.jpg",
        "size": {
            "width": 750,
            "height": 1000
        },
        "state": 2,
        "type": 1
    },
    "regions": [
        {
            "id": "cq3QisMRN",
            "type": "RECTANGLE",
            "tags": [
                "Shop_Name"
            ],
            "boundingBox": {
                "height": 54.29864253393665,
                "width": 244.34389140271492,
                "left": 219.45701357466064,
                "top": 106.33484162895927
            },
            "points": [
                {
                    "x": 219.45701357466064,
                    "y": 106.33484162895927
                },
                {
                    "x": 463.8009049773756,
                    "y": 106.33484162895927
                },
                {
                    "x": 463.8009049773756,
                    "y": 160.6334841628959
                },
                {
                    "x": 219.45701357466064,
                    "y": 160.6334841628959
                }
            ]
        },
        {
            "id": "EX83O72AS",
            "type": "RECTANGLE",
            "tags": [
                "Shop_Address"
            ],
            "boundingBox": {
                "height": 38.46153846153846,
                "width": 168.55203619909503,
                "left": 254.52488687782804,
                "top": 156.10859728506787
            },
            "points": [
                {
                    "x": 254.52488687782804,
                    "y": 156.10859728506787
                },
                {
                    "x": 423.0769230769231,
                    "y": 156.10859728506787
                },
                {
                    "x": 423.0769230769231,
                    "y": 194.57013574660633
                },
                {
                    "x": 254.52488687782804,
                    "y": 194.57013574660633
                }
            ]
        },
        {
            "id": "7bOn1TzHG",
            "type": "RECTANGLE",
            "tags": [
                "Mobile_no"
            ],
            "boundingBox": {
                "height": 23.755656108597286,
                "width": 140.27149321266967,
                "left": 270.36199095022624,
                "top": 200.2262443438914
            },
            "points": [
                {
                    "x": 270.36199095022624,
                    "y": 200.2262443438914
                },
                {
                    "x": 410.6334841628959,
                    "y": 200.2262443438914
                },
                {
                    "x": 410.6334841628959,
                    "y": 223.98190045248867
                },
                {
                    "x": 270.36199095022624,
                    "y": 223.98190045248867
                }
            ]
        },
        {
            "id": "lC6G2WLRx",
            "type": "RECTANGLE",
            "tags": [
                "Content_Items"
            ],
            "boundingBox": {
                "height": 367.6470588235294,
                "width": 393.6651583710407,
                "left": 157.2398190045249,
                "top": 345.0226244343891
            },
            "points": [
                {
                    "x": 157.2398190045249,
                    "y": 345.0226244343891
                },
                {
                    "x": 550.9049773755656,
                    "y": 345.0226244343891
                },
                {
                    "x": 550.9049773755656,
                    "y": 712.6696832579186
                },
                {
                    "x": 157.2398190045249,
                    "y": 712.6696832579186
                }
            ]
        },
        {
            "id": "NN922BPf-",
            "type": "RECTANGLE",
            "tags": [
                "amount_details"
            ],
            "boundingBox": {
                "height": 45.24886877828054,
                "width": 72.39819004524887,
                "left": 490.95022624434387,
                "top": 822.3981900452488
            },
            "points": [
                {
                    "x": 490.95022624434387,
                    "y": 822.3981900452488
                },
                {
                    "x": 563.3484162895927,
                    "y": 822.3981900452488
                },
                {
                    "x": 563.3484162895927,
                    "y": 867.6470588235294
                },
                {
                    "x": 490.95022624434387,
                    "y": 867.6470588235294
                }
            ]
        }
    ],
    "version": "2.2.0"
}