{
    "asset": {
        "format": "jpg",
        "id": "1c26997cffc91c4b1cd8bf82c7421105",
        "name": "08722-receipt.jpg",
        "path": "file:/home/administrator/ocr/Train-OCR/TrainYourOwnYOLO/Data/receipts_Source_Images/Train_receipt/08722-receipt.jpg",
        "size": {
            "width": 338,
            "height": 450
        },
        "state": 2,
        "type": 1
    },
    "regions": [
        {
            "id": "bbi-z0HtP",
            "type": "RECTANGLE",
            "tags": [
                "Shop_Name"
            ],
            "boundingBox": {
                "height": 21.88914027149321,
                "width": 67.70180722891567,
                "left": 138.71234939759037,
                "top": 37.66968325791855
            },
            "points": [
                {
                    "x": 138.71234939759037,
                    "y": 37.66968325791855
                },
                {
                    "x": 206.414156626506,
                    "y": 37.66968325791855
                },
                {
                    "x": 206.414156626506,
                    "y": 59.55882352941176
                },
                {
                    "x": 138.71234939759037,
                    "y": 59.55882352941176
                }
            ]
        },
        {
            "id": "pB2FFHQkC",
            "type": "RECTANGLE",
            "tags": [
                "amount_details"
            ],
            "boundingBox": {
                "height": 30.542986425339365,
                "width": 52.93975903614458,
                "left": 201.8328313253012,
                "top": 203.11085972850677
            },
            "points": [
                {
                    "x": 201.8328313253012,
                    "y": 203.11085972850677
                },
                {
                    "x": 254.7725903614458,
                    "y": 203.11085972850677
                },
                {
                    "x": 254.7725903614458,
                    "y": 233.65384615384613
                },
                {
                    "x": 201.8328313253012,
                    "y": 233.65384615384613
                }
            ]
        },
        {
            "id": "-G4biujK9",
            "type": "RECTANGLE",
            "tags": [
                "tax"
            ],
            "boundingBox": {
                "height": 60.06787330316742,
                "width": 23.41566265060241,
                "left": 229.82981927710844,
                "top": 248.92533936651583
            },
            "points": [
                {
                    "x": 229.82981927710844,
                    "y": 248.92533936651583
                },
                {
                    "x": 253.24548192771084,
                    "y": 248.92533936651583
                },
                {
                    "x": 253.24548192771084,
                    "y": 308.99321266968326
                },
                {
                    "x": 229.82981927710844,
                    "y": 308.99321266968326
                }
            ]
        },
        {
            "id": "tjFOOYdaQ",
            "type": "RECTANGLE",
            "tags": [
                "tax"
            ],
            "boundingBox": {
                "height": 78.90271493212668,
                "width": 53.95783132530121,
                "left": 34.868975903614455,
                "top": 216.8552036199095
            },
            "points": [
                {
                    "x": 34.868975903614455,
                    "y": 216.8552036199095
                },
                {
                    "x": 88.82680722891567,
                    "y": 216.8552036199095
                },
                {
                    "x": 88.82680722891567,
                    "y": 295.7579185520362
                },
                {
                    "x": 34.868975903614455,
                    "y": 295.7579185520362
                }
            ]
        },
        {
            "id": "RV1riL7rg",
            "type": "RECTANGLE",
            "tags": [
                "Date"
            ],
            "boundingBox": {
                "height": 18.834841628959275,
                "width": 50.394578313253014,
                "left": 97.9894578313253,
                "top": 106.39140271493213
            },
            "points": [
                {
                    "x": 97.9894578313253,
                    "y": 106.39140271493213
                },
                {
                    "x": 148.38403614457832,
                    "y": 106.39140271493213
                },
                {
                    "x": 148.38403614457832,
                    "y": 125.2262443438914
                },
                {
                    "x": 97.9894578313253,
                    "y": 125.2262443438914
                }
            ]
        },
        {
            "id": "XLbZB6L5Y",
            "type": "POLYGON",
            "tags": [
                "Mobile_no"
            ],
            "boundingBox": {
                "height": 19.852941176470587,
                "width": 71.77409638554217,
                "left": 144.3117469879518,
                "top": 93.66515837104072
            },
            "points": [
                {
                    "x": 147.36596385542168,
                    "y": 93.66515837104072
                },
                {
                    "x": 216.085843373494,
                    "y": 103.33710407239818
                },
                {
                    "x": 214.55873493975903,
                    "y": 113.5180995475113
                },
                {
                    "x": 144.3117469879518,
                    "y": 104.3552036199095
                }
            ]
        },
        {
            "id": "O6uaZQfNX",
            "type": "POLYGON",
            "tags": [
                "Shop_Address"
            ],
            "boundingBox": {
                "height": 36.65158371040724,
                "width": 83.99096385542168,
                "left": 128.5316265060241,
                "top": 63.12217194570135
            },
            "points": [
                {
                    "x": 133.62198795180723,
                    "y": 63.12217194570135
                },
                {
                    "x": 212.5225903614458,
                    "y": 65.66742081447964
                },
                {
                    "x": 209.46837349397592,
                    "y": 99.77375565610859
                },
                {
                    "x": 128.5316265060241,
                    "y": 89.0837104072398
                }
            ]
        }
    ],
    "version": "2.2.0"
}