{
    "asset": {
        "format": "jpg",
        "id": "21138f28b8a070c4364b5f5f95efe631",
        "name": "02465-receipt.jpg",
        "path": "file:/home/administrator/ocr/Train-OCR/TrainYourOwnYOLO/Data/receipts_Source_Images/Train_receipt/02465-receipt.jpg",
        "size": {
            "width": 338,
            "height": 450
        },
        "state": 2,
        "type": 1
    },
    "regions": [
        {
            "id": "llUb4xwFM",
            "type": "RECTANGLE",
            "tags": [
                "Shop_Name"
            ],
            "boundingBox": {
                "height": 24.943438914027148,
                "width": 192.16114457831327,
                "left": 57.01204819277108,
                "top": 43.26923076923077
            },
            "points": [
                {
                    "x": 57.01204819277108,
                    "y": 43.26923076923077
                },
                {
                    "x": 249.17319277108436,
                    "y": 43.26923076923077
                },
                {
                    "x": 249.17319277108436,
                    "y": 68.21266968325791
                },
                {
                    "x": 57.01204819277108,
                    "y": 68.21266968325791
                }
            ]
        },
        {
            "id": "MvQl6C6gI",
            "type": "RECTANGLE",
            "tags": [
                "Shop_Address"
            ],
            "boundingBox": {
                "height": 39.705882352941174,
                "width": 201.06927710843374,
                "left": 51.15813253012048,
                "top": 65.66742081447964
            },
            "points": [
                {
                    "x": 51.15813253012048,
                    "y": 65.66742081447964
                },
                {
                    "x": 252.2274096385542,
                    "y": 65.66742081447964
                },
                {
                    "x": 252.2274096385542,
                    "y": 105.3733031674208
                },
                {
                    "x": 51.15813253012048,
                    "y": 105.3733031674208
                }
            ]
        },
        {
            "id": "6e5iM8ouu",
            "type": "RECTANGLE",
            "tags": [
                "Mobile_no"
            ],
            "boundingBox": {
                "height": 12.726244343891402,
                "width": 67.19277108433735,
                "left": 137.69427710843374,
                "top": 105.3733031674208
            },
            "points": [
                {
                    "x": 137.69427710843374,
                    "y": 105.3733031674208
                },
                {
                    "x": 204.8870481927711,
                    "y": 105.3733031674208
                },
                {
                    "x": 204.8870481927711,
                    "y": 118.09954751131221
                },
                {
                    "x": 137.69427710843374,
                    "y": 118.09954751131221
                }
            ]
        },
        {
            "id": "VS-naa8TD",
            "type": "RECTANGLE",
            "tags": [
                "Content_Items"
            ],
            "boundingBox": {
                "height": 87.04751131221718,
                "width": 191.9066265060241,
                "left": 82.20933734939759,
                "top": 238.23529411764704
            },
            "points": [
                {
                    "x": 82.20933734939759,
                    "y": 238.23529411764704
                },
                {
                    "x": 274.1159638554217,
                    "y": 238.23529411764704
                },
                {
                    "x": 274.1159638554217,
                    "y": 325.28280542986425
                },
                {
                    "x": 82.20933734939759,
                    "y": 325.28280542986425
                }
            ]
        },
        {
            "id": "sy3kzVxqy",
            "type": "RECTANGLE",
            "tags": [
                "amount_details"
            ],
            "boundingBox": {
                "height": 18.834841628959275,
                "width": 70.75602409638554,
                "left": 200.81475903614458,
                "top": 370.5882352941176
            },
            "points": [
                {
                    "x": 200.81475903614458,
                    "y": 370.5882352941176
                },
                {
                    "x": 271.5707831325301,
                    "y": 370.5882352941176
                },
                {
                    "x": 271.5707831325301,
                    "y": 389.4230769230769
                },
                {
                    "x": 200.81475903614458,
                    "y": 389.4230769230769
                }
            ]
        }
    ],
    "version": "2.2.0"
}