{
    "asset": {
        "format": "jpg",
        "id": "21d149147ab6c589e6fd4b4ab807cc44",
        "name": "08760-receipt.jpg",
        "path": "file:/home/administrator/ocr/Train-OCR/TrainYourOwnYOLO/Data/receipts_Source_Images/Train_receipt/08760-receipt.jpg",
        "size": {
            "width": 300,
            "height": 1010
        },
        "state": 2,
        "type": 1
    },
    "regions": [
        {
            "id": "huirecOl9",
            "type": "RECTANGLE",
            "tags": [
                "Shop_Name"
            ],
            "boundingBox": {
                "height": 30.84841628959276,
                "width": 181.36882129277566,
                "left": 68.77970532319391,
                "top": 4.570135746606335
            },
            "points": [
                {
                    "x": 68.77970532319391,
                    "y": 4.570135746606335
                },
                {
                    "x": 250.1485266159696,
                    "y": 4.570135746606335
                },
                {
                    "x": 250.1485266159696,
                    "y": 35.418552036199095
                },
                {
                    "x": 68.77970532319391,
                    "y": 35.418552036199095
                }
            ]
        },
        {
            "id": "OrRmRh_yM",
            "type": "RECTANGLE",
            "tags": [
                "Shop_Address"
            ],
            "boundingBox": {
                "height": 49.128959276018094,
                "width": 236.12167300380227,
                "left": 29.99643536121673,
                "top": 57.126696832579185
            },
            "points": [
                {
                    "x": 29.99643536121673,
                    "y": 57.126696832579185
                },
                {
                    "x": 266.118108365019,
                    "y": 57.126696832579185
                },
                {
                    "x": 266.118108365019,
                    "y": 106.25565610859728
                },
                {
                    "x": 29.99643536121673,
                    "y": 106.25565610859728
                }
            ]
        },
        {
            "id": "gWJmhe6Is",
            "type": "RECTANGLE",
            "tags": [
                "Content_Items"
            ],
            "boundingBox": {
                "height": 241.07466063348414,
                "width": 265.7794676806084,
                "left": 20.870960076045627,
                "top": 251.3574660633484
            },
            "points": [
                {
                    "x": 20.870960076045627,
                    "y": 251.3574660633484
                },
                {
                    "x": 286.650427756654,
                    "y": 251.3574660633484
                },
                {
                    "x": 286.650427756654,
                    "y": 492.43212669683254
                },
                {
                    "x": 20.870960076045627,
                    "y": 492.43212669683254
                }
            ]
        },
        {
            "id": "rs--d4HhL",
            "type": "RECTANGLE",
            "tags": [
                "amount_details"
            ],
            "boundingBox": {
                "height": 26.278280542986423,
                "width": 52.47148288973384,
                "left": 228.4755228136882,
                "top": 501.57239819004525
            },
            "points": [
                {
                    "x": 228.4755228136882,
                    "y": 501.57239819004525
                },
                {
                    "x": 280.94700570342206,
                    "y": 501.57239819004525
                },
                {
                    "x": 280.94700570342206,
                    "y": 527.8506787330316
                },
                {
                    "x": 228.4755228136882,
                    "y": 527.8506787330316
                }
            ]
        },
        {
            "id": "4ZGLleSaS",
            "type": "RECTANGLE",
            "tags": [
                "tax"
            ],
            "boundingBox": {
                "height": 12.56787330316742,
                "width": 41.06463878326996,
                "left": 239.8823669201521,
                "top": 584.9773755656108
            },
            "points": [
                {
                    "x": 239.8823669201521,
                    "y": 584.9773755656108
                },
                {
                    "x": 280.94700570342206,
                    "y": 584.9773755656108
                },
                {
                    "x": 280.94700570342206,
                    "y": 597.5452488687782
                },
                {
                    "x": 239.8823669201521,
                    "y": 597.5452488687782
                }
            ]
        },
        {
            "id": "Cfhzox-zX",
            "type": "RECTANGLE",
            "tags": [
                "tax"
            ],
            "boundingBox": {
                "height": 15.995475113122172,
                "width": 74.1444866920152,
                "left": 19.73027566539924,
                "top": 581.5497737556561
            },
            "points": [
                {
                    "x": 19.73027566539924,
                    "y": 581.5497737556561
                },
                {
                    "x": 93.87476235741445,
                    "y": 581.5497737556561
                },
                {
                    "x": 93.87476235741445,
                    "y": 597.5452488687782
                },
                {
                    "x": 19.73027566539924,
                    "y": 597.5452488687782
                }
            ]
        }
    ],
    "version": "2.2.0"
}