{
    "asset": {
        "format": "jpg",
        "id": "2295493ad96e624cec585ff98c4b566d",
        "name": "08832-receipt.jpg",
        "path": "file:/home/administrator/ocr/Train-OCR/TrainYourOwnYOLO/Data/receipts_Source_Images/Train_receipt/08832-receipt.jpg",
        "size": {
            "width": 253,
            "height": 450
        },
        "state": 2,
        "type": 1
    },
    "regions": [
        {
            "id": "ESPBhCbXb",
            "type": "RECTANGLE",
            "tags": [
                "Shop_Logo"
            ],
            "boundingBox": {
                "height": 47.85067873303167,
                "width": 129.80885311871228,
                "left": 55.24034834004024,
                "top": 25.96153846153846
            },
            "points": [
                {
                    "x": 55.24034834004024,
                    "y": 25.96153846153846
                },
                {
                    "x": 185.04920145875252,
                    "y": 25.96153846153846
                },
                {
                    "x": 185.04920145875252,
                    "y": 73.81221719457014
                },
                {
                    "x": 55.24034834004024,
                    "y": 73.81221719457014
                }
            ]
        },
        {
            "id": "tpH2b8BEG",
            "type": "RECTANGLE",
            "tags": [
                "Shop_Address"
            ],
            "boundingBox": {
                "height": 29.524886877828052,
                "width": 102.82897384305835,
                "left": 68.47576081488934,
                "top": 77.37556561085972
            },
            "points": [
                {
                    "x": 68.47576081488934,
                    "y": 77.37556561085972
                },
                {
                    "x": 171.30473465794768,
                    "y": 77.37556561085972
                },
                {
                    "x": 171.30473465794768,
                    "y": 106.90045248868778
                },
                {
                    "x": 68.47576081488934,
                    "y": 106.90045248868778
                }
            ]
        },
        {
            "id": "LSo6SZ_d0",
            "type": "RECTANGLE",
            "tags": [
                "Content_Items"
            ],
            "boundingBox": {
                "height": 56.504524886877824,
                "width": 228.56539235412475,
                "left": 11.970730633802818,
                "top": 212.2737556561086
            },
            "points": [
                {
                    "x": 11.970730633802818,
                    "y": 212.2737556561086
                },
                {
                    "x": 240.53612298792757,
                    "y": 212.2737556561086
                },
                {
                    "x": 240.53612298792757,
                    "y": 268.7782805429864
                },
                {
                    "x": 11.970730633802818,
                    "y": 268.7782805429864
                }
            ]
        },
        {
            "id": "ol_K2V3rO",
            "type": "RECTANGLE",
            "tags": [
                "amount_details"
            ],
            "boundingBox": {
                "height": 20.361990950226243,
                "width": 85.52112676056338,
                "left": 128.544171277666,
                "top": 273.3597285067873
            },
            "points": [
                {
                    "x": 128.544171277666,
                    "y": 273.3597285067873
                },
                {
                    "x": 214.06529803822937,
                    "y": 273.3597285067873
                },
                {
                    "x": 214.06529803822937,
                    "y": 293.72171945701353
                },
                {
                    "x": 128.544171277666,
                    "y": 293.72171945701353
                }
            ]
        },
        {
            "id": "-4DLNBKDl",
            "type": "RECTANGLE",
            "tags": [
                "tax"
            ],
            "boundingBox": {
                "height": 22.398190045248867,
                "width": 92.13883299798793,
                "left": 39.459664235412475,
                "top": 295.24886877828055
            },
            "points": [
                {
                    "x": 39.459664235412475,
                    "y": 295.24886877828055
                },
                {
                    "x": 131.5984972334004,
                    "y": 295.24886877828055
                },
                {
                    "x": 131.5984972334004,
                    "y": 317.6470588235294
                },
                {
                    "x": 39.459664235412475,
                    "y": 317.6470588235294
                }
            ]
        },
        {
            "id": "7qo3Zt7q4",
            "type": "RECTANGLE",
            "tags": [
                "tax"
            ],
            "boundingBox": {
                "height": 24.43438914027149,
                "width": 48.36016096579477,
                "left": 140.76147510060363,
                "top": 290.158371040724
            },
            "points": [
                {
                    "x": 140.76147510060363,
                    "y": 290.158371040724
                },
                {
                    "x": 189.1216360663984,
                    "y": 290.158371040724
                },
                {
                    "x": 189.1216360663984,
                    "y": 314.59276018099547
                },
                {
                    "x": 140.76147510060363,
                    "y": 314.59276018099547
                }
            ]
        }
    ],
    "version": "2.2.0"
}