{
    "asset": {
        "format": "jpg",
        "id": "22c3a799d1bfb78d4e967144a33a73a4",
        "name": "PHOTO-2020-06-24-08-39-56.jpg",
        "path": "file:/home/administrator/ocr/Train-OCR/TrainYourOwnYOLO/Data/receipts_Source_Images/Train_receipt/PHOTO-2020-06-24-08-39-56.jpg",
        "size": {
            "width": 485,
            "height": 1024
        },
        "state": 2,
        "type": 1
    },
    "regions": [
        {
            "id": "3sgO0v-Nk",
            "type": "RECTANGLE",
            "tags": [
                "Shop_Name"
            ],
            "boundingBox": {
                "height": 19.692307692307693,
                "width": 93.75894988066825,
                "left": 144.5269615155131,
                "top": 296.5429864253394
            },
            "points": [
                {
                    "x": 144.5269615155131,
                    "y": 296.5429864253394
                },
                {
                    "x": 238.28591139618138,
                    "y": 296.5429864253394
                },
                {
                    "x": 238.28591139618138,
                    "y": 316.2352941176471
                },
                {
                    "x": 144.5269615155131,
                    "y": 316.2352941176471
                }
            ]
        },
        {
            "id": "d0bOVQe7T",
            "type": "RECTANGLE",
            "tags": [
                "Shop_Address"
            ],
            "boundingBox": {
                "height": 69.50226244343892,
                "width": 303.2696897374702,
                "left": 54.240565334128874,
                "top": 323.185520361991
            },
            "points": [
                {
                    "x": 54.240565334128874,
                    "y": 323.185520361991
                },
                {
                    "x": 357.51025507159903,
                    "y": 323.185520361991
                },
                {
                    "x": 357.51025507159903,
                    "y": 392.6877828054299
                },
                {
                    "x": 54.240565334128874,
                    "y": 392.6877828054299
                }
            ]
        },
        {
            "id": "NG6YLFA--",
            "type": "RECTANGLE",
            "tags": [
                "Mobile_no"
            ],
            "boundingBox": {
                "height": 25.484162895927604,
                "width": 113.43675417661098,
                "left": 165.36228371121717,
                "top": 392.6877828054299
            },
            "points": [
                {
                    "x": 165.36228371121717,
                    "y": 392.6877828054299
                },
                {
                    "x": 278.79903788782815,
                    "y": 392.6877828054299
                },
                {
                    "x": 278.79903788782815,
                    "y": 418.1719457013575
                },
                {
                    "x": 165.36228371121717,
                    "y": 418.1719457013575
                }
            ]
        },
        {
            "id": "ZeqggwNDL",
            "type": "RECTANGLE",
            "tags": [
                "Content_Items"
            ],
            "boundingBox": {
                "height": 53.28506787330317,
                "width": 253.49642004773267,
                "left": 100.54128132458233,
                "top": 554.8597285067874
            },
            "points": [
                {
                    "x": 100.54128132458233,
                    "y": 554.8597285067874
                },
                {
                    "x": 354.03770137231504,
                    "y": 554.8597285067874
                },
                {
                    "x": 354.03770137231504,
                    "y": 608.1447963800905
                },
                {
                    "x": 100.54128132458233,
                    "y": 608.1447963800905
                }
            ]
        },
        {
            "id": "16wJth8wy",
            "type": "RECTANGLE",
            "tags": [
                "amount_details"
            ],
            "boundingBox": {
                "height": 24.325791855203622,
                "width": 52.088305489260144,
                "left": 298.4768421837709,
                "top": 622.0452488687783
            },
            "points": [
                {
                    "x": 298.4768421837709,
                    "y": 622.0452488687783
                },
                {
                    "x": 350.565147673031,
                    "y": 622.0452488687783
                },
                {
                    "x": 350.565147673031,
                    "y": 646.371040723982
                },
                {
                    "x": 298.4768421837709,
                    "y": 646.371040723982
                }
            ]
        },
        {
            "id": "B4O-MX-s6",
            "type": "RECTANGLE",
            "tags": [
                "tax"
            ],
            "boundingBox": {
                "height": 37.067873303167424,
                "width": 246.55131264916466,
                "left": 112.11646032219569,
                "top": 641.7375565610861
            },
            "points": [
                {
                    "x": 112.11646032219569,
                    "y": 641.7375565610861
                },
                {
                    "x": 358.66777297136036,
                    "y": 641.7375565610861
                },
                {
                    "x": 358.66777297136036,
                    "y": 678.8054298642535
                },
                {
                    "x": 112.11646032219569,
                    "y": 678.8054298642535
                }
            ]
        }
    ],
    "version": "2.2.0"
}