{
    "asset": {
        "format": "jpg",
        "id": "23052c0d5fe80c3509517e6cce5fe324",
        "name": "09888-receipt.jpg",
        "path": "file:/home/administrator/ocr/Train-OCR/TrainYourOwnYOLO/Data/receipts_Source_Images/Train_receipt/09888-receipt.jpg",
        "size": {
            "width": 338,
            "height": 450
        },
        "state": 2,
        "type": 1
    },
    "regions": [
        {
            "id": "KIJ6KZycM",
            "type": "RECTANGLE",
            "tags": [
                "Shop_Name"
            ],
            "boundingBox": {
                "height": 54.97737556561084,
                "width": 210.23192771084337,
                "left": 67.19277108433735,
                "top": 30.54298642533936
            },
            "points": [
                {
                    "x": 67.19277108433735,
                    "y": 30.54298642533936
                },
                {
                    "x": 277.42469879518075,
                    "y": 30.54298642533936
                },
                {
                    "x": 277.42469879518075,
                    "y": 85.5203619909502
                },
                {
                    "x": 67.19277108433735,
                    "y": 85.5203619909502
                }
            ]
        },
        {
            "id": "hKc1CGZmR",
            "type": "RECTANGLE",
            "tags": [
                "Shop_Address"
            ],
            "boundingBox": {
                "height": 21.88914027149321,
                "width": 99.26204819277109,
                "left": 120.13253012048193,
                "top": 91.6289592760181
            },
            "points": [
                {
                    "x": 120.13253012048193,
                    "y": 91.6289592760181
                },
                {
                    "x": 219.39457831325302,
                    "y": 91.6289592760181
                },
                {
                    "x": 219.39457831325302,
                    "y": 113.5180995475113
                },
                {
                    "x": 120.13253012048193,
                    "y": 113.5180995475113
                }
            ]
        },
        {
            "id": "qmLQmSRpZ",
            "type": "RECTANGLE",
            "tags": [
                "Mobile_no"
            ],
            "boundingBox": {
                "height": 15.780542986425338,
                "width": 97.73493975903614,
                "left": 146.6024096385542,
                "top": 116.57239819004525
            },
            "points": [
                {
                    "x": 146.6024096385542,
                    "y": 116.57239819004525
                },
                {
                    "x": 244.33734939759037,
                    "y": 116.57239819004525
                },
                {
                    "x": 244.33734939759037,
                    "y": 132.35294117647058
                },
                {
                    "x": 146.6024096385542,
                    "y": 132.35294117647058
                }
            ]
        },
        {
            "id": "fNGWQ_NA5",
            "type": "RECTANGLE",
            "tags": [
                "Date"
            ],
            "boundingBox": {
                "height": 17.307692307692307,
                "width": 65.66566265060241,
                "left": 221.43072289156626,
                "top": 141.51583710407238
            },
            "points": [
                {
                    "x": 221.43072289156626,
                    "y": 141.51583710407238
                },
                {
                    "x": 287.09638554216866,
                    "y": 141.51583710407238
                },
                {
                    "x": 287.09638554216866,
                    "y": 158.8235294117647
                },
                {
                    "x": 221.43072289156626,
                    "y": 158.8235294117647
                }
            ]
        },
        {
            "id": "FDZRnzoIa",
            "type": "RECTANGLE",
            "tags": [
                "Content_Items"
            ],
            "boundingBox": {
                "height": 86.02941176470588,
                "width": 251.97289156626505,
                "left": 54.46686746987952,
                "top": 188.8574660633484
            },
            "points": [
                {
                    "x": 54.46686746987952,
                    "y": 188.8574660633484
                },
                {
                    "x": 306.43975903614455,
                    "y": 188.8574660633484
                },
                {
                    "x": 306.43975903614455,
                    "y": 274.88687782805425
                },
                {
                    "x": 54.46686746987952,
                    "y": 274.88687782805425
                }
            ]
        },
        {
            "id": "YDlUJTRny",
            "type": "RECTANGLE",
            "tags": [
                "amount_details"
            ],
            "boundingBox": {
                "height": 28.50678733031674,
                "width": 85.51807228915662,
                "left": 210.74096385542168,
                "top": 330.3733031674208
            },
            "points": [
                {
                    "x": 210.74096385542168,
                    "y": 330.3733031674208
                },
                {
                    "x": 296.2590361445783,
                    "y": 330.3733031674208
                },
                {
                    "x": 296.2590361445783,
                    "y": 358.8800904977375
                },
                {
                    "x": 210.74096385542168,
                    "y": 358.8800904977375
                }
            ]
        },
        {
            "id": "FYhDC9pJr",
            "type": "RECTANGLE",
            "tags": [
                "tax"
            ],
            "boundingBox": {
                "height": 38.178733031674206,
                "width": 80.42771084337349,
                "left": 40.72289156626506,
                "top": 383.314479638009
            },
            "points": [
                {
                    "x": 40.72289156626506,
                    "y": 383.314479638009
                },
                {
                    "x": 121.15060240963855,
                    "y": 383.314479638009
                },
                {
                    "x": 121.15060240963855,
                    "y": 421.4932126696832
                },
                {
                    "x": 40.72289156626506,
                    "y": 421.4932126696832
                }
            ]
        },
        {
            "id": "UBEZQ_axv",
            "type": "RECTANGLE",
            "tags": [
                "tax"
            ],
            "boundingBox": {
                "height": 35.633484162895925,
                "width": 45.30421686746988,
                "left": 202.59638554216866,
                "top": 380.2601809954751
            },
            "points": [
                {
                    "x": 202.59638554216866,
                    "y": 380.2601809954751
                },
                {
                    "x": 247.90060240963857,
                    "y": 380.2601809954751
                },
                {
                    "x": 247.90060240963857,
                    "y": 415.893665158371
                },
                {
                    "x": 202.59638554216866,
                    "y": 415.893665158371
                }
            ]
        }
    ],
    "version": "2.2.0"
}