{
    "asset": {
        "format": "jpg",
        "id": "2440a50e9041e91d3b9d1d016ade700c",
        "name": "08902-receipt.jpg",
        "path": "file:/home/administrator/ocr/Train-OCR/TrainYourOwnYOLO/Data/receipts_Source_Images/Train_receipt/08902-receipt.jpg",
        "size": {
            "width": 338,
            "height": 450
        },
        "state": 2,
        "type": 1
    },
    "regions": [
        {
            "id": "nZ9LG0iWO",
            "type": "RECTANGLE",
            "tags": [
                "Shop_Name"
            ],
            "boundingBox": {
                "height": 27.488687782805428,
                "width": 117.07831325301206,
                "left": 103.8433734939759,
                "top": 43.77828054298642
            },
            "points": [
                {
                    "x": 103.8433734939759,
                    "y": 43.77828054298642
                },
                {
                    "x": 220.92168674698794,
                    "y": 43.77828054298642
                },
                {
                    "x": 220.92168674698794,
                    "y": 71.26696832579185
                },
                {
                    "x": 103.8433734939759,
                    "y": 71.26696832579185
                }
            ]
        },
        {
            "id": "aCrN2erQ4",
            "type": "RECTANGLE",
            "tags": [
                "Shop_Address"
            ],
            "boundingBox": {
                "height": 24.43438914027149,
                "width": 101.80722891566265,
                "left": 110.96987951807229,
                "top": 74.32126696832579
            },
            "points": [
                {
                    "x": 110.96987951807229,
                    "y": 74.32126696832579
                },
                {
                    "x": 212.77710843373495,
                    "y": 74.32126696832579
                },
                {
                    "x": 212.77710843373495,
                    "y": 98.75565610859728
                },
                {
                    "x": 110.96987951807229,
                    "y": 98.75565610859728
                }
            ]
        },
        {
            "id": "T1EGeQGS4",
            "type": "RECTANGLE",
            "tags": [
                "Date"
            ],
            "boundingBox": {
                "height": 10.690045248868778,
                "width": 66.17469879518072,
                "left": 140.49397590361446,
                "top": 103.33710407239818
            },
            "points": [
                {
                    "x": 140.49397590361446,
                    "y": 103.33710407239818
                },
                {
                    "x": 206.66867469879517,
                    "y": 103.33710407239818
                },
                {
                    "x": 206.66867469879517,
                    "y": 114.02714932126696
                },
                {
                    "x": 140.49397590361446,
                    "y": 114.02714932126696
                }
            ]
        },
        {
            "id": "nvruoSQ7s",
            "type": "RECTANGLE",
            "tags": [
                "Date"
            ],
            "boundingBox": {
                "height": 14.762443438914026,
                "width": 61.5933734939759,
                "left": 133.36746987951807,
                "top": 146.0972850678733
            },
            "points": [
                {
                    "x": 133.36746987951807,
                    "y": 146.0972850678733
                },
                {
                    "x": 194.960843373494,
                    "y": 146.0972850678733
                },
                {
                    "x": 194.960843373494,
                    "y": 160.85972850678732
                },
                {
                    "x": 133.36746987951807,
                    "y": 160.85972850678732
                }
            ]
        },
        {
            "id": "-rZOVRo6D",
            "type": "RECTANGLE",
            "tags": [
                "Content_Items"
            ],
            "boundingBox": {
                "height": 107.40950226244343,
                "width": 189.87048192771084,
                "left": 69.2289156626506,
                "top": 186.82126696832577
            },
            "points": [
                {
                    "x": 69.2289156626506,
                    "y": 186.82126696832577
                },
                {
                    "x": 259.09939759036143,
                    "y": 186.82126696832577
                },
                {
                    "x": 259.09939759036143,
                    "y": 294.2307692307692
                },
                {
                    "x": 69.2289156626506,
                    "y": 294.2307692307692
                }
            ]
        },
        {
            "id": "U3bSmomoX",
            "type": "RECTANGLE",
            "tags": [
                "tax"
            ],
            "boundingBox": {
                "height": 48.35972850678733,
                "width": 61.08433734939759,
                "left": 69.2289156626506,
                "top": 308.48416289592757
            },
            "points": [
                {
                    "x": 69.2289156626506,
                    "y": 308.48416289592757
                },
                {
                    "x": 130.3132530120482,
                    "y": 308.48416289592757
                },
                {
                    "x": 130.3132530120482,
                    "y": 356.8438914027149
                },
                {
                    "x": 69.2289156626506,
                    "y": 356.8438914027149
                }
            ]
        },
        {
            "id": "MQSNv8B3u",
            "type": "RECTANGLE",
            "tags": [
                "tax"
            ],
            "boundingBox": {
                "height": 13.235294117647058,
                "width": 33.596385542168676,
                "left": 184.78012048192772,
                "top": 324.77375565610856
            },
            "points": [
                {
                    "x": 184.78012048192772,
                    "y": 324.77375565610856
                },
                {
                    "x": 218.3765060240964,
                    "y": 324.77375565610856
                },
                {
                    "x": 218.3765060240964,
                    "y": 338.00904977375563
                },
                {
                    "x": 184.78012048192772,
                    "y": 338.00904977375563
                }
            ]
        },
        {
            "id": "Ac8l79lnL",
            "type": "RECTANGLE",
            "tags": [
                "amount_details"
            ],
            "boundingBox": {
                "height": 23.925339366515836,
                "width": 72.7921686746988,
                "left": 167.47289156626505,
                "top": 378.7330316742081
            },
            "points": [
                {
                    "x": 167.47289156626505,
                    "y": 378.7330316742081
                },
                {
                    "x": 240.26506024096386,
                    "y": 378.7330316742081
                },
                {
                    "x": 240.26506024096386,
                    "y": 402.658371040724
                },
                {
                    "x": 167.47289156626505,
                    "y": 402.658371040724
                }
            ]
        }
    ],
    "version": "2.2.0"
}