{
    "asset": {
        "format": "jpg",
        "id": "269bb985f58c7cb265bfbb38b9f4e5dd",
        "name": "09399-receipt.jpg",
        "path": "file:/home/administrator/ocr/Train-OCR/TrainYourOwnYOLO/Data/receipts_Source_Images/Train_receipt/09399-receipt.jpg",
        "size": {
            "width": 338,
            "height": 450
        },
        "state": 2,
        "type": 1
    },
    "regions": [
        {
            "id": "jZRJ1Mkm6",
            "type": "RECTANGLE",
            "tags": [
                "Shop_Logo"
            ],
            "boundingBox": {
                "height": 65.66742081447964,
                "width": 196.4879518072289,
                "left": 70.24698795180723,
                "top": 57.52262443438914
            },
            "points": [
                {
                    "x": 70.24698795180723,
                    "y": 57.52262443438914
                },
                {
                    "x": 266.73493975903614,
                    "y": 57.52262443438914
                },
                {
                    "x": 266.73493975903614,
                    "y": 123.19004524886877
                },
                {
                    "x": 70.24698795180723,
                    "y": 123.19004524886877
                }
            ]
        },
        {
            "id": "md9mh8ys2",
            "type": "RECTANGLE",
            "tags": [
                "Shop_Address"
            ],
            "boundingBox": {
                "height": 29.524886877828052,
                "width": 101.80722891566265,
                "left": 121.65963855421687,
                "top": 145.58823529411762
            },
            "points": [
                {
                    "x": 121.65963855421687,
                    "y": 145.58823529411762
                },
                {
                    "x": 223.46686746987953,
                    "y": 145.58823529411762
                },
                {
                    "x": 223.46686746987953,
                    "y": 175.1131221719457
                },
                {
                    "x": 121.65963855421687,
                    "y": 175.1131221719457
                }
            ]
        },
        {
            "id": "lSx4spm2h",
            "type": "RECTANGLE",
            "tags": [
                "Mobile_no"
            ],
            "boundingBox": {
                "height": 21.88914027149321,
                "width": 92.1355421686747,
                "left": 145.5843373493976,
                "top": 170.53167420814478
            },
            "points": [
                {
                    "x": 145.5843373493976,
                    "y": 170.53167420814478
                },
                {
                    "x": 237.7198795180723,
                    "y": 170.53167420814478
                },
                {
                    "x": 237.7198795180723,
                    "y": 192.420814479638
                },
                {
                    "x": 145.5843373493976,
                    "y": 192.420814479638
                }
            ]
        },
        {
            "id": "hKUsfjhAy",
            "type": "RECTANGLE",
            "tags": [
                "Content_Items"
            ],
            "boundingBox": {
                "height": 30.03393665158371,
                "width": 228.55722891566265,
                "left": 61.08433734939759,
                "top": 212.2737556561086
            },
            "points": [
                {
                    "x": 61.08433734939759,
                    "y": 212.2737556561086
                },
                {
                    "x": 289.64156626506025,
                    "y": 212.2737556561086
                },
                {
                    "x": 289.64156626506025,
                    "y": 242.3076923076923
                },
                {
                    "x": 61.08433734939759,
                    "y": 242.3076923076923
                }
            ]
        },
        {
            "id": "mWm_0V28o",
            "type": "RECTANGLE",
            "tags": [
                "amount_details"
            ],
            "boundingBox": {
                "height": 17.307692307692307,
                "width": 55.484939759036145,
                "left": 238.2289156626506,
                "top": 293.72171945701353
            },
            "points": [
                {
                    "x": 238.2289156626506,
                    "y": 293.72171945701353
                },
                {
                    "x": 293.71385542168673,
                    "y": 293.72171945701353
                },
                {
                    "x": 293.71385542168673,
                    "y": 311.02941176470586
                },
                {
                    "x": 238.2289156626506,
                    "y": 311.02941176470586
                }
            ]
        },
        {
            "id": "0aVoOrIa-",
            "type": "RECTANGLE",
            "tags": [
                "tax"
            ],
            "boundingBox": {
                "height": 10.690045248868778,
                "width": 56.50301204819277,
                "left": 56.50301204819277,
                "top": 284.55882352941177
            },
            "points": [
                {
                    "x": 56.50301204819277,
                    "y": 284.55882352941177
                },
                {
                    "x": 113.00602409638554,
                    "y": 284.55882352941177
                },
                {
                    "x": 113.00602409638554,
                    "y": 295.24886877828055
                },
                {
                    "x": 56.50301204819277,
                    "y": 295.24886877828055
                }
            ]
        },
        {
            "id": "QAoHVgL__",
            "type": "RECTANGLE",
            "tags": [
                "tax"
            ],
            "boundingBox": {
                "height": 14.25339366515837,
                "width": 39.704819277108435,
                "left": 217.35843373493975,
                "top": 279.4683257918552
            },
            "points": [
                {
                    "x": 217.35843373493975,
                    "y": 279.4683257918552
                },
                {
                    "x": 257.0632530120482,
                    "y": 279.4683257918552
                },
                {
                    "x": 257.0632530120482,
                    "y": 293.72171945701353
                },
                {
                    "x": 217.35843373493975,
                    "y": 293.72171945701353
                }
            ]
        },
        {
            "id": "KreLaUCvj",
            "type": "RECTANGLE",
            "tags": [
                "Date"
            ],
            "boundingBox": {
                "height": 16.79864253393665,
                "width": 53.95783132530121,
                "left": 93.15361445783132,
                "top": 305.9389140271493
            },
            "points": [
                {
                    "x": 93.15361445783132,
                    "y": 305.9389140271493
                },
                {
                    "x": 147.11144578313252,
                    "y": 305.9389140271493
                },
                {
                    "x": 147.11144578313252,
                    "y": 322.73755656108597
                },
                {
                    "x": 93.15361445783132,
                    "y": 322.73755656108597
                }
            ]
        }
    ],
    "version": "2.2.0"
}