{
    "asset": {
        "format": "jpg",
        "id": "28812481120be1aee6673a5e8cb16a06",
        "name": "08965-receipt.jpg",
        "path": "file:/home/administrator/ocr/Train-OCR/TrainYourOwnYOLO/Data/receipts_Source_Images/Train_receipt/08965-receipt.jpg",
        "size": {
            "width": 338,
            "height": 450
        },
        "state": 2,
        "type": 1
    },
    "regions": [
        {
            "id": "X4W1KYUuR",
            "type": "RECTANGLE",
            "tags": [
                "Date"
            ],
            "boundingBox": {
                "height": 21.88914027149321,
                "width": 80.42771084337349,
                "left": 194.45180722891567,
                "top": 36.65158371040724
            },
            "points": [
                {
                    "x": 194.45180722891567,
                    "y": 36.65158371040724
                },
                {
                    "x": 274.87951807228916,
                    "y": 36.65158371040724
                },
                {
                    "x": 274.87951807228916,
                    "y": 58.54072398190045
                },
                {
                    "x": 194.45180722891567,
                    "y": 58.54072398190045
                }
            ]
        },
        {
            "id": "-ywrGjTiv",
            "type": "RECTANGLE",
            "tags": [
                "Content_Items"
            ],
            "boundingBox": {
                "height": 97.2285067873303,
                "width": 304.91265060240966,
                "left": 24.94277108433735,
                "top": 87.04751131221718
            },
            "points": [
                {
                    "x": 24.94277108433735,
                    "y": 87.04751131221718
                },
                {
                    "x": 329.855421686747,
                    "y": 87.04751131221718
                },
                {
                    "x": 329.855421686747,
                    "y": 184.2760180995475
                },
                {
                    "x": 24.94277108433735,
                    "y": 184.2760180995475
                }
            ]
        },
        {
            "id": "NUYvsGkdV",
            "type": "RECTANGLE",
            "tags": [
                "amount_details"
            ],
            "boundingBox": {
                "height": 23.41628959276018,
                "width": 60.066265060240966,
                "left": 264.69879518072287,
                "top": 217.8733031674208
            },
            "points": [
                {
                    "x": 264.69879518072287,
                    "y": 217.8733031674208
                },
                {
                    "x": 324.76506024096386,
                    "y": 217.8733031674208
                },
                {
                    "x": 324.76506024096386,
                    "y": 241.289592760181
                },
                {
                    "x": 264.69879518072287,
                    "y": 241.289592760181
                }
            ]
        },
        {
            "id": "qR3ZQ_9Fc",
            "type": "RECTANGLE",
            "tags": [
                "tax"
            ],
            "boundingBox": {
                "height": 21.889140271493154,
                "width": 50.903614457831324,
                "left": 3.0542168674698793,
                "top": 251.97963800904975
            },
            "points": [
                {
                    "x": 3.0542168674698793,
                    "y": 251.97963800904975
                },
                {
                    "x": 53.95783132530121,
                    "y": 251.97963800904975
                },
                {
                    "x": 53.95783132530121,
                    "y": 273.8687782805429
                },
                {
                    "x": 3.0542168674698793,
                    "y": 273.8687782805429
                }
            ]
        },
        {
            "id": "K0pKG1a7Y",
            "type": "RECTANGLE",
            "tags": [
                "tax"
            ],
            "boundingBox": {
                "height": 27.997737556561084,
                "width": 46.3222891566265,
                "left": 198.01506024096386,
                "top": 250.96153846153845
            },
            "points": [
                {
                    "x": 198.01506024096386,
                    "y": 250.96153846153845
                },
                {
                    "x": 244.33734939759037,
                    "y": 250.96153846153845
                },
                {
                    "x": 244.33734939759037,
                    "y": 278.95927601809956
                },
                {
                    "x": 198.01506024096386,
                    "y": 278.95927601809956
                }
            ]
        }
    ],
    "version": "2.2.0"
}