{
    "asset": {
        "format": "jpg",
        "id": "2900328394c62e389bbc2a1fb95fc1f1",
        "name": "09376-receipt.jpg",
        "path": "file:/home/administrator/ocr/Train-OCR/TrainYourOwnYOLO/Data/receipts_Source_Images/Train_receipt/09376-receipt.jpg",
        "size": {
            "width": 960,
            "height": 1280
        },
        "state": 2,
        "type": 1
    },
    "regions": [
        {
            "id": "iulwxkDaF",
            "type": "RECTANGLE",
            "tags": [
                "Shop_Name"
            ],
            "boundingBox": {
                "height": 50.678733031674206,
                "width": 432.94117647058823,
                "left": 186.06334841628959,
                "top": 144.79638009049773
            },
            "points": [
                {
                    "x": 186.06334841628959,
                    "y": 144.79638009049773
                },
                {
                    "x": 619.0045248868778,
                    "y": 144.79638009049773
                },
                {
                    "x": 619.0045248868778,
                    "y": 195.47511312217193
                },
                {
                    "x": 186.06334841628959,
                    "y": 195.47511312217193
                }
            ]
        },
        {
            "id": "fst2f_GSo",
            "type": "RECTANGLE",
            "tags": [
                "Shop_Address"
            ],
            "boundingBox": {
                "height": 68.05429864253394,
                "width": 251.94570135746605,
                "left": 270.0452488687783,
                "top": 195.47511312217193
            },
            "points": [
                {
                    "x": 270.0452488687783,
                    "y": 195.47511312217193
                },
                {
                    "x": 521.9909502262443,
                    "y": 195.47511312217193
                },
                {
                    "x": 521.9909502262443,
                    "y": 263.52941176470586
                },
                {
                    "x": 270.0452488687783,
                    "y": 263.52941176470586
                }
            ]
        },
        {
            "id": "fnkZM6rGp",
            "type": "RECTANGLE",
            "tags": [
                "Mobile_no"
            ],
            "boundingBox": {
                "height": 40.542986425339365,
                "width": 240.36199095022624,
                "left": 320.7239819004525,
                "top": 262.0814479638009
            },
            "points": [
                {
                    "x": 320.7239819004525,
                    "y": 262.0814479638009
                },
                {
                    "x": 561.0859728506787,
                    "y": 262.0814479638009
                },
                {
                    "x": 561.0859728506787,
                    "y": 302.6244343891403
                },
                {
                    "x": 320.7239819004525,
                    "y": 302.6244343891403
                }
            ]
        },
        {
            "id": "2281kNLqT",
            "type": "RECTANGLE",
            "tags": [
                "Date"
            ],
            "boundingBox": {
                "height": 49.230769230769226,
                "width": 212.85067873303166,
                "left": 235.2941176470588,
                "top": 437.28506787330315
            },
            "points": [
                {
                    "x": 235.2941176470588,
                    "y": 437.28506787330315
                },
                {
                    "x": 448.1447963800905,
                    "y": 437.28506787330315
                },
                {
                    "x": 448.1447963800905,
                    "y": 486.5158371040724
                },
                {
                    "x": 235.2941176470588,
                    "y": 486.5158371040724
                }
            ]
        },
        {
            "id": "94JrZLerL",
            "type": "RECTANGLE",
            "tags": [
                "Content_Items"
            ],
            "boundingBox": {
                "height": 173.7556561085973,
                "width": 637.10407239819,
                "left": 99.18552036199095,
                "top": 551.6742081447964
            },
            "points": [
                {
                    "x": 99.18552036199095,
                    "y": 551.6742081447964
                },
                {
                    "x": 736.289592760181,
                    "y": 551.6742081447964
                },
                {
                    "x": 736.289592760181,
                    "y": 725.4298642533937
                },
                {
                    "x": 99.18552036199095,
                    "y": 725.4298642533937
                }
            ]
        },
        {
            "id": "FNpCqqNnx",
            "type": "RECTANGLE",
            "tags": [
                "amount_details"
            ],
            "boundingBox": {
                "height": 69.50226244343891,
                "width": 199.81900452488688,
                "left": 530.6787330316741,
                "top": 728.3257918552036
            },
            "points": [
                {
                    "x": 530.6787330316741,
                    "y": 728.3257918552036
                },
                {
                    "x": 730.4977375565611,
                    "y": 728.3257918552036
                },
                {
                    "x": 730.4977375565611,
                    "y": 797.8280542986425
                },
                {
                    "x": 530.6787330316741,
                    "y": 797.8280542986425
                }
            ]
        },
        {
            "id": "-g2gZxgWF",
            "type": "RECTANGLE",
            "tags": [
                "tax"
            ],
            "boundingBox": {
                "height": 41.990950226244344,
                "width": 165.0678733031674,
                "left": 110.76923076923076,
                "top": 868.7782805429864
            },
            "points": [
                {
                    "x": 110.76923076923076,
                    "y": 868.7782805429864
                },
                {
                    "x": 275.8371040723982,
                    "y": 868.7782805429864
                },
                {
                    "x": 275.8371040723982,
                    "y": 910.7692307692307
                },
                {
                    "x": 110.76923076923076,
                    "y": 910.7692307692307
                }
            ]
        },
        {
            "id": "7rzyAS0JC",
            "type": "RECTANGLE",
            "tags": [
                "tax"
            ],
            "boundingBox": {
                "height": 37.64705882352941,
                "width": 78.19004524886877,
                "left": 658.0995475113122,
                "top": 855.7466063348417
            },
            "points": [
                {
                    "x": 658.0995475113122,
                    "y": 855.7466063348417
                },
                {
                    "x": 736.289592760181,
                    "y": 855.7466063348417
                },
                {
                    "x": 736.289592760181,
                    "y": 893.393665158371
                },
                {
                    "x": 658.0995475113122,
                    "y": 893.393665158371
                }
            ]
        }
    ],
    "version": "2.2.0"
}