{
    "asset": {
        "format": "jpg",
        "id": "29efdc48024a1329c34daa23687e9087",
        "name": "02262-receipt.jpg",
        "path": "file:/home/administrator/ocr/Train-OCR/TrainYourOwnYOLO/Data/receipts_Source_Images/Train_receipt/02262-receipt.jpg",
        "size": {
            "width": 512,
            "height": 512
        },
        "state": 2,
        "type": 1
    },
    "regions": [
        {
            "id": "89_8T6N4O",
            "type": "RECTANGLE",
            "tags": [
                "Shop_Name"
            ],
            "boundingBox": {
                "height": 22.58823529411765,
                "width": 205.6108597285068,
                "left": 126.55203619909503,
                "top": 4.633484162895928
            },
            "points": [
                {
                    "x": 126.55203619909503,
                    "y": 4.633484162895928
                },
                {
                    "x": 332.1628959276018,
                    "y": 4.633484162895928
                },
                {
                    "x": 332.1628959276018,
                    "y": 27.221719457013577
                },
                {
                    "x": 126.55203619909503,
                    "y": 27.221719457013577
                }
            ]
        },
        {
            "id": "wsxzjtcDm",
            "type": "RECTANGLE",
            "tags": [
                "Shop_Address"
            ],
            "boundingBox": {
                "height": 55.022624434389144,
                "width": 272.79638009049773,
                "left": 88.90497737556562,
                "top": 16.21719457013575
            },
            "points": [
                {
                    "x": 88.90497737556562,
                    "y": 16.21719457013575
                },
                {
                    "x": 361.70135746606337,
                    "y": 16.21719457013575
                },
                {
                    "x": 361.70135746606337,
                    "y": 71.23981900452489
                },
                {
                    "x": 88.90497737556562,
                    "y": 71.23981900452489
                }
            ]
        },
        {
            "id": "Y6hQKJPNm",
            "type": "RECTANGLE",
            "tags": [
                "Mobile_no"
            ],
            "boundingBox": {
                "height": 27.800904977375566,
                "width": 117.57466063348417,
                "left": 196.63348416289594,
                "top": 88.03619909502264
            },
            "points": [
                {
                    "x": 196.63348416289594,
                    "y": 88.03619909502264
                },
                {
                    "x": 314.2081447963801,
                    "y": 88.03619909502264
                },
                {
                    "x": 314.2081447963801,
                    "y": 115.8371040723982
                },
                {
                    "x": 196.63348416289594,
                    "y": 115.8371040723982
                }
            ]
        },
        {
            "id": "thxiSXsqT",
            "type": "RECTANGLE",
            "tags": [
                "Date"
            ],
            "boundingBox": {
                "height": 24.904977375565615,
                "width": 108.30769230769232,
                "left": 160.14479638009053,
                "top": 192.868778280543
            },
            "points": [
                {
                    "x": 160.14479638009053,
                    "y": 192.868778280543
                },
                {
                    "x": 268.4524886877828,
                    "y": 192.868778280543
                },
                {
                    "x": 268.4524886877828,
                    "y": 217.77375565610862
                },
                {
                    "x": 160.14479638009053,
                    "y": 217.77375565610862
                }
            ]
        },
        {
            "id": "il_S0AMI0",
            "type": "RECTANGLE",
            "tags": [
                "Content_Items"
            ],
            "boundingBox": {
                "height": 57.339366515837106,
                "width": 350.40723981900453,
                "left": 26.932126696832583,
                "top": 256
            },
            "points": [
                {
                    "x": 26.932126696832583,
                    "y": 256
                },
                {
                    "x": 377.3393665158371,
                    "y": 256
                },
                {
                    "x": 377.3393665158371,
                    "y": 313.3393665158371
                },
                {
                    "x": 26.932126696832583,
                    "y": 313.3393665158371
                }
            ]
        },
        {
            "id": "66Ftvm0wf",
            "type": "RECTANGLE",
            "tags": [
                "amount_details"
            ],
            "boundingBox": {
                "height": 30.69683257918552,
                "width": 83.9819004524887,
                "left": 288.7239819004525,
                "top": 459.29411764705884
            },
            "points": [
                {
                    "x": 288.7239819004525,
                    "y": 459.29411764705884
                },
                {
                    "x": 372.7058823529412,
                    "y": 459.29411764705884
                },
                {
                    "x": 372.7058823529412,
                    "y": 489.99095022624437
                },
                {
                    "x": 288.7239819004525,
                    "y": 489.99095022624437
                }
            ]
        }
    ],
    "version": "2.2.0"
}