{
    "asset": {
        "format": "jpg",
        "id": "2bcc7bea41c92789c72c34ef696d2975",
        "name": "01338-receipt.jpg",
        "path": "file:/home/administrator/ocr/Train-OCR/TrainYourOwnYOLO/Data/receipts_Source_Images/Train_receipt/01338-receipt.jpg",
        "size": {
            "width": 464,
            "height": 450
        },
        "state": 2,
        "type": 1
    },
    "regions": [
        {
            "id": "y7hmtoq-5",
            "type": "RECTANGLE",
            "tags": [
                "Shop_Name"
            ],
            "boundingBox": {
                "height": 31.561085972850677,
                "width": 274.7368421052632,
                "left": 88.15268640350878,
                "top": 5.090497737556561
            },
            "points": [
                {
                    "x": 88.15268640350878,
                    "y": 5.090497737556561
                },
                {
                    "x": 362.88952850877195,
                    "y": 5.090497737556561
                },
                {
                    "x": 362.88952850877195,
                    "y": 36.65158371040724
                },
                {
                    "x": 88.15268640350878,
                    "y": 36.65158371040724
                }
            ]
        },
        {
            "id": "HCsTnLuNb",
            "type": "RECTANGLE",
            "tags": [
                "Shop_Address"
            ],
            "boundingBox": {
                "height": 75.84841628959276,
                "width": 291.01754385964915,
                "left": 87.64391447368422,
                "top": 68.21266968325791
            },
            "points": [
                {
                    "x": 87.64391447368422,
                    "y": 68.21266968325791
                },
                {
                    "x": 378.66145833333337,
                    "y": 68.21266968325791
                },
                {
                    "x": 378.66145833333337,
                    "y": 144.06108597285066
                },
                {
                    "x": 87.64391447368422,
                    "y": 144.06108597285066
                }
            ]
        },
        {
            "id": "2ujVOswFF",
            "type": "RECTANGLE",
            "tags": [
                "Date"
            ],
            "boundingBox": {
                "height": 23.925339366515836,
                "width": 105.31578947368422,
                "left": 185.328125,
                "top": 232.12669683257917
            },
            "points": [
                {
                    "x": 185.328125,
                    "y": 232.12669683257917
                },
                {
                    "x": 290.6439144736842,
                    "y": 232.12669683257917
                },
                {
                    "x": 290.6439144736842,
                    "y": 256.052036199095
                },
                {
                    "x": 185.328125,
                    "y": 256.052036199095
                }
            ]
        },
        {
            "id": "tywub-pY2",
            "type": "RECTANGLE",
            "tags": [
                "Content_Items"
            ],
            "boundingBox": {
                "height": 110.97285067873302,
                "width": 449.2456140350877,
                "left": 6.749177631578948,
                "top": 276.41402714932127
            },
            "points": [
                {
                    "x": 6.749177631578948,
                    "y": 276.41402714932127
                },
                {
                    "x": 455.9947916666667,
                    "y": 276.41402714932127
                },
                {
                    "x": 455.9947916666667,
                    "y": 387.38687782805425
                },
                {
                    "x": 6.749177631578948,
                    "y": 387.38687782805425
                }
            ]
        },
        {
            "id": "3gyTM7HbO",
            "type": "RECTANGLE",
            "tags": [
                "amount_details"
            ],
            "boundingBox": {
                "height": 26.979638009049772,
                "width": 132.28070175438597,
                "left": 325.74917763157896,
                "top": 414.8755656108597
            },
            "points": [
                {
                    "x": 325.74917763157896,
                    "y": 414.8755656108597
                },
                {
                    "x": 458.02987938596493,
                    "y": 414.8755656108597
                },
                {
                    "x": 458.02987938596493,
                    "y": 441.8552036199095
                },
                {
                    "x": 325.74917763157896,
                    "y": 441.8552036199095
                }
            ]
        }
    ],
    "version": "2.2.0"
}