{
    "asset": {
        "format": "jpg",
        "id": "2e14771988b7b1854d4e5bf586cf1c69",
        "name": "08987-receipt.jpg",
        "path": "file:/home/administrator/ocr/Train-OCR/TrainYourOwnYOLO/Data/receipts_Source_Images/Train_receipt/08987-receipt.jpg",
        "size": {
            "width": 338,
            "height": 450
        },
        "state": 2,
        "type": 1
    },
    "regions": [
        {
            "id": "mWfN7jGWE",
            "type": "POLYGON",
            "tags": [
                "Shop_Logo"
            ],
            "boundingBox": {
                "height": 26.979638009049772,
                "width": 124.20481927710843,
                "left": 97.73493975903614,
                "top": 30.03393665158371
            },
            "points": [
                {
                    "x": 97.73493975903614,
                    "y": 57.01357466063348
                },
                {
                    "x": 221.93975903614458,
                    "y": 57.01357466063348
                },
                {
                    "x": 217.35843373493975,
                    "y": 32.07013574660633
                },
                {
                    "x": 99.26204819277109,
                    "y": 30.03393665158371
                }
            ]
        },
        {
            "id": "sVOKS3k0D",
            "type": "POLYGON",
            "tags": [
                "Shop_Name"
            ],
            "boundingBox": {
                "height": 22.398190045248867,
                "width": 186.81626506024097,
                "left": 56.50301204819277,
                "top": 76.35746606334841
            },
            "points": [
                {
                    "x": 57.01204819277108,
                    "y": 82.46606334841628
                },
                {
                    "x": 241.28313253012047,
                    "y": 76.35746606334841
                },
                {
                    "x": 243.31927710843374,
                    "y": 91.6289592760181
                },
                {
                    "x": 56.50301204819277,
                    "y": 98.75565610859728
                }
            ]
        },
        {
            "id": "I-6VzQa1X",
            "type": "POLYGON",
            "tags": [
                "Shop_Address"
            ],
            "boundingBox": {
                "height": 32.57918552036199,
                "width": 205.14156626506025,
                "left": 58.03012048192771,
                "top": 86.02941176470588
            },
            "points": [
                {
                    "x": 60.066265060240966,
                    "y": 118.60859728506787
                },
                {
                    "x": 263.171686746988,
                    "y": 106.90045248868778
                },
                {
                    "x": 256.0451807228916,
                    "y": 86.02941176470588
                },
                {
                    "x": 58.03012048192771,
                    "y": 102.82805429864253
                }
            ]
        },
        {
            "id": "pxXeUnIzV",
            "type": "POLYGON",
            "tags": [
                "Mobile_no"
            ],
            "boundingBox": {
                "height": 22.907239819004523,
                "width": 156.78313253012047,
                "left": 107.91566265060241,
                "top": 107.91855203619909
            },
            "points": [
                {
                    "x": 107.91566265060241,
                    "y": 130.82579185520362
                },
                {
                    "x": 264.69879518072287,
                    "y": 120.13574660633483
                },
                {
                    "x": 263.6807228915663,
                    "y": 107.91855203619909
                },
                {
                    "x": 107.91566265060241,
                    "y": 118.09954751131221
                }
            ]
        },
        {
            "id": "GAuqqKJzp",
            "type": "POLYGON",
            "tags": [
                "Content_Items"
            ],
            "boundingBox": {
                "height": 102.31900452488688,
                "width": 233.13855421686748,
                "left": 66.68373493975903,
                "top": 236.70814479638008
            },
            "points": [
                {
                    "x": 72.28313253012048,
                    "y": 245.87104072398188
                },
                {
                    "x": 289.13253012048193,
                    "y": 236.70814479638008
                },
                {
                    "x": 299.8222891566265,
                    "y": 327.82805429864254
                },
                {
                    "x": 66.68373493975903,
                    "y": 339.02714932126696
                }
            ]
        },
        {
            "id": "twOH_WecP",
            "type": "POLYGON",
            "tags": [
                "amount_details"
            ],
            "boundingBox": {
                "height": 18.834841628959275,
                "width": 95.18975903614458,
                "left": 208.19578313253012,
                "top": 327.31900452488685
            },
            "points": [
                {
                    "x": 208.70481927710844,
                    "y": 346.15384615384613
                },
                {
                    "x": 303.3855421686747,
                    "y": 340.5542986425339
                },
                {
                    "x": 298.8042168674699,
                    "y": 327.31900452488685
                },
                {
                    "x": 208.19578313253012,
                    "y": 332.4095022624434
                }
            ]
        },
        {
            "id": "8Xm5tfRz1",
            "type": "POLYGON",
            "tags": [
                "tax"
            ],
            "boundingBox": {
                "height": 19.34389140271493,
                "width": 108.93373493975903,
                "left": 48.86746987951807,
                "top": 391.4592760180995
            },
            "points": [
                {
                    "x": 54.46686746987952,
                    "y": 392.4773755656108
                },
                {
                    "x": 157.8012048192771,
                    "y": 391.4592760180995
                },
                {
                    "x": 155.76506024096386,
                    "y": 410.8031674208145
                },
                {
                    "x": 48.86746987951807,
                    "y": 409.78506787330315
                }
            ]
        },
        {
            "id": "CC1iMpWbe",
            "type": "POLYGON",
            "tags": [
                "tax"
            ],
            "boundingBox": {
                "height": 20.8710407239819,
                "width": 57.01204819277108,
                "left": 271.82530120481925,
                "top": 385.8597285067873
            },
            "points": [
                {
                    "x": 271.82530120481925,
                    "y": 390.44117647058823
                },
                {
                    "x": 325.2740963855422,
                    "y": 385.8597285067873
                },
                {
                    "x": 328.83734939759034,
                    "y": 406.22171945701353
                },
                {
                    "x": 272.3343373493976,
                    "y": 406.7307692307692
                }
            ]
        }
    ],
    "version": "2.2.0"
}