{
    "asset": {
        "format": "jpg",
        "id": "2e2b6d770d1f1567dd376e9353156c85",
        "name": "00003-receipt.jpg",
        "path": "file:/home/administrator/ocr/Train-OCR/TrainYourOwnYOLO/Data/receipts_Source_Images/Train_receipt/00003-receipt.jpg",
        "size": {
            "width": 750,
            "height": 1000
        },
        "state": 2,
        "type": 1
    },
    "regions": [
        {
            "id": "DPlTBN8pr",
            "type": "RECTANGLE",
            "tags": [
                "Mobile_no"
            ],
            "boundingBox": {
                "height": 26.018099547511312,
                "width": 197.96380090497738,
                "left": 220.02262443438914,
                "top": 135.74660633484163
            },
            "points": [
                {
                    "x": 220.02262443438914,
                    "y": 135.74660633484163
                },
                {
                    "x": 417.9864253393665,
                    "y": 135.74660633484163
                },
                {
                    "x": 417.9864253393665,
                    "y": 161.76470588235293
                },
                {
                    "x": 220.02262443438914,
                    "y": 161.76470588235293
                }
            ]
        },
        {
            "id": "XFDs18k7b",
            "type": "RECTANGLE",
            "tags": [
                "others"
            ],
            "boundingBox": {
                "height": 351.8099547511312,
                "width": 457.0135746606335,
                "left": 105.76923076923077,
                "top": 218.32579185520362
            },
            "points": [
                {
                    "x": 105.76923076923077,
                    "y": 218.32579185520362
                },
                {
                    "x": 562.7828054298642,
                    "y": 218.32579185520362
                },
                {
                    "x": 562.7828054298642,
                    "y": 570.1357466063348
                },
                {
                    "x": 105.76923076923077,
                    "y": 570.1357466063348
                }
            ]
        },
        {
            "id": "5JfYzCHws",
            "type": "RECTANGLE",
            "tags": [
                "amount_details"
            ],
            "boundingBox": {
                "height": 39.59276018099548,
                "width": 208.71040723981895,
                "left": 366.5158371040724,
                "top": 667.420814479638
            },
            "points": [
                {
                    "x": 366.5158371040724,
                    "y": 667.420814479638
                },
                {
                    "x": 575.2262443438914,
                    "y": 667.420814479638
                },
                {
                    "x": 575.2262443438914,
                    "y": 707.0135746606335
                },
                {
                    "x": 366.5158371040724,
                    "y": 707.0135746606335
                }
            ]
        },
        {
            "id": "hWCOWhvOq",
            "type": "RECTANGLE",
            "tags": [
                "tax"
            ],
            "boundingBox": {
                "height": 22.62443438914027,
                "width": 458.1447963800905,
                "left": 109.16289592760181,
                "top": 643.6651583710407
            },
            "points": [
                {
                    "x": 109.16289592760181,
                    "y": 643.6651583710407
                },
                {
                    "x": 567.3076923076923,
                    "y": 643.6651583710407
                },
                {
                    "x": 567.3076923076923,
                    "y": 666.289592760181
                },
                {
                    "x": 109.16289592760181,
                    "y": 666.289592760181
                }
            ]
        },
        {
            "id": "qHIOyPsW9",
            "type": "RECTANGLE",
            "tags": [
                "others"
            ],
            "boundingBox": {
                "height": 21.493212669683256,
                "width": 238.68778280542986,
                "left": 160.06787330316743,
                "top": 165.15837104072398
            },
            "points": [
                {
                    "x": 160.06787330316743,
                    "y": 165.15837104072398
                },
                {
                    "x": 398.7556561085973,
                    "y": 165.15837104072398
                },
                {
                    "x": 398.7556561085973,
                    "y": 186.65158371040724
                },
                {
                    "x": 160.06787330316743,
                    "y": 186.65158371040724
                }
            ]
        }
    ],
    "version": "2.2.0"
}