{
    "asset": {
        "format": "jpg",
        "id": "307c917567c73961a9198b7964e1a418",
        "name": "08925-receipt.jpg",
        "path": "file:/home/administrator/ocr/Train-OCR/TrainYourOwnYOLO/Data/receipts_Source_Images/Train_receipt/08925-receipt.jpg",
        "size": {
            "width": 550,
            "height": 309
        },
        "state": 2,
        "type": 1
    },
    "regions": [
        {
            "id": "qyI-2Lc4j",
            "type": "RECTANGLE",
            "tags": [
                "Shop_Name"
            ],
            "boundingBox": {
                "height": 144.72740963855424,
                "width": 14.890016920473773,
                "left": 43.73942470389171,
                "top": 88.90584996234941
            },
            "points": [
                {
                    "x": 43.73942470389171,
                    "y": 88.90584996234941
                },
                {
                    "x": 58.629441624365484,
                    "y": 88.90584996234941
                },
                {
                    "x": 58.629441624365484,
                    "y": 233.6332596009036
                },
                {
                    "x": 43.73942470389171,
                    "y": 233.6332596009036
                }
            ]
        },
        {
            "id": "7VRoiK_hN",
            "type": "RECTANGLE",
            "tags": [
                "Shop_Address"
            ],
            "boundingBox": {
                "height": 116.34036144578313,
                "width": 25.592216582064296,
                "left": 58.629441624365484,
                "top": 103.79741622740964
            },
            "points": [
                {
                    "x": 58.629441624365484,
                    "y": 103.79741622740964
                },
                {
                    "x": 84.22165820642978,
                    "y": 103.79741622740964
                },
                {
                    "x": 84.22165820642978,
                    "y": 220.13777767319277
                },
                {
                    "x": 58.629441624365484,
                    "y": 220.13777767319277
                }
            ]
        },
        {
            "id": "_MbMKmzYz",
            "type": "RECTANGLE",
            "tags": [
                "Mobile_no"
            ],
            "boundingBox": {
                "height": 55.8433734939759,
                "width": 10.702199661590525,
                "left": 83.29103214890017,
                "top": 132.18446442018072
            },
            "points": [
                {
                    "x": 83.29103214890017,
                    "y": 132.18446442018072
                },
                {
                    "x": 93.9932318104907,
                    "y": 132.18446442018072
                },
                {
                    "x": 93.9932318104907,
                    "y": 188.02783791415663
                },
                {
                    "x": 83.29103214890017,
                    "y": 188.02783791415663
                }
            ]
        },
        {
            "id": "SOcIp6oW3",
            "type": "RECTANGLE",
            "tags": [
                "Content_Items"
            ],
            "boundingBox": {
                "height": 174.9977174322289,
                "width": 197.75803722504227,
                "left": 170.30456852791875,
                "top": 63.75451807228916
            },
            "points": [
                {
                    "x": 170.30456852791875,
                    "y": 63.75451807228916
                },
                {
                    "x": 368.062605752961,
                    "y": 63.75451807228916
                },
                {
                    "x": 368.062605752961,
                    "y": 238.75223550451807
                },
                {
                    "x": 170.30456852791875,
                    "y": 238.75223550451807
                }
            ]
        },
        {
            "id": "Z__wddqp7",
            "type": "RECTANGLE",
            "tags": [
                "amount_details"
            ],
            "boundingBox": {
                "height": 60.49698795180723,
                "width": 22.33502538071066,
                "left": 404.8223350253807,
                "top": 67.4992234563253
            },
            "points": [
                {
                    "x": 404.8223350253807,
                    "y": 67.4992234563253
                },
                {
                    "x": 427.15736040609136,
                    "y": 67.4992234563253
                },
                {
                    "x": 427.15736040609136,
                    "y": 127.99621140813254
                },
                {
                    "x": 404.8223350253807,
                    "y": 127.99621140813254
                }
            ]
        },
        {
            "id": "QdIhbWwoW",
            "type": "RECTANGLE",
            "tags": [
                "amount_details"
            ],
            "boundingBox": {
                "height": 40.48644578313253,
                "width": 13.494077834179357,
                "left": 397.84263959390864,
                "top": 198.7311511671687
            },
            "points": [
                {
                    "x": 397.84263959390864,
                    "y": 198.7311511671687
                },
                {
                    "x": 411.336717428088,
                    "y": 198.7311511671687
                },
                {
                    "x": 411.336717428088,
                    "y": 239.2175969503012
                },
                {
                    "x": 397.84263959390864,
                    "y": 239.2175969503012
                }
            ]
        },
        {
            "id": "9Ku9iWalN",
            "type": "RECTANGLE",
            "tags": [
                "amount_details"
            ],
            "boundingBox": {
                "height": 34.43674698795181,
                "width": 10.702199661590525,
                "left": 393.65482233502536,
                "top": 91.6980186370482
            },
            "points": [
                {
                    "x": 393.65482233502536,
                    "y": 91.6980186370482
                },
                {
                    "x": 404.3570219966159,
                    "y": 91.6980186370482
                },
                {
                    "x": 404.3570219966159,
                    "y": 126.134765625
                },
                {
                    "x": 393.65482233502536,
                    "y": 126.134765625
                }
            ]
        }
    ],
    "version": "2.2.0"
}