{
    "asset": {
        "format": "jpg",
        "id": "309d5c90e8086f9da8d7d9a23641e0f1",
        "name": "1150-receipt.jpg",
        "path": "file:/home/administrator/ocr/Train-OCR/TrainYourOwnYOLO/Data/receipts_Source_Images/Train_receipt/1150-receipt.jpg",
        "size": {
            "width": 337,
            "height": 450
        },
        "state": 2,
        "type": 1
    },
    "regions": [
        {
            "id": "9Hl1hRQQp",
            "type": "RECTANGLE",
            "tags": [
                "Shop_Logo"
            ],
            "boundingBox": {
                "height": 30.03393665158371,
                "width": 91.12235649546828,
                "left": 123.7103710347432,
                "top": 2.0361990950226243
            },
            "points": [
                {
                    "x": 123.7103710347432,
                    "y": 2.0361990950226243
                },
                {
                    "x": 214.83272753021149,
                    "y": 2.0361990950226243
                },
                {
                    "x": 214.83272753021149,
                    "y": 32.07013574660633
                },
                {
                    "x": 123.7103710347432,
                    "y": 32.07013574660633
                }
            ]
        },
        {
            "id": "F_1cJtvcR",
            "type": "RECTANGLE",
            "tags": [
                "Shop_Name"
            ],
            "boundingBox": {
                "height": 11.70814479638009,
                "width": 85.01359516616314,
                "left": 124.21943447885197,
                "top": 33.5972850678733
            },
            "points": [
                {
                    "x": 124.21943447885197,
                    "y": 33.5972850678733
                },
                {
                    "x": 209.2330296450151,
                    "y": 33.5972850678733
                },
                {
                    "x": 209.2330296450151,
                    "y": 45.30542986425339
                },
                {
                    "x": 124.21943447885197,
                    "y": 45.30542986425339
                }
            ]
        },
        {
            "id": "lPCy68AWy",
            "type": "RECTANGLE",
            "tags": [
                "Shop_Address"
            ],
            "boundingBox": {
                "height": 22.398190045248867,
                "width": 130.3202416918429,
                "left": 97.74813538519638,
                "top": 40.21493212669683
            },
            "points": [
                {
                    "x": 97.74813538519638,
                    "y": 40.21493212669683
                },
                {
                    "x": 228.0683770770393,
                    "y": 40.21493212669683
                },
                {
                    "x": 228.0683770770393,
                    "y": 62.6131221719457
                },
                {
                    "x": 97.74813538519638,
                    "y": 62.6131221719457
                }
            ]
        },
        {
            "id": "jIXIPfHLl",
            "type": "RECTANGLE",
            "tags": [
                "Date"
            ],
            "boundingBox": {
                "height": 14.25339366515837,
                "width": 48.36102719033233,
                "left": 115.05629248489427,
                "top": 97.73755656108597
            },
            "points": [
                {
                    "x": 115.05629248489427,
                    "y": 97.73755656108597
                },
                {
                    "x": 163.4173196752266,
                    "y": 97.73755656108597
                },
                {
                    "x": 163.4173196752266,
                    "y": 111.99095022624434
                },
                {
                    "x": 115.05629248489427,
                    "y": 111.99095022624434
                }
            ]
        },
        {
            "id": "r6_aK6bEV",
            "type": "RECTANGLE",
            "tags": [
                "Content_Items"
            ],
            "boundingBox": {
                "height": 136.42533936651583,
                "width": 180.20845921450152,
                "left": 56.51399641238671,
                "top": 138.46153846153845
            },
            "points": [
                {
                    "x": 56.51399641238671,
                    "y": 138.46153846153845
                },
                {
                    "x": 236.72245562688823,
                    "y": 138.46153846153845
                },
                {
                    "x": 236.72245562688823,
                    "y": 274.88687782805425
                },
                {
                    "x": 56.51399641238671,
                    "y": 274.88687782805425
                }
            ]
        },
        {
            "id": "x2WJSkqzu",
            "type": "RECTANGLE",
            "tags": [
                "tax"
            ],
            "boundingBox": {
                "height": 14.762443438914026,
                "width": 26.471299093655592,
                "left": 204.65145864803625,
                "top": 328.8461538461538
            },
            "points": [
                {
                    "x": 204.65145864803625,
                    "y": 328.8461538461538
                },
                {
                    "x": 231.12275774169186,
                    "y": 328.8461538461538
                },
                {
                    "x": 231.12275774169186,
                    "y": 343.60859728506784
                },
                {
                    "x": 204.65145864803625,
                    "y": 343.60859728506784
                }
            ]
        },
        {
            "id": "vINwykLCL",
            "type": "RECTANGLE",
            "tags": [
                "tax"
            ],
            "boundingBox": {
                "height": 14.762443438914026,
                "width": 28.507552870090635,
                "left": 57.02305985649547,
                "top": 317.6470588235294
            },
            "points": [
                {
                    "x": 57.02305985649547,
                    "y": 317.6470588235294
                },
                {
                    "x": 85.53061272658611,
                    "y": 317.6470588235294
                },
                {
                    "x": 85.53061272658611,
                    "y": 332.4095022624434
                },
                {
                    "x": 57.02305985649547,
                    "y": 332.4095022624434
                }
            ]
        },
        {
            "id": "EjpGqC9AE",
            "type": "RECTANGLE",
            "tags": [
                "amount_details"
            ],
            "boundingBox": {
                "height": 20.361990950226243,
                "width": 75.85045317220545,
                "left": 152.21792390483384,
                "top": 334.9547511312217
            },
            "points": [
                {
                    "x": 152.21792390483384,
                    "y": 334.9547511312217
                },
                {
                    "x": 228.0683770770393,
                    "y": 334.9547511312217
                },
                {
                    "x": 228.0683770770393,
                    "y": 355.31674208144796
                },
                {
                    "x": 152.21792390483384,
                    "y": 355.31674208144796
                }
            ]
        }
    ],
    "version": "2.2.0"
}