{
    "asset": {
        "format": "jpg",
        "id": "32eb2dcb580af74b26e69b1fe1b84df6",
        "name": "1136-receipt.jpg",
        "path": "file:/home/administrator/ocr/Train-OCR/TrainYourOwnYOLO/Data/receipts_Source_Images/Train_receipt/1136-receipt.jpg",
        "size": {
            "width": 750,
            "height": 1000
        },
        "state": 2,
        "type": 1
    },
    "regions": [
        {
            "id": "MwauGUtsI",
            "type": "RECTANGLE",
            "tags": [
                "Shop_Name"
            ],
            "boundingBox": {
                "height": 32.80542986425339,
                "width": 338.2352941176471,
                "left": 146.49321266968326,
                "top": 239.81900452488688
            },
            "points": [
                {
                    "x": 146.49321266968326,
                    "y": 239.81900452488688
                },
                {
                    "x": 484.72850678733033,
                    "y": 239.81900452488688
                },
                {
                    "x": 484.72850678733033,
                    "y": 272.6244343891403
                },
                {
                    "x": 146.49321266968326,
                    "y": 272.6244343891403
                }
            ]
        },
        {
            "id": "iOz78HTHT",
            "type": "RECTANGLE",
            "tags": [
                "Date"
            ],
            "boundingBox": {
                "height": 32.80542986425339,
                "width": 149.3212669683258,
                "left": 468.8914027149321,
                "top": 285.0678733031674
            },
            "points": [
                {
                    "x": 468.8914027149321,
                    "y": 285.0678733031674
                },
                {
                    "x": 618.2126696832579,
                    "y": 285.0678733031674
                },
                {
                    "x": 618.2126696832579,
                    "y": 317.87330316742083
                },
                {
                    "x": 468.8914027149321,
                    "y": 317.87330316742083
                }
            ]
        },
        {
            "id": "P1BbjvUQW",
            "type": "RECTANGLE",
            "tags": [
                "tax"
            ],
            "boundingBox": {
                "height": 33.93665158371041,
                "width": 115.38461538461539,
                "left": 131.78733031674207,
                "top": 867.6470588235294
            },
            "points": [
                {
                    "x": 131.78733031674207,
                    "y": 867.6470588235294
                },
                {
                    "x": 247.17194570135746,
                    "y": 867.6470588235294
                },
                {
                    "x": 247.17194570135746,
                    "y": 901.5837104072398
                },
                {
                    "x": 131.78733031674207,
                    "y": 901.5837104072398
                }
            ]
        },
        {
            "id": "TwwPbfzpI",
            "type": "RECTANGLE",
            "tags": [
                "tax"
            ],
            "boundingBox": {
                "height": 35.06787330316742,
                "width": 66.7420814479638,
                "left": 583.1447963800905,
                "top": 859.7285067873303
            },
            "points": [
                {
                    "x": 583.1447963800905,
                    "y": 859.7285067873303
                },
                {
                    "x": 649.8868778280543,
                    "y": 859.7285067873303
                },
                {
                    "x": 649.8868778280543,
                    "y": 894.7963800904977
                },
                {
                    "x": 583.1447963800905,
                    "y": 894.7963800904977
                }
            ]
        },
        {
            "id": "ETgWSWBXI",
            "type": "RECTANGLE",
            "tags": [
                "amount_details"
            ],
            "boundingBox": {
                "height": 38.46153846153846,
                "width": 91.6289592760181,
                "left": 555.9954751131222,
                "top": 936.6515837104072
            },
            "points": [
                {
                    "x": 555.9954751131222,
                    "y": 936.6515837104072
                },
                {
                    "x": 647.6244343891402,
                    "y": 936.6515837104072
                },
                {
                    "x": 647.6244343891402,
                    "y": 975.1131221719456
                },
                {
                    "x": 555.9954751131222,
                    "y": 975.1131221719456
                }
            ]
        }
    ],
    "version": "2.2.0"
}