{
    "asset": {
        "format": "jpg",
        "id": "35da8a381111a8c03878452888b03bd2",
        "name": "08918-receipt.jpg",
        "path": "file:/home/administrator/ocr/Train-OCR/TrainYourOwnYOLO/Data/receipts_Source_Images/Train_receipt/08918-receipt.jpg",
        "size": {
            "width": 550,
            "height": 733
        },
        "state": 2,
        "type": 1
    },
    "regions": [
        {
            "id": "2OsmbeEJc",
            "type": "RECTANGLE",
            "tags": [
                "Shop_Logo"
            ],
            "boundingBox": {
                "height": 41.45927601809955,
                "width": 236.42533936651586,
                "left": 167.2864819004525,
                "top": 96.18552036199095
            },
            "points": [
                {
                    "x": 167.2864819004525,
                    "y": 96.18552036199095
                },
                {
                    "x": 403.71182126696834,
                    "y": 96.18552036199095
                },
                {
                    "x": 403.71182126696834,
                    "y": 137.6447963800905
                },
                {
                    "x": 167.2864819004525,
                    "y": 137.6447963800905
                }
            ]
        },
        {
            "id": "TUWeAlBOh",
            "type": "RECTANGLE",
            "tags": [
                "Shop_Name"
            ],
            "boundingBox": {
                "height": 22.388009049773757,
                "width": 206.5610859728507,
                "left": 180.55948340874812,
                "top": 155.8868778280543
            },
            "points": [
                {
                    "x": 180.55948340874812,
                    "y": 155.8868778280543
                },
                {
                    "x": 387.12056938159884,
                    "y": 155.8868778280543
                },
                {
                    "x": 387.12056938159884,
                    "y": 178.27488687782807
                },
                {
                    "x": 180.55948340874812,
                    "y": 178.27488687782807
                }
            ]
        },
        {
            "id": "SEq9oapEq",
            "type": "RECTANGLE",
            "tags": [
                "Shop_Address"
            ],
            "boundingBox": {
                "height": 36.484162895927604,
                "width": 191.62895927601812,
                "left": 185.53685897435898,
                "top": 177.44570135746608
            },
            "points": [
                {
                    "x": 185.53685897435898,
                    "y": 177.44570135746608
                },
                {
                    "x": 377.1658182503771,
                    "y": 177.44570135746608
                },
                {
                    "x": 377.1658182503771,
                    "y": 213.92986425339367
                },
                {
                    "x": 185.53685897435898,
                    "y": 213.92986425339367
                }
            ]
        },
        {
            "id": "_aOLC4P4U",
            "type": "RECTANGLE",
            "tags": [
                "Content_Items"
            ],
            "boundingBox": {
                "height": 165.00791855203622,
                "width": 269.6078431372549,
                "left": 150.69523001508296,
                "top": 334.99095022624437
            },
            "points": [
                {
                    "x": 150.69523001508296,
                    "y": 334.99095022624437
                },
                {
                    "x": 420.3030731523379,
                    "y": 334.99095022624437
                },
                {
                    "x": 420.3030731523379,
                    "y": 499.99886877828055
                },
                {
                    "x": 150.69523001508296,
                    "y": 499.99886877828055
                }
            ]
        },
        {
            "id": "lbEPPqBQx",
            "type": "RECTANGLE",
            "tags": [
                "tax"
            ],
            "boundingBox": {
                "height": 21.558823529411764,
                "width": 66.36500754147814,
                "left": 115.02403846153847,
                "top": 529.0203619909503
            },
            "points": [
                {
                    "x": 115.02403846153847,
                    "y": 529.0203619909503
                },
                {
                    "x": 181.3890460030166,
                    "y": 529.0203619909503
                },
                {
                    "x": 181.3890460030166,
                    "y": 550.579185520362
                },
                {
                    "x": 115.02403846153847,
                    "y": 550.579185520362
                }
            ]
        },
        {
            "id": "9AuZZ6J3I",
            "type": "RECTANGLE",
            "tags": [
                "tax"
            ],
            "boundingBox": {
                "height": 19.900452488687783,
                "width": 50.60331825037708,
                "left": 326.5625,
                "top": 543.1165158371041
            },
            "points": [
                {
                    "x": 326.5625,
                    "y": 543.1165158371041
                },
                {
                    "x": 377.1658182503771,
                    "y": 543.1165158371041
                },
                {
                    "x": 377.1658182503771,
                    "y": 563.0169683257919
                },
                {
                    "x": 326.5625,
                    "y": 563.0169683257919
                }
            ]
        },
        {
            "id": "L9HvJyH99",
            "type": "RECTANGLE",
            "tags": [
                "amount_details"
            ],
            "boundingBox": {
                "height": 26.533936651583712,
                "width": 109.50226244343892,
                "left": 312.4599358974359,
                "top": 505.80316742081453
            },
            "points": [
                {
                    "x": 312.4599358974359,
                    "y": 505.80316742081453
                },
                {
                    "x": 421.96219834087486,
                    "y": 505.80316742081453
                },
                {
                    "x": 421.96219834087486,
                    "y": 532.3371040723982
                },
                {
                    "x": 312.4599358974359,
                    "y": 532.3371040723982
                }
            ]
        }
    ],
    "version": "2.2.0"
}