{
    "asset": {
        "format": "jpg",
        "id": "35efe9839e6f5c210aeb32f9aad24b47",
        "name": "02323-receipt.jpg",
        "path": "file:/home/administrator/ocr/Train-OCR/TrainYourOwnYOLO/Data/receipts_Source_Images/Train_receipt/02323-receipt.jpg",
        "size": {
            "width": 348,
            "height": 348
        },
        "state": 2,
        "type": 1
    },
    "regions": [
        {
            "id": "a96j5xtD9",
            "type": "RECTANGLE",
            "tags": [
                "Shop_Name"
            ],
            "boundingBox": {
                "height": 14.959276018099548,
                "width": 90.14932126696833,
                "left": 115.1470588235294,
                "top": 54.71945701357466
            },
            "points": [
                {
                    "x": 115.1470588235294,
                    "y": 54.71945701357466
                },
                {
                    "x": 205.29638009049773,
                    "y": 54.71945701357466
                },
                {
                    "x": 205.29638009049773,
                    "y": 69.67873303167421
                },
                {
                    "x": 115.1470588235294,
                    "y": 69.67873303167421
                }
            ]
        },
        {
            "id": "M0R0gVQjV",
            "type": "RECTANGLE",
            "tags": [
                "Shop_Logo"
            ],
            "boundingBox": {
                "height": 17.32126696832579,
                "width": 21.651583710407238,
                "left": 148.60859728506787,
                "top": 37.39819004524887
            },
            "points": [
                {
                    "x": 148.60859728506787,
                    "y": 37.39819004524887
                },
                {
                    "x": 170.2601809954751,
                    "y": 37.39819004524887
                },
                {
                    "x": 170.2601809954751,
                    "y": 54.71945701357466
                },
                {
                    "x": 148.60859728506787,
                    "y": 54.71945701357466
                }
            ]
        },
        {
            "id": "RfjHdBj3g",
            "type": "RECTANGLE",
            "tags": [
                "Shop_Address"
            ],
            "boundingBox": {
                "height": 24.013574660633484,
                "width": 133.05882352941177,
                "left": 95.85746606334841,
                "top": 89.75565610859728
            },
            "points": [
                {
                    "x": 95.85746606334841,
                    "y": 89.75565610859728
                },
                {
                    "x": 228.91628959276017,
                    "y": 89.75565610859728
                },
                {
                    "x": 228.91628959276017,
                    "y": 113.76923076923076
                },
                {
                    "x": 95.85746606334841,
                    "y": 113.76923076923076
                }
            ]
        },
        {
            "id": "AJ1WLXYCp",
            "type": "RECTANGLE",
            "tags": [
                "Mobile_no"
            ],
            "boundingBox": {
                "height": 11.416289592760181,
                "width": 48.42081447963801,
                "left": 156.48190045248867,
                "top": 114.16289592760181
            },
            "points": [
                {
                    "x": 156.48190045248867,
                    "y": 114.16289592760181
                },
                {
                    "x": 204.90271493212668,
                    "y": 114.16289592760181
                },
                {
                    "x": 204.90271493212668,
                    "y": 125.57918552036199
                },
                {
                    "x": 156.48190045248867,
                    "y": 125.57918552036199
                }
            ]
        },
        {
            "id": "F04Ash2yT",
            "type": "RECTANGLE",
            "tags": [
                "Content_Items"
            ],
            "boundingBox": {
                "height": 46.05882352941176,
                "width": 147.62443438914028,
                "left": 117.9027149321267,
                "top": 196.0452488687783
            },
            "points": [
                {
                    "x": 117.9027149321267,
                    "y": 196.0452488687783
                },
                {
                    "x": 265.52714932126696,
                    "y": 196.0452488687783
                },
                {
                    "x": 265.52714932126696,
                    "y": 242.10407239819003
                },
                {
                    "x": 117.9027149321267,
                    "y": 242.10407239819003
                }
            ]
        },
        {
            "id": "fRWC3BN5H",
            "type": "RECTANGLE",
            "tags": [
                "amount_details"
            ],
            "boundingBox": {
                "height": 12.597285067873303,
                "width": 35.8235294117647,
                "left": 221.04298642533936,
                "top": 275.17194570135746
            },
            "points": [
                {
                    "x": 221.04298642533936,
                    "y": 275.17194570135746
                },
                {
                    "x": 256.8665158371041,
                    "y": 275.17194570135746
                },
                {
                    "x": 256.8665158371041,
                    "y": 287.7692307692308
                },
                {
                    "x": 221.04298642533936,
                    "y": 287.7692307692308
                }
            ]
        }
    ],
    "version": "2.2.0"
}