{
    "asset": {
        "format": "jpg",
        "id": "360578b6db6ad8c251d9be69dea72ebe",
        "name": "00032-receipt.jpg",
        "path": "file:/home/administrator/ocr/Train-OCR/TrainYourOwnYOLO/Data/receipts_Source_Images/Train_receipt/00032-receipt.jpg",
        "size": {
            "width": 750,
            "height": 1000
        },
        "state": 2,
        "type": 1
    },
    "regions": [
        {
            "id": "AfR8KxlUJ",
            "type": "RECTANGLE",
            "tags": [
                "Shop_Name",
                "Shop_Address"
            ],
            "boundingBox": {
                "height": 31.67420814479638,
                "width": 211.53846153846155,
                "left": 230.20361990950227,
                "top": 100.67873303167421
            },
            "points": [
                {
                    "x": 230.20361990950227,
                    "y": 100.67873303167421
                },
                {
                    "x": 441.7420814479638,
                    "y": 100.67873303167421
                },
                {
                    "x": 441.7420814479638,
                    "y": 132.35294117647058
                },
                {
                    "x": 230.20361990950227,
                    "y": 132.35294117647058
                }
            ]
        },
        {
            "id": "vWh7xJG4a",
            "type": "RECTANGLE",
            "tags": [
                "Mobile_no"
            ],
            "boundingBox": {
                "height": 28.28054298642534,
                "width": 165.15837104072398,
                "left": 296.9457013574661,
                "top": 124.43438914027149
            },
            "points": [
                {
                    "x": 296.9457013574661,
                    "y": 124.43438914027149
                },
                {
                    "x": 462.10407239819006,
                    "y": 124.43438914027149
                },
                {
                    "x": 462.10407239819006,
                    "y": 152.71493212669682
                },
                {
                    "x": 296.9457013574661,
                    "y": 152.71493212669682
                }
            ]
        },
        {
            "id": "JPCANxVQl",
            "type": "RECTANGLE",
            "tags": [
                "Date"
            ],
            "boundingBox": {
                "height": 23.755656108597286,
                "width": 92.76018099547511,
                "left": 161.19909502262442,
                "top": 205.88235294117646
            },
            "points": [
                {
                    "x": 161.19909502262442,
                    "y": 205.88235294117646
                },
                {
                    "x": 253.95927601809953,
                    "y": 205.88235294117646
                },
                {
                    "x": 253.95927601809953,
                    "y": 229.63800904977376
                },
                {
                    "x": 161.19909502262442,
                    "y": 229.63800904977376
                }
            ]
        },
        {
            "id": "oFPmk5Aa6",
            "type": "POLYGON",
            "tags": [
                "Content_Items"
            ],
            "boundingBox": {
                "height": 404.9773755656108,
                "width": 472.85067873303166,
                "left": 118.21266968325791,
                "top": 260.1809954751131
            },
            "points": [
                {
                    "x": 118.21266968325791,
                    "y": 281.67420814479635
                },
                {
                    "x": 559.3891402714931,
                    "y": 261.3122171945701
                },
                {
                    "x": 572.9638009049773,
                    "y": 260.1809954751131
                },
                {
                    "x": 591.0633484162896,
                    "y": 652.7149321266968
                },
                {
                    "x": 129.52488687782804,
                    "y": 665.158371040724
                },
                {
                    "x": 118.21266968325791,
                    "y": 281.67420814479635
                }
            ]
        },
        {
            "id": "cxiC-eMkB",
            "type": "RECTANGLE",
            "tags": [
                "tax"
            ],
            "boundingBox": {
                "height": 35.06787330316742,
                "width": 158.3710407239819,
                "left": 436.65158371040724,
                "top": 791.8552036199095
            },
            "points": [
                {
                    "x": 436.65158371040724,
                    "y": 791.8552036199095
                },
                {
                    "x": 595.0226244343892,
                    "y": 791.8552036199095
                },
                {
                    "x": 595.0226244343892,
                    "y": 826.9230769230769
                },
                {
                    "x": 436.65158371040724,
                    "y": 826.9230769230769
                }
            ]
        },
        {
            "id": "8ROEInUiI",
            "type": "RECTANGLE",
            "tags": [
                "tax"
            ],
            "boundingBox": {
                "height": 24.8868778280543,
                "width": 319.00452488687785,
                "left": 264.70588235294116,
                "top": 738.6877828054298
            },
            "points": [
                {
                    "x": 264.70588235294116,
                    "y": 738.6877828054298
                },
                {
                    "x": 583.710407239819,
                    "y": 738.6877828054298
                },
                {
                    "x": 583.710407239819,
                    "y": 763.5746606334842
                },
                {
                    "x": 264.70588235294116,
                    "y": 763.5746606334842
                }
            ]
        }
    ],
    "version": "2.2.0"
}