{
    "asset": {
        "format": "jpg",
        "id": "361a6e95bc13f43a75f63952a9b4d2f9",
        "name": "02217-receipt.jpg",
        "path": "file:/home/administrator/ocr/Train-OCR/TrainYourOwnYOLO/Data/receipts_Source_Images/Train_receipt/02217-receipt.jpg",
        "size": {
            "width": 348,
            "height": 348
        },
        "state": 2,
        "type": 1
    },
    "regions": [
        {
            "id": "O_QaYdmZ1",
            "type": "RECTANGLE",
            "tags": [
                "Shop_Name"
            ],
            "boundingBox": {
                "height": 43.303167420814475,
                "width": 225.17647058823528,
                "left": 23.02941176470588,
                "top": 79.91402714932127
            },
            "points": [
                {
                    "x": 23.02941176470588,
                    "y": 79.91402714932127
                },
                {
                    "x": 248.20588235294116,
                    "y": 79.91402714932127
                },
                {
                    "x": 248.20588235294116,
                    "y": 123.21719457013575
                },
                {
                    "x": 23.02941176470588,
                    "y": 123.21719457013575
                }
            ]
        },
        {
            "id": "J27czvK58",
            "type": "RECTANGLE",
            "tags": [
                "Shop_Address"
            ],
            "boundingBox": {
                "height": 45.665158371040725,
                "width": 236.98642533936652,
                "left": 16.33710407239819,
                "top": 136.60180995475113
            },
            "points": [
                {
                    "x": 16.33710407239819,
                    "y": 136.60180995475113
                },
                {
                    "x": 253.3235294117647,
                    "y": 136.60180995475113
                },
                {
                    "x": 253.3235294117647,
                    "y": 182.26696832579185
                },
                {
                    "x": 16.33710407239819,
                    "y": 182.26696832579185
                }
            ]
        },
        {
            "id": "DNf7pShKV",
            "type": "RECTANGLE",
            "tags": [
                "Content_Items"
            ],
            "boundingBox": {
                "height": 103.92760180995475,
                "width": 258.44117647058823,
                "left": 0,
                "top": 242.49773755656108
            },
            "points": [
                {
                    "x": 0,
                    "y": 242.49773755656108
                },
                {
                    "x": 258.44117647058823,
                    "y": 242.49773755656108
                },
                {
                    "x": 258.44117647058823,
                    "y": 346.4253393665158
                },
                {
                    "x": 0,
                    "y": 346.4253393665158
                }
            ]
        }
    ],
    "version": "2.2.0"
}