{
    "asset": {
        "format": "jpg",
        "id": "39af18969deea5840a69eaa9d96470dc",
        "name": "1003-receipt.jpg",
        "path": "file:/home/administrator/ocr/Train-OCR/TrainYourOwnYOLO/Data/receipts_Source_Images/Train_receipt/1003-receipt.jpg",
        "size": {
            "width": 750,
            "height": 1000
        },
        "state": 2,
        "type": 1
    },
    "regions": [
        {
            "id": "rxd7NQ-Az",
            "type": "RECTANGLE",
            "tags": [
                "Shop_Name"
            ],
            "boundingBox": {
                "height": 37.33031674208145,
                "width": 176.47058823529412,
                "left": 263.00904977375563,
                "top": 118.77828054298642
            },
            "points": [
                {
                    "x": 263.00904977375563,
                    "y": 118.77828054298642
                },
                {
                    "x": 439.4796380090498,
                    "y": 118.77828054298642
                },
                {
                    "x": 439.4796380090498,
                    "y": 156.10859728506787
                },
                {
                    "x": 263.00904977375563,
                    "y": 156.10859728506787
                }
            ]
        },
        {
            "id": "WPYBKFHtM",
            "type": "RECTANGLE",
            "tags": [
                "Shop_Address"
            ],
            "boundingBox": {
                "height": 46.380090497737555,
                "width": 165.15837104072398,
                "left": 273.1900452488688,
                "top": 151.5837104072398
            },
            "points": [
                {
                    "x": 273.1900452488688,
                    "y": 151.5837104072398
                },
                {
                    "x": 438.34841628959276,
                    "y": 151.5837104072398
                },
                {
                    "x": 438.34841628959276,
                    "y": 197.96380090497738
                },
                {
                    "x": 273.1900452488688,
                    "y": 197.96380090497738
                }
            ]
        },
        {
            "id": "RCLabmv6e",
            "type": "RECTANGLE",
            "tags": [
                "Content_Items"
            ],
            "boundingBox": {
                "height": 85.97285067873302,
                "width": 348.41628959276017,
                "left": 181.56108597285066,
                "top": 359.72850678733033
            },
            "points": [
                {
                    "x": 181.56108597285066,
                    "y": 359.72850678733033
                },
                {
                    "x": 529.9773755656108,
                    "y": 359.72850678733033
                },
                {
                    "x": 529.9773755656108,
                    "y": 445.7013574660633
                },
                {
                    "x": 181.56108597285066,
                    "y": 445.7013574660633
                }
            ]
        },
        {
            "id": "nDyGlza7S",
            "type": "RECTANGLE",
            "tags": [
                "tax"
            ],
            "boundingBox": {
                "height": 35.06787330316742,
                "width": 57.69230769230769,
                "left": 475.6787330316742,
                "top": 461.53846153846155
            },
            "points": [
                {
                    "x": 475.6787330316742,
                    "y": 461.53846153846155
                },
                {
                    "x": 533.3710407239819,
                    "y": 461.53846153846155
                },
                {
                    "x": 533.3710407239819,
                    "y": 496.60633484162895
                },
                {
                    "x": 475.6787330316742,
                    "y": 496.60633484162895
                }
            ]
        },
        {
            "id": "eMExxCAhe",
            "type": "RECTANGLE",
            "tags": [
                "Date"
            ],
            "boundingBox": {
                "height": 24.8868778280543,
                "width": 79.18552036199095,
                "left": 301.4705882352941,
                "top": 644.7963800904977
            },
            "points": [
                {
                    "x": 301.4705882352941,
                    "y": 644.7963800904977
                },
                {
                    "x": 380.6561085972851,
                    "y": 644.7963800904977
                },
                {
                    "x": 380.6561085972851,
                    "y": 669.683257918552
                },
                {
                    "x": 301.4705882352941,
                    "y": 669.683257918552
                }
            ]
        }
    ],
    "version": "2.2.0"
}