{
    "asset": {
        "format": "jpg",
        "id": "39e18800072770a9ba77721ddbad2537",
        "name": "08407-receipt.jpg",
        "path": "file:/home/administrator/ocr/Train-OCR/TrainYourOwnYOLO/Data/receipts_Source_Images/Train_receipt/08407-receipt.jpg",
        "size": {
            "width": 450,
            "height": 450
        },
        "state": 2,
        "type": 1
    },
    "regions": [
        {
            "id": "prZI2TRTb",
            "type": "RECTANGLE",
            "tags": [
                "Shop_Name"
            ],
            "boundingBox": {
                "height": 19.852941176470587,
                "width": 97.2285067873303,
                "left": 166.45927601809953,
                "top": 30.542986425339365
            },
            "points": [
                {
                    "x": 166.45927601809953,
                    "y": 30.542986425339365
                },
                {
                    "x": 263.68778280542983,
                    "y": 30.542986425339365
                },
                {
                    "x": 263.68778280542983,
                    "y": 50.39592760180995
                },
                {
                    "x": 166.45927601809953,
                    "y": 50.39592760180995
                }
            ]
        },
        {
            "id": "wHOjktf1I",
            "type": "RECTANGLE",
            "tags": [
                "Shop_Address"
            ],
            "boundingBox": {
                "height": 24.43438914027149,
                "width": 173.07692307692307,
                "left": 120.13574660633483,
                "top": 50.90497737556561
            },
            "points": [
                {
                    "x": 120.13574660633483,
                    "y": 50.90497737556561
                },
                {
                    "x": 293.2126696832579,
                    "y": 50.90497737556561
                },
                {
                    "x": 293.2126696832579,
                    "y": 75.3393665158371
                },
                {
                    "x": 120.13574660633483,
                    "y": 75.3393665158371
                }
            ]
        },
        {
            "id": "ZU-6tBKbg",
            "type": "RECTANGLE",
            "tags": [
                "Mobile_no"
            ],
            "boundingBox": {
                "height": 18.32579185520362,
                "width": 103.84615384615384,
                "left": 171.5497737556561,
                "top": 97.2285067873303
            },
            "points": [
                {
                    "x": 171.5497737556561,
                    "y": 97.2285067873303
                },
                {
                    "x": 275.39592760180994,
                    "y": 97.2285067873303
                },
                {
                    "x": 275.39592760180994,
                    "y": 115.55429864253392
                },
                {
                    "x": 171.5497737556561,
                    "y": 115.55429864253392
                }
            ]
        },
        {
            "id": "fkedDjEMf",
            "type": "RECTANGLE",
            "tags": [
                "Content_Items"
            ],
            "boundingBox": {
                "height": 58.54072398190045,
                "width": 289.14027149321265,
                "left": 96.210407239819,
                "top": 175.62217194570135
            },
            "points": [
                {
                    "x": 96.210407239819,
                    "y": 175.62217194570135
                },
                {
                    "x": 385.35067873303166,
                    "y": 175.62217194570135
                },
                {
                    "x": 385.35067873303166,
                    "y": 234.1628959276018
                },
                {
                    "x": 96.210407239819,
                    "y": 234.1628959276018
                }
            ]
        },
        {
            "id": "jTP_L1Wuv",
            "type": "RECTANGLE",
            "tags": [
                "amount_details"
            ],
            "boundingBox": {
                "height": 24.43438914027149,
                "width": 111.99095022624434,
                "left": 285.57692307692304,
                "top": 240.27149321266967
            },
            "points": [
                {
                    "x": 285.57692307692304,
                    "y": 240.27149321266967
                },
                {
                    "x": 397.5678733031674,
                    "y": 240.27149321266967
                },
                {
                    "x": 397.5678733031674,
                    "y": 264.70588235294116
                },
                {
                    "x": 285.57692307692304,
                    "y": 264.70588235294116
                }
            ]
        }
    ],
    "version": "2.2.0"
}