{
    "asset": {
        "format": "jpg",
        "id": "3a7e8eb5e9a48d6fbe179e36f729ad48",
        "name": "08870-receipt.jpg",
        "path": "file:/home/administrator/ocr/Train-OCR/TrainYourOwnYOLO/Data/receipts_Source_Images/Train_receipt/08870-receipt.jpg",
        "size": {
            "width": 253,
            "height": 450
        },
        "state": 2,
        "type": 1
    },
    "regions": [
        {
            "id": "0Jc1wZbML",
            "type": "RECTANGLE",
            "tags": [
                "Shop_Name"
            ],
            "boundingBox": {
                "height": 23.925339366515836,
                "width": 164.42454728370222,
                "left": 46.586424798792756,
                "top": 23.925339366515836
            },
            "points": [
                {
                    "x": 46.586424798792756,
                    "y": 23.925339366515836
                },
                {
                    "x": 211.01097208249496,
                    "y": 23.925339366515836
                },
                {
                    "x": 211.01097208249496,
                    "y": 47.85067873303167
                },
                {
                    "x": 46.586424798792756,
                    "y": 47.85067873303167
                }
            ]
        },
        {
            "id": "GGq5YPbM-",
            "type": "RECTANGLE",
            "tags": [
                "Content_Items"
            ],
            "boundingBox": {
                "height": 111.48190045248867,
                "width": 203.62173038229378,
                "left": 32.332903672032195,
                "top": 206.16515837104072
            },
            "points": [
                {
                    "x": 32.332903672032195,
                    "y": 206.16515837104072
                },
                {
                    "x": 235.95463405432596,
                    "y": 206.16515837104072
                },
                {
                    "x": 235.95463405432596,
                    "y": 317.6470588235294
                },
                {
                    "x": 32.332903672032195,
                    "y": 317.6470588235294
                }
            ]
        },
        {
            "id": "YAXj7a7pw",
            "type": "RECTANGLE",
            "tags": [
                "amount_details"
            ],
            "boundingBox": {
                "height": 17.816742081447963,
                "width": 71.77665995975855,
                "left": 147.8882356639839,
                "top": 318.6651583710407
            },
            "points": [
                {
                    "x": 147.8882356639839,
                    "y": 318.6651583710407
                },
                {
                    "x": 219.66489562374247,
                    "y": 318.6651583710407
                },
                {
                    "x": 219.66489562374247,
                    "y": 336.4819004524887
                },
                {
                    "x": 147.8882356639839,
                    "y": 336.4819004524887
                }
            ]
        },
        {
            "id": "TnlJJqJ-U",
            "type": "RECTANGLE",
            "tags": [
                "Date"
            ],
            "boundingBox": {
                "height": 17.307692307692307,
                "width": 54.97786720321932,
                "left": 78.65684733400403,
                "top": 128.28054298642533
            },
            "points": [
                {
                    "x": 78.65684733400403,
                    "y": 128.28054298642533
                },
                {
                    "x": 133.63471453722335,
                    "y": 128.28054298642533
                },
                {
                    "x": 133.63471453722335,
                    "y": 145.58823529411762
                },
                {
                    "x": 78.65684733400403,
                    "y": 145.58823529411762
                }
            ]
        }
    ],
    "version": "2.2.0"
}