{
    "asset": {
        "format": "jpg",
        "id": "3f55aed987aeb834e74e87e70d2c651b",
        "name": "08986-receipt.jpg",
        "path": "file:/home/administrator/ocr/Train-OCR/TrainYourOwnYOLO/Data/receipts_Source_Images/Train_receipt/08986-receipt.jpg",
        "size": {
            "width": 338,
            "height": 450
        },
        "state": 2,
        "type": 1
    },
    "regions": [
        {
            "id": "nLMZoDkw4",
            "type": "POLYGON",
            "tags": [
                "Shop_Name"
            ],
            "boundingBox": {
                "height": 37.160633484162894,
                "width": 79.91867469879519,
                "left": 109.95180722891567,
                "top": 115.55429864253392
            },
            "points": [
                {
                    "x": 116.56927710843374,
                    "y": 115.55429864253392
                },
                {
                    "x": 189.87048192771084,
                    "y": 136.42533936651583
                },
                {
                    "x": 181.21686746987953,
                    "y": 152.71493212669682
                },
                {
                    "x": 109.95180722891567,
                    "y": 129.29864253393663
                }
            ]
        },
        {
            "id": "CvZ8-sJ9M",
            "type": "POLYGON",
            "tags": [
                "Date"
            ],
            "boundingBox": {
                "height": 37.160633484162894,
                "width": 85.00903614457832,
                "left": 78.90060240963855,
                "top": 208.710407239819
            },
            "points": [
                {
                    "x": 81.95481927710843,
                    "y": 208.710407239819
                },
                {
                    "x": 163.90963855421685,
                    "y": 233.65384615384613
                },
                {
                    "x": 155.25602409638554,
                    "y": 245.87104072398188
                },
                {
                    "x": 78.90060240963855,
                    "y": 222.4547511312217
                }
            ]
        },
        {
            "id": "r_dYNeBjQ",
            "type": "POLYGON",
            "tags": [
                "Content_Items"
            ],
            "boundingBox": {
                "height": 160.85972850678732,
                "width": 228.55722891566265,
                "left": 46.83132530120482,
                "top": 234.67194570135746
            },
            "points": [
                {
                    "x": 46.83132530120482,
                    "y": 333.9366515837104
                },
                {
                    "x": 250.95481927710844,
                    "y": 395.53167420814475
                },
                {
                    "x": 275.3885542168675,
                    "y": 289.6493212669683
                },
                {
                    "x": 76.355421686747,
                    "y": 234.67194570135746
                }
            ]
        },
        {
            "id": "TbdXnvaHi",
            "type": "POLYGON",
            "tags": [
                "amount_details"
            ],
            "boundingBox": {
                "height": 51.414027149321264,
                "width": 89.59036144578313,
                "left": 162.89156626506025,
                "top": 381.78733031674204
            },
            "points": [
                {
                    "x": 162.89156626506025,
                    "y": 406.7307692307692
                },
                {
                    "x": 245.8644578313253,
                    "y": 433.2013574660633
                },
                {
                    "x": 252.48192771084337,
                    "y": 406.7307692307692
                },
                {
                    "x": 172.05421686746988,
                    "y": 381.78733031674204
                }
            ]
        }
    ],
    "version": "2.2.0"
}