{
    "asset": {
        "format": "jpg",
        "id": "40ebac33cb41f4b51b4927d2c98aba3b",
        "name": "08703-receipt.jpg",
        "path": "file:/home/administrator/ocr/Train-OCR/TrainYourOwnYOLO/Data/receipts_Source_Images/Train_receipt/08703-receipt.jpg",
        "size": {
            "width": 253,
            "height": 450
        },
        "state": 2,
        "type": 1
    },
    "regions": [
        {
            "id": "eod8Swd3j",
            "type": "RECTANGLE",
            "tags": [
                "Shop_Name"
            ],
            "boundingBox": {
                "height": 40.723981900452486,
                "width": 156.7887323943662,
                "left": 50.9133865694165,
                "top": 42.251131221719454
            },
            "points": [
                {
                    "x": 50.9133865694165,
                    "y": 42.251131221719454
                },
                {
                    "x": 207.7021189637827,
                    "y": 42.251131221719454
                },
                {
                    "x": 207.7021189637827,
                    "y": 82.97511312217193
                },
                {
                    "x": 50.9133865694165,
                    "y": 82.97511312217193
                }
            ]
        },
        {
            "id": "OEw1iz6P_",
            "type": "RECTANGLE",
            "tags": [
                "Content_Items"
            ],
            "boundingBox": {
                "height": 36.14253393665158,
                "width": 195.98591549295776,
                "left": 29.02405055331992,
                "top": 223.98190045248867
            },
            "points": [
                {
                    "x": 29.02405055331992,
                    "y": 223.98190045248867
                },
                {
                    "x": 225.00996604627767,
                    "y": 223.98190045248867
                },
                {
                    "x": 225.00996604627767,
                    "y": 260.1244343891403
                },
                {
                    "x": 29.02405055331992,
                    "y": 260.1244343891403
                }
            ]
        },
        {
            "id": "AS4cNBXI6",
            "type": "RECTANGLE",
            "tags": [
                "amount_details"
            ],
            "boundingBox": {
                "height": 20.361990950226243,
                "width": 58.032193158953724,
                "left": 171.55926182092554,
                "top": 264.70588235294116
            },
            "points": [
                {
                    "x": 171.55926182092554,
                    "y": 264.70588235294116
                },
                {
                    "x": 229.59145497987927,
                    "y": 264.70588235294116
                },
                {
                    "x": 229.59145497987927,
                    "y": 285.0678733031674
                },
                {
                    "x": 171.55926182092554,
                    "y": 285.0678733031674
                }
            ]
        },
        {
            "id": "ZYo9pId6P",
            "type": "RECTANGLE",
            "tags": [
                "tax"
            ],
            "boundingBox": {
                "height": 11.199095022624434,
                "width": 27.997987927565394,
                "left": 143.05221956740442,
                "top": 305.9389140271493
            },
            "points": [
                {
                    "x": 143.05221956740442,
                    "y": 305.9389140271493
                },
                {
                    "x": 171.0502074949698,
                    "y": 305.9389140271493
                },
                {
                    "x": 171.0502074949698,
                    "y": 317.13800904977376
                },
                {
                    "x": 143.05221956740442,
                    "y": 317.13800904977376
                }
            ]
        },
        {
            "id": "3wP99FhJG",
            "type": "RECTANGLE",
            "tags": [
                "Mobile_no"
            ],
            "boundingBox": {
                "height": 14.762443438914026,
                "width": 70.24949698189135,
                "left": 38.18702842052314,
                "top": 187.33031674208144
            },
            "points": [
                {
                    "x": 38.18702842052314,
                    "y": 187.33031674208144
                },
                {
                    "x": 108.43652540241449,
                    "y": 187.33031674208144
                },
                {
                    "x": 108.43652540241449,
                    "y": 202.09276018099547
                },
                {
                    "x": 38.18702842052314,
                    "y": 202.09276018099547
                }
            ]
        }
    ],
    "version": "2.2.0"
}