{
    "asset": {
        "format": "jpg",
        "id": "412941dd2363fa8e71bb004d0374fa93",
        "name": "08387-receipt.jpg",
        "path": "file:/home/administrator/ocr/Train-OCR/TrainYourOwnYOLO/Data/receipts_Source_Images/Train_receipt/08387-receipt.jpg",
        "size": {
            "width": 550,
            "height": 550
        },
        "state": 2,
        "type": 1
    },
    "regions": [
        {
            "id": "t4KNC0DOu",
            "type": "RECTANGLE",
            "tags": [
                "Mobile_no"
            ],
            "boundingBox": {
                "height": 32.35294117647059,
                "width": 149.3212669683258,
                "left": 262.5565610859729,
                "top": 35.463800904977376
            },
            "points": [
                {
                    "x": 262.5565610859729,
                    "y": 35.463800904977376
                },
                {
                    "x": 411.8778280542987,
                    "y": 35.463800904977376
                },
                {
                    "x": 411.8778280542987,
                    "y": 67.81674208144797
                },
                {
                    "x": 262.5565610859729,
                    "y": 67.81674208144797
                }
            ]
        },
        {
            "id": "D5oUYS9Jl",
            "type": "RECTANGLE",
            "tags": [
                "Content_Items"
            ],
            "boundingBox": {
                "height": 108.2579185520362,
                "width": 401.9230769230769,
                "left": 115.10180995475113,
                "top": 209.67194570135746
            },
            "points": [
                {
                    "x": 115.10180995475113,
                    "y": 209.67194570135746
                },
                {
                    "x": 517.0248868778281,
                    "y": 209.67194570135746
                },
                {
                    "x": 517.0248868778281,
                    "y": 317.92986425339365
                },
                {
                    "x": 115.10180995475113,
                    "y": 317.92986425339365
                }
            ]
        },
        {
            "id": "Al0UL6Qwi",
            "type": "RECTANGLE",
            "tags": [
                "amount_details"
            ],
            "boundingBox": {
                "height": 41.68552036199095,
                "width": 66.57239819004525,
                "left": 438.631221719457,
                "top": 342.81674208144796
            },
            "points": [
                {
                    "x": 438.631221719457,
                    "y": 342.81674208144796
                },
                {
                    "x": 505.20361990950227,
                    "y": 342.81674208144796
                },
                {
                    "x": 505.20361990950227,
                    "y": 384.5022624434389
                },
                {
                    "x": 438.631221719457,
                    "y": 384.5022624434389
                }
            ]
        },
        {
            "id": "VIdRYJ1C7",
            "type": "RECTANGLE",
            "tags": [
                "tax"
            ],
            "boundingBox": {
                "height": 26.75339366515837,
                "width": 92.08144796380091,
                "left": 88.03733031674209,
                "top": 462.2737556561086
            },
            "points": [
                {
                    "x": 88.03733031674209,
                    "y": 462.2737556561086
                },
                {
                    "x": 180.11877828054298,
                    "y": 462.2737556561086
                },
                {
                    "x": 180.11877828054298,
                    "y": 489.02714932126696
                },
                {
                    "x": 88.03733031674209,
                    "y": 489.02714932126696
                }
            ]
        },
        {
            "id": "WSrgIqdhB",
            "type": "RECTANGLE",
            "tags": [
                "tax"
            ],
            "boundingBox": {
                "height": 27.37556561085973,
                "width": 50.39592760180996,
                "left": 295.84276018099547,
                "top": 461.0294117647059
            },
            "points": [
                {
                    "x": 295.84276018099547,
                    "y": 461.0294117647059
                },
                {
                    "x": 346.2386877828054,
                    "y": 461.0294117647059
                },
                {
                    "x": 346.2386877828054,
                    "y": 488.40497737556564
                },
                {
                    "x": 295.84276018099547,
                    "y": 488.40497737556564
                }
            ]
        }
    ],
    "version": "2.2.0"
}