{
    "asset": {
        "format": "jpg",
        "id": "41ae7878aff6f22393c5ed331eb08a17",
        "name": "08507-receipt.jpg",
        "path": "file:/home/administrator/ocr/Train-OCR/TrainYourOwnYOLO/Data/receipts_Source_Images/Train_receipt/08507-receipt.jpg",
        "size": {
            "width": 338,
            "height": 450
        },
        "state": 2,
        "type": 1
    },
    "regions": [
        {
            "id": "jtc9l7jf2",
            "type": "RECTANGLE",
            "tags": [
                "Shop_Name"
            ],
            "boundingBox": {
                "height": 14.762443438914026,
                "width": 107.91566265060241,
                "left": 113.769578313253,
                "top": 39.705882352941174
            },
            "points": [
                {
                    "x": 113.769578313253,
                    "y": 39.705882352941174
                },
                {
                    "x": 221.68524096385542,
                    "y": 39.705882352941174
                },
                {
                    "x": 221.68524096385542,
                    "y": 54.4683257918552
                },
                {
                    "x": 113.769578313253,
                    "y": 54.4683257918552
                }
            ]
        },
        {
            "id": "ojzW2U4vH",
            "type": "RECTANGLE",
            "tags": [
                "Shop_Address"
            ],
            "boundingBox": {
                "height": 24.43438914027149,
                "width": 74.82831325301206,
                "left": 130.56777108433735,
                "top": 59.55882352941176
            },
            "points": [
                {
                    "x": 130.56777108433735,
                    "y": 59.55882352941176
                },
                {
                    "x": 205.3960843373494,
                    "y": 59.55882352941176
                },
                {
                    "x": 205.3960843373494,
                    "y": 83.99321266968326
                },
                {
                    "x": 130.56777108433735,
                    "y": 83.99321266968326
                }
            ]
        },
        {
            "id": "fOWYmorZf",
            "type": "RECTANGLE",
            "tags": [
                "Mobile_no"
            ],
            "boundingBox": {
                "height": 9.671945701357465,
                "width": 50.394578313253014,
                "left": 156.52861445783134,
                "top": 85.01131221719456
            },
            "points": [
                {
                    "x": 156.52861445783134,
                    "y": 85.01131221719456
                },
                {
                    "x": 206.92319277108433,
                    "y": 85.01131221719456
                },
                {
                    "x": 206.92319277108433,
                    "y": 94.68325791855203
                },
                {
                    "x": 156.52861445783134,
                    "y": 94.68325791855203
                }
            ]
        },
        {
            "id": "6nOD6eoAl",
            "type": "RECTANGLE",
            "tags": [
                "Date"
            ],
            "boundingBox": {
                "height": 7.126696832579185,
                "width": 39.19578313253012,
                "left": 147.36596385542168,
                "top": 102.31900452488688
            },
            "points": [
                {
                    "x": 147.36596385542168,
                    "y": 102.31900452488688
                },
                {
                    "x": 186.5617469879518,
                    "y": 102.31900452488688
                },
                {
                    "x": 186.5617469879518,
                    "y": 109.44570135746605
                },
                {
                    "x": 147.36596385542168,
                    "y": 109.44570135746605
                }
            ]
        },
        {
            "id": "wgvKBXr6U",
            "type": "RECTANGLE",
            "tags": [
                "Content_Items"
            ],
            "boundingBox": {
                "height": 54.977375565610856,
                "width": 147.62048192771084,
                "left": 104.09789156626506,
                "top": 204.63800904977376
            },
            "points": [
                {
                    "x": 104.09789156626506,
                    "y": 204.63800904977376
                },
                {
                    "x": 251.71837349397592,
                    "y": 204.63800904977376
                },
                {
                    "x": 251.71837349397592,
                    "y": 259.6153846153846
                },
                {
                    "x": 104.09789156626506,
                    "y": 259.6153846153846
                }
            ]
        },
        {
            "id": "jftphWCQc",
            "type": "RECTANGLE",
            "tags": [
                "amount_details"
            ],
            "boundingBox": {
                "height": 17.816742081447963,
                "width": 79.91867469879519,
                "left": 165.69126506024097,
                "top": 276.9230769230769
            },
            "points": [
                {
                    "x": 165.69126506024097,
                    "y": 276.9230769230769
                },
                {
                    "x": 245.60993975903614,
                    "y": 276.9230769230769
                },
                {
                    "x": 245.60993975903614,
                    "y": 294.73981900452486
                },
                {
                    "x": 165.69126506024097,
                    "y": 294.73981900452486
                }
            ]
        }
    ],
    "version": "2.2.0"
}