{
    "asset": {
        "format": "jpg",
        "id": "42d21e0d43c181ce8dad9bc1dbe32655",
        "name": "08710-receipt.jpg",
        "path": "file:/home/administrator/ocr/Train-OCR/TrainYourOwnYOLO/Data/receipts_Source_Images/Train_receipt/08710-receipt.jpg",
        "size": {
            "width": 338,
            "height": 450
        },
        "state": 2,
        "type": 1
    },
    "regions": [
        {
            "id": "Uhq8Tw8xb",
            "type": "RECTANGLE",
            "tags": [
                "Shop_Logo"
            ],
            "boundingBox": {
                "height": 46.83257918552036,
                "width": 77.88253012048193,
                "left": 116.8237951807229,
                "top": 74.32126696832579
            },
            "points": [
                {
                    "x": 116.8237951807229,
                    "y": 74.32126696832579
                },
                {
                    "x": 194.70632530120483,
                    "y": 74.32126696832579
                },
                {
                    "x": 194.70632530120483,
                    "y": 121.15384615384615
                },
                {
                    "x": 116.8237951807229,
                    "y": 121.15384615384615
                }
            ]
        },
        {
            "id": "FNsS2fiBl",
            "type": "RECTANGLE",
            "tags": [
                "Shop_Name"
            ],
            "boundingBox": {
                "height": 19.852941176470587,
                "width": 148.63855421686748,
                "left": 85.77259036144578,
                "top": 123.69909502262442
            },
            "points": [
                {
                    "x": 85.77259036144578,
                    "y": 123.69909502262442
                },
                {
                    "x": 234.41114457831324,
                    "y": 123.69909502262442
                },
                {
                    "x": 234.41114457831324,
                    "y": 143.55203619909503
                },
                {
                    "x": 85.77259036144578,
                    "y": 143.55203619909503
                }
            ]
        },
        {
            "id": "8CFuM1tfx",
            "type": "RECTANGLE",
            "tags": [
                "Mobile_no"
            ],
            "boundingBox": {
                "height": 13.235294117647058,
                "width": 60.066265060240966,
                "left": 132.6039156626506,
                "top": 156.2782805429864
            },
            "points": [
                {
                    "x": 132.6039156626506,
                    "y": 156.2782805429864
                },
                {
                    "x": 192.67018072289156,
                    "y": 156.2782805429864
                },
                {
                    "x": 192.67018072289156,
                    "y": 169.51357466063348
                },
                {
                    "x": 132.6039156626506,
                    "y": 169.51357466063348
                }
            ]
        },
        {
            "id": "UzKTMC0rD",
            "type": "RECTANGLE",
            "tags": [
                "Content_Items"
            ],
            "boundingBox": {
                "height": 104.86425339366515,
                "width": 194.1972891566265,
                "left": 61.5933734939759,
                "top": 213.80090497737555
            },
            "points": [
                {
                    "x": 61.5933734939759,
                    "y": 213.80090497737555
                },
                {
                    "x": 255.7906626506024,
                    "y": 213.80090497737555
                },
                {
                    "x": 255.7906626506024,
                    "y": 318.6651583710407
                },
                {
                    "x": 61.5933734939759,
                    "y": 318.6651583710407
                }
            ]
        },
        {
            "id": "KIpwkTagR",
            "type": "RECTANGLE",
            "tags": [
                "amount_details"
            ],
            "boundingBox": {
                "height": 18.32579185520362,
                "width": 58.53915662650603,
                "left": 195.72439759036143,
                "top": 318.6651583710407
            },
            "points": [
                {
                    "x": 195.72439759036143,
                    "y": 318.6651583710407
                },
                {
                    "x": 254.26355421686748,
                    "y": 318.6651583710407
                },
                {
                    "x": 254.26355421686748,
                    "y": 336.9909502262443
                },
                {
                    "x": 195.72439759036143,
                    "y": 336.9909502262443
                }
            ]
        },
        {
            "id": "SeWXzSnIK",
            "type": "RECTANGLE",
            "tags": [
                "Date"
            ],
            "boundingBox": {
                "height": 15.271493212669682,
                "width": 51.41265060240964,
                "left": 109.1882530120482,
                "top": 185.2941176470588
            },
            "points": [
                {
                    "x": 109.1882530120482,
                    "y": 185.2941176470588
                },
                {
                    "x": 160.60090361445782,
                    "y": 185.2941176470588
                },
                {
                    "x": 160.60090361445782,
                    "y": 200.5656108597285
                },
                {
                    "x": 109.1882530120482,
                    "y": 200.5656108597285
                }
            ]
        }
    ],
    "version": "2.2.0"
}