{
    "asset": {
        "format": "jpg",
        "id": "43725e36b09272d2cac65199a9b3cebc",
        "name": "PHOTO-2020-06-24-08-39-48%203.jpg",
        "path": "file:/home/administrator/ocr/Train-OCR/TrainYourOwnYOLO/Data/receipts_Source_Images/Train_receipt/PHOTO-2020-06-24-08-39-48%203.jpg",
        "size": {
            "width": 576,
            "height": 1024
        },
        "state": 2,
        "type": 1
    },
    "regions": [
        {
            "id": "LzeOCfomM",
            "type": "RECTANGLE",
            "tags": [
                "Shop_Logo"
            ],
            "boundingBox": {
                "height": 41.70135746606335,
                "width": 52.15291750503018,
                "left": 53.456740442655935,
                "top": 76.45248868778282
            },
            "points": [
                {
                    "x": 53.456740442655935,
                    "y": 76.45248868778282
                },
                {
                    "x": 105.60965794768612,
                    "y": 76.45248868778282
                },
                {
                    "x": 105.60965794768612,
                    "y": 118.15384615384616
                },
                {
                    "x": 53.456740442655935,
                    "y": 118.15384615384616
                }
            ]
        },
        {
            "id": "oOUiGEp08",
            "type": "RECTANGLE",
            "tags": [
                "Shop_Name"
            ],
            "boundingBox": {
                "height": 27.800904977375566,
                "width": 310.5995975855131,
                "left": 139.21931589537223,
                "top": 71.81900452488688
            },
            "points": [
                {
                    "x": 139.21931589537223,
                    "y": 71.81900452488688
                },
                {
                    "x": 449.8189134808853,
                    "y": 71.81900452488688
                },
                {
                    "x": 449.8189134808853,
                    "y": 99.61990950226246
                },
                {
                    "x": 139.21931589537223,
                    "y": 99.61990950226246
                }
            ]
        },
        {
            "id": "uI9zZPoFi",
            "type": "RECTANGLE",
            "tags": [
                "Content_Items"
            ],
            "boundingBox": {
                "height": 126.26244343891403,
                "width": 508.78068410462777,
                "left": 5.9396378269617705,
                "top": 282.6425339366516
            },
            "points": [
                {
                    "x": 5.9396378269617705,
                    "y": 282.6425339366516
                },
                {
                    "x": 514.7203219315895,
                    "y": 282.6425339366516
                },
                {
                    "x": 514.7203219315895,
                    "y": 408.90497737556564
                },
                {
                    "x": 5.9396378269617705,
                    "y": 408.90497737556564
                }
            ]
        },
        {
            "id": "GffLBcfTM",
            "type": "RECTANGLE",
            "tags": [
                "tax"
            ],
            "boundingBox": {
                "height": 46.33484162895928,
                "width": 176.16096579476863,
                "left": 351.30784708249496,
                "top": 600.0361990950227
            },
            "points": [
                {
                    "x": 351.30784708249496,
                    "y": 600.0361990950227
                },
                {
                    "x": 527.4688128772636,
                    "y": 600.0361990950227
                },
                {
                    "x": 527.4688128772636,
                    "y": 646.371040723982
                },
                {
                    "x": 351.30784708249496,
                    "y": 646.371040723982
                }
            ]
        },
        {
            "id": "wiqQYahjx",
            "type": "RECTANGLE",
            "tags": [
                "amount_details"
            ],
            "boundingBox": {
                "height": 19.692307692307693,
                "width": 70.69617706237425,
                "left": 456.7726358148893,
                "top": 573.393665158371
            },
            "points": [
                {
                    "x": 456.7726358148893,
                    "y": 573.393665158371
                },
                {
                    "x": 527.4688128772636,
                    "y": 573.393665158371
                },
                {
                    "x": 527.4688128772636,
                    "y": 593.0859728506788
                },
                {
                    "x": 456.7726358148893,
                    "y": 593.0859728506788
                }
            ]
        },
        {
            "id": "K8mTh7kA3",
            "type": "RECTANGLE",
            "tags": [
                "Shop_Address"
            ],
            "boundingBox": {
                "height": 55.60180995475113,
                "width": 202.81690140845072,
                "left": 17.529175050301813,
                "top": 192.28959276018102
            },
            "points": [
                {
                    "x": 17.529175050301813,
                    "y": 192.28959276018102
                },
                {
                    "x": 220.34607645875252,
                    "y": 192.28959276018102
                },
                {
                    "x": 220.34607645875252,
                    "y": 247.89140271493216
                },
                {
                    "x": 17.529175050301813,
                    "y": 247.89140271493216
                }
            ]
        }
    ],
    "version": "2.2.0"
}