{
    "asset": {
        "format": "jpg",
        "id": "4465d387026914afe8c8075fc06a3934",
        "name": "10107-receipt.jpg",
        "path": "file:/home/administrator/ocr/Train-OCR/TrainYourOwnYOLO/Data/receipts_Source_Images/Train_receipt/10107-receipt.jpg",
        "size": {
            "width": 253,
            "height": 450
        },
        "state": 2,
        "type": 1
    },
    "regions": [
        {
            "id": "ve8_Le1zI",
            "type": "RECTANGLE",
            "tags": [
                "Shop_Name"
            ],
            "boundingBox": {
                "height": 8.653846153846153,
                "width": 70.75855130784709,
                "left": 52.69507671026157,
                "top": 72.79411764705881
            },
            "points": [
                {
                    "x": 52.69507671026157,
                    "y": 72.79411764705881
                },
                {
                    "x": 123.45362801810866,
                    "y": 72.79411764705881
                },
                {
                    "x": 123.45362801810866,
                    "y": 81.44796380090497
                },
                {
                    "x": 52.69507671026157,
                    "y": 81.44796380090497
                }
            ]
        },
        {
            "id": "qaSNlDohJ",
            "type": "RECTANGLE",
            "tags": [
                "Shop_Address"
            ],
            "boundingBox": {
                "height": 53.959276018099544,
                "width": 123.94677439637827,
                "left": 53.713185362173036,
                "top": 80.42986425339366
            },
            "points": [
                {
                    "x": 53.713185362173036,
                    "y": 80.42986425339366
                },
                {
                    "x": 177.6599597585513,
                    "y": 80.42986425339366
                },
                {
                    "x": 177.6599597585513,
                    "y": 134.3891402714932
                },
                {
                    "x": 53.713185362173036,
                    "y": 134.3891402714932
                }
            ]
        },
        {
            "id": "1YprJM3Aw",
            "type": "RECTANGLE",
            "tags": [
                "Date"
            ],
            "boundingBox": {
                "height": 10.690045248868778,
                "width": 41.74245472837022,
                "left": 103.600509305835,
                "top": 150.6787330316742
            },
            "points": [
                {
                    "x": 103.600509305835,
                    "y": 150.6787330316742
                },
                {
                    "x": 145.34296403420524,
                    "y": 150.6787330316742
                },
                {
                    "x": 145.34296403420524,
                    "y": 161.36877828054298
                },
                {
                    "x": 103.600509305835,
                    "y": 161.36877828054298
                }
            ]
        },
        {
            "id": "UWRRX11Mp",
            "type": "RECTANGLE",
            "tags": [
                "Content_Items"
            ],
            "boundingBox": {
                "height": 30.542986425339365,
                "width": 137.4446680080483,
                "left": 49.13169642857143,
                "top": 208.20135746606334
            },
            "points": [
                {
                    "x": 49.13169642857143,
                    "y": 208.20135746606334
                },
                {
                    "x": 186.5763644366197,
                    "y": 208.20135746606334
                },
                {
                    "x": 186.5763644366197,
                    "y": 238.7443438914027
                },
                {
                    "x": 49.13169642857143,
                    "y": 238.7443438914027
                }
            ]
        },
        {
            "id": "w0ozoU1tB",
            "type": "RECTANGLE",
            "tags": [
                "amount_details"
            ],
            "boundingBox": {
                "height": 15.271493212669682,
                "width": 27.48893360160966,
                "left": 152.97877892354126,
                "top": 244.34389140271492
            },
            "points": [
                {
                    "x": 152.97877892354126,
                    "y": 244.34389140271492
                },
                {
                    "x": 180.46771252515092,
                    "y": 244.34389140271492
                },
                {
                    "x": 180.46771252515092,
                    "y": 259.6153846153846
                },
                {
                    "x": 152.97877892354126,
                    "y": 259.6153846153846
                }
            ]
        }
    ],
    "version": "2.2.0"
}