{
    "asset": {
        "format": "jpg",
        "id": "449b045880ac1ea5d606a3d7523021eb",
        "name": "00044-receipt.jpg",
        "path": "file:/home/administrator/ocr/Train-OCR/TrainYourOwnYOLO/Data/receipts_Source_Images/Train_receipt/00044-receipt.jpg",
        "size": {
            "width": 750,
            "height": 1000
        },
        "state": 2,
        "type": 1
    },
    "regions": [
        {
            "id": "JD1LhDPWb",
            "type": "RECTANGLE",
            "tags": [
                "Shop_Name"
            ],
            "boundingBox": {
                "height": 27.149321266968325,
                "width": 152.71493212669682,
                "left": 265.27149321266967,
                "top": 157.2398190045249
            },
            "points": [
                {
                    "x": 265.27149321266967,
                    "y": 157.2398190045249
                },
                {
                    "x": 417.9864253393665,
                    "y": 157.2398190045249
                },
                {
                    "x": 417.9864253393665,
                    "y": 184.3891402714932
                },
                {
                    "x": 265.27149321266967,
                    "y": 184.3891402714932
                }
            ]
        },
        {
            "id": "_fnWTj_68",
            "type": "RECTANGLE",
            "tags": [
                "Shop_Logo"
            ],
            "boundingBox": {
                "height": 69.00452488687783,
                "width": 180.99547511312215,
                "left": 309.3891402714932,
                "top": 62.217194570135746
            },
            "points": [
                {
                    "x": 309.3891402714932,
                    "y": 62.217194570135746
                },
                {
                    "x": 490.38461538461536,
                    "y": 62.217194570135746
                },
                {
                    "x": 490.38461538461536,
                    "y": 131.22171945701356
                },
                {
                    "x": 309.3891402714932,
                    "y": 131.22171945701356
                }
            ]
        },
        {
            "id": "lvAikYE2R",
            "type": "RECTANGLE",
            "tags": [
                "Date"
            ],
            "boundingBox": {
                "height": 33.93665158371041,
                "width": 157.2398190045249,
                "left": 147.62443438914028,
                "top": 297.5113122171946
            },
            "points": [
                {
                    "x": 147.62443438914028,
                    "y": 297.5113122171946
                },
                {
                    "x": 304.86425339366514,
                    "y": 297.5113122171946
                },
                {
                    "x": 304.86425339366514,
                    "y": 331.447963800905
                },
                {
                    "x": 147.62443438914028,
                    "y": 331.447963800905
                }
            ]
        },
        {
            "id": "s4JMJpqQq",
            "type": "RECTANGLE",
            "tags": [
                "amount_details"
            ],
            "boundingBox": {
                "height": 54.29864253393665,
                "width": 158.93665158371041,
                "left": 486.4253393665158,
                "top": 606.3348416289592
            },
            "points": [
                {
                    "x": 486.4253393665158,
                    "y": 606.3348416289592
                },
                {
                    "x": 645.3619909502262,
                    "y": 606.3348416289592
                },
                {
                    "x": 645.3619909502262,
                    "y": 660.6334841628959
                },
                {
                    "x": 486.4253393665158,
                    "y": 660.6334841628959
                }
            ]
        },
        {
            "id": "8vOi6WI5e",
            "type": "RECTANGLE",
            "tags": [
                "Content_Items"
            ],
            "boundingBox": {
                "height": 84.84162895927602,
                "width": 567.8733031674208,
                "left": 65.04524886877827,
                "top": 411.7647058823529
            },
            "points": [
                {
                    "x": 65.04524886877827,
                    "y": 411.7647058823529
                },
                {
                    "x": 632.9185520361991,
                    "y": 411.7647058823529
                },
                {
                    "x": 632.9185520361991,
                    "y": 496.60633484162895
                },
                {
                    "x": 65.04524886877827,
                    "y": 496.60633484162895
                }
            ]
        },
        {
            "id": "Zvbtffxy3",
            "type": "RECTANGLE",
            "tags": [
                "Shop_Address"
            ],
            "boundingBox": {
                "height": 42.98642533936651,
                "width": 246.60633484162895,
                "left": 220.02262443438914,
                "top": 192.3076923076923
            },
            "points": [
                {
                    "x": 220.02262443438914,
                    "y": 192.3076923076923
                },
                {
                    "x": 466.62895927601807,
                    "y": 192.3076923076923
                },
                {
                    "x": 466.62895927601807,
                    "y": 235.2941176470588
                },
                {
                    "x": 220.02262443438914,
                    "y": 235.2941176470588
                }
            ]
        },
        {
            "id": "v4o--c8qd",
            "type": "RECTANGLE",
            "tags": [
                "Mobile_no"
            ],
            "boundingBox": {
                "height": 36.199095022624434,
                "width": 166.289592760181,
                "left": 297.5113122171946,
                "top": 235.2941176470588
            },
            "points": [
                {
                    "x": 297.5113122171946,
                    "y": 235.2941176470588
                },
                {
                    "x": 463.8009049773756,
                    "y": 235.2941176470588
                },
                {
                    "x": 463.8009049773756,
                    "y": 271.49321266968326
                },
                {
                    "x": 297.5113122171946,
                    "y": 271.49321266968326
                }
            ]
        },
        {
            "id": "9Y7j81Gpz",
            "type": "RECTANGLE",
            "tags": [
                "tax"
            ],
            "boundingBox": {
                "height": 28.28054298642534,
                "width": 464.9321266968326,
                "left": 169.68325791855204,
                "top": 553.1674208144797
            },
            "points": [
                {
                    "x": 169.68325791855204,
                    "y": 553.1674208144797
                },
                {
                    "x": 634.6153846153846,
                    "y": 553.1674208144797
                },
                {
                    "x": 634.6153846153846,
                    "y": 581.447963800905
                },
                {
                    "x": 169.68325791855204,
                    "y": 581.447963800905
                }
            ]
        }
    ],
    "version": "2.2.0"
}