{
    "asset": {
        "format": "jpg",
        "id": "4523467e1bb70246816e6b011cda722f",
        "name": "08397-receipt.jpg",
        "path": "file:/home/administrator/ocr/Train-OCR/TrainYourOwnYOLO/Data/receipts_Source_Images/Train_receipt/08397-receipt.jpg",
        "size": {
            "width": 550,
            "height": 411
        },
        "state": 2,
        "type": 1
    },
    "regions": [
        {
            "id": "UZFxxUvL2",
            "type": "RECTANGLE",
            "tags": [
                "Shop_Name"
            ],
            "boundingBox": {
                "height": 30.22058823529412,
                "width": 66.9484361792054,
                "left": 236.8693205832629,
                "top": 17.202488687782807
            },
            "points": [
                {
                    "x": 236.8693205832629,
                    "y": 17.202488687782807
                },
                {
                    "x": 303.81775676246826,
                    "y": 17.202488687782807
                },
                {
                    "x": 303.81775676246826,
                    "y": 47.42307692307693
                },
                {
                    "x": 236.8693205832629,
                    "y": 47.42307692307693
                }
            ]
        },
        {
            "id": "NlCMUrf03",
            "type": "RECTANGLE",
            "tags": [
                "Shop_Address"
            ],
            "boundingBox": {
                "height": 24.176470588235293,
                "width": 79.03634826711749,
                "left": 237.79915997464073,
                "top": 55.79185520361991
            },
            "points": [
                {
                    "x": 237.79915997464073,
                    "y": 55.79185520361991
                },
                {
                    "x": 316.83550824175825,
                    "y": 55.79185520361991
                },
                {
                    "x": 316.83550824175825,
                    "y": 79.96832579185521
                },
                {
                    "x": 237.79915997464073,
                    "y": 79.96832579185521
                }
            ]
        },
        {
            "id": "Kc9DNiwWU",
            "type": "RECTANGLE",
            "tags": [
                "Mobile_no"
            ],
            "boundingBox": {
                "height": 11.623303167420815,
                "width": 56.2552831783601,
                "left": 247.56247358410818,
                "top": 78.57352941176471
            },
            "points": [
                {
                    "x": 247.56247358410818,
                    "y": 78.57352941176471
                },
                {
                    "x": 303.81775676246826,
                    "y": 78.57352941176471
                },
                {
                    "x": 303.81775676246826,
                    "y": 90.19683257918552
                },
                {
                    "x": 247.56247358410818,
                    "y": 90.19683257918552
                }
            ]
        },
        {
            "id": "CQjJgi64P",
            "type": "RECTANGLE",
            "tags": [
                "Content_Items"
            ],
            "boundingBox": {
                "height": 89.73190045248869,
                "width": 195.2662721893491,
                "left": 172.71040257819104,
                "top": 228.74660633484163
            },
            "points": [
                {
                    "x": 172.71040257819104,
                    "y": 228.74660633484163
                },
                {
                    "x": 367.97667476754015,
                    "y": 228.74660633484163
                },
                {
                    "x": 367.97667476754015,
                    "y": 318.47850678733033
                },
                {
                    "x": 172.71040257819104,
                    "y": 318.47850678733033
                }
            ]
        },
        {
            "id": "KDDb-p_5n",
            "type": "RECTANGLE",
            "tags": [
                "amount_details"
            ],
            "boundingBox": {
                "height": 27.43099547511312,
                "width": 57.650042265426876,
                "left": 321.9496248943364,
                "top": 327.77714932126696
            },
            "points": [
                {
                    "x": 321.9496248943364,
                    "y": 327.77714932126696
                },
                {
                    "x": 379.59966715976327,
                    "y": 327.77714932126696
                },
                {
                    "x": 379.59966715976327,
                    "y": 355.2081447963801
                },
                {
                    "x": 321.9496248943364,
                    "y": 355.2081447963801
                }
            ]
        },
        {
            "id": "-rMhe4RD_",
            "type": "RECTANGLE",
            "tags": [
                "Date"
            ],
            "boundingBox": {
                "height": 14.412895927601811,
                "width": 48.35164835164835,
                "left": 230.12798499577346,
                "top": 164.1210407239819
            },
            "points": [
                {
                    "x": 230.12798499577346,
                    "y": 164.1210407239819
                },
                {
                    "x": 278.4796333474218,
                    "y": 164.1210407239819
                },
                {
                    "x": 278.4796333474218,
                    "y": 178.5339366515837
                },
                {
                    "x": 230.12798499577346,
                    "y": 178.5339366515837
                }
            ]
        }
    ],
    "version": "2.2.0"
}