{
    "asset": {
        "format": "jpg",
        "id": "46c5da2d3671be9ad931bbaaff7e13e7",
        "name": "01289-receipt.jpg",
        "path": "file:/home/administrator/ocr/Train-OCR/TrainYourOwnYOLO/Data/receipts_Source_Images/Train_receipt/01289-receipt.jpg",
        "size": {
            "width": 487,
            "height": 450
        },
        "state": 2,
        "type": 1
    },
    "regions": [
        {
            "id": "-nm2a8UGk",
            "type": "RECTANGLE",
            "tags": [
                "Shop_Name"
            ],
            "boundingBox": {
                "height": 19.852941176470587,
                "width": 119.07836990595611,
                "left": 244.69269200626957,
                "top": 55.48642533936651
            },
            "points": [
                {
                    "x": 244.69269200626957,
                    "y": 55.48642533936651
                },
                {
                    "x": 363.77106191222566,
                    "y": 55.48642533936651
                },
                {
                    "x": 363.77106191222566,
                    "y": 75.3393665158371
                },
                {
                    "x": 244.69269200626957,
                    "y": 75.3393665158371
                }
            ]
        },
        {
            "id": "nGUikxKfr",
            "type": "RECTANGLE",
            "tags": [
                "Shop_Address"
            ],
            "boundingBox": {
                "height": 29.524886877828052,
                "width": 146.0491118077325,
                "left": 226.37294278996862,
                "top": 75.3393665158371
            },
            "points": [
                {
                    "x": 226.37294278996862,
                    "y": 75.3393665158371
                },
                {
                    "x": 372.4220545977011,
                    "y": 75.3393665158371
                },
                {
                    "x": 372.4220545977011,
                    "y": 104.86425339366515
                },
                {
                    "x": 226.37294278996862,
                    "y": 104.86425339366515
                }
            ]
        },
        {
            "id": "svfb5HYNl",
            "type": "RECTANGLE",
            "tags": [
                "Content_Items"
            ],
            "boundingBox": {
                "height": 47.85067873303167,
                "width": 247.31661442006268,
                "left": 201.43772857889235,
                "top": 175.1131221719457
            },
            "points": [
                {
                    "x": 201.43772857889235,
                    "y": 175.1131221719457
                },
                {
                    "x": 448.75434299895505,
                    "y": 175.1131221719457
                },
                {
                    "x": 448.75434299895505,
                    "y": 222.96380090497735
                },
                {
                    "x": 201.43772857889235,
                    "y": 222.96380090497735
                }
            ]
        },
        {
            "id": "TXJ-q_aIm",
            "type": "RECTANGLE",
            "tags": [
                "amount_details"
            ],
            "boundingBox": {
                "height": 29.015837104072396,
                "width": 96.68756530825496,
                "left": 344.4335488505747,
                "top": 229.07239819004525
            },
            "points": [
                {
                    "x": 344.4335488505747,
                    "y": 229.07239819004525
                },
                {
                    "x": 441.12111415882964,
                    "y": 229.07239819004525
                },
                {
                    "x": 441.12111415882964,
                    "y": 258.0882352941176
                },
                {
                    "x": 344.4335488505747,
                    "y": 258.0882352941176
                }
            ]
        },
        {
            "id": "sYQVt-f7W",
            "type": "RECTANGLE",
            "tags": [
                "Mobile_no"
            ],
            "boundingBox": {
                "height": 18.834841628959275,
                "width": 91.5987460815047,
                "left": 276.7522531347962,
                "top": 125.73529411764704
            },
            "points": [
                {
                    "x": 276.7522531347962,
                    "y": 125.73529411764704
                },
                {
                    "x": 368.3509992163009,
                    "y": 125.73529411764704
                },
                {
                    "x": 368.3509992163009,
                    "y": 144.57013574660633
                },
                {
                    "x": 276.7522531347962,
                    "y": 144.57013574660633
                }
            ]
        },
        {
            "id": "YwWq2qwCG",
            "type": "POLYGON",
            "tags": [
                "tax"
            ],
            "boundingBox": {
                "height": 59.049773755656105,
                "width": 299.2225705329153,
                "left": 155.63835553814002,
                "top": 267.7601809954751
            },
            "points": [
                {
                    "x": 168.8692855276907,
                    "y": 267.7601809954751
                },
                {
                    "x": 454.86092607105536,
                    "y": 285.0678733031674
                },
                {
                    "x": 448.24546107628,
                    "y": 326.8099547511312
                },
                {
                    "x": 155.63835553814002,
                    "y": 304.920814479638
                }
            ]
        }
    ],
    "version": "2.2.0"
}