{
    "asset": {
        "format": "jpg",
        "id": "470fc6aaec5aa6ce2e1cccd870f9932b",
        "name": "02525-receipt.jpg",
        "path": "file:/home/administrator/ocr/Train-OCR/TrainYourOwnYOLO/Data/receipts_Source_Images/Train_receipt/02525-receipt.jpg",
        "size": {
            "width": 348,
            "height": 348
        },
        "state": 2,
        "type": 1
    },
    "regions": [
        {
            "id": "UdQ-D03PK",
            "type": "RECTANGLE",
            "tags": [
                "Date"
            ],
            "boundingBox": {
                "height": 15.746606334841628,
                "width": 72.43438914027149,
                "left": 40.744343891402714,
                "top": 61.01809954751131
            },
            "points": [
                {
                    "x": 40.744343891402714,
                    "y": 61.01809954751131
                },
                {
                    "x": 113.1787330316742,
                    "y": 61.01809954751131
                },
                {
                    "x": 113.1787330316742,
                    "y": 76.76470588235294
                },
                {
                    "x": 40.744343891402714,
                    "y": 76.76470588235294
                }
            ]
        },
        {
            "id": "qYkXeC8Ea",
            "type": "RECTANGLE",
            "tags": [
                "Content_Items"
            ],
            "boundingBox": {
                "height": 111.80090497737557,
                "width": 271.8257918552036,
                "left": 26.76923076923077,
                "top": 87
            },
            "points": [
                {
                    "x": 26.76923076923077,
                    "y": 87
                },
                {
                    "x": 298.59502262443436,
                    "y": 87
                },
                {
                    "x": 298.59502262443436,
                    "y": 198.80090497737555
                },
                {
                    "x": 26.76923076923077,
                    "y": 198.80090497737555
                }
            ]
        },
        {
            "id": "5RlE62c9W",
            "type": "RECTANGLE",
            "tags": [
                "amount_details"
            ],
            "boundingBox": {
                "height": 18.108597285067873,
                "width": 48.81447963800905,
                "left": 259.6221719457013,
                "top": 255.88235294117646
            },
            "points": [
                {
                    "x": 259.6221719457013,
                    "y": 255.88235294117646
                },
                {
                    "x": 308.4366515837104,
                    "y": 255.88235294117646
                },
                {
                    "x": 308.4366515837104,
                    "y": 273.9909502262443
                },
                {
                    "x": 259.6221719457013,
                    "y": 273.9909502262443
                }
            ]
        },
        {
            "id": "CfqjhPxbr",
            "type": "RECTANGLE",
            "tags": [
                "tax"
            ],
            "boundingBox": {
                "height": 11.80995475113122,
                "width": 20.076923076923077,
                "left": 23.816742081447963,
                "top": 228.32579185520362
            },
            "points": [
                {
                    "x": 23.816742081447963,
                    "y": 228.32579185520362
                },
                {
                    "x": 43.89366515837104,
                    "y": 228.32579185520362
                },
                {
                    "x": 43.89366515837104,
                    "y": 240.13574660633483
                },
                {
                    "x": 23.816742081447963,
                    "y": 240.13574660633483
                }
            ]
        },
        {
            "id": "0QBQmv2RS",
            "type": "RECTANGLE",
            "tags": [
                "tax"
            ],
            "boundingBox": {
                "height": 13.778280542986424,
                "width": 37.004524886877824,
                "left": 265.1334841628959,
                "top": 227.1447963800905
            },
            "points": [
                {
                    "x": 265.1334841628959,
                    "y": 227.1447963800905
                },
                {
                    "x": 302.13800904977376,
                    "y": 227.1447963800905
                },
                {
                    "x": 302.13800904977376,
                    "y": 240.9230769230769
                },
                {
                    "x": 265.1334841628959,
                    "y": 240.9230769230769
                }
            ]
        }
    ],
    "version": "2.2.0"
}