{
    "asset": {
        "format": "jpg",
        "id": "48d9ef820b612798c3fdbbeeb0a40243",
        "name": "00516-receipt.jpg",
        "path": "file:/home/administrator/ocr/Train-OCR/TrainYourOwnYOLO/Data/receipts_Source_Images/Train_receipt/00516-receipt.jpg",
        "size": {
            "width": 450,
            "height": 450
        },
        "state": 2,
        "type": 1
    },
    "regions": [
        {
            "id": "_qFJPXpR9",
            "type": "RECTANGLE",
            "tags": [
                "Shop_Name"
            ],
            "boundingBox": {
                "height": 58.54072398190045,
                "width": 320.7013574660633,
                "left": 43.26923076923077,
                "top": 10.690045248868778
            },
            "points": [
                {
                    "x": 43.26923076923077,
                    "y": 10.690045248868778
                },
                {
                    "x": 363.9705882352941,
                    "y": 10.690045248868778
                },
                {
                    "x": 363.9705882352941,
                    "y": 69.23076923076923
                },
                {
                    "x": 43.26923076923077,
                    "y": 69.23076923076923
                }
            ]
        },
        {
            "id": "Cr4of5E9v",
            "type": "RECTANGLE",
            "tags": [
                "Shop_Address"
            ],
            "boundingBox": {
                "height": 62.10407239819004,
                "width": 316.62895927601807,
                "left": 42.251131221719454,
                "top": 49.886877828054295
            },
            "points": [
                {
                    "x": 42.251131221719454,
                    "y": 49.886877828054295
                },
                {
                    "x": 358.8800904977375,
                    "y": 49.886877828054295
                },
                {
                    "x": 358.8800904977375,
                    "y": 111.99095022624434
                },
                {
                    "x": 42.251131221719454,
                    "y": 111.99095022624434
                }
            ]
        },
        {
            "id": "gR_l1lNMK",
            "type": "RECTANGLE",
            "tags": [
                "Date"
            ],
            "boundingBox": {
                "height": 14.25339366515837,
                "width": 90.10180995475113,
                "left": 281.5045248868778,
                "top": 167.98642533936652
            },
            "points": [
                {
                    "x": 281.5045248868778,
                    "y": 167.98642533936652
                },
                {
                    "x": 371.60633484162895,
                    "y": 167.98642533936652
                },
                {
                    "x": 371.60633484162895,
                    "y": 182.23981900452486
                },
                {
                    "x": 281.5045248868778,
                    "y": 182.23981900452486
                }
            ]
        },
        {
            "id": "knAKFtkWS",
            "type": "RECTANGLE",
            "tags": [
                "amount_details"
            ],
            "boundingBox": {
                "height": 30.03393665158371,
                "width": 63.12217194570135,
                "left": 201.07466063348414,
                "top": 399.09502262443436
            },
            "points": [
                {
                    "x": 201.07466063348414,
                    "y": 399.09502262443436
                },
                {
                    "x": 264.1968325791855,
                    "y": 399.09502262443436
                },
                {
                    "x": 264.1968325791855,
                    "y": 429.12895927601807
                },
                {
                    "x": 201.07466063348414,
                    "y": 429.12895927601807
                }
            ]
        },
        {
            "id": "D7LFVIyQK",
            "type": "RECTANGLE",
            "tags": [
                "Content_Items"
            ],
            "boundingBox": {
                "height": 91.6289592760181,
                "width": 406.22171945701353,
                "left": 9.926470588235293,
                "top": 279.9773755656108
            },
            "points": [
                {
                    "x": 9.926470588235293,
                    "y": 279.9773755656108
                },
                {
                    "x": 416.14819004524884,
                    "y": 279.9773755656108
                },
                {
                    "x": 416.14819004524884,
                    "y": 371.60633484162895
                },
                {
                    "x": 9.926470588235293,
                    "y": 371.60633484162895
                }
            ]
        }
    ],
    "version": "2.2.0"
}