{
    "asset": {
        "format": "jpg",
        "id": "4a2bee8e50bcebf18c857327182e10bc",
        "name": "01409-receipt.jpg",
        "path": "file:/home/administrator/ocr/Train-OCR/TrainYourOwnYOLO/Data/receipts_Source_Images/Train_receipt/01409-receipt.jpg",
        "size": {
            "width": 450,
            "height": 450
        },
        "state": 2,
        "type": 1
    },
    "regions": [
        {
            "id": "Aysx4usJ7",
            "type": "RECTANGLE",
            "tags": [
                "Content_Items"
            ],
            "boundingBox": {
                "height": 38.68778280542986,
                "width": 299.83031674208144,
                "left": 49.632352941176464,
                "top": 126.2443438914027
            },
            "points": [
                {
                    "x": 49.632352941176464,
                    "y": 126.2443438914027
                },
                {
                    "x": 349.4626696832579,
                    "y": 126.2443438914027
                },
                {
                    "x": 349.4626696832579,
                    "y": 164.93212669683257
                },
                {
                    "x": 49.632352941176464,
                    "y": 164.93212669683257
                }
            ]
        },
        {
            "id": "-uj_9sSbZ",
            "type": "RECTANGLE",
            "tags": [
                "Date"
            ],
            "boundingBox": {
                "height": 15.271493212669682,
                "width": 87.04751131221718,
                "left": 211.00113122171945,
                "top": 52.432126696832576
            },
            "points": [
                {
                    "x": 211.00113122171945,
                    "y": 52.432126696832576
                },
                {
                    "x": 298.04864253393663,
                    "y": 52.432126696832576
                },
                {
                    "x": 298.04864253393663,
                    "y": 67.70361990950227
                },
                {
                    "x": 211.00113122171945,
                    "y": 67.70361990950227
                }
            ]
        },
        {
            "id": "Fz7tmhAZ_",
            "type": "RECTANGLE",
            "tags": [
                "amount_details"
            ],
            "boundingBox": {
                "height": 17.307692307692307,
                "width": 78.39366515837104,
                "left": 271.06900452488685,
                "top": 191.40271493212668
            },
            "points": [
                {
                    "x": 271.06900452488685,
                    "y": 191.40271493212668
                },
                {
                    "x": 349.4626696832579,
                    "y": 191.40271493212668
                },
                {
                    "x": 349.4626696832579,
                    "y": 208.710407239819
                },
                {
                    "x": 271.06900452488685,
                    "y": 208.710407239819
                }
            ]
        }
    ],
    "version": "2.2.0"
}