{
    "asset": {
        "format": "jpg",
        "id": "52bd5cd19bd06c017354237dcf3067d5",
        "name": "08581-receipt.jpg",
        "path": "file:/home/administrator/ocr/Train-OCR/TrainYourOwnYOLO/Data/receipts_Source_Images/Train_receipt/08581-receipt.jpg",
        "size": {
            "width": 338,
            "height": 450
        },
        "state": 2,
        "type": 1
    },
    "regions": [
        {
            "id": "RPOQBd-Qt",
            "type": "RECTANGLE",
            "tags": [
                "Shop_Logo"
            ],
            "boundingBox": {
                "height": 45.81447963800905,
                "width": 53.44879518072289,
                "left": 60.829819277108435,
                "top": 118.09954751131221
            },
            "points": [
                {
                    "x": 60.829819277108435,
                    "y": 118.09954751131221
                },
                {
                    "x": 114.27861445783132,
                    "y": 118.09954751131221
                },
                {
                    "x": 114.27861445783132,
                    "y": 163.91402714932127
                },
                {
                    "x": 60.829819277108435,
                    "y": 163.91402714932127
                }
            ]
        },
        {
            "id": "Hm51Da_Pi",
            "type": "RECTANGLE",
            "tags": [
                "Shop_Name"
            ],
            "boundingBox": {
                "height": 37.66968325791855,
                "width": 72.7921686746988,
                "left": 134.64006024096386,
                "top": 121.15384615384615
            },
            "points": [
                {
                    "x": 134.64006024096386,
                    "y": 121.15384615384615
                },
                {
                    "x": 207.43222891566265,
                    "y": 121.15384615384615
                },
                {
                    "x": 207.43222891566265,
                    "y": 158.8235294117647
                },
                {
                    "x": 134.64006024096386,
                    "y": 158.8235294117647
                }
            ]
        },
        {
            "id": "9vOHCeUle",
            "type": "RECTANGLE",
            "tags": [
                "amount_details"
            ],
            "boundingBox": {
                "height": 18.32579185520362,
                "width": 55.993975903614455,
                "left": 187.07078313253012,
                "top": 355.31674208144796
            },
            "points": [
                {
                    "x": 187.07078313253012,
                    "y": 355.31674208144796
                },
                {
                    "x": 243.06475903614458,
                    "y": 355.31674208144796
                },
                {
                    "x": 243.06475903614458,
                    "y": 373.64253393665155
                },
                {
                    "x": 187.07078313253012,
                    "y": 373.64253393665155
                }
            ]
        },
        {
            "id": "576wWHrfB",
            "type": "RECTANGLE",
            "tags": [
                "Date"
            ],
            "boundingBox": {
                "height": 18.834841628959275,
                "width": 63.12048192771084,
                "left": 62.86596385542169,
                "top": 364.4796380090497
            },
            "points": [
                {
                    "x": 62.86596385542169,
                    "y": 364.4796380090497
                },
                {
                    "x": 125.98644578313252,
                    "y": 364.4796380090497
                },
                {
                    "x": 125.98644578313252,
                    "y": 383.314479638009
                },
                {
                    "x": 62.86596385542169,
                    "y": 383.314479638009
                }
            ]
        }
    ],
    "version": "2.2.0"
}