{
    "asset": {
        "format": "jpg",
        "id": "5488eb698bccd1b397cca9b0090a0fcd",
        "name": "08845-receipt.jpg",
        "path": "file:/home/administrator/ocr/Train-OCR/TrainYourOwnYOLO/Data/receipts_Source_Images/Train_receipt/08845-receipt.jpg",
        "size": {
            "width": 253,
            "height": 450
        },
        "state": 2,
        "type": 1
    },
    "regions": [
        {
            "id": "8vFKGvnXL",
            "type": "RECTANGLE",
            "tags": [
                "Shop_Name"
            ],
            "boundingBox": {
                "height": 19.34389140271493,
                "width": 77.37625754527163,
                "left": 82.22022761569417,
                "top": 87.04751131221718
            },
            "points": [
                {
                    "x": 82.22022761569417,
                    "y": 87.04751131221718
                },
                {
                    "x": 159.59648516096578,
                    "y": 87.04751131221718
                },
                {
                    "x": 159.59648516096578,
                    "y": 106.39140271493213
                },
                {
                    "x": 82.22022761569417,
                    "y": 106.39140271493213
                }
            ]
        },
        {
            "id": "bJsEvlmj5",
            "type": "RECTANGLE",
            "tags": [
                "Shop_Address"
            ],
            "boundingBox": {
                "height": 34.61538461538461,
                "width": 159.8430583501006,
                "left": 52.69507671026157,
                "top": 99.26470588235293
            },
            "points": [
                {
                    "x": 52.69507671026157,
                    "y": 99.26470588235293
                },
                {
                    "x": 212.53813506036218,
                    "y": 99.26470588235293
                },
                {
                    "x": 212.53813506036218,
                    "y": 133.88009049773754
                },
                {
                    "x": 52.69507671026157,
                    "y": 133.88009049773754
                }
            ]
        },
        {
            "id": "jrcl7YIHE",
            "type": "RECTANGLE",
            "tags": [
                "Content_Items"
            ],
            "boundingBox": {
                "height": 28.50678733031674,
                "width": 170.0241448692153,
                "left": 47.09547912474849,
                "top": 155.2601809954751
            },
            "points": [
                {
                    "x": 47.09547912474849,
                    "y": 155.2601809954751
                },
                {
                    "x": 217.11962399396378,
                    "y": 155.2601809954751
                },
                {
                    "x": 217.11962399396378,
                    "y": 183.76696832579185
                },
                {
                    "x": 47.09547912474849,
                    "y": 183.76696832579185
                }
            ]
        },
        {
            "id": "9m6jcyKOU",
            "type": "RECTANGLE",
            "tags": [
                "amount_details"
            ],
            "boundingBox": {
                "height": 12.726244343891402,
                "width": 52.43259557344064,
                "left": 173.34095196177063,
                "top": 192.92986425339365
            },
            "points": [
                {
                    "x": 173.34095196177063,
                    "y": 192.92986425339365
                },
                {
                    "x": 225.77354753521126,
                    "y": 192.92986425339365
                },
                {
                    "x": 225.77354753521126,
                    "y": 205.65610859728505
                },
                {
                    "x": 173.34095196177063,
                    "y": 205.65610859728505
                }
            ]
        },
        {
            "id": "TBW5wr0ci",
            "type": "RECTANGLE",
            "tags": [
                "tax"
            ],
            "boundingBox": {
                "height": 15.271493212669682,
                "width": 54.97786720321932,
                "left": 28.260469064386317,
                "top": 221.94570135746605
            },
            "points": [
                {
                    "x": 28.260469064386317,
                    "y": 221.94570135746605
                },
                {
                    "x": 83.23833626760563,
                    "y": 221.94570135746605
                },
                {
                    "x": 83.23833626760563,
                    "y": 237.21719457013575
                },
                {
                    "x": 28.260469064386317,
                    "y": 237.21719457013575
                }
            ]
        },
        {
            "id": "d8UeNmSrD",
            "type": "RECTANGLE",
            "tags": [
                "tax"
            ],
            "boundingBox": {
                "height": 24.943438914027148,
                "width": 23.925553319919516,
                "left": 155.01499622736418,
                "top": 219.40045248868776
            },
            "points": [
                {
                    "x": 155.01499622736418,
                    "y": 219.40045248868776
                },
                {
                    "x": 178.9405495472837,
                    "y": 219.40045248868776
                },
                {
                    "x": 178.9405495472837,
                    "y": 244.34389140271492
                },
                {
                    "x": 155.01499622736418,
                    "y": 244.34389140271492
                }
            ]
        },
        {
            "id": "cwBnkbymQ",
            "type": "RECTANGLE",
            "tags": [
                "Date"
            ],
            "boundingBox": {
                "height": 12.726244343891402,
                "width": 54.46881287726358,
                "left": 52.69507671026157,
                "top": 279.4683257918552
            },
            "points": [
                {
                    "x": 52.69507671026157,
                    "y": 279.4683257918552
                },
                {
                    "x": 107.16388958752515,
                    "y": 279.4683257918552
                },
                {
                    "x": 107.16388958752515,
                    "y": 292.1945701357466
                },
                {
                    "x": 52.69507671026157,
                    "y": 292.1945701357466
                }
            ]
        }
    ],
    "version": "2.2.0"
}