{
    "asset": {
        "format": "jpg",
        "id": "55e2d17692817e85fedb3835db877109",
        "name": "02425-receipt.jpg",
        "path": "file:/home/administrator/ocr/Train-OCR/TrainYourOwnYOLO/Data/receipts_Source_Images/Train_receipt/02425-receipt.jpg",
        "size": {
            "width": 750,
            "height": 1000
        },
        "state": 2,
        "type": 1
    },
    "regions": [
        {
            "id": "Ej5jaLKDA",
            "type": "RECTANGLE",
            "tags": [
                "Shop_Name"
            ],
            "boundingBox": {
                "height": 56.56108597285068,
                "width": 177.60180995475113,
                "left": 255.65610859728505,
                "top": 131.22171945701356
            },
            "points": [
                {
                    "x": 255.65610859728505,
                    "y": 131.22171945701356
                },
                {
                    "x": 433.2579185520362,
                    "y": 131.22171945701356
                },
                {
                    "x": 433.2579185520362,
                    "y": 187.78280542986425
                },
                {
                    "x": 255.65610859728505,
                    "y": 187.78280542986425
                }
            ]
        },
        {
            "id": "UamAaUd7D",
            "type": "RECTANGLE",
            "tags": [
                "Mobile_no"
            ],
            "boundingBox": {
                "height": 44.11764705882353,
                "width": 159.50226244343892,
                "left": 298.6425339366516,
                "top": 197.96380090497738
            },
            "points": [
                {
                    "x": 298.6425339366516,
                    "y": 197.96380090497738
                },
                {
                    "x": 458.1447963800905,
                    "y": 197.96380090497738
                },
                {
                    "x": 458.1447963800905,
                    "y": 242.0814479638009
                },
                {
                    "x": 298.6425339366516,
                    "y": 242.0814479638009
                }
            ]
        },
        {
            "id": "yUs3TaYzf",
            "type": "RECTANGLE",
            "tags": [
                "Date"
            ],
            "boundingBox": {
                "height": 39.59276018099548,
                "width": 136.87782805429865,
                "left": 97.28506787330316,
                "top": 226.2443438914027
            },
            "points": [
                {
                    "x": 97.28506787330316,
                    "y": 226.2443438914027
                },
                {
                    "x": 234.1628959276018,
                    "y": 226.2443438914027
                },
                {
                    "x": 234.1628959276018,
                    "y": 265.8371040723982
                },
                {
                    "x": 97.28506787330316,
                    "y": 265.8371040723982
                }
            ]
        },
        {
            "id": "K02smrgVA",
            "type": "RECTANGLE",
            "tags": [
                "Content_Items"
            ],
            "boundingBox": {
                "height": 335.97285067873304,
                "width": 425.33936651583707,
                "left": 130.09049773755655,
                "top": 323.52941176470586
            },
            "points": [
                {
                    "x": 130.09049773755655,
                    "y": 323.52941176470586
                },
                {
                    "x": 555.4298642533937,
                    "y": 323.52941176470586
                },
                {
                    "x": 555.4298642533937,
                    "y": 659.5022624434389
                },
                {
                    "x": 130.09049773755655,
                    "y": 659.5022624434389
                }
            ]
        },
        {
            "id": "Uq3fJhbMx",
            "type": "RECTANGLE",
            "tags": [
                "amount_details"
            ],
            "boundingBox": {
                "height": 49.7737556561086,
                "width": 72.39819004524887,
                "left": 470.5882352941176,
                "top": 721.7194570135747
            },
            "points": [
                {
                    "x": 470.5882352941176,
                    "y": 721.7194570135747
                },
                {
                    "x": 542.9864253393665,
                    "y": 721.7194570135747
                },
                {
                    "x": 542.9864253393665,
                    "y": 771.4932126696832
                },
                {
                    "x": 470.5882352941176,
                    "y": 771.4932126696832
                }
            ]
        }
    ],
    "version": "2.2.0"
}