{
    "asset": {
        "format": "jpg",
        "id": "5632ac9e6d142054e15eae27d9b1bb12",
        "name": "09538-receipt.jpg",
        "path": "file:/home/administrator/ocr/Train-OCR/TrainYourOwnYOLO/Data/receipts_Source_Images/Train_receipt/09538-receipt.jpg",
        "size": {
            "width": 348,
            "height": 348
        },
        "state": 2,
        "type": 1
    },
    "regions": [
        {
            "id": "8Y1NDgu6v",
            "type": "RECTANGLE",
            "tags": [
                "Shop_Address"
            ],
            "boundingBox": {
                "height": 28.34389140271493,
                "width": 103.14027149321267,
                "left": 113.37556561085972,
                "top": 37.79185520361991
            },
            "points": [
                {
                    "x": 113.37556561085972,
                    "y": 37.79185520361991
                },
                {
                    "x": 216.5158371040724,
                    "y": 37.79185520361991
                },
                {
                    "x": 216.5158371040724,
                    "y": 66.13574660633483
                },
                {
                    "x": 113.37556561085972,
                    "y": 66.13574660633483
                }
            ]
        },
        {
            "id": "4pTIPRfP1",
            "type": "RECTANGLE",
            "tags": [
                "Shop_Logo"
            ],
            "boundingBox": {
                "height": 63.380090497737555,
                "width": 13.778280542986424,
                "left": 279.89592760180994,
                "top": 13.384615384615385
            },
            "points": [
                {
                    "x": 279.89592760180994,
                    "y": 13.384615384615385
                },
                {
                    "x": 293.67420814479635,
                    "y": 13.384615384615385
                },
                {
                    "x": 293.67420814479635,
                    "y": 76.76470588235294
                },
                {
                    "x": 279.89592760180994,
                    "y": 76.76470588235294
                }
            ]
        },
        {
            "id": "It4o5OHzF",
            "type": "RECTANGLE",
            "tags": [
                "Shop_Logo"
            ],
            "boundingBox": {
                "height": 18.502262443438912,
                "width": 10.235294117647058,
                "left": 279.89592760180994,
                "top": 98.02262443438914
            },
            "points": [
                {
                    "x": 279.89592760180994,
                    "y": 98.02262443438914
                },
                {
                    "x": 290.131221719457,
                    "y": 98.02262443438914
                },
                {
                    "x": 290.131221719457,
                    "y": 116.52488687782805
                },
                {
                    "x": 279.89592760180994,
                    "y": 116.52488687782805
                }
            ]
        },
        {
            "id": "Ylob8UAYt",
            "type": "RECTANGLE",
            "tags": [
                "Date"
            ],
            "boundingBox": {
                "height": 11.80995475113122,
                "width": 51.17647058823529,
                "left": 153.13574660633483,
                "top": 88.96832579185521
            },
            "points": [
                {
                    "x": 153.13574660633483,
                    "y": 88.96832579185521
                },
                {
                    "x": 204.31221719457014,
                    "y": 88.96832579185521
                },
                {
                    "x": 204.31221719457014,
                    "y": 100.77828054298642
                },
                {
                    "x": 153.13574660633483,
                    "y": 100.77828054298642
                }
            ]
        },
        {
            "id": "AJ2nssciI",
            "type": "RECTANGLE",
            "tags": [
                "Content_Items"
            ],
            "boundingBox": {
                "height": 87.39366515837104,
                "width": 249.19004524886878,
                "left": 27.55656108597285,
                "top": 154.710407239819
            },
            "points": [
                {
                    "x": 27.55656108597285,
                    "y": 154.710407239819
                },
                {
                    "x": 276.7466063348416,
                    "y": 154.710407239819
                },
                {
                    "x": 276.7466063348416,
                    "y": 242.10407239819003
                },
                {
                    "x": 27.55656108597285,
                    "y": 242.10407239819003
                }
            ]
        },
        {
            "id": "Otl3EVyUp",
            "type": "RECTANGLE",
            "tags": [
                "amount_details"
            ],
            "boundingBox": {
                "height": 13.778280542986424,
                "width": 27.16289592760181,
                "left": 256.66968325791856,
                "top": 330.6787330316742
            },
            "points": [
                {
                    "x": 256.66968325791856,
                    "y": 330.6787330316742
                },
                {
                    "x": 283.83257918552033,
                    "y": 330.6787330316742
                },
                {
                    "x": 283.83257918552033,
                    "y": 344.4570135746606
                },
                {
                    "x": 256.66968325791856,
                    "y": 344.4570135746606
                }
            ]
        },
        {
            "id": "SF5fouWrg",
            "type": "RECTANGLE",
            "tags": [
                "tax"
            ],
            "boundingBox": {
                "height": 26.76923076923077,
                "width": 144.0814479638009,
                "left": 20.470588235294116,
                "top": 293.28054298642536
            },
            "points": [
                {
                    "x": 20.470588235294116,
                    "y": 293.28054298642536
                },
                {
                    "x": 164.55203619909503,
                    "y": 293.28054298642536
                },
                {
                    "x": 164.55203619909503,
                    "y": 320.0497737556561
                },
                {
                    "x": 20.470588235294116,
                    "y": 320.0497737556561
                }
            ]
        }
    ],
    "version": "2.2.0"
}