{
    "asset": {
        "format": "jpg",
        "id": "572f87216d2053bc47b86420e08f51f8",
        "name": "08768-receipt.jpg",
        "path": "file:/home/administrator/ocr/Train-OCR/TrainYourOwnYOLO/Data/receipts_Source_Images/Train_receipt/08768-receipt.jpg",
        "size": {
            "width": 338,
            "height": 450
        },
        "state": 2,
        "type": 1
    },
    "regions": [
        {
            "id": "TNXGz8HLk",
            "type": "RECTANGLE",
            "tags": [
                "Shop_Logo"
            ],
            "boundingBox": {
                "height": 63.63122171945701,
                "width": 192.92469879518072,
                "left": 57.5210843373494,
                "top": 8.653846153846153
            },
            "points": [
                {
                    "x": 57.5210843373494,
                    "y": 8.653846153846153
                },
                {
                    "x": 250.44578313253012,
                    "y": 8.653846153846153
                },
                {
                    "x": 250.44578313253012,
                    "y": 72.28506787330316
                },
                {
                    "x": 57.5210843373494,
                    "y": 72.28506787330316
                }
            ]
        },
        {
            "id": "xw8gC6pnb",
            "type": "RECTANGLE",
            "tags": [
                "Shop_Name"
            ],
            "boundingBox": {
                "height": 11.70814479638009,
                "width": 93.66265060240964,
                "left": 111.4789156626506,
                "top": 90.61085972850678
            },
            "points": [
                {
                    "x": 111.4789156626506,
                    "y": 90.61085972850678
                },
                {
                    "x": 205.14156626506025,
                    "y": 90.61085972850678
                },
                {
                    "x": 205.14156626506025,
                    "y": 102.31900452488688
                },
                {
                    "x": 111.4789156626506,
                    "y": 102.31900452488688
                }
            ]
        },
        {
            "id": "V8q3yM5GE",
            "type": "RECTANGLE",
            "tags": [
                "Shop_Address"
            ],
            "boundingBox": {
                "height": 29.524886877828052,
                "width": 133.36746987951807,
                "left": 93.66265060240964,
                "top": 100.7918552036199
            },
            "points": [
                {
                    "x": 93.66265060240964,
                    "y": 100.7918552036199
                },
                {
                    "x": 227.03012048192772,
                    "y": 100.7918552036199
                },
                {
                    "x": 227.03012048192772,
                    "y": 130.31674208144796
                },
                {
                    "x": 93.66265060240964,
                    "y": 130.31674208144796
                }
            ]
        },
        {
            "id": "FY0Wlz0Cb",
            "type": "RECTANGLE",
            "tags": [
                "Content_Items"
            ],
            "boundingBox": {
                "height": 71.77601809954751,
                "width": 239.75602409638554,
                "left": 57.5210843373494,
                "top": 260.1244343891403
            },
            "points": [
                {
                    "x": 57.5210843373494,
                    "y": 260.1244343891403
                },
                {
                    "x": 297.27710843373495,
                    "y": 260.1244343891403
                },
                {
                    "x": 297.27710843373495,
                    "y": 331.90045248868773
                },
                {
                    "x": 57.5210843373494,
                    "y": 331.90045248868773
                }
            ]
        },
        {
            "id": "1k2IXKHHx",
            "type": "RECTANGLE",
            "tags": [
                "amount_details"
            ],
            "boundingBox": {
                "height": 14.762443438914026,
                "width": 63.12048192771084,
                "left": 236.19277108433735,
                "top": 356.8438914027149
            },
            "points": [
                {
                    "x": 236.19277108433735,
                    "y": 356.8438914027149
                },
                {
                    "x": 299.3132530120482,
                    "y": 356.8438914027149
                },
                {
                    "x": 299.3132530120482,
                    "y": 371.60633484162895
                },
                {
                    "x": 236.19277108433735,
                    "y": 371.60633484162895
                }
            ]
        }
    ],
    "version": "2.2.0"
}