{
    "asset": {
        "format": "jpg",
        "id": "59ddba82cdb750b799f6812aef9b7cac",
        "name": "01467-receipt.jpg",
        "path": "file:/home/administrator/ocr/Train-OCR/TrainYourOwnYOLO/Data/receipts_Source_Images/Train_receipt/01467-receipt.jpg",
        "size": {
            "width": 1936,
            "height": 2592
        },
        "state": 2,
        "type": 1
    },
    "regions": [
        {
            "id": "Hs1cfPlat",
            "type": "RECTANGLE",
            "tags": [
                "Shop_Logo"
            ],
            "boundingBox": {
                "height": 202.31674208144796,
                "width": 272.79999999999995,
                "left": 870.1458333333333,
                "top": 231.63800904977373
            },
            "points": [
                {
                    "x": 870.1458333333333,
                    "y": 231.63800904977373
                },
                {
                    "x": 1142.9458333333332,
                    "y": 231.63800904977373
                },
                {
                    "x": 1142.9458333333332,
                    "y": 433.9547511312217
                },
                {
                    "x": 870.1458333333333,
                    "y": 433.9547511312217
                }
            ]
        },
        {
            "id": "G3WJSyJwq",
            "type": "RECTANGLE",
            "tags": [
                "Shop_Name"
            ],
            "boundingBox": {
                "height": 129.01357466063348,
                "width": 818.4,
                "left": 600.2791666666666,
                "top": 454.4796380090497
            },
            "points": [
                {
                    "x": 600.2791666666666,
                    "y": 454.4796380090497
                },
                {
                    "x": 1418.6791666666666,
                    "y": 454.4796380090497
                },
                {
                    "x": 1418.6791666666666,
                    "y": 583.4932126696832
                },
                {
                    "x": 600.2791666666666,
                    "y": 583.4932126696832
                }
            ]
        },
        {
            "id": "H8-KrQROG",
            "type": "RECTANGLE",
            "tags": [
                "Shop_Address"
            ],
            "boundingBox": {
                "height": 243.36651583710406,
                "width": 401.8666666666666,
                "left": 782.1458333333333,
                "top": 604.0180995475113
            },
            "points": [
                {
                    "x": 782.1458333333333,
                    "y": 604.0180995475113
                },
                {
                    "x": 1184.0124999999998,
                    "y": 604.0180995475113
                },
                {
                    "x": 1184.0124999999998,
                    "y": 847.3846153846154
                },
                {
                    "x": 782.1458333333333,
                    "y": 847.3846153846154
                }
            ]
        },
        {
            "id": "D17tbDZRE",
            "type": "RECTANGLE",
            "tags": [
                "Date"
            ],
            "boundingBox": {
                "height": 49.84615384615384,
                "width": 190.66666666666666,
                "left": 679.4791666666666,
                "top": 941.2126696832579
            },
            "points": [
                {
                    "x": 679.4791666666666,
                    "y": 941.2126696832579
                },
                {
                    "x": 870.1458333333333,
                    "y": 941.2126696832579
                },
                {
                    "x": 870.1458333333333,
                    "y": 991.0588235294117
                },
                {
                    "x": 679.4791666666666,
                    "y": 991.0588235294117
                }
            ]
        },
        {
            "id": "8UYo-5J_H",
            "type": "RECTANGLE",
            "tags": [
                "Content_Items"
            ],
            "boundingBox": {
                "height": 536.579185520362,
                "width": 903.4666666666666,
                "left": 535.7458333333333,
                "top": 1081.9547511312217
            },
            "points": [
                {
                    "x": 535.7458333333333,
                    "y": 1081.9547511312217
                },
                {
                    "x": 1439.2124999999999,
                    "y": 1081.9547511312217
                },
                {
                    "x": 1439.2124999999999,
                    "y": 1618.5339366515836
                },
                {
                    "x": 535.7458333333333,
                    "y": 1618.5339366515836
                }
            ]
        },
        {
            "id": "jIUXfujtD",
            "type": "RECTANGLE",
            "tags": [
                "amount_details"
            ],
            "boundingBox": {
                "height": 82.09954751131221,
                "width": 334.4,
                "left": 1063.7458333333332,
                "top": 1732.8868778280541
            },
            "points": [
                {
                    "x": 1063.7458333333332,
                    "y": 1732.8868778280541
                },
                {
                    "x": 1398.1458333333333,
                    "y": 1732.8868778280541
                },
                {
                    "x": 1398.1458333333333,
                    "y": 1814.9864253393664
                },
                {
                    "x": 1063.7458333333332,
                    "y": 1814.9864253393664
                }
            ]
        }
    ],
    "version": "2.2.0"
}