{
    "asset": {
        "format": "jpg",
        "id": "59e2ee1636e301baa759b68a11d8d5ae",
        "name": "02196-receipt.jpg",
        "path": "file:/home/administrator/ocr/Train-OCR/TrainYourOwnYOLO/Data/receipts_Source_Images/Train_receipt/02196-receipt.jpg",
        "size": {
            "width": 750,
            "height": 1000
        },
        "state": 2,
        "type": 1
    },
    "regions": [
        {
            "id": "FT2-umK2Z",
            "type": "RECTANGLE",
            "tags": [
                "Content_Items"
            ],
            "boundingBox": {
                "height": 100.67873303167421,
                "width": 451.3574660633484,
                "left": 170.81447963800903,
                "top": 328.0542986425339
            },
            "points": [
                {
                    "x": 170.81447963800903,
                    "y": 328.0542986425339
                },
                {
                    "x": 622.1719457013575,
                    "y": 328.0542986425339
                },
                {
                    "x": 622.1719457013575,
                    "y": 428.7330316742081
                },
                {
                    "x": 170.81447963800903,
                    "y": 428.7330316742081
                }
            ]
        },
        {
            "id": "bQSHo6IFf",
            "type": "RECTANGLE",
            "tags": [
                "amount_details"
            ],
            "boundingBox": {
                "height": 36.199095022624434,
                "width": 136.87782805429865,
                "left": 170.81447963800903,
                "top": 223.98190045248867
            },
            "points": [
                {
                    "x": 170.81447963800903,
                    "y": 223.98190045248867
                },
                {
                    "x": 307.6923076923077,
                    "y": 223.98190045248867
                },
                {
                    "x": 307.6923076923077,
                    "y": 260.1809954751131
                },
                {
                    "x": 170.81447963800903,
                    "y": 260.1809954751131
                }
            ]
        }
    ],
    "version": "2.2.0"
}