{
    "asset": {
        "format": "jpg",
        "id": "5a61ee4081e8c9c212ac31edb06fbc27",
        "name": "08591-receipt.jpg",
        "path": "file:/home/administrator/ocr/Train-OCR/TrainYourOwnYOLO/Data/receipts_Source_Images/Train_receipt/08591-receipt.jpg",
        "size": {
            "width": 438,
            "height": 450
        },
        "state": 2,
        "type": 1
    },
    "regions": [
        {
            "id": "I6cHZc4dc",
            "type": "RECTANGLE",
            "tags": [
                "Content_Items"
            ],
            "boundingBox": {
                "height": 272.85067873303166,
                "width": 379.9395348837209,
                "left": 32.961409883720926,
                "top": 58.03167420814479
            },
            "points": [
                {
                    "x": 32.961409883720926,
                    "y": 58.03167420814479
                },
                {
                    "x": 412.90094476744184,
                    "y": 58.03167420814479
                },
                {
                    "x": 412.90094476744184,
                    "y": 330.88235294117646
                },
                {
                    "x": 32.961409883720926,
                    "y": 330.88235294117646
                }
            ]
        },
        {
            "id": "Dtznv9GGH",
            "type": "RECTANGLE",
            "tags": [
                "amount_details"
            ],
            "boundingBox": {
                "height": 43.26923076923077,
                "width": 190.47906976744184,
                "left": 197.4660610465116,
                "top": 383.8235294117647
            },
            "points": [
                {
                    "x": 197.4660610465116,
                    "y": 383.8235294117647
                },
                {
                    "x": 387.9451308139535,
                    "y": 383.8235294117647
                },
                {
                    "x": 387.9451308139535,
                    "y": 427.09276018099547
                },
                {
                    "x": 197.4660610465116,
                    "y": 427.09276018099547
                }
            ]
        }
    ],
    "version": "2.2.0"
}