{
    "asset": {
        "format": "jpg",
        "id": "5baaf0ff4744acdc81845d67c8df1da1",
        "name": "08958-receipt.jpg",
        "path": "file:/home/administrator/ocr/Train-OCR/TrainYourOwnYOLO/Data/receipts_Source_Images/Train_receipt/08958-receipt.jpg",
        "size": {
            "width": 338,
            "height": 450
        },
        "state": 2,
        "type": 1
    },
    "regions": [
        {
            "id": "KglgZxUaW",
            "type": "RECTANGLE",
            "tags": [
                "Shop_Name"
            ],
            "boundingBox": {
                "height": 19.34389140271493,
                "width": 80.9367469879518,
                "left": 131.84036144578315,
                "top": 49.37782805429864
            },
            "points": [
                {
                    "x": 131.84036144578315,
                    "y": 49.37782805429864
                },
                {
                    "x": 212.77710843373495,
                    "y": 49.37782805429864
                },
                {
                    "x": 212.77710843373495,
                    "y": 68.72171945701356
                },
                {
                    "x": 131.84036144578315,
                    "y": 68.72171945701356
                }
            ]
        },
        {
            "id": "65aVShW15",
            "type": "RECTANGLE",
            "tags": [
                "Shop_Address"
            ],
            "boundingBox": {
                "height": 20.361990950226243,
                "width": 85.00903614457832,
                "left": 129.29518072289156,
                "top": 74.32126696832579
            },
            "points": [
                {
                    "x": 129.29518072289156,
                    "y": 74.32126696832579
                },
                {
                    "x": 214.30421686746988,
                    "y": 74.32126696832579
                },
                {
                    "x": 214.30421686746988,
                    "y": 94.68325791855203
                },
                {
                    "x": 129.29518072289156,
                    "y": 94.68325791855203
                }
            ]
        },
        {
            "id": "lzcUK9WFS",
            "type": "RECTANGLE",
            "tags": [
                "Mobile_no"
            ],
            "boundingBox": {
                "height": 16.289592760180994,
                "width": 73.3012048192771,
                "left": 148.12951807228916,
                "top": 96.210407239819
            },
            "points": [
                {
                    "x": 148.12951807228916,
                    "y": 96.210407239819
                },
                {
                    "x": 221.43072289156626,
                    "y": 96.210407239819
                },
                {
                    "x": 221.43072289156626,
                    "y": 112.5
                },
                {
                    "x": 148.12951807228916,
                    "y": 112.5
                }
            ]
        },
        {
            "id": "d6fXsfp-N",
            "type": "RECTANGLE",
            "tags": [
                "Date"
            ],
            "boundingBox": {
                "height": 12.726244343891402,
                "width": 51.41265060240964,
                "left": 209.21385542168676,
                "top": 150.6787330316742
            },
            "points": [
                {
                    "x": 209.21385542168676,
                    "y": 150.6787330316742
                },
                {
                    "x": 260.6265060240964,
                    "y": 150.6787330316742
                },
                {
                    "x": 260.6265060240964,
                    "y": 163.4049773755656
                },
                {
                    "x": 209.21385542168676,
                    "y": 163.4049773755656
                }
            ]
        },
        {
            "id": "y3zkvh5Ss",
            "type": "RECTANGLE",
            "tags": [
                "Content_Items"
            ],
            "boundingBox": {
                "height": 113.00904977375565,
                "width": 186.81626506024097,
                "left": 74.31927710843374,
                "top": 197.51131221719456
            },
            "points": [
                {
                    "x": 74.31927710843374,
                    "y": 197.51131221719456
                },
                {
                    "x": 261.1355421686747,
                    "y": 197.51131221719456
                },
                {
                    "x": 261.1355421686747,
                    "y": 310.5203619909502
                },
                {
                    "x": 74.31927710843374,
                    "y": 310.5203619909502
                }
            ]
        },
        {
            "id": "3uFuEcJXq",
            "type": "RECTANGLE",
            "tags": [
                "amount_details"
            ],
            "boundingBox": {
                "height": 15.780542986425338,
                "width": 51.41265060240964,
                "left": 212.26807228915663,
                "top": 327.82805429864254
            },
            "points": [
                {
                    "x": 212.26807228915663,
                    "y": 327.82805429864254
                },
                {
                    "x": 263.6807228915663,
                    "y": 327.82805429864254
                },
                {
                    "x": 263.6807228915663,
                    "y": 343.60859728506784
                },
                {
                    "x": 212.26807228915663,
                    "y": 343.60859728506784
                }
            ]
        },
        {
            "id": "HGWJkT4ZV",
            "type": "RECTANGLE",
            "tags": [
                "tax"
            ],
            "boundingBox": {
                "height": 24.943438914027148,
                "width": 43.26807228915663,
                "left": 69.2289156626506,
                "top": 368.552036199095
            },
            "points": [
                {
                    "x": 69.2289156626506,
                    "y": 368.552036199095
                },
                {
                    "x": 112.49698795180723,
                    "y": 368.552036199095
                },
                {
                    "x": 112.49698795180723,
                    "y": 393.49547511312215
                },
                {
                    "x": 69.2289156626506,
                    "y": 393.49547511312215
                }
            ]
        }
    ],
    "version": "2.2.0"
}