{
    "asset": {
        "format": "jpg",
        "id": "5cbc7af1f0631043497dcac20ff01be1",
        "name": "09834-receipt.jpg",
        "path": "file:/home/administrator/ocr/Train-OCR/TrainYourOwnYOLO/Data/receipts_Source_Images/Train_receipt/09834-receipt.jpg",
        "size": {
            "width": 338,
            "height": 450
        },
        "state": 2,
        "type": 1
    },
    "regions": [
        {
            "id": "YJ6PFvOlu",
            "type": "RECTANGLE",
            "tags": [
                "Shop_Logo"
            ],
            "boundingBox": {
                "height": 54.977375565610856,
                "width": 104.35240963855422,
                "left": 118.605421686747,
                "top": 50.39592760180995
            },
            "points": [
                {
                    "x": 118.605421686747,
                    "y": 50.39592760180995
                },
                {
                    "x": 222.9578313253012,
                    "y": 50.39592760180995
                },
                {
                    "x": 222.9578313253012,
                    "y": 105.3733031674208
                },
                {
                    "x": 118.605421686747,
                    "y": 105.3733031674208
                }
            ]
        },
        {
            "id": "EMiUS40uF",
            "type": "RECTANGLE",
            "tags": [
                "Shop_Address"
            ],
            "boundingBox": {
                "height": 29.015837104072396,
                "width": 71.77409638554217,
                "left": 126.24096385542168,
                "top": 115.55429864253392
            },
            "points": [
                {
                    "x": 126.24096385542168,
                    "y": 115.55429864253392
                },
                {
                    "x": 198.01506024096386,
                    "y": 115.55429864253392
                },
                {
                    "x": 198.01506024096386,
                    "y": 144.57013574660633
                },
                {
                    "x": 126.24096385542168,
                    "y": 144.57013574660633
                }
            ]
        },
        {
            "id": "VqHaay2Fs",
            "type": "RECTANGLE",
            "tags": [
                "Mobile_no"
            ],
            "boundingBox": {
                "height": 11.70814479638009,
                "width": 88.57228915662651,
                "left": 138.96686746987953,
                "top": 144.57013574660633
            },
            "points": [
                {
                    "x": 138.96686746987953,
                    "y": 144.57013574660633
                },
                {
                    "x": 227.539156626506,
                    "y": 144.57013574660633
                },
                {
                    "x": 227.539156626506,
                    "y": 156.2782805429864
                },
                {
                    "x": 138.96686746987953,
                    "y": 156.2782805429864
                }
            ]
        },
        {
            "id": "yZXE3J8og",
            "type": "RECTANGLE",
            "tags": [
                "Content_Items"
            ],
            "boundingBox": {
                "height": 50.90497737556561,
                "width": 210.74096385542168,
                "left": 60.066265060240966,
                "top": 228.05429864253392
            },
            "points": [
                {
                    "x": 60.066265060240966,
                    "y": 228.05429864253392
                },
                {
                    "x": 270.8072289156627,
                    "y": 228.05429864253392
                },
                {
                    "x": 270.8072289156627,
                    "y": 278.95927601809956
                },
                {
                    "x": 60.066265060240966,
                    "y": 278.95927601809956
                }
            ]
        },
        {
            "id": "t9-k1ihck",
            "type": "RECTANGLE",
            "tags": [
                "amount_details"
            ],
            "boundingBox": {
                "height": 25.96153846153846,
                "width": 55.484939759036145,
                "left": 215.3222891566265,
                "top": 284.0497737556561
            },
            "points": [
                {
                    "x": 215.3222891566265,
                    "y": 284.0497737556561
                },
                {
                    "x": 270.8072289156627,
                    "y": 284.0497737556561
                },
                {
                    "x": 270.8072289156627,
                    "y": 310.01131221719453
                },
                {
                    "x": 215.3222891566265,
                    "y": 310.01131221719453
                }
            ]
        },
        {
            "id": "l1lARV_sE",
            "type": "RECTANGLE",
            "tags": [
                "tax"
            ],
            "boundingBox": {
                "height": 21.88914027149321,
                "width": 76.8644578313253,
                "left": 55.993975903614455,
                "top": 306.9570135746606
            },
            "points": [
                {
                    "x": 55.993975903614455,
                    "y": 306.9570135746606
                },
                {
                    "x": 132.85843373493975,
                    "y": 306.9570135746606
                },
                {
                    "x": 132.85843373493975,
                    "y": 328.8461538461538
                },
                {
                    "x": 55.993975903614455,
                    "y": 328.8461538461538
                }
            ]
        },
        {
            "id": "xTepX8fJl",
            "type": "RECTANGLE",
            "tags": [
                "tax"
            ],
            "boundingBox": {
                "height": 14.25339366515837,
                "width": 38.68674698795181,
                "left": 231.1024096385542,
                "top": 323.75565610859724
            },
            "points": [
                {
                    "x": 231.1024096385542,
                    "y": 323.75565610859724
                },
                {
                    "x": 269.78915662650604,
                    "y": 323.75565610859724
                },
                {
                    "x": 269.78915662650604,
                    "y": 338.00904977375563
                },
                {
                    "x": 231.1024096385542,
                    "y": 338.00904977375563
                }
            ]
        }
    ],
    "version": "2.2.0"
}