{
    "asset": {
        "format": "jpg",
        "id": "611bf2fbfd5025e3c659200bd499eb98",
        "name": "08744-receipt.jpg",
        "path": "file:/home/administrator/ocr/Train-OCR/TrainYourOwnYOLO/Data/receipts_Source_Images/Train_receipt/08744-receipt.jpg",
        "size": {
            "width": 338,
            "height": 450
        },
        "state": 2,
        "type": 1
    },
    "regions": [
        {
            "id": "Bscu0E3Ge",
            "type": "RECTANGLE",
            "tags": [
                "Shop_Name"
            ],
            "boundingBox": {
                "height": 16.289592760180994,
                "width": 87.55421686746988,
                "left": 121.65963855421687,
                "top": 90.61085972850678
            },
            "points": [
                {
                    "x": 121.65963855421687,
                    "y": 90.61085972850678
                },
                {
                    "x": 209.21385542168676,
                    "y": 90.61085972850678
                },
                {
                    "x": 209.21385542168676,
                    "y": 106.90045248868778
                },
                {
                    "x": 121.65963855421687,
                    "y": 106.90045248868778
                }
            ]
        },
        {
            "id": "CLUtKrMSy",
            "type": "RECTANGLE",
            "tags": [
                "Shop_Address"
            ],
            "boundingBox": {
                "height": 29.015837104072396,
                "width": 76.8644578313253,
                "left": 129.29518072289156,
                "top": 107.91855203619909
            },
            "points": [
                {
                    "x": 129.29518072289156,
                    "y": 107.91855203619909
                },
                {
                    "x": 206.15963855421685,
                    "y": 107.91855203619909
                },
                {
                    "x": 206.15963855421685,
                    "y": 136.9343891402715
                },
                {
                    "x": 129.29518072289156,
                    "y": 136.9343891402715
                }
            ]
        },
        {
            "id": "uZbzWpgDB",
            "type": "RECTANGLE",
            "tags": [
                "Content_Items"
            ],
            "boundingBox": {
                "height": 66.17647058823529,
                "width": 222.4487951807229,
                "left": 52.93975903614458,
                "top": 173.58597285067873
            },
            "points": [
                {
                    "x": 52.93975903614458,
                    "y": 173.58597285067873
                },
                {
                    "x": 275.3885542168675,
                    "y": 173.58597285067873
                },
                {
                    "x": 275.3885542168675,
                    "y": 239.762443438914
                },
                {
                    "x": 52.93975903614458,
                    "y": 239.762443438914
                }
            ]
        },
        {
            "id": "qqjU85z4U",
            "type": "RECTANGLE",
            "tags": [
                "amount_details"
            ],
            "boundingBox": {
                "height": 14.25339366515837,
                "width": 45.30421686746988,
                "left": 229.06626506024097,
                "top": 247.39819004524884
            },
            "points": [
                {
                    "x": 229.06626506024097,
                    "y": 247.39819004524884
                },
                {
                    "x": 274.37048192771084,
                    "y": 247.39819004524884
                },
                {
                    "x": 274.37048192771084,
                    "y": 261.65158371040724
                },
                {
                    "x": 229.06626506024097,
                    "y": 261.65158371040724
                }
            ]
        },
        {
            "id": "aitFhob3X",
            "type": "RECTANGLE",
            "tags": [
                "tax"
            ],
            "boundingBox": {
                "height": 23.925339366515836,
                "width": 31.051204819277107,
                "left": 81.95481927710843,
                "top": 299.83031674208144
            },
            "points": [
                {
                    "x": 81.95481927710843,
                    "y": 299.83031674208144
                },
                {
                    "x": 113.00602409638554,
                    "y": 299.83031674208144
                },
                {
                    "x": 113.00602409638554,
                    "y": 323.75565610859724
                },
                {
                    "x": 81.95481927710843,
                    "y": 323.75565610859724
                }
            ]
        },
        {
            "id": "ZKKH1LmtS",
            "type": "RECTANGLE",
            "tags": [
                "tax"
            ],
            "boundingBox": {
                "height": 37.160633484162894,
                "width": 22.906626506024097,
                "left": 179.18072289156626,
                "top": 286.59502262443436
            },
            "points": [
                {
                    "x": 179.18072289156626,
                    "y": 286.59502262443436
                },
                {
                    "x": 202.08734939759037,
                    "y": 286.59502262443436
                },
                {
                    "x": 202.08734939759037,
                    "y": 323.75565610859724
                },
                {
                    "x": 179.18072289156626,
                    "y": 323.75565610859724
                }
            ]
        },
        {
            "id": "NUxbNyR2J",
            "type": "RECTANGLE",
            "tags": [
                "Date"
            ],
            "boundingBox": {
                "height": 14.762443438914026,
                "width": 59.55722891566265,
                "left": 152.710843373494,
                "top": 367.5339366515837
            },
            "points": [
                {
                    "x": 152.710843373494,
                    "y": 367.5339366515837
                },
                {
                    "x": 212.26807228915663,
                    "y": 367.5339366515837
                },
                {
                    "x": 212.26807228915663,
                    "y": 382.29638009049773
                },
                {
                    "x": 152.710843373494,
                    "y": 382.29638009049773
                }
            ]
        }
    ],
    "version": "2.2.0"
}