{
    "asset": {
        "format": "jpg",
        "id": "618123efb5952497c8f14afb740f16ee",
        "name": "09140-receipt.jpg",
        "path": "file:/home/administrator/ocr/Train-OCR/TrainYourOwnYOLO/Data/receipts_Source_Images/Train_receipt/09140-receipt.jpg",
        "size": {
            "width": 249,
            "height": 450
        },
        "state": 2,
        "type": 1
    },
    "regions": [
        {
            "id": "mC7kzVVSk",
            "type": "RECTANGLE",
            "tags": [
                "Shop_Name"
            ],
            "boundingBox": {
                "height": 60.06787330316741,
                "width": 191.46012269938646,
                "left": 16.588861196319012,
                "top": 0
            },
            "points": [
                {
                    "x": 16.588861196319012,
                    "y": 0
                },
                {
                    "x": 208.04898389570548,
                    "y": 0
                },
                {
                    "x": 208.04898389570548,
                    "y": 60.06787330316741
                },
                {
                    "x": 16.588861196319012,
                    "y": 60.06787330316741
                }
            ]
        },
        {
            "id": "3iLFAM9jf",
            "type": "RECTANGLE",
            "tags": [
                "Shop_Address"
            ],
            "boundingBox": {
                "height": 35.12443438914027,
                "width": 231.1779141104294,
                "left": 9.969229294478527,
                "top": 89.59276018099547
            },
            "points": [
                {
                    "x": 9.969229294478527,
                    "y": 89.59276018099547
                },
                {
                    "x": 241.14714340490795,
                    "y": 89.59276018099547
                },
                {
                    "x": 241.14714340490795,
                    "y": 124.71719457013575
                },
                {
                    "x": 9.969229294478527,
                    "y": 124.71719457013575
                }
            ]
        },
        {
            "id": "3_N5h8QJf",
            "type": "RECTANGLE",
            "tags": [
                "Mobile_no"
            ],
            "boundingBox": {
                "height": 13.235294117647058,
                "width": 118.64417177914109,
                "left": 77.69315567484662,
                "top": 122.68099547511312
            },
            "points": [
                {
                    "x": 77.69315567484662,
                    "y": 122.68099547511312
                },
                {
                    "x": 196.3373274539877,
                    "y": 122.68099547511312
                },
                {
                    "x": 196.3373274539877,
                    "y": 135.91628959276017
                },
                {
                    "x": 77.69315567484662,
                    "y": 135.91628959276017
                }
            ]
        },
        {
            "id": "Zf2XF-IJO",
            "type": "RECTANGLE",
            "tags": [
                "others"
            ],
            "boundingBox": {
                "height": 25.96153846153846,
                "width": 141.55828220858893,
                "left": 42.558186349693244,
                "top": 134.3891402714932
            },
            "points": [
                {
                    "x": 42.558186349693244,
                    "y": 134.3891402714932
                },
                {
                    "x": 184.11646855828218,
                    "y": 134.3891402714932
                },
                {
                    "x": 184.11646855828218,
                    "y": 160.35067873303166
                },
                {
                    "x": 42.558186349693244,
                    "y": 160.35067873303166
                }
            ]
        },
        {
            "id": "lJI0ryKci",
            "type": "RECTANGLE",
            "tags": [
                "Date"
            ],
            "boundingBox": {
                "height": 14.762443438914026,
                "width": 71.79754601226993,
                "left": 167.82199003067484,
                "top": 174.09502262443436
            },
            "points": [
                {
                    "x": 167.82199003067484,
                    "y": 174.09502262443436
                },
                {
                    "x": 239.61953604294476,
                    "y": 174.09502262443436
                },
                {
                    "x": 239.61953604294476,
                    "y": 188.8574660633484
                },
                {
                    "x": 167.82199003067484,
                    "y": 188.8574660633484
                }
            ]
        },
        {
            "id": "AYkp2sv8W",
            "type": "RECTANGLE",
            "tags": [
                "Content_Items"
            ],
            "boundingBox": {
                "height": 88.06561085972851,
                "width": 238.81595092024537,
                "left": 1.3127875766871164,
                "top": 255.0339366515837
            },
            "points": [
                {
                    "x": 1.3127875766871164,
                    "y": 255.0339366515837
                },
                {
                    "x": 240.1287384969325,
                    "y": 255.0339366515837
                },
                {
                    "x": 240.1287384969325,
                    "y": 343.0995475113122
                },
                {
                    "x": 1.3127875766871164,
                    "y": 343.0995475113122
                }
            ]
        },
        {
            "id": "11-o9Aj2H",
            "type": "RECTANGLE",
            "tags": [
                "amount_details"
            ],
            "boundingBox": {
                "height": 29.015837104072396,
                "width": 92.16564417177914,
                "left": 144.90787960122697,
                "top": 352.77149321266967
            },
            "points": [
                {
                    "x": 144.90787960122697,
                    "y": 352.77149321266967
                },
                {
                    "x": 237.07352377300612,
                    "y": 352.77149321266967
                },
                {
                    "x": 237.07352377300612,
                    "y": 381.78733031674204
                },
                {
                    "x": 144.90787960122697,
                    "y": 381.78733031674204
                }
            ]
        },
        {
            "id": "avULdYxQB",
            "type": "RECTANGLE",
            "tags": [
                "tax"
            ],
            "boundingBox": {
                "height": 14.762443438913968,
                "width": 53.46625766871164,
                "left": 2.331192484662576,
                "top": 394.5135746606335
            },
            "points": [
                {
                    "x": 2.331192484662576,
                    "y": 394.5135746606335
                },
                {
                    "x": 55.79745015337422,
                    "y": 394.5135746606335
                },
                {
                    "x": 55.79745015337422,
                    "y": 409.2760180995474
                },
                {
                    "x": 2.331192484662576,
                    "y": 409.2760180995474
                }
            ]
        },
        {
            "id": "6RYhR3tFN",
            "type": "RECTANGLE",
            "tags": [
                "tax"
            ],
            "boundingBox": {
                "height": 12.217194570135746,
                "width": 45.31901840490797,
                "left": 194.30051763803678,
                "top": 394.5135746606335
            },
            "points": [
                {
                    "x": 194.30051763803678,
                    "y": 394.5135746606335
                },
                {
                    "x": 239.61953604294476,
                    "y": 394.5135746606335
                },
                {
                    "x": 239.61953604294476,
                    "y": 406.7307692307692
                },
                {
                    "x": 194.30051763803678,
                    "y": 406.7307692307692
                }
            ]
        }
    ],
    "version": "2.2.0"
}