{
    "asset": {
        "format": "jpg",
        "id": "65ad56a5d020de19ae107ee75ee8ffb6",
        "name": "07207-receipt.jpg",
        "path": "file:/home/administrator/ocr/Train-OCR/TrainYourOwnYOLO/Data/receipts_Source_Images/Train_receipt/07207-receipt.jpg",
        "size": {
            "width": 805,
            "height": 1280
        },
        "state": 2,
        "type": 1
    },
    "regions": [
        {
            "id": "revgrFSdm",
            "type": "RECTANGLE",
            "tags": [
                "Shop_Name"
            ],
            "boundingBox": {
                "height": 39.095022624434385,
                "width": 186.77158273381298,
                "left": 81.78043502697842,
                "top": 76.7420814479638
            },
            "points": [
                {
                    "x": 81.78043502697842,
                    "y": 76.7420814479638
                },
                {
                    "x": 268.5520177607914,
                    "y": 76.7420814479638
                },
                {
                    "x": 268.5520177607914,
                    "y": 115.83710407239819
                },
                {
                    "x": 81.78043502697842,
                    "y": 115.83710407239819
                }
            ]
        },
        {
            "id": "Mxuv0lTeY",
            "type": "RECTANGLE",
            "tags": [
                "Shop_Address"
            ],
            "boundingBox": {
                "height": 63.710407239819006,
                "width": 469.10071942446046,
                "left": 112.18511128597123,
                "top": 127.42081447963801
            },
            "points": [
                {
                    "x": 112.18511128597123,
                    "y": 127.42081447963801
                },
                {
                    "x": 581.2858307104317,
                    "y": 127.42081447963801
                },
                {
                    "x": 581.2858307104317,
                    "y": 191.13122171945702
                },
                {
                    "x": 112.18511128597123,
                    "y": 191.13122171945702
                }
            ]
        },
        {
            "id": "0FDIJwWST",
            "type": "RECTANGLE",
            "tags": [
                "Date"
            ],
            "boundingBox": {
                "height": 36.199095022624434,
                "width": 221.5197841726619,
                "left": 378.587988983813,
                "top": 201.26696832579185
            },
            "points": [
                {
                    "x": 378.587988983813,
                    "y": 201.26696832579185
                },
                {
                    "x": 600.1077731564749,
                    "y": 201.26696832579185
                },
                {
                    "x": 600.1077731564749,
                    "y": 237.46606334841627
                },
                {
                    "x": 378.587988983813,
                    "y": 237.46606334841627
                }
            ]
        },
        {
            "id": "PSoZAHM_4",
            "type": "RECTANGLE",
            "tags": [
                "Content_Items"
            ],
            "boundingBox": {
                "height": 92.66968325791855,
                "width": 697.8597122302159,
                "left": 16.627557329136692,
                "top": 314.20814479638005
            },
            "points": [
                {
                    "x": 16.627557329136692,
                    "y": 314.20814479638005
                },
                {
                    "x": 714.4872695593525,
                    "y": 314.20814479638005
                },
                {
                    "x": 714.4872695593525,
                    "y": 406.8778280542986
                },
                {
                    "x": 16.627557329136692,
                    "y": 406.8778280542986
                }
            ]
        },
        {
            "id": "sMWyLXBL2",
            "type": "RECTANGLE",
            "tags": [
                "amount_details"
            ],
            "boundingBox": {
                "height": 39.095022624434385,
                "width": 153.47122302158274,
                "left": 367.00525517086334,
                "top": 598.0090497737557
            },
            "points": [
                {
                    "x": 367.00525517086334,
                    "y": 598.0090497737557
                },
                {
                    "x": 520.476478192446,
                    "y": 598.0090497737557
                },
                {
                    "x": 520.476478192446,
                    "y": 637.10407239819
                },
                {
                    "x": 367.00525517086334,
                    "y": 637.10407239819
                }
            ]
        },
        {
            "id": "ZLLjO4hpS",
            "type": "RECTANGLE",
            "tags": [
                "tax"
            ],
            "boundingBox": {
                "height": 36.199095022624434,
                "width": 78.18345323741008,
                "left": 12.284032149280577,
                "top": 480.7239819004525
            },
            "points": [
                {
                    "x": 12.284032149280577,
                    "y": 480.7239819004525
                },
                {
                    "x": 90.46748538669065,
                    "y": 480.7239819004525
                },
                {
                    "x": 90.46748538669065,
                    "y": 516.9230769230769
                },
                {
                    "x": 12.284032149280577,
                    "y": 516.9230769230769
                }
            ]
        },
        {
            "id": "PDhh0NZWx",
            "type": "RECTANGLE",
            "tags": [
                "tax"
            ],
            "boundingBox": {
                "height": 40.542986425339365,
                "width": 130.30575539568346,
                "left": 375.69230553057554,
                "top": 480.7239819004525
            },
            "points": [
                {
                    "x": 375.69230553057554,
                    "y": 480.7239819004525
                },
                {
                    "x": 505.99806092625903,
                    "y": 480.7239819004525
                },
                {
                    "x": 505.99806092625903,
                    "y": 521.2669683257918
                },
                {
                    "x": 375.69230553057554,
                    "y": 521.2669683257918
                }
            ]
        }
    ],
    "version": "2.2.0"
}