{
    "asset": {
        "format": "jpg",
        "id": "65b549a08ba4defe366a7706e2f2ac33",
        "name": "02557-receipt.jpg",
        "path": "file:/home/administrator/ocr/Train-OCR/TrainYourOwnYOLO/Data/receipts_Source_Images/Train_receipt/02557-receipt.jpg",
        "size": {
            "width": 750,
            "height": 1000
        },
        "state": 2,
        "type": 1
    },
    "regions": [
        {
            "id": "-qdMC65S5",
            "type": "RECTANGLE",
            "tags": [
                "Shop_Logo"
            ],
            "boundingBox": {
                "height": 178.73303167420815,
                "width": 227.37556561085972,
                "left": 223.98190045248867,
                "top": 57.69230769230769
            },
            "points": [
                {
                    "x": 223.98190045248867,
                    "y": 57.69230769230769
                },
                {
                    "x": 451.3574660633484,
                    "y": 57.69230769230769
                },
                {
                    "x": 451.3574660633484,
                    "y": 236.42533936651583
                },
                {
                    "x": 223.98190045248867,
                    "y": 236.42533936651583
                }
            ]
        },
        {
            "id": "fYwnKVI-K",
            "type": "RECTANGLE",
            "tags": [
                "Shop_Name"
            ],
            "boundingBox": {
                "height": 35.06787330316742,
                "width": 85.97285067873302,
                "left": 109.72850678733032,
                "top": 265.8371040723982
            },
            "points": [
                {
                    "x": 109.72850678733032,
                    "y": 265.8371040723982
                },
                {
                    "x": 195.70135746606334,
                    "y": 265.8371040723982
                },
                {
                    "x": 195.70135746606334,
                    "y": 300.9049773755656
                },
                {
                    "x": 109.72850678733032,
                    "y": 300.9049773755656
                }
            ]
        },
        {
            "id": "537WMykx2",
            "type": "RECTANGLE",
            "tags": [
                "Shop_Address"
            ],
            "boundingBox": {
                "height": 69.00452488687783,
                "width": 274.8868778280543,
                "left": 106.33484162895927,
                "top": 321.2669683257918
            },
            "points": [
                {
                    "x": 106.33484162895927,
                    "y": 321.2669683257918
                },
                {
                    "x": 381.2217194570136,
                    "y": 321.2669683257918
                },
                {
                    "x": 381.2217194570136,
                    "y": 390.27149321266967
                },
                {
                    "x": 106.33484162895927,
                    "y": 390.27149321266967
                }
            ]
        },
        {
            "id": "dB9JZYuQj",
            "type": "RECTANGLE",
            "tags": [
                "Date"
            ],
            "boundingBox": {
                "height": 47.51131221719457,
                "width": 152.71493212669682,
                "left": 440.0452488687783,
                "top": 279.4117647058823
            },
            "points": [
                {
                    "x": 440.0452488687783,
                    "y": 279.4117647058823
                },
                {
                    "x": 592.7601809954751,
                    "y": 279.4117647058823
                },
                {
                    "x": 592.7601809954751,
                    "y": 326.9230769230769
                },
                {
                    "x": 440.0452488687783,
                    "y": 326.9230769230769
                }
            ]
        },
        {
            "id": "8Bp10YvUi",
            "type": "RECTANGLE",
            "tags": [
                "amount_details"
            ],
            "boundingBox": {
                "height": 36.199095022624434,
                "width": 110.85972850678733,
                "left": 553.1674208144797,
                "top": 868.7782805429864
            },
            "points": [
                {
                    "x": 553.1674208144797,
                    "y": 868.7782805429864
                },
                {
                    "x": 664.027149321267,
                    "y": 868.7782805429864
                },
                {
                    "x": 664.027149321267,
                    "y": 904.9773755656108
                },
                {
                    "x": 553.1674208144797,
                    "y": 904.9773755656108
                }
            ]
        },
        {
            "id": "SpR6LKV7h",
            "type": "POLYGON",
            "tags": [
                "Content_Items"
            ],
            "boundingBox": {
                "height": 213.80090497737555,
                "width": 549.7737556561086,
                "left": 106.33484162895927,
                "top": 549.7737556561086
            },
            "points": [
                {
                    "x": 106.33484162895927,
                    "y": 601.8099547511312
                },
                {
                    "x": 640.2714932126697,
                    "y": 549.7737556561086
                },
                {
                    "x": 656.1085972850678,
                    "y": 726.2443438914027
                },
                {
                    "x": 118.77828054298642,
                    "y": 763.5746606334842
                }
            ]
        },
        {
            "id": "-ZNpJXGV0",
            "type": "POLYGON",
            "tags": [
                "tax"
            ],
            "boundingBox": {
                "height": 46.380090497737555,
                "width": 138.00904977375566,
                "left": 123.30316742081448,
                "top": 830.316742081448
            },
            "points": [
                {
                    "x": 123.30316742081448,
                    "y": 848.4162895927601
                },
                {
                    "x": 261.3122171945701,
                    "y": 830.316742081448
                },
                {
                    "x": 260.1809954751131,
                    "y": 859.7285067873303
                },
                {
                    "x": 127.82805429864253,
                    "y": 876.6968325791855
                }
            ]
        },
        {
            "id": "xc4eWa5ss",
            "type": "POLYGON",
            "tags": [
                "tax"
            ],
            "boundingBox": {
                "height": 46.380090497737555,
                "width": 95.02262443438914,
                "left": 567.8733031674208,
                "top": 796.3800904977376
            },
            "points": [
                {
                    "x": 567.8733031674208,
                    "y": 805.4298642533937
                },
                {
                    "x": 662.89592760181,
                    "y": 796.3800904977376
                },
                {
                    "x": 662.89592760181,
                    "y": 838.2352941176471
                },
                {
                    "x": 576.9230769230769,
                    "y": 842.7601809954751
                }
            ]
        }
    ],
    "version": "2.2.0"
}