{
    "asset": {
        "format": "jpg",
        "id": "68fa9dcde9ff50aabade1e9b41cd35d7",
        "name": "02271-receipt.jpg",
        "path": "file:/home/administrator/ocr/Train-OCR/TrainYourOwnYOLO/Data/receipts_Source_Images/Train_receipt/02271-receipt.jpg",
        "size": {
            "width": 250,
            "height": 250
        },
        "state": 2,
        "type": 1
    },
    "regions": [
        {
            "id": "1eQoxzSju",
            "type": "RECTANGLE",
            "tags": [
                "Shop_Address"
            ],
            "boundingBox": {
                "height": 17.251131221719458,
                "width": 118.21266968325791,
                "left": 38.32013574660633,
                "top": 14.14027149321267
            },
            "points": [
                {
                    "x": 38.32013574660633,
                    "y": 14.14027149321267
                },
                {
                    "x": 156.53280542986425,
                    "y": 14.14027149321267
                },
                {
                    "x": 156.53280542986425,
                    "y": 31.391402714932127
                },
                {
                    "x": 38.32013574660633,
                    "y": 31.391402714932127
                }
            ]
        },
        {
            "id": "65eOSGP_l",
            "type": "RECTANGLE",
            "tags": [
                "Mobile_no"
            ],
            "boundingBox": {
                "height": 8.201357466063348,
                "width": 61.93438914027149,
                "left": 65.1866515837104,
                "top": 32.80542986425339
            },
            "points": [
                {
                    "x": 65.1866515837104,
                    "y": 32.80542986425339
                },
                {
                    "x": 127.12104072398189,
                    "y": 32.80542986425339
                },
                {
                    "x": 127.12104072398189,
                    "y": 41.00678733031674
                },
                {
                    "x": 65.1866515837104,
                    "y": 41.00678733031674
                }
            ]
        },
        {
            "id": "Xk-CPfZB_",
            "type": "RECTANGLE",
            "tags": [
                "Date"
            ],
            "boundingBox": {
                "height": 10.180995475113122,
                "width": 42.98642533936651,
                "left": 4.383484162895927,
                "top": 41.00678733031674
            },
            "points": [
                {
                    "x": 4.383484162895927,
                    "y": 41.00678733031674
                },
                {
                    "x": 47.369909502262445,
                    "y": 41.00678733031674
                },
                {
                    "x": 47.369909502262445,
                    "y": 51.18778280542986
                },
                {
                    "x": 4.383484162895927,
                    "y": 51.18778280542986
                }
            ]
        },
        {
            "id": "L3TUxhmyn",
            "type": "RECTANGLE",
            "tags": [
                "Content_Items"
            ],
            "boundingBox": {
                "height": 110.85972850678733,
                "width": 171.94570135746605,
                "left": 10.605203619909503,
                "top": 67.87330316742081
            },
            "points": [
                {
                    "x": 10.605203619909503,
                    "y": 67.87330316742081
                },
                {
                    "x": 182.55090497737555,
                    "y": 67.87330316742081
                },
                {
                    "x": 182.55090497737555,
                    "y": 178.73303167420815
                },
                {
                    "x": 10.605203619909503,
                    "y": 178.73303167420815
                }
            ]
        },
        {
            "id": "PgJvHXZ_y",
            "type": "RECTANGLE",
            "tags": [
                "amount_details"
            ],
            "boundingBox": {
                "height": 19.79638009049774,
                "width": 28.28054298642534,
                "left": 160.77488687782804,
                "top": 214.64932126696831
            },
            "points": [
                {
                    "x": 160.77488687782804,
                    "y": 214.64932126696831
                },
                {
                    "x": 189.0554298642534,
                    "y": 214.64932126696831
                },
                {
                    "x": 189.0554298642534,
                    "y": 234.44570135746605
                },
                {
                    "x": 160.77488687782804,
                    "y": 234.44570135746605
                }
            ]
        }
    ],
    "version": "2.2.0"
}