{
    "asset": {
        "format": "jpg",
        "id": "693d63ca9bcfe8448ac3b3d324e8ab55",
        "name": "07678-receipt.jpg",
        "path": "file:/home/administrator/ocr/Train-OCR/TrainYourOwnYOLO/Data/receipts_Source_Images/Train_receipt/07678-receipt.jpg",
        "size": {
            "width": 550,
            "height": 550
        },
        "state": 2,
        "type": 1
    },
    "regions": [
        {
            "id": "hI3pnG0OF",
            "type": "RECTANGLE",
            "tags": [
                "Content_Items"
            ],
            "boundingBox": {
                "height": 184.16289592760182,
                "width": 197.22850678733033,
                "left": 170.47511312217196,
                "top": 224.60407239819006
            },
            "points": [
                {
                    "x": 170.47511312217196,
                    "y": 224.60407239819006
                },
                {
                    "x": 367.70361990950227,
                    "y": 224.60407239819006
                },
                {
                    "x": 367.70361990950227,
                    "y": 408.7669683257919
                },
                {
                    "x": 170.47511312217196,
                    "y": 408.7669683257919
                }
            ]
        },
        {
            "id": "AaUJ4nJXA",
            "type": "RECTANGLE",
            "tags": [
                "amount_details"
            ],
            "boundingBox": {
                "height": 29.242081447963802,
                "width": 73.41628959276018,
                "left": 293.0429864253394,
                "top": 421.8325791855204
            },
            "points": [
                {
                    "x": 293.0429864253394,
                    "y": 421.8325791855204
                },
                {
                    "x": 366.45927601809956,
                    "y": 421.8325791855204
                },
                {
                    "x": 366.45927601809956,
                    "y": 451.07466063348414
                },
                {
                    "x": 293.0429864253394,
                    "y": 451.07466063348414
                }
            ]
        },
        {
            "id": "qwo6PGhXM",
            "type": "RECTANGLE",
            "tags": [
                "Shop_Address"
            ],
            "boundingBox": {
                "height": 42.30769230769231,
                "width": 141.8552036199095,
                "left": 204.07239819004525,
                "top": 0
            },
            "points": [
                {
                    "x": 204.07239819004525,
                    "y": 0
                },
                {
                    "x": 345.92760180995475,
                    "y": 0
                },
                {
                    "x": 345.92760180995475,
                    "y": 42.30769230769231
                },
                {
                    "x": 204.07239819004525,
                    "y": 42.30769230769231
                }
            ]
        }
    ],
    "version": "2.2.0"
}