{
    "asset": {
        "format": "jpg",
        "id": "69c1608db461380708faa652b764d864",
        "name": "1017-receipt.jpg",
        "path": "file:/home/administrator/ocr/Train-OCR/TrainYourOwnYOLO/Data/receipts_Source_Images/Train_receipt/1017-receipt.jpg",
        "size": {
            "width": 750,
            "height": 1000
        },
        "state": 2,
        "type": 1
    },
    "regions": [
        {
            "id": "mCx9b-4z0",
            "type": "RECTANGLE",
            "tags": [
                "Shop_Name"
            ],
            "boundingBox": {
                "height": 30.542986425339365,
                "width": 79.18552036199095,
                "left": 347.85067873303166,
                "top": 58.8235294117647
            },
            "points": [
                {
                    "x": 347.85067873303166,
                    "y": 58.8235294117647
                },
                {
                    "x": 427.0361990950226,
                    "y": 58.8235294117647
                },
                {
                    "x": 427.0361990950226,
                    "y": 89.36651583710407
                },
                {
                    "x": 347.85067873303166,
                    "y": 89.36651583710407
                }
            ]
        },
        {
            "id": "myhspH9lo",
            "type": "RECTANGLE",
            "tags": [
                "Shop_Address"
            ],
            "boundingBox": {
                "height": 82.57918552036199,
                "width": 297.5113122171946,
                "left": 227.94117647058823,
                "top": 104.07239819004525
            },
            "points": [
                {
                    "x": 227.94117647058823,
                    "y": 104.07239819004525
                },
                {
                    "x": 525.4524886877828,
                    "y": 104.07239819004525
                },
                {
                    "x": 525.4524886877828,
                    "y": 186.65158371040724
                },
                {
                    "x": 227.94117647058823,
                    "y": 186.65158371040724
                }
            ]
        },
        {
            "id": "bdo_yV6as",
            "type": "RECTANGLE",
            "tags": [
                "Mobile_no"
            ],
            "boundingBox": {
                "height": 26.018099547511312,
                "width": 161.76470588235293,
                "left": 293.552036199095,
                "top": 186.65158371040724
            },
            "points": [
                {
                    "x": 293.552036199095,
                    "y": 186.65158371040724
                },
                {
                    "x": 455.31674208144796,
                    "y": 186.65158371040724
                },
                {
                    "x": 455.31674208144796,
                    "y": 212.66968325791854
                },
                {
                    "x": 293.552036199095,
                    "y": 212.66968325791854
                }
            ]
        },
        {
            "id": "TJwogV2uR",
            "type": "RECTANGLE",
            "tags": [
                "Date"
            ],
            "boundingBox": {
                "height": 29.41176470588235,
                "width": 118.77828054298642,
                "left": 132.9185520361991,
                "top": 274.8868778280543
            },
            "points": [
                {
                    "x": 132.9185520361991,
                    "y": 274.8868778280543
                },
                {
                    "x": 251.69683257918552,
                    "y": 274.8868778280543
                },
                {
                    "x": 251.69683257918552,
                    "y": 304.29864253393663
                },
                {
                    "x": 132.9185520361991,
                    "y": 304.29864253393663
                }
            ]
        },
        {
            "id": "6hCSpyT1N",
            "type": "RECTANGLE",
            "tags": [
                "Content_Items"
            ],
            "boundingBox": {
                "height": 132.35294117647058,
                "width": 548.6425339366516,
                "left": 122.73755656108597,
                "top": 409.5022624434389
            },
            "points": [
                {
                    "x": 122.73755656108597,
                    "y": 409.5022624434389
                },
                {
                    "x": 671.3800904977376,
                    "y": 409.5022624434389
                },
                {
                    "x": 671.3800904977376,
                    "y": 541.8552036199095
                },
                {
                    "x": 122.73755656108597,
                    "y": 541.8552036199095
                }
            ]
        },
        {
            "id": "wPGwNiU-7",
            "type": "RECTANGLE",
            "tags": [
                "amount_details"
            ],
            "boundingBox": {
                "height": 48.64253393665158,
                "width": 85.97285067873302,
                "left": 584.2760180995475,
                "top": 643.6651583710407
            },
            "points": [
                {
                    "x": 584.2760180995475,
                    "y": 643.6651583710407
                },
                {
                    "x": 670.2488687782806,
                    "y": 643.6651583710407
                },
                {
                    "x": 670.2488687782806,
                    "y": 692.3076923076923
                },
                {
                    "x": 584.2760180995475,
                    "y": 692.3076923076923
                }
            ]
        },
        {
            "id": "bmJBr3pSd",
            "type": "RECTANGLE",
            "tags": [
                "tax"
            ],
            "boundingBox": {
                "height": 33.93665158371041,
                "width": 44.11764705882353,
                "left": 128.39366515837105,
                "top": 598.4162895927602
            },
            "points": [
                {
                    "x": 128.39366515837105,
                    "y": 598.4162895927602
                },
                {
                    "x": 172.51131221719456,
                    "y": 598.4162895927602
                },
                {
                    "x": 172.51131221719456,
                    "y": 632.3529411764706
                },
                {
                    "x": 128.39366515837105,
                    "y": 632.3529411764706
                }
            ]
        },
        {
            "id": "Dh40Z68ri",
            "type": "RECTANGLE",
            "tags": [
                "tax"
            ],
            "boundingBox": {
                "height": 42.98642533936651,
                "width": 57.69230769230769,
                "left": 605.7692307692307,
                "top": 583.710407239819
            },
            "points": [
                {
                    "x": 605.7692307692307,
                    "y": 583.710407239819
                },
                {
                    "x": 663.4615384615385,
                    "y": 583.710407239819
                },
                {
                    "x": 663.4615384615385,
                    "y": 626.6968325791855
                },
                {
                    "x": 605.7692307692307,
                    "y": 626.6968325791855
                }
            ]
        }
    ],
    "version": "2.2.0"
}