{
    "asset": {
        "format": "jpg",
        "id": "6c9a4c23fdf134567b63e6a4c9150aa7",
        "name": "6de66ade-9191-41f5-b549-80a67ec98185.jpg",
        "path": "file:/home/administrator/ocr/Train-OCR/TrainYourOwnYOLO/Data/receipts_Source_Images/Train_receipt/6de66ade-9191-41f5-b549-80a67ec98185.jpg",
        "size": {
            "width": 436,
            "height": 1280
        },
        "state": 2,
        "type": 1
    },
    "regions": [
        {
            "id": "l9JNk1mBe",
            "type": "RECTANGLE",
            "tags": [
                "Shop_Name"
            ],
            "boundingBox": {
                "height": 34.751131221719454,
                "width": 324.4651162790698,
                "left": 45.71843853820598,
                "top": 105.70135746606334
            },
            "points": [
                {
                    "x": 45.71843853820598,
                    "y": 105.70135746606334
                },
                {
                    "x": 370.1835548172757,
                    "y": 105.70135746606334
                },
                {
                    "x": 370.1835548172757,
                    "y": 140.4524886877828
                },
                {
                    "x": 45.71843853820598,
                    "y": 140.4524886877828
                }
            ]
        },
        {
            "id": "JJLHhLk-b",
            "type": "RECTANGLE",
            "tags": [
                "Shop_Address"
            ],
            "boundingBox": {
                "height": 70.9502262443439,
                "width": 299.8405315614618,
                "left": 38.47591362126246,
                "top": 134.6606334841629
            },
            "points": [
                {
                    "x": 38.47591362126246,
                    "y": 134.6606334841629
                },
                {
                    "x": 338.31644518272424,
                    "y": 134.6606334841629
                },
                {
                    "x": 338.31644518272424,
                    "y": 205.6108597285068
                },
                {
                    "x": 38.47591362126246,
                    "y": 205.6108597285068
                }
            ]
        },
        {
            "id": "yVwZl-l0E",
            "type": "RECTANGLE",
            "tags": [
                "Content_Items"
            ],
            "boundingBox": {
                "height": 125.97285067873302,
                "width": 317.22259136212625,
                "left": 58.75498338870432,
                "top": 584.9773755656108
            },
            "points": [
                {
                    "x": 58.75498338870432,
                    "y": 584.9773755656108
                },
                {
                    "x": 375.97757475083057,
                    "y": 584.9773755656108
                },
                {
                    "x": 375.97757475083057,
                    "y": 710.9502262443439
                },
                {
                    "x": 58.75498338870432,
                    "y": 710.9502262443439
                }
            ]
        },
        {
            "id": "ComooqsZh",
            "type": "RECTANGLE",
            "tags": [
                "amount_details"
            ],
            "boundingBox": {
                "height": 36.199095022624434,
                "width": 79.66777408637873,
                "left": 290.515780730897,
                "top": 962.89592760181
            },
            "points": [
                {
                    "x": 290.515780730897,
                    "y": 962.89592760181
                },
                {
                    "x": 370.1835548172757,
                    "y": 962.89592760181
                },
                {
                    "x": 370.1835548172757,
                    "y": 999.0950226244344
                },
                {
                    "x": 290.515780730897,
                    "y": 999.0950226244344
                }
            ]
        },
        {
            "id": "RhfbL1ha6",
            "type": "RECTANGLE",
            "tags": [
                "tax"
            ],
            "boundingBox": {
                "height": 59.36651583710407,
                "width": 341.8471760797342,
                "left": 23.990863787375414,
                "top": 899.1855203619909
            },
            "points": [
                {
                    "x": 23.990863787375414,
                    "y": 899.1855203619909
                },
                {
                    "x": 365.8380398671096,
                    "y": 899.1855203619909
                },
                {
                    "x": 365.8380398671096,
                    "y": 958.552036199095
                },
                {
                    "x": 23.990863787375414,
                    "y": 958.552036199095
                }
            ]
        }
    ],
    "version": "2.2.0"
}