{
    "asset": {
        "format": "jpg",
        "id": "6fe56d8ded29271cea01795d133a2408",
        "name": "08961-receipt.jpg",
        "path": "file:/home/administrator/ocr/Train-OCR/TrainYourOwnYOLO/Data/receipts_Source_Images/Train_receipt/08961-receipt.jpg",
        "size": {
            "width": 338,
            "height": 450
        },
        "state": 2,
        "type": 1
    },
    "regions": [
        {
            "id": "dry8CyMPn",
            "type": "RECTANGLE",
            "tags": [
                "Date"
            ],
            "boundingBox": {
                "height": 16.289592760180994,
                "width": 73.81024096385542,
                "left": 37.66867469879518,
                "top": 259.10633484162895
            },
            "points": [
                {
                    "x": 37.66867469879518,
                    "y": 259.10633484162895
                },
                {
                    "x": 111.4789156626506,
                    "y": 259.10633484162895
                },
                {
                    "x": 111.4789156626506,
                    "y": 275.39592760180994
                },
                {
                    "x": 37.66867469879518,
                    "y": 275.39592760180994
                }
            ]
        },
        {
            "id": "UGRAkYJrH",
            "type": "RECTANGLE",
            "tags": [
                "Mobile_no"
            ],
            "boundingBox": {
                "height": 16.289592760180994,
                "width": 108.93373493975903,
                "left": 68.71987951807229,
                "top": 230.5995475113122
            },
            "points": [
                {
                    "x": 68.71987951807229,
                    "y": 230.5995475113122
                },
                {
                    "x": 177.65361445783134,
                    "y": 230.5995475113122
                },
                {
                    "x": 177.65361445783134,
                    "y": 246.8891402714932
                },
                {
                    "x": 68.71987951807229,
                    "y": 246.8891402714932
                }
            ]
        },
        {
            "id": "QRERZp8YH",
            "type": "RECTANGLE",
            "tags": [
                "Date"
            ],
            "boundingBox": {
                "height": 14.25339366515837,
                "width": 61.5933734939759,
                "left": 64.64759036144578,
                "top": 92.13800904977376
            },
            "points": [
                {
                    "x": 64.64759036144578,
                    "y": 92.13800904977376
                },
                {
                    "x": 126.24096385542168,
                    "y": 92.13800904977376
                },
                {
                    "x": 126.24096385542168,
                    "y": 106.39140271493213
                },
                {
                    "x": 64.64759036144578,
                    "y": 106.39140271493213
                }
            ]
        },
        {
            "id": "LT6QXJbf5",
            "type": "RECTANGLE",
            "tags": [
                "Shop_Name"
            ],
            "boundingBox": {
                "height": 10.690045248868778,
                "width": 77.37349397590361,
                "left": 95.18975903614458,
                "top": 40.21493212669683
            },
            "points": [
                {
                    "x": 95.18975903614458,
                    "y": 40.21493212669683
                },
                {
                    "x": 172.5632530120482,
                    "y": 40.21493212669683
                },
                {
                    "x": 172.5632530120482,
                    "y": 50.90497737556561
                },
                {
                    "x": 95.18975903614458,
                    "y": 50.90497737556561
                }
            ]
        },
        {
            "id": "HB1dfshbJ",
            "type": "RECTANGLE",
            "tags": [
                "Shop_Address"
            ],
            "boundingBox": {
                "height": 29.524886877828052,
                "width": 91.11746987951807,
                "left": 89.08132530120481,
                "top": 49.37782805429864
            },
            "points": [
                {
                    "x": 89.08132530120481,
                    "y": 49.37782805429864
                },
                {
                    "x": 180.1987951807229,
                    "y": 49.37782805429864
                },
                {
                    "x": 180.1987951807229,
                    "y": 78.90271493212668
                },
                {
                    "x": 89.08132530120481,
                    "y": 78.90271493212668
                }
            ]
        },
        {
            "id": "ryeBGT24S",
            "type": "RECTANGLE",
            "tags": [
                "Mobile_no"
            ],
            "boundingBox": {
                "height": 13.235294117647058,
                "width": 66.17469879518072,
                "left": 111.4789156626506,
                "top": 75.84841628959276
            },
            "points": [
                {
                    "x": 111.4789156626506,
                    "y": 75.84841628959276
                },
                {
                    "x": 177.65361445783134,
                    "y": 75.84841628959276
                },
                {
                    "x": 177.65361445783134,
                    "y": 89.0837104072398
                },
                {
                    "x": 111.4789156626506,
                    "y": 89.0837104072398
                }
            ]
        },
        {
            "id": "DxNYq-kZf",
            "type": "RECTANGLE",
            "tags": [
                "Content_Items"
            ],
            "boundingBox": {
                "height": 66.68552036199094,
                "width": 189.87048192771084,
                "left": 32.57831325301205,
                "top": 278.95927601809956
            },
            "points": [
                {
                    "x": 32.57831325301205,
                    "y": 278.95927601809956
                },
                {
                    "x": 222.4487951807229,
                    "y": 278.95927601809956
                },
                {
                    "x": 222.4487951807229,
                    "y": 345.6447963800905
                },
                {
                    "x": 32.57831325301205,
                    "y": 345.6447963800905
                }
            ]
        },
        {
            "id": "L9xIVqegI",
            "type": "RECTANGLE",
            "tags": [
                "amount_details"
            ],
            "boundingBox": {
                "height": 17.307692307692307,
                "width": 52.93975903614458,
                "left": 152.20180722891567,
                "top": 358.8800904977375
            },
            "points": [
                {
                    "x": 152.20180722891567,
                    "y": 358.8800904977375
                },
                {
                    "x": 205.14156626506025,
                    "y": 358.8800904977375
                },
                {
                    "x": 205.14156626506025,
                    "y": 376.18778280542983
                },
                {
                    "x": 152.20180722891567,
                    "y": 376.18778280542983
                }
            ]
        },
        {
            "id": "kFXT1q-_8",
            "type": "RECTANGLE",
            "tags": [
                "tax"
            ],
            "boundingBox": {
                "height": 34.61538461538461,
                "width": 102.31626506024097,
                "left": 10.180722891566266,
                "top": 415.38461538461536
            },
            "points": [
                {
                    "x": 10.180722891566266,
                    "y": 415.38461538461536
                },
                {
                    "x": 112.49698795180723,
                    "y": 415.38461538461536
                },
                {
                    "x": 112.49698795180723,
                    "y": 450
                },
                {
                    "x": 10.180722891566266,
                    "y": 450
                }
            ]
        },
        {
            "id": "upBDaHnqO",
            "type": "RECTANGLE",
            "tags": [
                "tax"
            ],
            "boundingBox": {
                "height": 21.88914027149321,
                "width": 44.286144578313255,
                "left": 160.85542168674698,
                "top": 415.893665158371
            },
            "points": [
                {
                    "x": 160.85542168674698,
                    "y": 415.893665158371
                },
                {
                    "x": 205.14156626506025,
                    "y": 415.893665158371
                },
                {
                    "x": 205.14156626506025,
                    "y": 437.7828054298642
                },
                {
                    "x": 160.85542168674698,
                    "y": 437.7828054298642
                }
            ]
        }
    ],
    "version": "2.2.0"
}