{
    "asset": {
        "format": "jpg",
        "id": "7104acc9719b11c1fc6053046b0c4804",
        "name": "09432-receipt.jpg",
        "path": "file:/home/administrator/ocr/Train-OCR/TrainYourOwnYOLO/Data/receipts_Source_Images/Train_receipt/09432-receipt.jpg",
        "size": {
            "width": 253,
            "height": 450
        },
        "state": 2,
        "type": 1
    },
    "regions": [
        {
            "id": "-KTcVZ_oo",
            "type": "RECTANGLE",
            "tags": [
                "Shop_Logo"
            ],
            "boundingBox": {
                "height": 30.542986425339365,
                "width": 52.94164989939638,
                "left": 91.89225980885313,
                "top": 15.780542986425338
            },
            "points": [
                {
                    "x": 91.89225980885313,
                    "y": 15.780542986425338
                },
                {
                    "x": 144.8339097082495,
                    "y": 15.780542986425338
                },
                {
                    "x": 144.8339097082495,
                    "y": 46.3235294117647
                },
                {
                    "x": 91.89225980885313,
                    "y": 46.3235294117647
                }
            ]
        },
        {
            "id": "C9-Hx-FWE",
            "type": "RECTANGLE",
            "tags": [
                "Shop_Name"
            ],
            "boundingBox": {
                "height": 16.79864253393665,
                "width": 80.93963782696177,
                "left": 80.18401031187123,
                "top": 50.39592760180995
            },
            "points": [
                {
                    "x": 80.18401031187123,
                    "y": 50.39592760180995
                },
                {
                    "x": 161.123648138833,
                    "y": 50.39592760180995
                },
                {
                    "x": 161.123648138833,
                    "y": 67.1945701357466
                },
                {
                    "x": 80.18401031187123,
                    "y": 67.1945701357466
                }
            ]
        },
        {
            "id": "KW3NQ4ySe",
            "type": "RECTANGLE",
            "tags": [
                "Shop_Address"
            ],
            "boundingBox": {
                "height": 20.361990950226243,
                "width": 70.24949698189135,
                "left": 89.34698817907444,
                "top": 62.6131221719457
            },
            "points": [
                {
                    "x": 89.34698817907444,
                    "y": 62.6131221719457
                },
                {
                    "x": 159.59648516096578,
                    "y": 62.6131221719457
                },
                {
                    "x": 159.59648516096578,
                    "y": 82.97511312217193
                },
                {
                    "x": 89.34698817907444,
                    "y": 82.97511312217193
                }
            ]
        },
        {
            "id": "LoltMAfnL",
            "type": "RECTANGLE",
            "tags": [
                "Mobile_no"
            ],
            "boundingBox": {
                "height": 17.307692307692292,
                "width": 65.158953722334,
                "left": 96.47374874245473,
                "top": 78.39366515837104
            },
            "points": [
                {
                    "x": 96.47374874245473,
                    "y": 78.39366515837104
                },
                {
                    "x": 161.63270246478874,
                    "y": 78.39366515837104
                },
                {
                    "x": 161.63270246478874,
                    "y": 95.70135746606333
                },
                {
                    "x": 96.47374874245473,
                    "y": 95.70135746606333
                }
            ]
        },
        {
            "id": "5q5dUhFOU",
            "type": "RECTANGLE",
            "tags": [
                "Content_Items"
            ],
            "boundingBox": {
                "height": 41.7420814479638,
                "width": 137.4446680080483,
                "left": 61.85805457746479,
                "top": 140.49773755656108
            },
            "points": [
                {
                    "x": 61.85805457746479,
                    "y": 140.49773755656108
                },
                {
                    "x": 199.30272258551307,
                    "y": 140.49773755656108
                },
                {
                    "x": 199.30272258551307,
                    "y": 182.23981900452486
                },
                {
                    "x": 61.85805457746479,
                    "y": 182.23981900452486
                }
            ]
        },
        {
            "id": "W8gpqu1BG",
            "type": "RECTANGLE",
            "tags": [
                "amount_details"
            ],
            "boundingBox": {
                "height": 20.361990950226243,
                "width": 25.961770623742456,
                "left": 171.81378898390344,
                "top": 188.8574660633484
            },
            "points": [
                {
                    "x": 171.81378898390344,
                    "y": 188.8574660633484
                },
                {
                    "x": 197.77555960764587,
                    "y": 188.8574660633484
                },
                {
                    "x": 197.77555960764587,
                    "y": 209.21945701357464
                },
                {
                    "x": 171.81378898390344,
                    "y": 209.21945701357464
                }
            ]
        },
        {
            "id": "4gpHGsUON",
            "type": "RECTANGLE",
            "tags": [
                "Date"
            ],
            "boundingBox": {
                "height": 12.217194570135746,
                "width": 47.3420523138833,
                "left": 61.349000251509054,
                "top": 406.7307692307692
            },
            "points": [
                {
                    "x": 61.349000251509054,
                    "y": 406.7307692307692
                },
                {
                    "x": 108.69105256539235,
                    "y": 406.7307692307692
                },
                {
                    "x": 108.69105256539235,
                    "y": 418.947963800905
                },
                {
                    "x": 61.349000251509054,
                    "y": 418.947963800905
                }
            ]
        },
        {
            "id": "h3myQMWDb",
            "type": "RECTANGLE",
            "tags": [
                "tax"
            ],
            "boundingBox": {
                "height": 16.79864253393665,
                "width": 19.344064386317907,
                "left": 140.76147510060363,
                "top": 225.50904977375563
            },
            "points": [
                {
                    "x": 140.76147510060363,
                    "y": 225.50904977375563
                },
                {
                    "x": 160.10553948692154,
                    "y": 225.50904977375563
                },
                {
                    "x": 160.10553948692154,
                    "y": 242.3076923076923
                },
                {
                    "x": 140.76147510060363,
                    "y": 242.3076923076923
                }
            ]
        }
    ],
    "version": "2.2.0"
}