{
    "asset": {
        "format": "JPG",
        "id": "71a06303e1451c1b6b99514e6fe7c470",
        "name": "IMG_3949.JPG",
        "path": "file:/home/administrator/ocr/Train-OCR/TrainYourOwnYOLO/Data/receipts_Source_Images/Train_receipt/IMG_3949.JPG",
        "size": {
            "width": 576,
            "height": 1024
        },
        "state": 2,
        "type": 1
    },
    "regions": [
        {
            "id": "mNpHDpQwC",
            "type": "RECTANGLE",
            "tags": [
                "Shop_Name"
            ],
            "boundingBox": {
                "height": 30.117647058823533,
                "width": 227.1549295774648,
                "left": 147.33199195171028,
                "top": 141.3212669683258
            },
            "points": [
                {
                    "x": 147.33199195171028,
                    "y": 141.3212669683258
                },
                {
                    "x": 374.48692152917505,
                    "y": 141.3212669683258
                },
                {
                    "x": 374.48692152917505,
                    "y": 171.43891402714934
                },
                {
                    "x": 147.33199195171028,
                    "y": 171.43891402714934
                }
            ]
        },
        {
            "id": "yxpveiPI2",
            "type": "RECTANGLE",
            "tags": [
                "Shop_Address"
            ],
            "boundingBox": {
                "height": 72.97737556561087,
                "width": 329.14285714285717,
                "left": 63.887323943661976,
                "top": 176.07239819004528
            },
            "points": [
                {
                    "x": 63.887323943661976,
                    "y": 176.07239819004528
                },
                {
                    "x": 393.0301810865191,
                    "y": 176.07239819004528
                },
                {
                    "x": 393.0301810865191,
                    "y": 249.04977375565613
                },
                {
                    "x": 63.887323943661976,
                    "y": 249.04977375565613
                }
            ]
        },
        {
            "id": "chqn66SAV",
            "type": "RECTANGLE",
            "tags": [
                "Mobile_no"
            ],
            "boundingBox": {
                "height": 23.16742081447964,
                "width": 227.1549295774648,
                "left": 129.9476861167002,
                "top": 245.57466063348417
            },
            "points": [
                {
                    "x": 129.9476861167002,
                    "y": 245.57466063348417
                },
                {
                    "x": 357.102615694165,
                    "y": 245.57466063348417
                },
                {
                    "x": 357.102615694165,
                    "y": 268.7420814479638
                },
                {
                    "x": 129.9476861167002,
                    "y": 268.7420814479638
                }
            ]
        },
        {
            "id": "vzl3bZKsE",
            "type": "RECTANGLE",
            "tags": [
                "Date"
            ],
            "boundingBox": {
                "height": 31.276018099547514,
                "width": 86.92152917505031,
                "left": 87.06639839034206,
                "top": 311.60180995475116
            },
            "points": [
                {
                    "x": 87.06639839034206,
                    "y": 311.60180995475116
                },
                {
                    "x": 173.98792756539237,
                    "y": 311.60180995475116
                },
                {
                    "x": 173.98792756539237,
                    "y": 342.8778280542987
                },
                {
                    "x": 87.06639839034206,
                    "y": 342.8778280542987
                }
            ]
        },
        {
            "id": "idfdmkuqp",
            "type": "RECTANGLE",
            "tags": [
                "Content_Items"
            ],
            "boundingBox": {
                "height": 112.36199095022626,
                "width": 455.4688128772636,
                "left": 22.164989939637827,
                "top": 429.75565610859735
            },
            "points": [
                {
                    "x": 22.164989939637827,
                    "y": 429.75565610859735
                },
                {
                    "x": 477.63380281690144,
                    "y": 429.75565610859735
                },
                {
                    "x": 477.63380281690144,
                    "y": 542.1176470588235
                },
                {
                    "x": 22.164989939637827,
                    "y": 542.1176470588235
                }
            ]
        },
        {
            "id": "-8ewJyAVL",
            "type": "RECTANGLE",
            "tags": [
                "amount_details"
            ],
            "boundingBox": {
                "height": 37.067873303167424,
                "width": 78.80885311871228,
                "left": 371.0100603621731,
                "top": 712.398190045249
            },
            "points": [
                {
                    "x": 371.0100603621731,
                    "y": 712.398190045249
                },
                {
                    "x": 449.8189134808853,
                    "y": 712.398190045249
                },
                {
                    "x": 449.8189134808853,
                    "y": 749.4660633484164
                },
                {
                    "x": 371.0100603621731,
                    "y": 749.4660633484164
                }
            ]
        },
        {
            "id": "InTE1KPdb",
            "type": "POLYGON",
            "tags": [
                "tax"
            ],
            "boundingBox": {
                "height": 66.02714932126698,
                "width": 337.25553319919516,
                "left": 110.24547283702213,
                "top": 583.819004524887
            },
            "points": [
                {
                    "x": 114.88128772635815,
                    "y": 595.4027149321267
                },
                {
                    "x": 447.50100603621735,
                    "y": 583.819004524887
                },
                {
                    "x": 446.3420523138833,
                    "y": 640.5791855203621
                },
                {
                    "x": 110.24547283702213,
                    "y": 649.8461538461539
                }
            ]
        }
    ],
    "version": "2.2.0"
}