{
    "asset": {
        "format": "jpg",
        "id": "71cc63af59371a9c5797b41cc667808c",
        "name": "02383-receipt.jpg",
        "path": "file:/home/administrator/ocr/Train-OCR/TrainYourOwnYOLO/Data/receipts_Source_Images/Train_receipt/02383-receipt.jpg",
        "size": {
            "width": 750,
            "height": 1000
        },
        "state": 2,
        "type": 1
    },
    "regions": [
        {
            "id": "BFhn8Dlj-",
            "type": "RECTANGLE",
            "tags": [
                "Shop_Name"
            ],
            "boundingBox": {
                "height": 28.28054298642534,
                "width": 218.32579185520362,
                "left": 280.54298642533934,
                "top": 240.9502262443439
            },
            "points": [
                {
                    "x": 280.54298642533934,
                    "y": 240.9502262443439
                },
                {
                    "x": 498.868778280543,
                    "y": 240.9502262443439
                },
                {
                    "x": 498.868778280543,
                    "y": 269.2307692307692
                },
                {
                    "x": 280.54298642533934,
                    "y": 269.2307692307692
                }
            ]
        },
        {
            "id": "-tkpjDpBL",
            "type": "RECTANGLE",
            "tags": [
                "Shop_Address"
            ],
            "boundingBox": {
                "height": 28.28054298642534,
                "width": 346.15384615384613,
                "left": 210.40723981900453,
                "top": 255.65610859728505
            },
            "points": [
                {
                    "x": 210.40723981900453,
                    "y": 255.65610859728505
                },
                {
                    "x": 556.5610859728507,
                    "y": 255.65610859728505
                },
                {
                    "x": 556.5610859728507,
                    "y": 283.9366515837104
                },
                {
                    "x": 210.40723981900453,
                    "y": 283.9366515837104
                }
            ]
        },
        {
            "id": "tdkq7oVZ-",
            "type": "RECTANGLE",
            "tags": [
                "Mobile_no"
            ],
            "boundingBox": {
                "height": 20.361990950226243,
                "width": 128.95927601809956,
                "left": 319.00452488687785,
                "top": 289.59276018099547
            },
            "points": [
                {
                    "x": 319.00452488687785,
                    "y": 289.59276018099547
                },
                {
                    "x": 447.96380090497735,
                    "y": 289.59276018099547
                },
                {
                    "x": 447.96380090497735,
                    "y": 309.9547511312217
                },
                {
                    "x": 319.00452488687785,
                    "y": 309.9547511312217
                }
            ]
        },
        {
            "id": "cTjO1ZVNa",
            "type": "RECTANGLE",
            "tags": [
                "Content_Items"
            ],
            "boundingBox": {
                "height": 207.01357466063348,
                "width": 410.6334841628959,
                "left": 169.68325791855204,
                "top": 384.6153846153846
            },
            "points": [
                {
                    "x": 169.68325791855204,
                    "y": 384.6153846153846
                },
                {
                    "x": 580.316742081448,
                    "y": 384.6153846153846
                },
                {
                    "x": 580.316742081448,
                    "y": 591.6289592760181
                },
                {
                    "x": 169.68325791855204,
                    "y": 591.6289592760181
                }
            ]
        },
        {
            "id": "nFsSoDTV7",
            "type": "RECTANGLE",
            "tags": [
                "amount_details"
            ],
            "boundingBox": {
                "height": 46.380090497737555,
                "width": 153.84615384615384,
                "left": 432.12669683257917,
                "top": 667.420814479638
            },
            "points": [
                {
                    "x": 432.12669683257917,
                    "y": 667.420814479638
                },
                {
                    "x": 585.972850678733,
                    "y": 667.420814479638
                },
                {
                    "x": 585.972850678733,
                    "y": 713.8009049773756
                },
                {
                    "x": 432.12669683257917,
                    "y": 713.8009049773756
                }
            ]
        },
        {
            "id": "mZyW_MhGi",
            "type": "RECTANGLE",
            "tags": [
                "Date"
            ],
            "boundingBox": {
                "height": 48.64253393665158,
                "width": 135.74660633484163,
                "left": 89.36651583710407,
                "top": 703.6199095022624
            },
            "points": [
                {
                    "x": 89.36651583710407,
                    "y": 703.6199095022624
                },
                {
                    "x": 225.1131221719457,
                    "y": 703.6199095022624
                },
                {
                    "x": 225.1131221719457,
                    "y": 752.262443438914
                },
                {
                    "x": 89.36651583710407,
                    "y": 752.262443438914
                }
            ]
        }
    ],
    "version": "2.2.0"
}