{
    "asset": {
        "format": "jpg",
        "id": "74e001403cba74178701c8fddf2e0061",
        "name": "00937-receipt.jpg",
        "path": "file:/home/administrator/ocr/Train-OCR/TrainYourOwnYOLO/Data/receipts_Source_Images/Train_receipt/00937-receipt.jpg",
        "size": {
            "width": 338,
            "height": 450
        },
        "state": 2,
        "type": 1
    },
    "regions": [
        {
            "id": "EDO760pNq",
            "type": "RECTANGLE",
            "tags": [
                "Date"
            ],
            "boundingBox": {
                "height": 12.217194570135774,
                "width": 53.448795180722875,
                "left": 124.20481927710844,
                "top": 152.7149321266968
            },
            "points": [
                {
                    "x": 124.20481927710844,
                    "y": 152.7149321266968
                },
                {
                    "x": 177.65361445783134,
                    "y": 152.7149321266968
                },
                {
                    "x": 177.65361445783134,
                    "y": 164.93212669683257
                },
                {
                    "x": 124.20481927710844,
                    "y": 164.93212669683257
                }
            ]
        },
        {
            "id": "76l7DLyTm",
            "type": "RECTANGLE",
            "tags": [
                "Content_Items"
            ],
            "boundingBox": {
                "height": 121.66289592760168,
                "width": 163.90963855421685,
                "left": 94.17168674698802,
                "top": 178.67647058823528
            },
            "points": [
                {
                    "x": 94.17168674698802,
                    "y": 178.67647058823528
                },
                {
                    "x": 258.08132530120486,
                    "y": 178.67647058823528
                },
                {
                    "x": 258.08132530120486,
                    "y": 300.33936651583696
                },
                {
                    "x": 94.17168674698802,
                    "y": 300.33936651583696
                }
            ]
        },
        {
            "id": "SdNNoNuWP",
            "type": "RECTANGLE",
            "tags": [
                "amount_details"
            ],
            "boundingBox": {
                "height": 12.726244343891402,
                "width": 71.77409638554217,
                "left": 192.4156626506024,
                "top": 335.46380090497735
            },
            "points": [
                {
                    "x": 192.4156626506024,
                    "y": 335.46380090497735
                },
                {
                    "x": 264.18975903614455,
                    "y": 335.46380090497735
                },
                {
                    "x": 264.18975903614455,
                    "y": 348.1900452488687
                },
                {
                    "x": 192.4156626506024,
                    "y": 348.1900452488687
                }
            ]
        },
        {
            "id": "_tneT10VL",
            "type": "RECTANGLE",
            "tags": [
                "tax"
            ],
            "boundingBox": {
                "height": 20.8710407239819,
                "width": 41.23192771084337,
                "left": 69.48343373493977,
                "top": 404.18552036199094
            },
            "points": [
                {
                    "x": 69.48343373493977,
                    "y": 404.18552036199094
                },
                {
                    "x": 110.71536144578313,
                    "y": 404.18552036199094
                },
                {
                    "x": 110.71536144578313,
                    "y": 425.0565610859728
                },
                {
                    "x": 69.48343373493977,
                    "y": 425.0565610859728
                }
            ]
        },
        {
            "id": "n0fyDraVb",
            "type": "RECTANGLE",
            "tags": [
                "tax"
            ],
            "boundingBox": {
                "height": 14.762443438914026,
                "width": 57.01204819277108,
                "left": 158.05572289156626,
                "top": 404.6945701357466
            },
            "points": [
                {
                    "x": 158.05572289156626,
                    "y": 404.6945701357466
                },
                {
                    "x": 215.06777108433735,
                    "y": 404.6945701357466
                },
                {
                    "x": 215.06777108433735,
                    "y": 419.4570135746606
                },
                {
                    "x": 158.05572289156626,
                    "y": 419.4570135746606
                }
            ]
        },
        {
            "id": "rkkNrIKzU",
            "type": "RECTANGLE",
            "tags": [
                "tax"
            ],
            "boundingBox": {
                "height": 15.271493212669682,
                "width": 35.123493975903614,
                "left": 71.0105421686747,
                "top": 434.7285067873303
            },
            "points": [
                {
                    "x": 71.0105421686747,
                    "y": 434.7285067873303
                },
                {
                    "x": 106.13403614457832,
                    "y": 434.7285067873303
                },
                {
                    "x": 106.13403614457832,
                    "y": 450
                },
                {
                    "x": 71.0105421686747,
                    "y": 450
                }
            ]
        },
        {
            "id": "8RfoXnX87",
            "type": "RECTANGLE",
            "tags": [
                "tax"
            ],
            "boundingBox": {
                "height": 14.762443438914026,
                "width": 55.484939759036145,
                "left": 174.34487951807228,
                "top": 433.710407239819
            },
            "points": [
                {
                    "x": 174.34487951807228,
                    "y": 433.710407239819
                },
                {
                    "x": 229.82981927710844,
                    "y": 433.710407239819
                },
                {
                    "x": 229.82981927710844,
                    "y": 448.472850678733
                },
                {
                    "x": 174.34487951807228,
                    "y": 448.472850678733
                }
            ]
        },
        {
            "id": "ifEs6P4uP",
            "type": "POLYGON",
            "tags": [
                "Shop_Name"
            ],
            "boundingBox": {
                "height": 13.744343891402714,
                "width": 90.09939759036145,
                "left": 89.84487951807229,
                "top": 54.977375565610856
            },
            "points": [
                {
                    "x": 89.84487951807229,
                    "y": 59.55882352941176
                },
                {
                    "x": 179.94427710843374,
                    "y": 54.977375565610856
                },
                {
                    "x": 179.94427710843374,
                    "y": 65.66742081447964
                },
                {
                    "x": 89.84487951807229,
                    "y": 68.72171945701356
                }
            ]
        },
        {
            "id": "sfbtJVDnE",
            "type": "POLYGON",
            "tags": [
                "Shop_Address"
            ],
            "boundingBox": {
                "height": 22.907239819004523,
                "width": 182.23493975903614,
                "left": 74.06475903614458,
                "top": 59.55882352941176
            },
            "points": [
                {
                    "x": 77.11897590361446,
                    "y": 72.28506787330316
                },
                {
                    "x": 256.29969879518075,
                    "y": 59.55882352941176
                },
                {
                    "x": 256.29969879518075,
                    "y": 71.77601809954751
                },
                {
                    "x": 74.06475903614458,
                    "y": 82.46606334841628
                }
            ]
        }
    ],
    "version": "2.2.0"
}