{
    "asset": {
        "format": "jpg",
        "id": "75683b86e51b85682f0763fdc3ba07b9",
        "name": "09986-receipt.jpg",
        "path": "file:/home/administrator/ocr/Train-OCR/TrainYourOwnYOLO/Data/receipts_Source_Images/Train_receipt/09986-receipt.jpg",
        "size": {
            "width": 450,
            "height": 450
        },
        "state": 2,
        "type": 1
    },
    "regions": [
        {
            "id": "_f6v3XS00",
            "type": "POLYGON",
            "tags": [
                "Content_Items"
            ],
            "boundingBox": {
                "height": 160.85972850678732,
                "width": 298.3031674208145,
                "left": 93.66515837104072,
                "top": 102.31900452488688
            },
            "points": [
                {
                    "x": 110.46380090497738,
                    "y": 102.31900452488688
                },
                {
                    "x": 93.66515837104072,
                    "y": 125.73529411764704
                },
                {
                    "x": 375.6787330316742,
                    "y": 263.1787330316742
                },
                {
                    "x": 391.9683257918552,
                    "y": 230.5995475113122
                }
            ]
        },
        {
            "id": "gxmRaoJ9n",
            "type": "POLYGON",
            "tags": [
                "amount_details",
                "tax"
            ],
            "boundingBox": {
                "height": 50.90497737556561,
                "width": 80.42986425339366,
                "left": 287.6131221719457,
                "top": 240.27149321266967
            },
            "points": [
                {
                    "x": 368.04298642533934,
                    "y": 277.94117647058823
                },
                {
                    "x": 295.24886877828055,
                    "y": 240.27149321266967
                },
                {
                    "x": 287.6131221719457,
                    "y": 251.97963800904975
                },
                {
                    "x": 363.9705882352941,
                    "y": 291.17647058823525
                }
            ]
        },
        {
            "id": "ogcwHXKZJ",
            "type": "POLYGON",
            "tags": [
                "tax"
            ],
            "boundingBox": {
                "height": 41.7420814479638,
                "width": 53.45022624434389,
                "left": 206.67420814479635,
                "top": 270.30542986425337
            },
            "points": [
                {
                    "x": 215.83710407239818,
                    "y": 270.30542986425337
                },
                {
                    "x": 206.67420814479635,
                    "y": 288.1221719457013
                },
                {
                    "x": 250.96153846153845,
                    "y": 312.0475113122172
                },
                {
                    "x": 260.1244343891403,
                    "y": 292.1945701357466
                }
            ]
        },
        {
            "id": "ro9JaFO1h",
            "type": "POLYGON",
            "tags": [
                "tax"
            ],
            "boundingBox": {
                "height": 36.65158371040724,
                "width": 55.48642533936651,
                "left": 23.41628959276018,
                "top": 193.94796380090497
            },
            "points": [
                {
                    "x": 31.05203619909502,
                    "y": 193.94796380090497
                },
                {
                    "x": 23.41628959276018,
                    "y": 203.61990950226243
                },
                {
                    "x": 71.77601809954751,
                    "y": 230.5995475113122
                },
                {
                    "x": 78.90271493212668,
                    "y": 219.40045248868776
                }
            ]
        }
    ],
    "version": "2.2.0"
}