{
    "asset": {
        "format": "jpg",
        "id": "7598a91ea86296426b32f36b1e1b3a50",
        "name": "09728-receipt.jpg",
        "path": "file:/home/administrator/ocr/Train-OCR/TrainYourOwnYOLO/Data/receipts_Source_Images/Train_receipt/09728-receipt.jpg",
        "size": {
            "width": 338,
            "height": 450
        },
        "state": 2,
        "type": 1
    },
    "regions": [
        {
            "id": "Rd4EWN6yL",
            "type": "RECTANGLE",
            "tags": [
                "Shop_Name"
            ],
            "boundingBox": {
                "height": 8.653846153846153,
                "width": 106.89759036144578,
                "left": 112.49698795180723,
                "top": 86.02941176470588
            },
            "points": [
                {
                    "x": 112.49698795180723,
                    "y": 86.02941176470588
                },
                {
                    "x": 219.39457831325302,
                    "y": 86.02941176470588
                },
                {
                    "x": 219.39457831325302,
                    "y": 94.68325791855203
                },
                {
                    "x": 112.49698795180723,
                    "y": 94.68325791855203
                }
            ]
        },
        {
            "id": "OoPKuEdhb",
            "type": "RECTANGLE",
            "tags": [
                "Shop_Address"
            ],
            "boundingBox": {
                "height": 17.307692307692307,
                "width": 123.1867469879518,
                "left": 105.37048192771084,
                "top": 96.210407239819
            },
            "points": [
                {
                    "x": 105.37048192771084,
                    "y": 96.210407239819
                },
                {
                    "x": 228.55722891566265,
                    "y": 96.210407239819
                },
                {
                    "x": 228.55722891566265,
                    "y": 113.5180995475113
                },
                {
                    "x": 105.37048192771084,
                    "y": 113.5180995475113
                }
            ]
        },
        {
            "id": "uC6uEBcIg",
            "type": "RECTANGLE",
            "tags": [
                "Date"
            ],
            "boundingBox": {
                "height": 12.217194570135746,
                "width": 49.376506024096386,
                "left": 67.70180722891567,
                "top": 125.2262443438914
            },
            "points": [
                {
                    "x": 67.70180722891567,
                    "y": 125.2262443438914
                },
                {
                    "x": 117.07831325301206,
                    "y": 125.2262443438914
                },
                {
                    "x": 117.07831325301206,
                    "y": 137.44343891402713
                },
                {
                    "x": 67.70180722891567,
                    "y": 137.44343891402713
                }
            ]
        },
        {
            "id": "DMTuDu3Jg",
            "type": "RECTANGLE",
            "tags": [
                "Content_Items"
            ],
            "boundingBox": {
                "height": 51.92307692307692,
                "width": 216.84939759036143,
                "left": 57.01204819277108,
                "top": 147.1153846153846
            },
            "points": [
                {
                    "x": 57.01204819277108,
                    "y": 147.1153846153846
                },
                {
                    "x": 273.8614457831325,
                    "y": 147.1153846153846
                },
                {
                    "x": 273.8614457831325,
                    "y": 199.03846153846152
                },
                {
                    "x": 57.01204819277108,
                    "y": 199.03846153846152
                }
            ]
        },
        {
            "id": "XhM8cp8UW",
            "type": "RECTANGLE",
            "tags": [
                "amount_details"
            ],
            "boundingBox": {
                "height": 26.979638009049772,
                "width": 63.12048192771084,
                "left": 211.25,
                "top": 285.0678733031674
            },
            "points": [
                {
                    "x": 211.25,
                    "y": 285.0678733031674
                },
                {
                    "x": 274.37048192771084,
                    "y": 285.0678733031674
                },
                {
                    "x": 274.37048192771084,
                    "y": 312.0475113122172
                },
                {
                    "x": 211.25,
                    "y": 312.0475113122172
                }
            ]
        },
        {
            "id": "VauwNBRZb",
            "type": "RECTANGLE",
            "tags": [
                "tax"
            ],
            "boundingBox": {
                "height": 14.762443438914026,
                "width": 76.8644578313253,
                "left": 52.43072289156626,
                "top": 225
            },
            "points": [
                {
                    "x": 52.43072289156626,
                    "y": 225
                },
                {
                    "x": 129.29518072289156,
                    "y": 225
                },
                {
                    "x": 129.29518072289156,
                    "y": 239.762443438914
                },
                {
                    "x": 52.43072289156626,
                    "y": 239.762443438914
                }
            ]
        },
        {
            "id": "uz5-f3F2p",
            "type": "RECTANGLE",
            "tags": [
                "tax"
            ],
            "boundingBox": {
                "height": 16.289592760180994,
                "width": 24.94277108433735,
                "left": 244.33734939759037,
                "top": 229.58144796380088
            },
            "points": [
                {
                    "x": 244.33734939759037,
                    "y": 229.58144796380088
                },
                {
                    "x": 269.2801204819277,
                    "y": 229.58144796380088
                },
                {
                    "x": 269.2801204819277,
                    "y": 245.87104072398188
                },
                {
                    "x": 244.33734939759037,
                    "y": 245.87104072398188
                }
            ]
        },
        {
            "id": "L0DnbA6qG",
            "type": "RECTANGLE",
            "tags": [
                "tax"
            ],
            "boundingBox": {
                "height": 15.780542986425338,
                "width": 73.3012048192771,
                "left": 47.84939759036145,
                "top": 254.52488687782804
            },
            "points": [
                {
                    "x": 47.84939759036145,
                    "y": 254.52488687782804
                },
                {
                    "x": 121.15060240963855,
                    "y": 254.52488687782804
                },
                {
                    "x": 121.15060240963855,
                    "y": 270.30542986425337
                },
                {
                    "x": 47.84939759036145,
                    "y": 270.30542986425337
                }
            ]
        },
        {
            "id": "g5LL_kDwY",
            "type": "RECTANGLE",
            "tags": [
                "tax"
            ],
            "boundingBox": {
                "height": 12.217194570135746,
                "width": 31.051204819277107,
                "left": 240.26506024096386,
                "top": 263.1787330316742
            },
            "points": [
                {
                    "x": 240.26506024096386,
                    "y": 263.1787330316742
                },
                {
                    "x": 271.31626506024094,
                    "y": 263.1787330316742
                },
                {
                    "x": 271.31626506024094,
                    "y": 275.39592760180994
                },
                {
                    "x": 240.26506024096386,
                    "y": 275.39592760180994
                }
            ]
        }
    ],
    "version": "2.2.0"
}