{
    "asset": {
        "format": "JPG",
        "id": "75be058511a41b6c1f2fef4ec4e1b054",
        "name": "9c1fb7df-fc19-44d1-af0f-52cbc3273083.JPG",
        "path": "file:/home/administrator/ocr/Train-OCR/TrainYourOwnYOLO/Data/receipts_Source_Images/Train_receipt/9c1fb7df-fc19-44d1-af0f-52cbc3273083.JPG",
        "size": {
            "width": 576,
            "height": 1024
        },
        "state": 2,
        "type": 1
    },
    "regions": [
        {
            "id": "wfioLFLMf",
            "type": "RECTANGLE",
            "tags": [
                "Shop_Name"
            ],
            "boundingBox": {
                "height": 20.850678733031675,
                "width": 183.11468812877266,
                "left": 187.3158953722334,
                "top": 108.88687782805431
            },
            "points": [
                {
                    "x": 187.3158953722334,
                    "y": 108.88687782805431
                },
                {
                    "x": 370.430583501006,
                    "y": 108.88687782805431
                },
                {
                    "x": 370.430583501006,
                    "y": 129.737556561086
                },
                {
                    "x": 187.3158953722334,
                    "y": 129.737556561086
                }
            ]
        },
        {
            "id": "nK4Ax7lUD",
            "type": "RECTANGLE",
            "tags": [
                "Shop_Address"
            ],
            "boundingBox": {
                "height": 30.117647058823533,
                "width": 134.43863179074447,
                "left": 216.2897384305835,
                "top": 132.05429864253395
            },
            "points": [
                {
                    "x": 216.2897384305835,
                    "y": 132.05429864253395
                },
                {
                    "x": 350.72837022132796,
                    "y": 132.05429864253395
                },
                {
                    "x": 350.72837022132796,
                    "y": 162.1719457013575
                },
                {
                    "x": 216.2897384305835,
                    "y": 162.1719457013575
                }
            ]
        },
        {
            "id": "TR4hws7Z-",
            "type": "RECTANGLE",
            "tags": [
                "Mobile_no"
            ],
            "boundingBox": {
                "height": 20.850678733031675,
                "width": 76.49094567404427,
                "left": 247.5814889336016,
                "top": 155.2217194570136
            },
            "points": [
                {
                    "x": 247.5814889336016,
                    "y": 155.2217194570136
                },
                {
                    "x": 324.0724346076459,
                    "y": 155.2217194570136
                },
                {
                    "x": 324.0724346076459,
                    "y": 176.07239819004528
                },
                {
                    "x": 247.5814889336016,
                    "y": 176.07239819004528
                }
            ]
        },
        {
            "id": "oIsQWxKvS",
            "type": "RECTANGLE",
            "tags": [
                "Content_Items"
            ],
            "boundingBox": {
                "height": 91.51131221719457,
                "width": 232.9496981891348,
                "left": 164.13682092555334,
                "top": 221.24886877828055
            },
            "points": [
                {
                    "x": 164.13682092555334,
                    "y": 221.24886877828055
                },
                {
                    "x": 397.08651911468814,
                    "y": 221.24886877828055
                },
                {
                    "x": 397.08651911468814,
                    "y": 312.76018099547514
                },
                {
                    "x": 164.13682092555334,
                    "y": 312.76018099547514
                }
            ]
        },
        {
            "id": "vLqn_HElc",
            "type": "RECTANGLE",
            "tags": [
                "amount_details"
            ],
            "boundingBox": {
                "height": 17.37556561085973,
                "width": 47.517102615694164,
                "left": 350.72837022132796,
                "top": 338.24434389140276
            },
            "points": [
                {
                    "x": 350.72837022132796,
                    "y": 338.24434389140276
                },
                {
                    "x": 398.24547283702213,
                    "y": 338.24434389140276
                },
                {
                    "x": 398.24547283702213,
                    "y": 355.6199095022625
                },
                {
                    "x": 350.72837022132796,
                    "y": 355.6199095022625
                }
            ]
        },
        {
            "id": "cuYut8M1A",
            "type": "RECTANGLE",
            "tags": [
                "Date"
            ],
            "boundingBox": {
                "height": 16.21719457013575,
                "width": 60.26559356136821,
                "left": 159.50100603621732,
                "top": 188.81447963800906
            },
            "points": [
                {
                    "x": 159.50100603621732,
                    "y": 188.81447963800906
                },
                {
                    "x": 219.76659959758553,
                    "y": 188.81447963800906
                },
                {
                    "x": 219.76659959758553,
                    "y": 205.0316742081448
                },
                {
                    "x": 159.50100603621732,
                    "y": 205.0316742081448
                }
            ]
        }
    ],
    "version": "2.2.0"
}