{
    "asset": {
        "format": "png",
        "id": "767dd596d92cb9dc0e2ed3c4689c5d0d",
        "name": "02349-receipt.png",
        "path": "file:/home/administrator/ocr/Train-OCR/TrainYourOwnYOLO/Data/receipts_Source_Images/Train_receipt/02349-receipt.png",
        "size": {
            "width": 1688,
            "height": 3000
        },
        "state": 2,
        "type": 1
    },
    "regions": [
        {
            "id": "H29ZH7OfA",
            "type": "RECTANGLE",
            "tags": [
                "Shop_Name"
            ],
            "boundingBox": {
                "height": 132.35294117647058,
                "width": 451.71830985915494,
                "left": 615.4343561368211,
                "top": 281.67420814479635
            },
            "points": [
                {
                    "x": 615.4343561368211,
                    "y": 281.67420814479635
                },
                {
                    "x": 1067.152665995976,
                    "y": 281.67420814479635
                },
                {
                    "x": 1067.152665995976,
                    "y": 414.02714932126696
                },
                {
                    "x": 615.4343561368211,
                    "y": 414.02714932126696
                }
            ]
        },
        {
            "id": "I-lIgd_fx",
            "type": "RECTANGLE",
            "tags": [
                "Shop_Logo"
            ],
            "boundingBox": {
                "height": 234.1628959276018,
                "width": 196.98993963782698,
                "left": 377.68787726358147,
                "top": 213.80090497737555
            },
            "points": [
                {
                    "x": 377.68787726358147,
                    "y": 213.80090497737555
                },
                {
                    "x": 574.6778169014085,
                    "y": 213.80090497737555
                },
                {
                    "x": 574.6778169014085,
                    "y": 447.96380090497735
                },
                {
                    "x": 377.68787726358147,
                    "y": 447.96380090497735
                }
            ]
        },
        {
            "id": "-hiPvMQ7X",
            "type": "RECTANGLE",
            "tags": [
                "Shop_Address"
            ],
            "boundingBox": {
                "height": 213.80090497737555,
                "width": 451.71830985915494,
                "left": 306.3639336016097,
                "top": 654.9773755656108
            },
            "points": [
                {
                    "x": 306.3639336016097,
                    "y": 654.9773755656108
                },
                {
                    "x": 758.0822434607646,
                    "y": 654.9773755656108
                },
                {
                    "x": 758.0822434607646,
                    "y": 868.7782805429864
                },
                {
                    "x": 306.3639336016097,
                    "y": 868.7782805429864
                }
            ]
        },
        {
            "id": "a-RjBRST6",
            "type": "RECTANGLE",
            "tags": [
                "Mobile_no"
            ],
            "boundingBox": {
                "height": 108.5972850678733,
                "width": 336.2414486921529,
                "left": 289.38204225352115,
                "top": 967.1945701357466
            },
            "points": [
                {
                    "x": 289.38204225352115,
                    "y": 967.1945701357466
                },
                {
                    "x": 625.623490945674,
                    "y": 967.1945701357466
                },
                {
                    "x": 625.623490945674,
                    "y": 1075.79185520362
                },
                {
                    "x": 289.38204225352115,
                    "y": 1075.79185520362
                }
            ]
        },
        {
            "id": "CwyD5cIBr",
            "type": "RECTANGLE",
            "tags": [
                "Date"
            ],
            "boundingBox": {
                "height": 91.6289592760181,
                "width": 234.35010060362174,
                "left": 289.38204225352115,
                "top": 1204.7511312217193
            },
            "points": [
                {
                    "x": 289.38204225352115,
                    "y": 1204.7511312217193
                },
                {
                    "x": 523.7321428571429,
                    "y": 1204.7511312217193
                },
                {
                    "x": 523.7321428571429,
                    "y": 1296.3800904977375
                },
                {
                    "x": 289.38204225352115,
                    "y": 1296.3800904977375
                }
            ]
        },
        {
            "id": "670bIvf0v",
            "type": "RECTANGLE",
            "tags": [
                "Content_Items"
            ],
            "boundingBox": {
                "height": 593.8914027149322,
                "width": 862.6800804828974,
                "left": 279.19290744466804,
                "top": 1530.5429864253394
            },
            "points": [
                {
                    "x": 279.19290744466804,
                    "y": 1530.5429864253394
                },
                {
                    "x": 1141.8729879275654,
                    "y": 1530.5429864253394
                },
                {
                    "x": 1141.8729879275654,
                    "y": 2124.4343891402714
                },
                {
                    "x": 279.19290744466804,
                    "y": 2124.4343891402714
                }
            ]
        },
        {
            "id": "dx4PBYgac",
            "type": "RECTANGLE",
            "tags": [
                "amount_details"
            ],
            "boundingBox": {
                "height": 111.99095022624434,
                "width": 261.5211267605634,
                "left": 897.3337525150905,
                "top": 2562.217194570136
            },
            "points": [
                {
                    "x": 897.3337525150905,
                    "y": 2562.217194570136
                },
                {
                    "x": 1158.854879275654,
                    "y": 2562.217194570136
                },
                {
                    "x": 1158.854879275654,
                    "y": 2674.2081447963806
                },
                {
                    "x": 897.3337525150905,
                    "y": 2674.2081447963806
                }
            ]
        }
    ],
    "version": "2.2.0"
}