{
    "asset": {
        "format": "jpg",
        "id": "771f31351ee9a9a7dc3f521ad0579ebb",
        "name": "02240-receipt.jpg",
        "path": "file:/home/administrator/ocr/Train-OCR/TrainYourOwnYOLO/Data/receipts_Source_Images/Train_receipt/02240-receipt.jpg",
        "size": {
            "width": 750,
            "height": 1000
        },
        "state": 2,
        "type": 1
    },
    "regions": [
        {
            "id": "WGVb68EA5",
            "type": "RECTANGLE",
            "tags": [
                "Shop_Name"
            ],
            "boundingBox": {
                "height": 37.33031674208145,
                "width": 256.7873303167421,
                "left": 100.67873303167421,
                "top": 170.81447963800903
            },
            "points": [
                {
                    "x": 100.67873303167421,
                    "y": 170.81447963800903
                },
                {
                    "x": 357.4660633484163,
                    "y": 170.81447963800903
                },
                {
                    "x": 357.4660633484163,
                    "y": 208.1447963800905
                },
                {
                    "x": 100.67873303167421,
                    "y": 208.1447963800905
                }
            ]
        },
        {
            "id": "jNNAVOl2x",
            "type": "RECTANGLE",
            "tags": [
                "Shop_Address"
            ],
            "boundingBox": {
                "height": 46.380090497737555,
                "width": 207.01357466063348,
                "left": 126.69683257918552,
                "top": 212.66968325791854
            },
            "points": [
                {
                    "x": 126.69683257918552,
                    "y": 212.66968325791854
                },
                {
                    "x": 333.710407239819,
                    "y": 212.66968325791854
                },
                {
                    "x": 333.710407239819,
                    "y": 259.0497737556561
                },
                {
                    "x": 126.69683257918552,
                    "y": 259.0497737556561
                }
            ]
        },
        {
            "id": "IhIEPIN8T",
            "type": "RECTANGLE",
            "tags": [
                "Mobile_no"
            ],
            "boundingBox": {
                "height": 19.23076923076923,
                "width": 190.0452488687783,
                "left": 135.74660633484163,
                "top": 260.1809954751131
            },
            "points": [
                {
                    "x": 135.74660633484163,
                    "y": 260.1809954751131
                },
                {
                    "x": 325.7918552036199,
                    "y": 260.1809954751131
                },
                {
                    "x": 325.7918552036199,
                    "y": 279.4117647058823
                },
                {
                    "x": 135.74660633484163,
                    "y": 279.4117647058823
                }
            ]
        },
        {
            "id": "6fiRv2psC",
            "type": "RECTANGLE",
            "tags": [
                "Date"
            ],
            "boundingBox": {
                "height": 21.493212669683256,
                "width": 83.710407239819,
                "left": 214.93212669683257,
                "top": 297.5113122171946
            },
            "points": [
                {
                    "x": 214.93212669683257,
                    "y": 297.5113122171946
                },
                {
                    "x": 298.6425339366516,
                    "y": 297.5113122171946
                },
                {
                    "x": 298.6425339366516,
                    "y": 319.00452488687785
                },
                {
                    "x": 214.93212669683257,
                    "y": 319.00452488687785
                }
            ]
        },
        {
            "id": "AKCLqUqqv",
            "type": "RECTANGLE",
            "tags": [
                "amount_details"
            ],
            "boundingBox": {
                "height": 32.80542986425339,
                "width": 64.47963800904978,
                "left": 329.18552036199094,
                "top": 584.841628959276
            },
            "points": [
                {
                    "x": 329.18552036199094,
                    "y": 584.841628959276
                },
                {
                    "x": 393.6651583710407,
                    "y": 584.841628959276
                },
                {
                    "x": 393.6651583710407,
                    "y": 617.6470588235294
                },
                {
                    "x": 329.18552036199094,
                    "y": 617.6470588235294
                }
            ]
        }
    ],
    "version": "2.2.0"
}