{
    "asset": {
        "format": "JPG",
        "id": "783cc21261d14e9fc6adf7e6d89c4d4a",
        "name": "IMG_1865(1).JPG",
        "path": "file:/home/administrator/ocr/Train-OCR/TrainYourOwnYOLO/Data/receipts_Source_Images/Train_receipt/IMG_1865(1).JPG",
        "size": {
            "width": 277,
            "height": 1024
        },
        "state": 2,
        "type": 1
    },
    "regions": [
        {
            "id": "gJ6mPz_uL",
            "type": "RECTANGLE",
            "tags": [
                "Shop_Name"
            ],
            "boundingBox": {
                "height": 26.642533936651585,
                "width": 142.55648535564853,
                "left": 57.46083943514645,
                "top": 25.484162895927604
            },
            "points": [
                {
                    "x": 57.46083943514645,
                    "y": 25.484162895927604
                },
                {
                    "x": 200.017324790795,
                    "y": 25.484162895927604
                },
                {
                    "x": 200.017324790795,
                    "y": 52.12669683257919
                },
                {
                    "x": 57.46083943514645,
                    "y": 52.12669683257919
                }
            ]
        },
        {
            "id": "gAGGGpB5C",
            "type": "RECTANGLE",
            "tags": [
                "Content_Items"
            ],
            "boundingBox": {
                "height": 275.69230769230774,
                "width": 175.00836820083683,
                "left": 36.59891474895398,
                "top": 353.30316742081453
            },
            "points": [
                {
                    "x": 36.59891474895398,
                    "y": 353.30316742081453
                },
                {
                    "x": 211.6072829497908,
                    "y": 353.30316742081453
                },
                {
                    "x": 211.6072829497908,
                    "y": 628.9954751131222
                },
                {
                    "x": 36.59891474895398,
                    "y": 628.9954751131222
                }
            ]
        },
        {
            "id": "ELsKkS-zo",
            "type": "RECTANGLE",
            "tags": [
                "amount_details"
            ],
            "boundingBox": {
                "height": 13.900452488687783,
                "width": 32.45188284518829,
                "left": 167.5654419456067,
                "top": 655.6380090497738
            },
            "points": [
                {
                    "x": 167.5654419456067,
                    "y": 655.6380090497738
                },
                {
                    "x": 200.017324790795,
                    "y": 655.6380090497738
                },
                {
                    "x": 200.017324790795,
                    "y": 669.5384615384615
                },
                {
                    "x": 167.5654419456067,
                    "y": 669.5384615384615
                }
            ]
        }
    ],
    "version": "2.2.0"
}