{
    "asset": {
        "format": "jpg",
        "id": "788a326e3e449787ebfb9c7ece64eeca",
        "name": "02430-receipt.jpg",
        "path": "file:/home/administrator/ocr/Train-OCR/TrainYourOwnYOLO/Data/receipts_Source_Images/Train_receipt/02430-receipt.jpg",
        "size": {
            "width": 750,
            "height": 1000
        },
        "state": 2,
        "type": 1
    },
    "regions": [
        {
            "id": "jJruVl7ra",
            "type": "RECTANGLE",
            "tags": [
                "Shop_Logo"
            ],
            "boundingBox": {
                "height": 110.85972850678733,
                "width": 248.86877828054298,
                "left": 229.63800904977376,
                "top": 37.33031674208145
            },
            "points": [
                {
                    "x": 229.63800904977376,
                    "y": 37.33031674208145
                },
                {
                    "x": 478.50678733031674,
                    "y": 37.33031674208145
                },
                {
                    "x": 478.50678733031674,
                    "y": 148.19004524886878
                },
                {
                    "x": 229.63800904977376,
                    "y": 148.19004524886878
                }
            ]
        },
        {
            "id": "L5fc6M59d",
            "type": "RECTANGLE",
            "tags": [
                "Shop_Name"
            ],
            "boundingBox": {
                "height": 53.167420814479634,
                "width": 428.7330316742081,
                "left": 140.27149321266967,
                "top": 148.19004524886878
            },
            "points": [
                {
                    "x": 140.27149321266967,
                    "y": 148.19004524886878
                },
                {
                    "x": 569.0045248868778,
                    "y": 148.19004524886878
                },
                {
                    "x": 569.0045248868778,
                    "y": 201.35746606334843
                },
                {
                    "x": 140.27149321266967,
                    "y": 201.35746606334843
                }
            ]
        },
        {
            "id": "Jm32FjfBI",
            "type": "RECTANGLE",
            "tags": [
                "Shop_Address"
            ],
            "boundingBox": {
                "height": 110.85972850678733,
                "width": 338.2352941176471,
                "left": 162.89592760180994,
                "top": 246.60633484162895
            },
            "points": [
                {
                    "x": 162.89592760180994,
                    "y": 246.60633484162895
                },
                {
                    "x": 501.131221719457,
                    "y": 246.60633484162895
                },
                {
                    "x": 501.131221719457,
                    "y": 357.4660633484163
                },
                {
                    "x": 162.89592760180994,
                    "y": 357.4660633484163
                }
            ]
        },
        {
            "id": "vigowgxjO",
            "type": "RECTANGLE",
            "tags": [
                "Date"
            ],
            "boundingBox": {
                "height": 31.67420814479638,
                "width": 125.56561085972851,
                "left": 252.26244343891403,
                "top": 520.3619909502262
            },
            "points": [
                {
                    "x": 252.26244343891403,
                    "y": 520.3619909502262
                },
                {
                    "x": 377.82805429864254,
                    "y": 520.3619909502262
                },
                {
                    "x": 377.82805429864254,
                    "y": 552.0361990950227
                },
                {
                    "x": 252.26244343891403,
                    "y": 552.0361990950227
                }
            ]
        }
    ],
    "version": "2.2.0"
}