{
    "asset": {
        "format": "jpg",
        "id": "7f587b691378e187565b4b552cec3d0f",
        "name": "PHOTO-2020-07-14-11-38-44.jpg",
        "path": "file:/home/administrator/ocr/Train-OCR/TrainYourOwnYOLO/Data/receipts_Source_Images/Train_receipt/PHOTO-2020-07-14-11-38-44.jpg",
        "size": {
            "width": 988,
            "height": 1280
        },
        "state": 2,
        "type": 1
    },
    "regions": [
        {
            "id": "FdjqOL1DW",
            "type": "RECTANGLE",
            "tags": [
                "Shop_Name"
            ],
            "boundingBox": {
                "height": 49.230769230769226,
                "width": 279.5953079178886,
                "left": 342.8618951612903,
                "top": 60.81447963800905
            },
            "points": [
                {
                    "x": 342.8618951612903,
                    "y": 60.81447963800905
                },
                {
                    "x": 622.457203079179,
                    "y": 60.81447963800905
                },
                {
                    "x": 622.457203079179,
                    "y": 110.04524886877827
                },
                {
                    "x": 342.8618951612903,
                    "y": 110.04524886877827
                }
            ]
        },
        {
            "id": "7MuoqnYzE",
            "type": "RECTANGLE",
            "tags": [
                "Date"
            ],
            "boundingBox": {
                "height": 30.407239819004523,
                "width": 97.06158357771261,
                "left": 277.6712793255132,
                "top": 147.69230769230768
            },
            "points": [
                {
                    "x": 277.6712793255132,
                    "y": 147.69230769230768
                },
                {
                    "x": 374.7328629032258,
                    "y": 147.69230769230768
                },
                {
                    "x": 374.7328629032258,
                    "y": 178.0995475113122
                },
                {
                    "x": 277.6712793255132,
                    "y": 178.0995475113122
                }
            ]
        },
        {
            "id": "tzXkpxiHx",
            "type": "RECTANGLE",
            "tags": [
                "amount_details"
            ],
            "boundingBox": {
                "height": 31.855203619909503,
                "width": 68.08797653958945,
                "left": 607.9703995601174,
                "top": 408.3257918552036
            },
            "points": [
                {
                    "x": 607.9703995601174,
                    "y": 408.3257918552036
                },
                {
                    "x": 676.0583760997067,
                    "y": 408.3257918552036
                },
                {
                    "x": 676.0583760997067,
                    "y": 440.1809954751131
                },
                {
                    "x": 607.9703995601174,
                    "y": 440.1809954751131
                }
            ]
        }
    ],
    "version": "2.2.0"
}