{
    "asset": {
        "format": "jpg",
        "id": "81082bbb0c366e58a4ffe7e9eefd00a5",
        "name": "09435-receipt.jpg",
        "path": "file:/home/administrator/ocr/Train-OCR/TrainYourOwnYOLO/Data/receipts_Source_Images/Train_receipt/09435-receipt.jpg",
        "size": {
            "width": 338,
            "height": 450
        },
        "state": 2,
        "type": 1
    },
    "regions": [
        {
            "id": "BCRrwqxCU",
            "type": "POLYGON",
            "tags": [
                "Shop_Name"
            ],
            "boundingBox": {
                "height": 54.977375565610856,
                "width": 86.53614457831326,
                "left": 174.59939759036143,
                "top": 22.398190045248867
            },
            "points": [
                {
                    "x": 261.1355421686747,
                    "y": 51.92307692307692
                },
                {
                    "x": 181.72590361445782,
                    "y": 22.398190045248867
                },
                {
                    "x": 174.59939759036143,
                    "y": 42.251131221719454
                },
                {
                    "x": 258.0813253012048,
                    "y": 77.37556561085972
                }
            ]
        },
        {
            "id": "HFCHRHq3m",
            "type": "POLYGON",
            "tags": [
                "Shop_Address"
            ],
            "boundingBox": {
                "height": 38.178733031674206,
                "width": 67.19277108433735,
                "left": 183.25301204819277,
                "top": 48.86877828054298
            },
            "points": [
                {
                    "x": 246.3734939759036,
                    "y": 87.04751131221718
                },
                {
                    "x": 250.44578313253012,
                    "y": 75.3393665158371
                },
                {
                    "x": 187.32530120481928,
                    "y": 48.86877828054298
                },
                {
                    "x": 183.25301204819277,
                    "y": 62.10407239819004
                }
            ]
        },
        {
            "id": "_SaJnaVjy",
            "type": "POLYGON",
            "tags": [
                "Mobile_no"
            ],
            "boundingBox": {
                "height": 29.015837104072396,
                "width": 53.95783132530121,
                "left": 190.37951807228916,
                "top": 69.73981900452489
            },
            "points": [
                {
                    "x": 190.37951807228916,
                    "y": 76.86651583710406
                },
                {
                    "x": 190.37951807228916,
                    "y": 76.86651583710406
                },
                {
                    "x": 193.43373493975903,
                    "y": 69.73981900452489
                },
                {
                    "x": 244.33734939759037,
                    "y": 90.10180995475113
                },
                {
                    "x": 242.81024096385542,
                    "y": 98.75565610859728
                }
            ]
        },
        {
            "id": "PAHBFj6YZ",
            "type": "POLYGON",
            "tags": [
                "Date"
            ],
            "boundingBox": {
                "height": 45.30542986425339,
                "width": 89.59036144578313,
                "left": 102.82530120481928,
                "top": 114.02714932126696
            },
            "points": [
                {
                    "x": 133.36746987951807,
                    "y": 124.20814479638008
                },
                {
                    "x": 192.4156626506024,
                    "y": 146.0972850678733
                },
                {
                    "x": 192.4156626506024,
                    "y": 146.0972850678733
                },
                {
                    "x": 190.37951807228916,
                    "y": 159.33257918552036
                },
                {
                    "x": 102.82530120481928,
                    "y": 128.28054298642533
                },
                {
                    "x": 105.37048192771084,
                    "y": 114.02714932126696
                }
            ]
        },
        {
            "id": "iBf0otaXQ",
            "type": "POLYGON",
            "tags": [
                "Content_Items"
            ],
            "boundingBox": {
                "height": 229.58144796380088,
                "width": 232.62951807228916,
                "left": 44.286144578313255,
                "top": 143.55203619909503
            },
            "points": [
                {
                    "x": 44.286144578313255,
                    "y": 311.53846153846155
                },
                {
                    "x": 101.29819277108433,
                    "y": 143.55203619909503
                },
                {
                    "x": 276.9156626506024,
                    "y": 202.09276018099547
                },
                {
                    "x": 233.13855421686748,
                    "y": 373.1334841628959
                }
            ]
        },
        {
            "id": "Fx4cUk9io",
            "type": "RECTANGLE",
            "tags": [
                "amount_details"
            ],
            "boundingBox": {
                "height": 31.561085972850677,
                "width": 46.3222891566265,
                "left": 173.0722891566265,
                "top": 373.64253393665155
            },
            "points": [
                {
                    "x": 173.0722891566265,
                    "y": 373.64253393665155
                },
                {
                    "x": 219.39457831325302,
                    "y": 373.64253393665155
                },
                {
                    "x": 219.39457831325302,
                    "y": 405.2036199095022
                },
                {
                    "x": 173.0722891566265,
                    "y": 405.2036199095022
                }
            ]
        },
        {
            "id": "rRiqq6X7s",
            "type": "RECTANGLE",
            "tags": [
                "tax"
            ],
            "boundingBox": {
                "height": 35.12443438914027,
                "width": 53.95783132530121,
                "left": 4.581325301204819,
                "top": 370.5882352941176
            },
            "points": [
                {
                    "x": 4.581325301204819,
                    "y": 370.5882352941176
                },
                {
                    "x": 58.53915662650603,
                    "y": 370.5882352941176
                },
                {
                    "x": 58.53915662650603,
                    "y": 405.7126696832579
                },
                {
                    "x": 4.581325301204819,
                    "y": 405.7126696832579
                }
            ]
        }
    ],
    "version": "2.2.0"
}