{
    "asset": {
        "format": "jpg",
        "id": "8291bb45b6781418cd1663c92f9adca3",
        "name": "09357-receipt.jpg",
        "path": "file:/home/administrator/ocr/Train-OCR/TrainYourOwnYOLO/Data/receipts_Source_Images/Train_receipt/09357-receipt.jpg",
        "size": {
            "width": 750,
            "height": 1000
        },
        "state": 2,
        "type": 1
    },
    "regions": [
        {
            "id": "QnrlnXn3q",
            "type": "RECTANGLE",
            "tags": [
                "Shop_Name"
            ],
            "boundingBox": {
                "height": 36.199095022624434,
                "width": 280.54298642533934,
                "left": 200.79185520361992,
                "top": 197.96380090497738
            },
            "points": [
                {
                    "x": 200.79185520361992,
                    "y": 197.96380090497738
                },
                {
                    "x": 481.3348416289593,
                    "y": 197.96380090497738
                },
                {
                    "x": 481.3348416289593,
                    "y": 234.1628959276018
                },
                {
                    "x": 200.79185520361992,
                    "y": 234.1628959276018
                }
            ]
        },
        {
            "id": "gjpzy_5uu",
            "type": "RECTANGLE",
            "tags": [
                "Shop_Address"
            ],
            "boundingBox": {
                "height": 26.018099547511312,
                "width": 295.24886877828055,
                "left": 192.8733031674208,
                "top": 236.42533936651583
            },
            "points": [
                {
                    "x": 192.8733031674208,
                    "y": 236.42533936651583
                },
                {
                    "x": 488.1221719457013,
                    "y": 236.42533936651583
                },
                {
                    "x": 488.1221719457013,
                    "y": 262.4434389140271
                },
                {
                    "x": 192.8733031674208,
                    "y": 262.4434389140271
                }
            ]
        },
        {
            "id": "r1patwnW3",
            "type": "RECTANGLE",
            "tags": [
                "Mobile_no"
            ],
            "boundingBox": {
                "height": 33.93665158371041,
                "width": 154.97737556561086,
                "left": 263.00904977375563,
                "top": 262.4434389140271
            },
            "points": [
                {
                    "x": 263.00904977375563,
                    "y": 262.4434389140271
                },
                {
                    "x": 417.9864253393665,
                    "y": 262.4434389140271
                },
                {
                    "x": 417.9864253393665,
                    "y": 296.38009049773757
                },
                {
                    "x": 263.00904977375563,
                    "y": 296.38009049773757
                }
            ]
        },
        {
            "id": "lZ0kYuzRE",
            "type": "RECTANGLE",
            "tags": [
                "Date"
            ],
            "boundingBox": {
                "height": 30.542986425339365,
                "width": 130.09049773755655,
                "left": 451.9230769230769,
                "top": 311.08597285067873
            },
            "points": [
                {
                    "x": 451.9230769230769,
                    "y": 311.08597285067873
                },
                {
                    "x": 582.0135746606335,
                    "y": 311.08597285067873
                },
                {
                    "x": 582.0135746606335,
                    "y": 341.62895927601807
                },
                {
                    "x": 451.9230769230769,
                    "y": 341.62895927601807
                }
            ]
        },
        {
            "id": "AmTgjQ6lk",
            "type": "RECTANGLE",
            "tags": [
                "Content_Items"
            ],
            "boundingBox": {
                "height": 67.87330316742081,
                "width": 522.6244343891402,
                "left": 88.80090497737557,
                "top": 444.57013574660635
            },
            "points": [
                {
                    "x": 88.80090497737557,
                    "y": 444.57013574660635
                },
                {
                    "x": 611.4253393665158,
                    "y": 444.57013574660635
                },
                {
                    "x": 611.4253393665158,
                    "y": 512.4434389140272
                },
                {
                    "x": 88.80090497737557,
                    "y": 512.4434389140272
                }
            ]
        },
        {
            "id": "dyLPzqYLr",
            "type": "RECTANGLE",
            "tags": [
                "amount_details"
            ],
            "boundingBox": {
                "height": 41.8552036199095,
                "width": 133.4841628959276,
                "left": 475.6787330316742,
                "top": 675.3393665158371
            },
            "points": [
                {
                    "x": 475.6787330316742,
                    "y": 675.3393665158371
                },
                {
                    "x": 609.1628959276018,
                    "y": 675.3393665158371
                },
                {
                    "x": 609.1628959276018,
                    "y": 717.1945701357466
                },
                {
                    "x": 475.6787330316742,
                    "y": 717.1945701357466
                }
            ]
        },
        {
            "id": "YC5O0X0wq",
            "type": "RECTANGLE",
            "tags": [
                "tax"
            ],
            "boundingBox": {
                "height": 31.67420814479638,
                "width": 65.61085972850678,
                "left": 551.4705882352941,
                "top": 581.447963800905
            },
            "points": [
                {
                    "x": 551.4705882352941,
                    "y": 581.447963800905
                },
                {
                    "x": 617.0814479638009,
                    "y": 581.447963800905
                },
                {
                    "x": 617.0814479638009,
                    "y": 613.1221719457013
                },
                {
                    "x": 551.4705882352941,
                    "y": 613.1221719457013
                }
            ]
        },
        {
            "id": "4cDwQisnZ",
            "type": "RECTANGLE",
            "tags": [
                "tax"
            ],
            "boundingBox": {
                "height": 20.361990950226243,
                "width": 47.51131221719457,
                "left": 83.1447963800905,
                "top": 599.5475113122172
            },
            "points": [
                {
                    "x": 83.1447963800905,
                    "y": 599.5475113122172
                },
                {
                    "x": 130.65610859728505,
                    "y": 599.5475113122172
                },
                {
                    "x": 130.65610859728505,
                    "y": 619.9095022624434
                },
                {
                    "x": 83.1447963800905,
                    "y": 619.9095022624434
                }
            ]
        }
    ],
    "version": "2.2.0"
}