{
    "asset": {
        "format": "jpg",
        "id": "83967f06a9fbc2fb317c7e24c3966526",
        "name": "08550-receipt.jpg",
        "path": "file:/home/administrator/ocr/Train-OCR/TrainYourOwnYOLO/Data/receipts_Source_Images/Train_receipt/08550-receipt.jpg",
        "size": {
            "width": 233,
            "height": 450
        },
        "state": 2,
        "type": 1
    },
    "regions": [
        {
            "id": "KJohqTpse",
            "type": "RECTANGLE",
            "tags": [
                "Shop_Name"
            ],
            "boundingBox": {
                "height": 7.126696832579185,
                "width": 43.75109170305677,
                "left": 91.24614492358079,
                "top": 2.5452488687782804
            },
            "points": [
                {
                    "x": 91.24614492358079,
                    "y": 2.5452488687782804
                },
                {
                    "x": 134.99723662663757,
                    "y": 2.5452488687782804
                },
                {
                    "x": 134.99723662663757,
                    "y": 9.671945701357465
                },
                {
                    "x": 91.24614492358079,
                    "y": 9.671945701357465
                }
            ]
        },
        {
            "id": "jW_1jOsWt",
            "type": "RECTANGLE",
            "tags": [
                "Shop_Address"
            ],
            "boundingBox": {
                "height": 24.43438914027149,
                "width": 86.66754230349348,
                "left": 67.1528384279476,
                "top": 7.126696832579184
            },
            "points": [
                {
                    "x": 67.1528384279476,
                    "y": 7.126696832579184
                },
                {
                    "x": 153.82038073144108,
                    "y": 7.126696832579184
                },
                {
                    "x": 153.82038073144108,
                    "y": 31.561085972850677
                },
                {
                    "x": 67.1528384279476,
                    "y": 31.561085972850677
                }
            ]
        },
        {
            "id": "xGTf4ziul",
            "type": "RECTANGLE",
            "tags": [
                "Mobile_no"
            ],
            "boundingBox": {
                "height": 12.726244343891402,
                "width": 71.22270742358079,
                "left": 99.89461653930131,
                "top": 43.77828054298642
            },
            "points": [
                {
                    "x": 99.89461653930131,
                    "y": 43.77828054298642
                },
                {
                    "x": 171.1173239628821,
                    "y": 43.77828054298642
                },
                {
                    "x": 171.1173239628821,
                    "y": 56.504524886877824
                },
                {
                    "x": 99.89461653930131,
                    "y": 56.504524886877824
                }
            ]
        },
        {
            "id": "zPmhCE3Ij",
            "type": "RECTANGLE",
            "tags": [
                "Date"
            ],
            "boundingBox": {
                "height": 6.617647058823529,
                "width": 33.5764192139738,
                "left": 10.35749863537118,
                "top": 90.61085972850678
            },
            "points": [
                {
                    "x": 10.35749863537118,
                    "y": 90.61085972850678
                },
                {
                    "x": 43.93391784934498,
                    "y": 90.61085972850678
                },
                {
                    "x": 43.93391784934498,
                    "y": 97.2285067873303
                },
                {
                    "x": 10.35749863537118,
                    "y": 97.2285067873303
                }
            ]
        },
        {
            "id": "LSOYdBJhY",
            "type": "RECTANGLE",
            "tags": [
                "Content_Items"
            ],
            "boundingBox": {
                "height": 106.90045248868778,
                "width": 187.21397379912665,
                "left": 13.40990038209607,
                "top": 138.97058823529412
            },
            "points": [
                {
                    "x": 13.40990038209607,
                    "y": 138.97058823529412
                },
                {
                    "x": 200.6238741812227,
                    "y": 138.97058823529412
                },
                {
                    "x": 200.6238741812227,
                    "y": 245.87104072398188
                },
                {
                    "x": 13.40990038209607,
                    "y": 245.87104072398188
                }
            ]
        },
        {
            "id": "qPbE62JKE",
            "type": "RECTANGLE",
            "tags": [
                "amount_details"
            ],
            "boundingBox": {
                "height": 18.834841628959275,
                "width": 39.68122270742358,
                "left": 162.46885234716157,
                "top": 254.52488687782804
            },
            "points": [
                {
                    "x": 162.46885234716157,
                    "y": 254.52488687782804
                },
                {
                    "x": 202.15007505458516,
                    "y": 254.52488687782804
                },
                {
                    "x": 202.15007505458516,
                    "y": 273.3597285067873
                },
                {
                    "x": 162.46885234716157,
                    "y": 273.3597285067873
                }
            ]
        },
        {
            "id": "FcegfOdju",
            "type": "RECTANGLE",
            "tags": [
                "tax"
            ],
            "boundingBox": {
                "height": 44.796380090497735,
                "width": 32.05021834061135,
                "left": 8.831297762008735,
                "top": 340.5542986425339
            },
            "points": [
                {
                    "x": 8.831297762008735,
                    "y": 340.5542986425339
                },
                {
                    "x": 40.88151610262009,
                    "y": 340.5542986425339
                },
                {
                    "x": 40.88151610262009,
                    "y": 385.35067873303166
                },
                {
                    "x": 8.831297762008735,
                    "y": 385.35067873303166
                }
            ]
        },
        {
            "id": "1mzEXoizr",
            "type": "RECTANGLE",
            "tags": [
                "tax"
            ],
            "boundingBox": {
                "height": 38.68778280542986,
                "width": 65.62663755458516,
                "left": 95.31601391921397,
                "top": 340.5542986425339
            },
            "points": [
                {
                    "x": 95.31601391921397,
                    "y": 340.5542986425339
                },
                {
                    "x": 160.94265147379915,
                    "y": 340.5542986425339
                },
                {
                    "x": 160.94265147379915,
                    "y": 379.24208144796376
                },
                {
                    "x": 95.31601391921397,
                    "y": 379.24208144796376
                }
            ]
        }
    ],
    "version": "2.2.0"
}