{
    "asset": {
        "format": "jpg",
        "id": "86ea0f199c15697af2c8bfac676a55e8",
        "name": "08831-receipt.jpg",
        "path": "file:/home/administrator/ocr/Train-OCR/TrainYourOwnYOLO/Data/receipts_Source_Images/Train_receipt/08831-receipt.jpg",
        "size": {
            "width": 1000,
            "height": 1333
        },
        "state": 2,
        "type": 1
    },
    "regions": [
        {
            "id": "fbtHqnUqh",
            "type": "RECTANGLE",
            "tags": [
                "Shop_Logo"
            ],
            "boundingBox": {
                "height": 155.3156108597285,
                "width": 211.16138763197586,
                "left": 393.0524132730015,
                "top": 134.2047511312217
            },
            "points": [
                {
                    "x": 393.0524132730015,
                    "y": 134.2047511312217
                },
                {
                    "x": 604.2138009049773,
                    "y": 134.2047511312217
                },
                {
                    "x": 604.2138009049773,
                    "y": 289.5203619909502
                },
                {
                    "x": 393.0524132730015,
                    "y": 289.5203619909502
                }
            ]
        },
        {
            "id": "CbiiDxJVh",
            "type": "RECTANGLE",
            "tags": [
                "Shop_Name"
            ],
            "boundingBox": {
                "height": 70.87217194570135,
                "width": 279.0346907993967,
                "left": 320.65422322775265,
                "top": 310.631221719457
            },
            "points": [
                {
                    "x": 320.65422322775265,
                    "y": 310.631221719457
                },
                {
                    "x": 599.6889140271493,
                    "y": 310.631221719457
                },
                {
                    "x": 599.6889140271493,
                    "y": 381.50339366515834
                },
                {
                    "x": 320.65422322775265,
                    "y": 381.50339366515834
                }
            ]
        },
        {
            "id": "AJdGK_u_Q",
            "type": "RECTANGLE",
            "tags": [
                "Shop_Address"
            ],
            "boundingBox": {
                "height": 63.33257918552036,
                "width": 263.95173453996983,
                "left": 329.70399698340873,
                "top": 392.05882352941177
            },
            "points": [
                {
                    "x": 329.70399698340873,
                    "y": 392.05882352941177
                },
                {
                    "x": 593.6557315233786,
                    "y": 392.05882352941177
                },
                {
                    "x": 593.6557315233786,
                    "y": 455.3914027149321
                },
                {
                    "x": 329.70399698340873,
                    "y": 455.3914027149321
                }
            ]
        },
        {
            "id": "z5OtKcyxq",
            "type": "RECTANGLE",
            "tags": [
                "Mobile_no"
            ],
            "boundingBox": {
                "height": 42.22171945701358,
                "width": 199.0950226244344,
                "left": 411.1519607843137,
                "top": 450.86764705882354
            },
            "points": [
                {
                    "x": 411.1519607843137,
                    "y": 450.86764705882354
                },
                {
                    "x": 610.2469834087481,
                    "y": 450.86764705882354
                },
                {
                    "x": 610.2469834087481,
                    "y": 493.08936651583707
                },
                {
                    "x": 411.1519607843137,
                    "y": 493.08936651583707
                }
            ]
        },
        {
            "id": "jo8GrD0nL",
            "type": "RECTANGLE",
            "tags": [
                "Date"
            ],
            "boundingBox": {
                "height": 39.205882352941174,
                "width": 132.73001508295624,
                "left": 521.2575414781297,
                "top": 576.0248868778281
            },
            "points": [
                {
                    "x": 521.2575414781297,
                    "y": 576.0248868778281
                },
                {
                    "x": 653.987556561086,
                    "y": 576.0248868778281
                },
                {
                    "x": 653.987556561086,
                    "y": 615.2307692307692
                },
                {
                    "x": 521.2575414781297,
                    "y": 615.2307692307692
                }
            ]
        },
        {
            "id": "4hCf_vaoy",
            "type": "RECTANGLE",
            "tags": [
                "Content_Items"
            ],
            "boundingBox": {
                "height": 138.7285067873303,
                "width": 601.8099547511312,
                "left": 175.8578431372549,
                "top": 705.7058823529412
            },
            "points": [
                {
                    "x": 175.8578431372549,
                    "y": 705.7058823529412
                },
                {
                    "x": 777.6677978883861,
                    "y": 705.7058823529412
                },
                {
                    "x": 777.6677978883861,
                    "y": 844.4343891402715
                },
                {
                    "x": 175.8578431372549,
                    "y": 844.4343891402715
                }
            ]
        },
        {
            "id": "bMFeC9cRF",
            "type": "RECTANGLE",
            "tags": [
                "tax"
            ],
            "boundingBox": {
                "height": 69.36425339366515,
                "width": 158.3710407239819,
                "left": 154.74170437405732,
                "top": 879.1165158371041
            },
            "points": [
                {
                    "x": 154.74170437405732,
                    "y": 879.1165158371041
                },
                {
                    "x": 313.1127450980392,
                    "y": 879.1165158371041
                },
                {
                    "x": 313.1127450980392,
                    "y": 948.4807692307692
                },
                {
                    "x": 154.74170437405732,
                    "y": 948.4807692307692
                }
            ]
        },
        {
            "id": "6oeEEIAWv",
            "type": "RECTANGLE",
            "tags": [
                "tax"
            ],
            "boundingBox": {
                "height": 69.36425339366515,
                "width": 81.44796380090497,
                "left": 530.3073152337859,
                "top": 871.5769230769231
            },
            "points": [
                {
                    "x": 530.3073152337859,
                    "y": 871.5769230769231
                },
                {
                    "x": 611.7552790346908,
                    "y": 871.5769230769231
                },
                {
                    "x": 611.7552790346908,
                    "y": 940.9411764705882
                },
                {
                    "x": 530.3073152337859,
                    "y": 940.9411764705882
                }
            ]
        },
        {
            "id": "1l6H7KiqR",
            "type": "RECTANGLE",
            "tags": [
                "amount_details"
            ],
            "boundingBox": {
                "height": 72.38009049773756,
                "width": 262.4434389140271,
                "left": 506.1745852187029,
                "top": 1019.3529411764706
            },
            "points": [
                {
                    "x": 506.1745852187029,
                    "y": 1019.3529411764706
                },
                {
                    "x": 768.61802413273,
                    "y": 1019.3529411764706
                },
                {
                    "x": 768.61802413273,
                    "y": 1091.7330316742082
                },
                {
                    "x": 506.1745852187029,
                    "y": 1091.7330316742082
                }
            ]
        }
    ],
    "version": "2.2.0"
}