{
    "asset": {
        "format": "jpg",
        "id": "8901ce345965871863fd623e31fe153d",
        "name": "08751-receipt.jpg",
        "path": "file:/home/administrator/ocr/Train-OCR/TrainYourOwnYOLO/Data/receipts_Source_Images/Train_receipt/08751-receipt.jpg",
        "size": {
            "width": 253,
            "height": 450
        },
        "state": 2,
        "type": 1
    },
    "regions": [
        {
            "id": "-Z8L8fCe2",
            "type": "RECTANGLE",
            "tags": [
                "Shop_Name"
            ],
            "boundingBox": {
                "height": 20.361990950226243,
                "width": 79.9215291750503,
                "left": 113.27254149899396,
                "top": 103.84615384615384
            },
            "points": [
                {
                    "x": 113.27254149899396,
                    "y": 103.84615384615384
                },
                {
                    "x": 193.19407067404427,
                    "y": 103.84615384615384
                },
                {
                    "x": 193.19407067404427,
                    "y": 124.20814479638008
                },
                {
                    "x": 113.27254149899396,
                    "y": 124.20814479638008
                }
            ]
        },
        {
            "id": "EWb2ppmIW",
            "type": "RECTANGLE",
            "tags": [
                "Content_Items"
            ],
            "boundingBox": {
                "height": 55.99547511312217,
                "width": 179.1871227364185,
                "left": 49.64075075452716,
                "top": 203.11085972850677
            },
            "points": [
                {
                    "x": 49.64075075452716,
                    "y": 203.11085972850677
                },
                {
                    "x": 228.82787349094568,
                    "y": 203.11085972850677
                },
                {
                    "x": 228.82787349094568,
                    "y": 259.10633484162895
                },
                {
                    "x": 49.64075075452716,
                    "y": 259.10633484162895
                }
            ]
        },
        {
            "id": "IX9QxTQAx",
            "type": "RECTANGLE",
            "tags": [
                "amount_details"
            ],
            "boundingBox": {
                "height": 18.834841628959275,
                "width": 39.70623742454728,
                "left": 186.06731011066398,
                "top": 272.341628959276
            },
            "points": [
                {
                    "x": 186.06731011066398,
                    "y": 272.341628959276
                },
                {
                    "x": 225.77354753521126,
                    "y": 272.341628959276
                },
                {
                    "x": 225.77354753521126,
                    "y": 291.17647058823525
                },
                {
                    "x": 186.06731011066398,
                    "y": 291.17647058823525
                }
            ]
        },
        {
            "id": "BxzYgha4O",
            "type": "RECTANGLE",
            "tags": [
                "tax"
            ],
            "boundingBox": {
                "height": 49.886877828054295,
                "width": 83.99396378269618,
                "left": 17.061273893360163,
                "top": 285.0678733031674
            },
            "points": [
                {
                    "x": 17.061273893360163,
                    "y": 285.0678733031674
                },
                {
                    "x": 101.05523767605634,
                    "y": 285.0678733031674
                },
                {
                    "x": 101.05523767605634,
                    "y": 334.9547511312217
                },
                {
                    "x": 17.061273893360163,
                    "y": 334.9547511312217
                }
            ]
        },
        {
            "id": "VYzpW06YB",
            "type": "RECTANGLE",
            "tags": [
                "Date"
            ],
            "boundingBox": {
                "height": 32.57918552036199,
                "width": 72.79476861167002,
                "left": 63.38521755533199,
                "top": 401.131221719457
            },
            "points": [
                {
                    "x": 63.38521755533199,
                    "y": 401.131221719457
                },
                {
                    "x": 136.179986167002,
                    "y": 401.131221719457
                },
                {
                    "x": 136.179986167002,
                    "y": 433.710407239819
                },
                {
                    "x": 63.38521755533199,
                    "y": 433.710407239819
                }
            ]
        }
    ],
    "version": "2.2.0"
}