{
    "asset": {
        "format": "jpg",
        "id": "8a1a931be59824ae8c737ec1287979c6",
        "name": "02250-receipt.jpg",
        "path": "file:/home/administrator/ocr/Train-OCR/TrainYourOwnYOLO/Data/receipts_Source_Images/Train_receipt/02250-receipt.jpg",
        "size": {
            "width": 1000,
            "height": 750
        },
        "state": 2,
        "type": 1
    },
    "regions": [
        {
            "id": "6L8j7PsoM",
            "type": "RECTANGLE",
            "tags": [
                "Shop_Name"
            ],
            "boundingBox": {
                "height": 46.66289592760181,
                "width": 219.67769296013572,
                "left": 264.4985156912638,
                "top": 126.41402714932127
            },
            "points": [
                {
                    "x": 264.4985156912638,
                    "y": 126.41402714932127
                },
                {
                    "x": 484.1762086513995,
                    "y": 126.41402714932127
                },
                {
                    "x": 484.1762086513995,
                    "y": 173.07692307692307
                },
                {
                    "x": 264.4985156912638,
                    "y": 173.07692307692307
                }
            ]
        },
        {
            "id": "FK4Emw1ks",
            "type": "RECTANGLE",
            "tags": [
                "Shop_Logo"
            ],
            "boundingBox": {
                "height": 94.17420814479638,
                "width": 110.2629346904156,
                "left": 90.62234944868533,
                "top": 123.02036199095022
            },
            "points": [
                {
                    "x": 90.62234944868533,
                    "y": 123.02036199095022
                },
                {
                    "x": 200.88528413910095,
                    "y": 123.02036199095022
                },
                {
                    "x": 200.88528413910095,
                    "y": 217.1945701357466
                },
                {
                    "x": 90.62234944868533,
                    "y": 217.1945701357466
                }
            ]
        },
        {
            "id": "njAQy2lBj",
            "type": "RECTANGLE",
            "tags": [
                "Date"
            ],
            "boundingBox": {
                "height": 20.361990950226243,
                "width": 61.784351145038215,
                "left": 337.57421543681085,
                "top": 245.19230769230768
            },
            "points": [
                {
                    "x": 337.57421543681085,
                    "y": 245.19230769230768
                },
                {
                    "x": 399.35856658184906,
                    "y": 245.19230769230768
                },
                {
                    "x": 399.35856658184906,
                    "y": 265.5542986425339
                },
                {
                    "x": 337.57421543681085,
                    "y": 265.5542986425339
                }
            ]
        },
        {
            "id": "zdfD53Ox7",
            "type": "RECTANGLE",
            "tags": [
                "amount_details",
                "Content_Items"
            ],
            "boundingBox": {
                "height": 117.0814479638009,
                "width": 803.2230703986429,
                "left": 69.41793893129771,
                "top": 300.33936651583707
            },
            "points": [
                {
                    "x": 69.41793893129771,
                    "y": 300.33936651583707
                },
                {
                    "x": 872.6410093299406,
                    "y": 300.33936651583707
                },
                {
                    "x": 872.6410093299406,
                    "y": 417.420814479638
                },
                {
                    "x": 69.41793893129771,
                    "y": 417.420814479638
                }
            ]
        }
    ],
    "version": "2.2.0"
}