{
    "asset": {
        "format": "jpg",
        "id": "8dfc3dc62733c884e286db093d17eb56",
        "name": "08598-receipt.jpg",
        "path": "file:/home/administrator/ocr/Train-OCR/TrainYourOwnYOLO/Data/receipts_Source_Images/Train_receipt/08598-receipt.jpg",
        "size": {
            "width": 550,
            "height": 413
        },
        "state": 2,
        "type": 1
    },
    "regions": [
        {
            "id": "qW4yulXW8",
            "type": "RECTANGLE",
            "tags": [
                "Shop_Name"
            ],
            "boundingBox": {
                "height": 21.167425968109338,
                "width": 124.67921300256629,
                "left": 188.66552609067577,
                "top": 19.24912798974943
            },
            "points": [
                {
                    "x": 188.66552609067577,
                    "y": 19.24912798974943
                },
                {
                    "x": 313.3447390932421,
                    "y": 19.24912798974943
                },
                {
                    "x": 313.3447390932421,
                    "y": 40.41655395785877
                },
                {
                    "x": 188.66552609067577,
                    "y": 40.41655395785877
                }
            ]
        },
        {
            "id": "m0834TmzC",
            "type": "RECTANGLE",
            "tags": [
                "Shop_Address"
            ],
            "boundingBox": {
                "height": 48.92027334851936,
                "width": 161.84773310521814,
                "left": 167.4935842600513,
                "top": 39.946166714123
            },
            "points": [
                {
                    "x": 167.4935842600513,
                    "y": 39.946166714123
                },
                {
                    "x": 329.34131736526945,
                    "y": 39.946166714123
                },
                {
                    "x": 329.34131736526945,
                    "y": 88.86644006264237
                },
                {
                    "x": 167.4935842600513,
                    "y": 88.86644006264237
                }
            ]
        },
        {
            "id": "vvZdD-_qq",
            "type": "RECTANGLE",
            "tags": [
                "Mobile_no"
            ],
            "boundingBox": {
                "height": 21.637813211845103,
                "width": 96.92044482463643,
                "left": 218.30624465355004,
                "top": 106.74115532460137
            },
            "points": [
                {
                    "x": 218.30624465355004,
                    "y": 106.74115532460137
                },
                {
                    "x": 315.2266894781865,
                    "y": 106.74115532460137
                },
                {
                    "x": 315.2266894781865,
                    "y": 128.37896853644645
                },
                {
                    "x": 218.30624465355004,
                    "y": 128.37896853644645
                }
            ]
        },
        {
            "id": "XPo2MAcgI",
            "type": "RECTANGLE",
            "tags": [
                "Content_Items"
            ],
            "boundingBox": {
                "height": 85.14009111617311,
                "width": 285.11548331907613,
                "left": 128.9136013686912,
                "top": 152.36871796697037
            },
            "points": [
                {
                    "x": 128.9136013686912,
                    "y": 152.36871796697037
                },
                {
                    "x": 414.0290846877673,
                    "y": 152.36871796697037
                },
                {
                    "x": 414.0290846877673,
                    "y": 237.5088090831435
                },
                {
                    "x": 128.9136013686912,
                    "y": 237.5088090831435
                }
            ]
        },
        {
            "id": "WdBoIf6nC",
            "type": "RECTANGLE",
            "tags": [
                "amount_details"
            ],
            "boundingBox": {
                "height": 25.87129840546697,
                "width": 103.50727117194182,
                "left": 293.5842600513259,
                "top": 249.73887742027333
            },
            "points": [
                {
                    "x": 293.5842600513259,
                    "y": 249.73887742027333
                },
                {
                    "x": 397.09153122326774,
                    "y": 249.73887742027333
                },
                {
                    "x": 397.09153122326774,
                    "y": 275.6101758257403
                },
                {
                    "x": 293.5842600513259,
                    "y": 275.6101758257403
                }
            ]
        },
        {
            "id": "tqF3AYRB2",
            "type": "RECTANGLE",
            "tags": [
                "tax"
            ],
            "boundingBox": {
                "height": 18.815489749430522,
                "width": 40.93242087254063,
                "left": 302.52352437981176,
                "top": 321.70812571184507
            },
            "points": [
                {
                    "x": 302.52352437981176,
                    "y": 321.70812571184507
                },
                {
                    "x": 343.4559452523524,
                    "y": 321.70812571184507
                },
                {
                    "x": 343.4559452523524,
                    "y": 340.5236154612756
                },
                {
                    "x": 302.52352437981176,
                    "y": 340.5236154612756
                }
            ]
        }
    ],
    "version": "2.2.0"
}