{
    "asset": {
        "format": "jpg",
        "id": "8e9218c7fac8ef9269a0e89afcfe3583",
        "name": "08976-receipt.jpg",
        "path": "file:/home/administrator/ocr/Train-OCR/TrainYourOwnYOLO/Data/receipts_Source_Images/Train_receipt/08976-receipt.jpg",
        "size": {
            "width": 338,
            "height": 450
        },
        "state": 2,
        "type": 1
    },
    "regions": [
        {
            "id": "ctSmSQRhc",
            "type": "RECTANGLE",
            "tags": [
                "Shop_Logo"
            ],
            "boundingBox": {
                "height": 49.37782805429864,
                "width": 66.68373493975903,
                "left": 146.09337349397592,
                "top": 59.049773755656105
            },
            "points": [
                {
                    "x": 146.09337349397592,
                    "y": 59.049773755656105
                },
                {
                    "x": 212.77710843373495,
                    "y": 59.049773755656105
                },
                {
                    "x": 212.77710843373495,
                    "y": 108.42760180995475
                },
                {
                    "x": 146.09337349397592,
                    "y": 108.42760180995475
                }
            ]
        },
        {
            "id": "h9uuJ40Rx",
            "type": "RECTANGLE",
            "tags": [
                "Shop_Address"
            ],
            "boundingBox": {
                "height": 20.8710407239819,
                "width": 90.09939759036145,
                "left": 133.8765060240964,
                "top": 110.97285067873302
            },
            "points": [
                {
                    "x": 133.8765060240964,
                    "y": 110.97285067873302
                },
                {
                    "x": 223.97590361445782,
                    "y": 110.97285067873302
                },
                {
                    "x": 223.97590361445782,
                    "y": 131.84389140271492
                },
                {
                    "x": 133.8765060240964,
                    "y": 131.84389140271492
                }
            ]
        },
        {
            "id": "5b4jTNpOJ",
            "type": "RECTANGLE",
            "tags": [
                "Mobile_no"
            ],
            "boundingBox": {
                "height": 7.635746606334841,
                "width": 53.44879518072289,
                "left": 165.4367469879518,
                "top": 131.84389140271492
            },
            "points": [
                {
                    "x": 165.4367469879518,
                    "y": 131.84389140271492
                },
                {
                    "x": 218.8855421686747,
                    "y": 131.84389140271492
                },
                {
                    "x": 218.8855421686747,
                    "y": 139.47963800904978
                },
                {
                    "x": 165.4367469879518,
                    "y": 139.47963800904978
                }
            ]
        },
        {
            "id": "d6OWS68QM",
            "type": "POLYGON",
            "tags": [
                "others"
            ],
            "boundingBox": {
                "height": 9.671945701357465,
                "width": 78.90060240963855,
                "left": 144.56626506024097,
                "top": 136.9343891402715
            },
            "points": [
                {
                    "x": 145.5843373493976,
                    "y": 146.60633484162895
                },
                {
                    "x": 223.46686746987953,
                    "y": 146.0972850678733
                },
                {
                    "x": 221.93975903614458,
                    "y": 136.9343891402715
                },
                {
                    "x": 144.56626506024097,
                    "y": 139.47963800904978
                }
            ]
        },
        {
            "id": "z7190ouEh",
            "type": "POLYGON",
            "tags": [
                "Content_Items"
            ],
            "boundingBox": {
                "height": 81.44796380090497,
                "width": 143.54819277108433,
                "left": 113.51506024096386,
                "top": 171.04072398190044
            },
            "points": [
                {
                    "x": 115.5512048192771,
                    "y": 171.5497737556561
                },
                {
                    "x": 249.4277108433735,
                    "y": 171.04072398190044
                },
                {
                    "x": 257.0632530120482,
                    "y": 251.97963800904975
                },
                {
                    "x": 113.51506024096386,
                    "y": 252.4886877828054
                }
            ]
        },
        {
            "id": "Goqs0MwNt",
            "type": "RECTANGLE",
            "tags": [
                "amount_details"
            ],
            "boundingBox": {
                "height": 10.180995475113122,
                "width": 67.70180722891567,
                "left": 192.4156626506024,
                "top": 323.75565610859724
            },
            "points": [
                {
                    "x": 192.4156626506024,
                    "y": 323.75565610859724
                },
                {
                    "x": 260.11746987951807,
                    "y": 323.75565610859724
                },
                {
                    "x": 260.11746987951807,
                    "y": 333.9366515837104
                },
                {
                    "x": 192.4156626506024,
                    "y": 333.9366515837104
                }
            ]
        },
        {
            "id": "nVOVgxl7M",
            "type": "RECTANGLE",
            "tags": [
                "Date"
            ],
            "boundingBox": {
                "height": 12.217194570135746,
                "width": 40.72289156626506,
                "left": 135.91265060240963,
                "top": 349.20814479638005
            },
            "points": [
                {
                    "x": 135.91265060240963,
                    "y": 349.20814479638005
                },
                {
                    "x": 176.6355421686747,
                    "y": 349.20814479638005
                },
                {
                    "x": 176.6355421686747,
                    "y": 361.4253393665158
                },
                {
                    "x": 135.91265060240963,
                    "y": 361.4253393665158
                }
            ]
        },
        {
            "id": "C8RBbK-qR",
            "type": "RECTANGLE",
            "tags": [
                "tax"
            ],
            "boundingBox": {
                "height": 8.144796380090497,
                "width": 31.051204819277107,
                "left": 111.98795180722891,
                "top": 298.8122171945701
            },
            "points": [
                {
                    "x": 111.98795180722891,
                    "y": 298.8122171945701
                },
                {
                    "x": 143.039156626506,
                    "y": 298.8122171945701
                },
                {
                    "x": 143.039156626506,
                    "y": 306.9570135746606
                },
                {
                    "x": 111.98795180722891,
                    "y": 306.9570135746606
                }
            ]
        },
        {
            "id": "oJf_vMa0_",
            "type": "RECTANGLE",
            "tags": [
                "tax"
            ],
            "boundingBox": {
                "height": 8.144796380090497,
                "width": 29.52409638554217,
                "left": 207.6867469879518,
                "top": 298.3031674208145
            },
            "points": [
                {
                    "x": 207.6867469879518,
                    "y": 298.3031674208145
                },
                {
                    "x": 237.210843373494,
                    "y": 298.3031674208145
                },
                {
                    "x": 237.210843373494,
                    "y": 306.447963800905
                },
                {
                    "x": 207.6867469879518,
                    "y": 306.447963800905
                }
            ]
        },
        {
            "id": "ehfP0wjT4",
            "type": "RECTANGLE",
            "tags": [
                "tax"
            ],
            "boundingBox": {
                "height": 8.653846153846153,
                "width": 34.105421686746986,
                "left": 108.93373493975903,
                "top": 315.61085972850674
            },
            "points": [
                {
                    "x": 108.93373493975903,
                    "y": 315.61085972850674
                },
                {
                    "x": 143.039156626506,
                    "y": 315.61085972850674
                },
                {
                    "x": 143.039156626506,
                    "y": 324.2647058823529
                },
                {
                    "x": 108.93373493975903,
                    "y": 324.2647058823529
                }
            ]
        },
        {
            "id": "OCKX1Rg4r",
            "type": "RECTANGLE",
            "tags": [
                "tax"
            ],
            "boundingBox": {
                "height": 8.144796380090497,
                "width": 36.14156626506024,
                "left": 207.6867469879518,
                "top": 316.11990950226243
            },
            "points": [
                {
                    "x": 207.6867469879518,
                    "y": 316.11990950226243
                },
                {
                    "x": 243.82831325301206,
                    "y": 316.11990950226243
                },
                {
                    "x": 243.82831325301206,
                    "y": 324.2647058823529
                },
                {
                    "x": 207.6867469879518,
                    "y": 324.2647058823529
                }
            ]
        }
    ],
    "version": "2.2.0"
}