{
    "asset": {
        "format": "jpg",
        "id": "8f966de18f04c7fc5cb354a687c3300a",
        "name": "09008-receipt.jpg",
        "path": "file:/home/administrator/ocr/Train-OCR/TrainYourOwnYOLO/Data/receipts_Source_Images/Train_receipt/09008-receipt.jpg",
        "size": {
            "width": 338,
            "height": 450
        },
        "state": 2,
        "type": 1
    },
    "regions": [
        {
            "id": "IA-4xzXSg",
            "type": "POLYGON",
            "tags": [
                "Content_Items"
            ],
            "boundingBox": {
                "height": 291.68552036199094,
                "width": 272.3343373493976,
                "left": 24.433734939759034,
                "top": 114.02714932126696
            },
            "points": [
                {
                    "x": 67.70180722891567,
                    "y": 114.02714932126696
                },
                {
                    "x": 24.433734939759034,
                    "y": 389.93212669683254
                },
                {
                    "x": 280.9879518072289,
                    "y": 405.7126696832579
                },
                {
                    "x": 296.76807228915663,
                    "y": 132.35294117647058
                }
            ]
        },
        {
            "id": "viZOz5lHX",
            "type": "POLYGON",
            "tags": [
                "amount_details"
            ],
            "boundingBox": {
                "height": 28.50678733031674,
                "width": 100.28012048192771,
                "left": 159.83734939759037,
                "top": 412.33031674208144
            },
            "points": [
                {
                    "x": 162.89156626506025,
                    "y": 412.33031674208144
                },
                {
                    "x": 159.83734939759037,
                    "y": 436.7647058823529
                },
                {
                    "x": 255.53614457831324,
                    "y": 440.8371040723982
                },
                {
                    "x": 260.11746987951807,
                    "y": 419.4570135746606
                }
            ]
        },
        {
            "id": "pRE8rwQVV",
            "type": "RECTANGLE",
            "tags": [
                "Date"
            ],
            "boundingBox": {
                "height": 23.925339366515836,
                "width": 76.8644578313253,
                "left": 154.2379518072289,
                "top": 73.30316742081448
            },
            "points": [
                {
                    "x": 154.2379518072289,
                    "y": 73.30316742081448
                },
                {
                    "x": 231.1024096385542,
                    "y": 73.30316742081448
                },
                {
                    "x": 231.1024096385542,
                    "y": 97.2285067873303
                },
                {
                    "x": 154.2379518072289,
                    "y": 97.2285067873303
                }
            ]
        }
    ],
    "version": "2.2.0"
}