{
    "asset": {
        "format": "jpg",
        "id": "95e14b68aad36756166f134ca86f1e66",
        "name": "00039-receipt.jpg",
        "path": "file:/home/administrator/ocr/Train-OCR/TrainYourOwnYOLO/Data/receipts_Source_Images/Train_receipt/00039-receipt.jpg",
        "size": {
            "width": 750,
            "height": 1000
        },
        "state": 2,
        "type": 1
    },
    "regions": [
        {
            "id": "gTPXdfPQW",
            "type": "POLYGON",
            "tags": [
                "tax"
            ],
            "boundingBox": {
                "height": 35.06787330316742,
                "width": 79.18552036199095,
                "left": 81.44796380090497,
                "top": 312.21719457013575
            },
            "points": [
                {
                    "x": 81.44796380090497,
                    "y": 347.28506787330315
                },
                {
                    "x": 91.6289592760181,
                    "y": 314.4796380090498
                },
                {
                    "x": 160.6334841628959,
                    "y": 312.21719457013575
                },
                {
                    "x": 153.84615384615384,
                    "y": 341.62895927601807
                }
            ]
        },
        {
            "id": "uxLP_8zUM",
            "type": "POLYGON",
            "tags": [
                "tax"
            ],
            "boundingBox": {
                "height": 39.59276018099548,
                "width": 95.02262443438914,
                "left": 593.8914027149322,
                "top": 237.55656108597285
            },
            "points": [
                {
                    "x": 596.1538461538462,
                    "y": 277.14932126696834
                },
                {
                    "x": 688.9140271493212,
                    "y": 268.0995475113122
                },
                {
                    "x": 686.6515837104072,
                    "y": 237.55656108597285
                },
                {
                    "x": 593.8914027149322,
                    "y": 246.60633484162895
                }
            ]
        },
        {
            "id": "h1iyCyGrJ",
            "type": "RECTANGLE",
            "tags": [
                "amount_details"
            ],
            "boundingBox": {
                "height": 35.06787330316742,
                "width": 107.46606334841628,
                "left": 584.841628959276,
                "top": 368.7782805429864
            },
            "points": [
                {
                    "x": 584.841628959276,
                    "y": 368.7782805429864
                },
                {
                    "x": 692.3076923076923,
                    "y": 368.7782805429864
                },
                {
                    "x": 692.3076923076923,
                    "y": 403.8461538461538
                },
                {
                    "x": 584.841628959276,
                    "y": 403.8461538461538
                }
            ]
        },
        {
            "id": "XJVnpgF3E",
            "type": "POLYGON",
            "tags": [
                "Content_Items"
            ],
            "boundingBox": {
                "height": 169.68325791855204,
                "width": 550.9049773755656,
                "left": 126.69683257918552,
                "top": 9.049773755656108
            },
            "points": [
                {
                    "x": 160.6334841628959,
                    "y": 10.180995475113122
                },
                {
                    "x": 126.69683257918552,
                    "y": 178.73303167420815
                },
                {
                    "x": 677.6018099547512,
                    "y": 87.10407239819004
                },
                {
                    "x": 665.158371040724,
                    "y": 9.049773755656108
                }
            ]
        }
    ],
    "version": "2.2.0"
}