{
    "asset": {
        "format": "jpg",
        "id": "967fe5bb0d0154c7c614d0b350f8bceb",
        "name": "08501-receipt.jpg",
        "path": "file:/home/administrator/ocr/Train-OCR/TrainYourOwnYOLO/Data/receipts_Source_Images/Train_receipt/08501-receipt.jpg",
        "size": {
            "width": 338,
            "height": 450
        },
        "state": 2,
        "type": 1
    },
    "regions": [
        {
            "id": "RkNeWoJ6Z",
            "type": "RECTANGLE",
            "tags": [
                "Shop_Name"
            ],
            "boundingBox": {
                "height": 14.25339366515837,
                "width": 144.05722891566265,
                "left": 99.2620481927711,
                "top": 39.19683257918552
            },
            "points": [
                {
                    "x": 99.2620481927711,
                    "y": 39.19683257918552
                },
                {
                    "x": 243.31927710843374,
                    "y": 39.19683257918552
                },
                {
                    "x": 243.31927710843374,
                    "y": 53.45022624434389
                },
                {
                    "x": 99.2620481927711,
                    "y": 53.45022624434389
                }
            ]
        },
        {
            "id": "M6GFgdn4D",
            "type": "RECTANGLE",
            "tags": [
                "Shop_Address"
            ],
            "boundingBox": {
                "height": 44.28733031674209,
                "width": 175.10843373493975,
                "left": 83.99096385542168,
                "top": 60.0678733031674
            },
            "points": [
                {
                    "x": 83.99096385542168,
                    "y": 60.0678733031674
                },
                {
                    "x": 259.09939759036143,
                    "y": 60.0678733031674
                },
                {
                    "x": 259.09939759036143,
                    "y": 104.3552036199095
                },
                {
                    "x": 83.99096385542168,
                    "y": 104.3552036199095
                }
            ]
        },
        {
            "id": "C7qVPAI9x",
            "type": "RECTANGLE",
            "tags": [
                "Mobile_no"
            ],
            "boundingBox": {
                "height": 18.83484162895926,
                "width": 105.87951807228916,
                "left": 135.91265060240963,
                "top": 106.39140271493213
            },
            "points": [
                {
                    "x": 135.91265060240963,
                    "y": 106.39140271493213
                },
                {
                    "x": 241.7921686746988,
                    "y": 106.39140271493213
                },
                {
                    "x": 241.7921686746988,
                    "y": 125.22624434389138
                },
                {
                    "x": 135.91265060240963,
                    "y": 125.22624434389138
                }
            ]
        },
        {
            "id": "SCskmjHmu",
            "type": "RECTANGLE",
            "tags": [
                "Content_Items"
            ],
            "boundingBox": {
                "height": 152.20588235294116,
                "width": 268.7710843373494,
                "left": 29.52409638554217,
                "top": 232.63574660633483
            },
            "points": [
                {
                    "x": 29.52409638554217,
                    "y": 232.63574660633483
                },
                {
                    "x": 298.2951807228916,
                    "y": 232.63574660633483
                },
                {
                    "x": 298.2951807228916,
                    "y": 384.841628959276
                },
                {
                    "x": 29.52409638554217,
                    "y": 384.841628959276
                }
            ]
        },
        {
            "id": "-JGzl2Lp_",
            "type": "RECTANGLE",
            "tags": [
                "Date"
            ],
            "boundingBox": {
                "height": 16.79864253393665,
                "width": 90.09939759036145,
                "left": 99.26204819277109,
                "top": 164.93212669683257
            },
            "points": [
                {
                    "x": 99.26204819277109,
                    "y": 164.93212669683257
                },
                {
                    "x": 189.36144578313252,
                    "y": 164.93212669683257
                },
                {
                    "x": 189.36144578313252,
                    "y": 181.73076923076923
                },
                {
                    "x": 99.26204819277109,
                    "y": 181.73076923076923
                }
            ]
        },
        {
            "id": "ZzRAgftg-",
            "type": "RECTANGLE",
            "tags": [
                "amount_details"
            ],
            "boundingBox": {
                "height": 12.726244343891402,
                "width": 48.35843373493976,
                "left": 230.0843373493976,
                "top": 418.947963800905
            },
            "points": [
                {
                    "x": 230.0843373493976,
                    "y": 418.947963800905
                },
                {
                    "x": 278.4427710843373,
                    "y": 418.947963800905
                },
                {
                    "x": 278.4427710843373,
                    "y": 431.67420814479635
                },
                {
                    "x": 230.0843373493976,
                    "y": 431.67420814479635
                }
            ]
        }
    ],
    "version": "2.2.0"
}