{
    "asset": {
        "format": "jpg",
        "id": "9716a132484ca3f7a5d28be31eb491c5",
        "name": "08830-receipt.jpg",
        "path": "file:/home/administrator/ocr/Train-OCR/TrainYourOwnYOLO/Data/receipts_Source_Images/Train_receipt/08830-receipt.jpg",
        "size": {
            "width": 338,
            "height": 450
        },
        "state": 2,
        "type": 1
    },
    "regions": [
        {
            "id": "X7MvXZrcW",
            "type": "RECTANGLE",
            "tags": [
                "Shop_Logo"
            ],
            "boundingBox": {
                "height": 61.595022624434385,
                "width": 184.2710843373494,
                "left": 95.18975903614458,
                "top": 61.08597285067873
            },
            "points": [
                {
                    "x": 95.18975903614458,
                    "y": 61.08597285067873
                },
                {
                    "x": 279.46084337349396,
                    "y": 61.08597285067873
                },
                {
                    "x": 279.46084337349396,
                    "y": 122.68099547511312
                },
                {
                    "x": 95.18975903614458,
                    "y": 122.68099547511312
                }
            ]
        },
        {
            "id": "atH3EGDTd",
            "type": "RECTANGLE",
            "tags": [
                "Shop_Name"
            ],
            "boundingBox": {
                "height": 20.8710407239819,
                "width": 163.40060240963857,
                "left": 135.91265060240963,
                "top": 134.3891402714932
            },
            "points": [
                {
                    "x": 135.91265060240963,
                    "y": 134.3891402714932
                },
                {
                    "x": 299.3132530120482,
                    "y": 134.3891402714932
                },
                {
                    "x": 299.3132530120482,
                    "y": 155.2601809954751
                },
                {
                    "x": 135.91265060240963,
                    "y": 155.2601809954751
                }
            ]
        },
        {
            "id": "sqlrhej4r",
            "type": "RECTANGLE",
            "tags": [
                "Shop_Address"
            ],
            "boundingBox": {
                "height": 12.726244343891402,
                "width": 217.35843373493975,
                "left": 75.84638554216868,
                "top": 156.2782805429864
            },
            "points": [
                {
                    "x": 75.84638554216868,
                    "y": 156.2782805429864
                },
                {
                    "x": 293.2048192771084,
                    "y": 156.2782805429864
                },
                {
                    "x": 293.2048192771084,
                    "y": 169.00452488687782
                },
                {
                    "x": 75.84638554216868,
                    "y": 169.00452488687782
                }
            ]
        },
        {
            "id": "V_lOhBrpF",
            "type": "RECTANGLE",
            "tags": [
                "Mobile_no"
            ],
            "boundingBox": {
                "height": 11.199095022624434,
                "width": 90.09939759036145,
                "left": 100.78915662650603,
                "top": 184.2760180995475
            },
            "points": [
                {
                    "x": 100.78915662650603,
                    "y": 184.2760180995475
                },
                {
                    "x": 190.88855421686748,
                    "y": 184.2760180995475
                },
                {
                    "x": 190.88855421686748,
                    "y": 195.47511312217193
                },
                {
                    "x": 100.78915662650603,
                    "y": 195.47511312217193
                }
            ]
        },
        {
            "id": "k2655dsas",
            "type": "RECTANGLE",
            "tags": [
                "Date"
            ],
            "boundingBox": {
                "height": 9.671945701357465,
                "width": 55.484939759036145,
                "left": 196.4879518072289,
                "top": 273.868778280543
            },
            "points": [
                {
                    "x": 196.4879518072289,
                    "y": 273.868778280543
                },
                {
                    "x": 251.97289156626505,
                    "y": 273.868778280543
                },
                {
                    "x": 251.97289156626505,
                    "y": 283.54072398190044
                },
                {
                    "x": 196.4879518072289,
                    "y": 283.54072398190044
                }
            ]
        },
        {
            "id": "6WjDL8Qrr",
            "type": "RECTANGLE",
            "tags": [
                "Content_Items"
            ],
            "boundingBox": {
                "height": 156.2782805429864,
                "width": 212.26807228915663,
                "left": 81.95481927710843,
                "top": 293.72171945701353
            },
            "points": [
                {
                    "x": 81.95481927710843,
                    "y": 293.72171945701353
                },
                {
                    "x": 294.22289156626505,
                    "y": 293.72171945701353
                },
                {
                    "x": 294.22289156626505,
                    "y": 450
                },
                {
                    "x": 81.95481927710843,
                    "y": 450
                }
            ]
        }
    ],
    "version": "2.2.0"
}