{
    "asset": {
        "format": "jpg",
        "id": "9a1a00e7867507fe09a6e8ddca356705",
        "name": "00432-receipt.jpg",
        "path": "file:/home/administrator/ocr/Train-OCR/TrainYourOwnYOLO/Data/receipts_Source_Images/Train_receipt/00432-receipt.jpg",
        "size": {
            "width": 411,
            "height": 450
        },
        "state": 2,
        "type": 1
    },
    "regions": [
        {
            "id": "8J_D2xRtu",
            "type": "RECTANGLE",
            "tags": [
                "Shop_Logo"
            ],
            "boundingBox": {
                "height": 46.3235294117647,
                "width": 213.90334572490704,
                "left": 107.30976998141263,
                "top": 23.925339366515836
            },
            "points": [
                {
                    "x": 107.30976998141263,
                    "y": 23.925339366515836
                },
                {
                    "x": 321.2131157063197,
                    "y": 23.925339366515836
                },
                {
                    "x": 321.2131157063197,
                    "y": 70.24886877828054
                },
                {
                    "x": 107.30976998141263,
                    "y": 70.24886877828054
                }
            ]
        },
        {
            "id": "y5LPlIt8s",
            "type": "RECTANGLE",
            "tags": [
                "Date"
            ],
            "boundingBox": {
                "height": 21.88914027149321,
                "width": 77.41263940520446,
                "left": 100.17965845724906,
                "top": 172.5678733031674
            },
            "points": [
                {
                    "x": 100.17965845724906,
                    "y": 172.5678733031674
                },
                {
                    "x": 177.59229786245353,
                    "y": 172.5678733031674
                },
                {
                    "x": 177.59229786245353,
                    "y": 194.4570135746606
                },
                {
                    "x": 100.17965845724906,
                    "y": 194.4570135746606
                }
            ]
        },
        {
            "id": "cyKrIznGC",
            "type": "RECTANGLE",
            "tags": [
                "Content_Items"
            ],
            "boundingBox": {
                "height": 46.3235294117647,
                "width": 343.7732342007435,
                "left": 50.77817146840148,
                "top": 252.99773755656108
            },
            "points": [
                {
                    "x": 50.77817146840148,
                    "y": 252.99773755656108
                },
                {
                    "x": 394.55140566914497,
                    "y": 252.99773755656108
                },
                {
                    "x": 394.55140566914497,
                    "y": 299.32126696832574
                },
                {
                    "x": 50.77817146840148,
                    "y": 299.32126696832574
                }
            ]
        },
        {
            "id": "SigzZYNHa",
            "type": "RECTANGLE",
            "tags": [
                "amount_details"
            ],
            "boundingBox": {
                "height": 33.5972850678733,
                "width": 76.90334572490706,
                "left": 324.77817146840147,
                "top": 368.04298642533934
            },
            "points": [
                {
                    "x": 324.77817146840147,
                    "y": 368.04298642533934
                },
                {
                    "x": 401.68151719330854,
                    "y": 368.04298642533934
                },
                {
                    "x": 401.68151719330854,
                    "y": 401.64027149321265
                },
                {
                    "x": 324.77817146840147,
                    "y": 401.64027149321265
                }
            ]
        },
        {
            "id": "KwBDiOSv2",
            "type": "RECTANGLE",
            "tags": [
                "tax"
            ],
            "boundingBox": {
                "height": 20.8710407239819,
                "width": 85.56133828996282,
                "left": 91.776312732342,
                "top": 326.8099547511312
            },
            "points": [
                {
                    "x": 91.776312732342,
                    "y": 326.8099547511312
                },
                {
                    "x": 177.3376510223048,
                    "y": 326.8099547511312
                },
                {
                    "x": 177.3376510223048,
                    "y": 347.6809954751131
                },
                {
                    "x": 91.776312732342,
                    "y": 347.6809954751131
                }
            ]
        },
        {
            "id": "N1q9SVfKN",
            "type": "RECTANGLE",
            "tags": [
                "tax"
            ],
            "boundingBox": {
                "height": 18.834841628959275,
                "width": 40.743494423791816,
                "left": 360.683375929368,
                "top": 336.9909502262443
            },
            "points": [
                {
                    "x": 360.683375929368,
                    "y": 336.9909502262443
                },
                {
                    "x": 401.4268703531598,
                    "y": 336.9909502262443
                },
                {
                    "x": 401.4268703531598,
                    "y": 355.8257918552036
                },
                {
                    "x": 360.683375929368,
                    "y": 355.8257918552036
                }
            ]
        }
    ],
    "version": "2.2.0"
}