{
    "asset": {
        "format": "jpg",
        "id": "9ac8ccfc939d2526f35730c3d1acf8d2",
        "name": "02434-receipt.jpg",
        "path": "file:/home/administrator/ocr/Train-OCR/TrainYourOwnYOLO/Data/receipts_Source_Images/Train_receipt/02434-receipt.jpg",
        "size": {
            "width": 750,
            "height": 1000
        },
        "state": 2,
        "type": 1
    },
    "regions": [
        {
            "id": "bwg7zIM7X",
            "type": "RECTANGLE",
            "tags": [
                "Date"
            ],
            "boundingBox": {
                "height": 20.361990950226243,
                "width": 67.87330316742081,
                "left": 329.18552036199094,
                "top": 542.9864253393665
            },
            "points": [
                {
                    "x": 329.18552036199094,
                    "y": 542.9864253393665
                },
                {
                    "x": 397.05882352941177,
                    "y": 542.9864253393665
                },
                {
                    "x": 397.05882352941177,
                    "y": 563.3484162895927
                },
                {
                    "x": 329.18552036199094,
                    "y": 563.3484162895927
                }
            ]
        },
        {
            "id": "C34n-puCy",
            "type": "RECTANGLE",
            "tags": [
                "Content_Items"
            ],
            "boundingBox": {
                "height": 32.80542986425339,
                "width": 244.34389140271492,
                "left": 239.81900452488688,
                "top": 582.579185520362
            },
            "points": [
                {
                    "x": 239.81900452488688,
                    "y": 582.579185520362
                },
                {
                    "x": 484.1628959276018,
                    "y": 582.579185520362
                },
                {
                    "x": 484.1628959276018,
                    "y": 615.3846153846154
                },
                {
                    "x": 239.81900452488688,
                    "y": 615.3846153846154
                }
            ]
        },
        {
            "id": "kzyXndQDq",
            "type": "RECTANGLE",
            "tags": [
                "amount_details"
            ],
            "boundingBox": {
                "height": 27.149321266968325,
                "width": 69.00452488687783,
                "left": 421.9457013574661,
                "top": 695.7013574660633
            },
            "points": [
                {
                    "x": 421.9457013574661,
                    "y": 695.7013574660633
                },
                {
                    "x": 490.95022624434387,
                    "y": 695.7013574660633
                },
                {
                    "x": 490.95022624434387,
                    "y": 722.8506787330317
                },
                {
                    "x": 421.9457013574661,
                    "y": 722.8506787330317
                }
            ]
        },
        {
            "id": "tPSKy21FU",
            "type": "RECTANGLE",
            "tags": [
                "Shop_Name"
            ],
            "boundingBox": {
                "height": 46.380090497737555,
                "width": 184.3891402714932,
                "left": 211.53846153846155,
                "top": 259.0497737556561
            },
            "points": [
                {
                    "x": 211.53846153846155,
                    "y": 259.0497737556561
                },
                {
                    "x": 395.92760180995475,
                    "y": 259.0497737556561
                },
                {
                    "x": 395.92760180995475,
                    "y": 305.42986425339365
                },
                {
                    "x": 211.53846153846155,
                    "y": 305.42986425339365
                }
            ]
        }
    ],
    "version": "2.2.0"
}