{
    "asset": {
        "format": "jpg",
        "id": "9b202b93e5eebd3d5b8e010966a03fe8",
        "name": "08503-receipt.jpg",
        "path": "file:/home/administrator/ocr/Train-OCR/TrainYourOwnYOLO/Data/receipts_Source_Images/Train_receipt/08503-receipt.jpg",
        "size": {
            "width": 270,
            "height": 450
        },
        "state": 2,
        "type": 1
    },
    "regions": [
        {
            "id": "yz_qSTIbV",
            "type": "RECTANGLE",
            "tags": [
                "Shop_Name"
            ],
            "boundingBox": {
                "height": 30.542986425339365,
                "width": 226.69811320754718,
                "left": 17.93366745283019,
                "top": 24.943438914027148
            },
            "points": [
                {
                    "x": 17.93366745283019,
                    "y": 24.943438914027148
                },
                {
                    "x": 244.63178066037736,
                    "y": 24.943438914027148
                },
                {
                    "x": 244.63178066037736,
                    "y": 55.48642533936651
                },
                {
                    "x": 17.93366745283019,
                    "y": 55.48642533936651
                }
            ]
        },
        {
            "id": "yiwL0_BA-",
            "type": "RECTANGLE",
            "tags": [
                "Shop_Address"
            ],
            "boundingBox": {
                "height": 43.26923076923077,
                "width": 117.16981132075472,
                "left": 72.44310141509433,
                "top": 64.64932126696831
            },
            "points": [
                {
                    "x": 72.44310141509433,
                    "y": 64.64932126696831
                },
                {
                    "x": 189.61291273584905,
                    "y": 64.64932126696831
                },
                {
                    "x": 189.61291273584905,
                    "y": 107.91855203619909
                },
                {
                    "x": 72.44310141509433,
                    "y": 107.91855203619909
                }
            ]
        },
        {
            "id": "86MaqvqW6",
            "type": "RECTANGLE",
            "tags": [
                "Mobile_no"
            ],
            "boundingBox": {
                "height": 17.307692307692307,
                "width": 87.11320754716981,
                "left": 103.26385613207547,
                "top": 107.91855203619909
            },
            "points": [
                {
                    "x": 103.26385613207547,
                    "y": 107.91855203619909
                },
                {
                    "x": 190.37706367924528,
                    "y": 107.91855203619909
                },
                {
                    "x": 190.37706367924528,
                    "y": 125.2262443438914
                },
                {
                    "x": 103.26385613207547,
                    "y": 125.2262443438914
                }
            ]
        },
        {
            "id": "gPlIf9SgP",
            "type": "RECTANGLE",
            "tags": [
                "Date"
            ],
            "boundingBox": {
                "height": 17.816742081447963,
                "width": 67.24528301886792,
                "left": 111.41479952830188,
                "top": 172.05882352941177
            },
            "points": [
                {
                    "x": 111.41479952830188,
                    "y": 172.05882352941177
                },
                {
                    "x": 178.66008254716982,
                    "y": 172.05882352941177
                },
                {
                    "x": 178.66008254716982,
                    "y": 189.87556561085972
                },
                {
                    "x": 111.41479952830188,
                    "y": 189.87556561085972
                }
            ]
        },
        {
            "id": "-hojBP5_5",
            "type": "RECTANGLE",
            "tags": [
                "Content_Items"
            ],
            "boundingBox": {
                "height": 58.03167420814479,
                "width": 223.1320754716981,
                "left": 34.99970518867924,
                "top": 228.56334841628959
            },
            "points": [
                {
                    "x": 34.99970518867924,
                    "y": 228.56334841628959
                },
                {
                    "x": 258.13178066037733,
                    "y": 228.56334841628959
                },
                {
                    "x": 258.13178066037733,
                    "y": 286.59502262443436
                },
                {
                    "x": 34.99970518867924,
                    "y": 286.59502262443436
                }
            ]
        },
        {
            "id": "bojJQ7Ces",
            "type": "RECTANGLE",
            "tags": [
                "amount_details"
            ],
            "boundingBox": {
                "height": 19.34389140271493,
                "width": 30.566037735849058,
                "left": 225.5280070754717,
                "top": 304.4117647058823
            },
            "points": [
                {
                    "x": 225.5280070754717,
                    "y": 304.4117647058823
                },
                {
                    "x": 256.09404481132077,
                    "y": 304.4117647058823
                },
                {
                    "x": 256.09404481132077,
                    "y": 323.75565610859724
                },
                {
                    "x": 225.5280070754717,
                    "y": 323.75565610859724
                }
            ]
        },
        {
            "id": "Llv4K-Lie",
            "type": "RECTANGLE",
            "tags": [
                "tax"
            ],
            "boundingBox": {
                "height": 25.96153846153846,
                "width": 67.24528301886792,
                "left": 110.90536556603773,
                "top": 325.28280542986425
            },
            "points": [
                {
                    "x": 110.90536556603773,
                    "y": 325.28280542986425
                },
                {
                    "x": 178.15064858490567,
                    "y": 325.28280542986425
                },
                {
                    "x": 178.15064858490567,
                    "y": 351.2443438914027
                },
                {
                    "x": 110.90536556603773,
                    "y": 351.2443438914027
                }
            ]
        },
        {
            "id": "PVosjD1SY",
            "type": "RECTANGLE",
            "tags": [
                "tax"
            ],
            "boundingBox": {
                "height": 26.470588235294116,
                "width": 22.41509433962264,
                "left": 232.66008254716982,
                "top": 327.82805429864254
            },
            "points": [
                {
                    "x": 232.66008254716982,
                    "y": 327.82805429864254
                },
                {
                    "x": 255.07517688679246,
                    "y": 327.82805429864254
                },
                {
                    "x": 255.07517688679246,
                    "y": 354.29864253393663
                },
                {
                    "x": 232.66008254716982,
                    "y": 354.29864253393663
                }
            ]
        }
    ],
    "version": "2.2.0"
}