{
    "asset": {
        "format": "jpg",
        "id": "9dd2a00cfe18af73ae5c7e6273ae4f6d",
        "name": "02542-receipt.jpg",
        "path": "file:/home/administrator/ocr/Train-OCR/TrainYourOwnYOLO/Data/receipts_Source_Images/Train_receipt/02542-receipt.jpg",
        "size": {
            "width": 338,
            "height": 450
        },
        "state": 2,
        "type": 1
    },
    "regions": [
        {
            "id": "0hxsQ1_Dp",
            "type": "RECTANGLE",
            "tags": [
                "Date"
            ],
            "boundingBox": {
                "height": 10.690045248868778,
                "width": 32.57831325301205,
                "left": 128.5316265060241,
                "top": 169.00452488687782
            },
            "points": [
                {
                    "x": 128.5316265060241,
                    "y": 169.00452488687782
                },
                {
                    "x": 161.10993975903614,
                    "y": 169.00452488687782
                },
                {
                    "x": 161.10993975903614,
                    "y": 179.6945701357466
                },
                {
                    "x": 128.5316265060241,
                    "y": 179.6945701357466
                }
            ]
        },
        {
            "id": "4BSzYRkX8",
            "type": "RECTANGLE",
            "tags": [
                "Content_Items"
            ],
            "boundingBox": {
                "height": 66.68552036199094,
                "width": 111.98795180722891,
                "left": 103.58885542168674,
                "top": 188.34841628959276
            },
            "points": [
                {
                    "x": 103.58885542168674,
                    "y": 188.34841628959276
                },
                {
                    "x": 215.57680722891567,
                    "y": 188.34841628959276
                },
                {
                    "x": 215.57680722891567,
                    "y": 255.0339366515837
                },
                {
                    "x": 103.58885542168674,
                    "y": 255.0339366515837
                }
            ]
        },
        {
            "id": "VmdovcydW",
            "type": "RECTANGLE",
            "tags": [
                "amount_details"
            ],
            "boundingBox": {
                "height": 11.70814479638009,
                "width": 49.8855421686747,
                "left": 168.74548192771084,
                "top": 296.7760180995475
            },
            "points": [
                {
                    "x": 168.74548192771084,
                    "y": 296.7760180995475
                },
                {
                    "x": 218.63102409638554,
                    "y": 296.7760180995475
                },
                {
                    "x": 218.63102409638554,
                    "y": 308.48416289592757
                },
                {
                    "x": 168.74548192771084,
                    "y": 308.48416289592757
                }
            ]
        },
        {
            "id": "KFZ94gFQQ",
            "type": "RECTANGLE",
            "tags": [
                "tax"
            ],
            "boundingBox": {
                "height": 9.671945701357465,
                "width": 20.36144578313253,
                "left": 104.60692771084338,
                "top": 286.59502262443436
            },
            "points": [
                {
                    "x": 104.60692771084338,
                    "y": 286.59502262443436
                },
                {
                    "x": 124.9683734939759,
                    "y": 286.59502262443436
                },
                {
                    "x": 124.9683734939759,
                    "y": 296.2669683257918
                },
                {
                    "x": 104.60692771084338,
                    "y": 296.2669683257918
                }
            ]
        },
        {
            "id": "yGABU-zG4",
            "type": "RECTANGLE",
            "tags": [
                "tax"
            ],
            "boundingBox": {
                "height": 11.199095022624434,
                "width": 23.924698795180724,
                "left": 192.16114457831324,
                "top": 285.0678733031674
            },
            "points": [
                {
                    "x": 192.16114457831324,
                    "y": 285.0678733031674
                },
                {
                    "x": 216.085843373494,
                    "y": 285.0678733031674
                },
                {
                    "x": 216.085843373494,
                    "y": 296.2669683257918
                },
                {
                    "x": 192.16114457831324,
                    "y": 296.2669683257918
                }
            ]
        }
    ],
    "version": "2.2.0"
}