{
    "asset": {
        "format": "jpg",
        "id": "a06fbe7593b6e61357dad4dbe869807f",
        "name": "09219-receipt.jpg",
        "path": "file:/home/administrator/ocr/Train-OCR/TrainYourOwnYOLO/Data/receipts_Source_Images/Train_receipt/09219-receipt.jpg",
        "size": {
            "width": 338,
            "height": 450
        },
        "state": 2,
        "type": 1
    },
    "regions": [
        {
            "id": "lxp0e8oNZ",
            "type": "RECTANGLE",
            "tags": [
                "Shop_Name"
            ],
            "boundingBox": {
                "height": 13.235294117647058,
                "width": 145.5843373493976,
                "left": 73.3012048192771,
                "top": 90.10180995475113
            },
            "points": [
                {
                    "x": 73.3012048192771,
                    "y": 90.10180995475113
                },
                {
                    "x": 218.8855421686747,
                    "y": 90.10180995475113
                },
                {
                    "x": 218.8855421686747,
                    "y": 103.33710407239818
                },
                {
                    "x": 73.3012048192771,
                    "y": 103.33710407239818
                }
            ]
        },
        {
            "id": "SFj5gmrwa",
            "type": "RECTANGLE",
            "tags": [
                "Shop_Address"
            ],
            "boundingBox": {
                "height": 12.726244343891402,
                "width": 64.64759036144578,
                "left": 109.95180722891567,
                "top": 106.90045248868778
            },
            "points": [
                {
                    "x": 109.95180722891567,
                    "y": 106.90045248868778
                },
                {
                    "x": 174.59939759036143,
                    "y": 106.90045248868778
                },
                {
                    "x": 174.59939759036143,
                    "y": 119.62669683257917
                },
                {
                    "x": 109.95180722891567,
                    "y": 119.62669683257917
                }
            ]
        },
        {
            "id": "uQ3qHcY1U",
            "type": "RECTANGLE",
            "tags": [
                "Mobile_no"
            ],
            "boundingBox": {
                "height": 8.653846153846153,
                "width": 43.77710843373494,
                "left": 131.84036144578315,
                "top": 120.6447963800905
            },
            "points": [
                {
                    "x": 131.84036144578315,
                    "y": 120.6447963800905
                },
                {
                    "x": 175.61746987951807,
                    "y": 120.6447963800905
                },
                {
                    "x": 175.61746987951807,
                    "y": 129.29864253393663
                },
                {
                    "x": 131.84036144578315,
                    "y": 129.29864253393663
                }
            ]
        },
        {
            "id": "WT-TgXLSq",
            "type": "RECTANGLE",
            "tags": [
                "Mobile_no"
            ],
            "boundingBox": {
                "height": 11.199095022624434,
                "width": 80.9367469879518,
                "left": 117.58734939759036,
                "top": 147.62443438914028
            },
            "points": [
                {
                    "x": 117.58734939759036,
                    "y": 147.62443438914028
                },
                {
                    "x": 198.52409638554218,
                    "y": 147.62443438914028
                },
                {
                    "x": 198.52409638554218,
                    "y": 158.8235294117647
                },
                {
                    "x": 117.58734939759036,
                    "y": 158.8235294117647
                }
            ]
        },
        {
            "id": "i-KcVFDyC",
            "type": "RECTANGLE",
            "tags": [
                "Content_Items"
            ],
            "boundingBox": {
                "height": 55.48642533936651,
                "width": 193.94277108433735,
                "left": 48.86746987951807,
                "top": 192.92986425339362
            },
            "points": [
                {
                    "x": 48.86746987951807,
                    "y": 192.92986425339362
                },
                {
                    "x": 242.81024096385542,
                    "y": 192.92986425339362
                },
                {
                    "x": 242.81024096385542,
                    "y": 248.41628959276014
                },
                {
                    "x": 48.86746987951807,
                    "y": 248.41628959276014
                }
            ]
        },
        {
            "id": "HCpjK2Zc4",
            "type": "RECTANGLE",
            "tags": [
                "amount_details"
            ],
            "boundingBox": {
                "height": 19.852941176470587,
                "width": 72.7921686746988,
                "left": 169.50903614457832,
                "top": 286.59502262443436
            },
            "points": [
                {
                    "x": 169.50903614457832,
                    "y": 286.59502262443436
                },
                {
                    "x": 242.3012048192771,
                    "y": 286.59502262443436
                },
                {
                    "x": 242.3012048192771,
                    "y": 306.447963800905
                },
                {
                    "x": 169.50903614457832,
                    "y": 306.447963800905
                }
            ]
        },
        {
            "id": "DHRAxuHDT",
            "type": "RECTANGLE",
            "tags": [
                "tax"
            ],
            "boundingBox": {
                "height": 9.671945701357465,
                "width": 47.84939759036145,
                "left": 39.19578313253012,
                "top": 277.94117647058823
            },
            "points": [
                {
                    "x": 39.19578313253012,
                    "y": 277.94117647058823
                },
                {
                    "x": 87.04518072289157,
                    "y": 277.94117647058823
                },
                {
                    "x": 87.04518072289157,
                    "y": 287.6131221719457
                },
                {
                    "x": 39.19578313253012,
                    "y": 287.6131221719457
                }
            ]
        },
        {
            "id": "SRQOGEst8",
            "type": "RECTANGLE",
            "tags": [
                "tax"
            ],
            "boundingBox": {
                "height": 11.199095022624434,
                "width": 38.68674698795181,
                "left": 177.14457831325302,
                "top": 273.868778280543
            },
            "points": [
                {
                    "x": 177.14457831325302,
                    "y": 273.868778280543
                },
                {
                    "x": 215.83132530120483,
                    "y": 273.868778280543
                },
                {
                    "x": 215.83132530120483,
                    "y": 285.0678733031674
                },
                {
                    "x": 177.14457831325302,
                    "y": 285.0678733031674
                }
            ]
        }
    ],
    "version": "2.2.0"
}