{
    "asset": {
        "format": "jpg",
        "id": "a1106bc9a37be1e62dfc1a8c4835b83b",
        "name": "08937-receipt.jpg",
        "path": "file:/home/administrator/ocr/Train-OCR/TrainYourOwnYOLO/Data/receipts_Source_Images/Train_receipt/08937-receipt.jpg",
        "size": {
            "width": 406,
            "height": 420
        },
        "state": 2,
        "type": 1
    },
    "regions": [
        {
            "id": "kMXvb-pFV",
            "type": "RECTANGLE",
            "tags": [
                "Shop_Logo"
            ],
            "boundingBox": {
                "height": 88.37104072398189,
                "width": 153.85263157894735,
                "left": 161.10899122807018,
                "top": 0
            },
            "points": [
                {
                    "x": 161.10899122807018,
                    "y": 0
                },
                {
                    "x": 314.96162280701753,
                    "y": 0
                },
                {
                    "x": 314.96162280701753,
                    "y": 88.37104072398189
                },
                {
                    "x": 161.10899122807018,
                    "y": 88.37104072398189
                }
            ]
        },
        {
            "id": "uAP_yc4Jn",
            "type": "RECTANGLE",
            "tags": [
                "Shop_Name"
            ],
            "boundingBox": {
                "height": 32.782805429864254,
                "width": 58.88187134502924,
                "left": 194.34875730994153,
                "top": 99.77375565610859
            },
            "points": [
                {
                    "x": 194.34875730994153,
                    "y": 99.77375565610859
                },
                {
                    "x": 253.23062865497076,
                    "y": 99.77375565610859
                },
                {
                    "x": 253.23062865497076,
                    "y": 132.55656108597285
                },
                {
                    "x": 194.34875730994153,
                    "y": 132.55656108597285
                }
            ]
        },
        {
            "id": "CxdvaUTNP",
            "type": "RECTANGLE",
            "tags": [
                "Shop_Address"
            ],
            "boundingBox": {
                "height": 36.58371040723982,
                "width": 177.12046783625732,
                "left": 144.0142543859649,
                "top": 137.78280542986425
            },
            "points": [
                {
                    "x": 144.0142543859649,
                    "y": 137.78280542986425
                },
                {
                    "x": 321.1347222222222,
                    "y": 137.78280542986425
                },
                {
                    "x": 321.1347222222222,
                    "y": 174.36651583710406
                },
                {
                    "x": 144.0142543859649,
                    "y": 174.36651583710406
                }
            ]
        },
        {
            "id": "SbL-zDDZ3",
            "type": "RECTANGLE",
            "tags": [
                "Content_Items"
            ],
            "boundingBox": {
                "height": 37.05882352941176,
                "width": 244.54970760233917,
                "left": 111.24934210526315,
                "top": 287.91855203619906
            },
            "points": [
                {
                    "x": 111.24934210526315,
                    "y": 287.91855203619906
                },
                {
                    "x": 355.79904970760236,
                    "y": 287.91855203619906
                },
                {
                    "x": 355.79904970760236,
                    "y": 324.9773755656108
                },
                {
                    "x": 111.24934210526315,
                    "y": 324.9773755656108
                }
            ]
        },
        {
            "id": "Zj4Ul5cx2",
            "type": "RECTANGLE",
            "tags": [
                "amount_details"
            ],
            "boundingBox": {
                "height": 24.705882352941174,
                "width": 43.68654970760234,
                "left": 310.21308479532166,
                "top": 337.33031674208144
            },
            "points": [
                {
                    "x": 310.21308479532166,
                    "y": 337.33031674208144
                },
                {
                    "x": 353.89963450292396,
                    "y": 337.33031674208144
                },
                {
                    "x": 353.89963450292396,
                    "y": 362.0361990950226
                },
                {
                    "x": 310.21308479532166,
                    "y": 362.0361990950226
                }
            ]
        },
        {
            "id": "bM5CG8DPL",
            "type": "RECTANGLE",
            "tags": [
                "tax"
            ],
            "boundingBox": {
                "height": 16.628959276018097,
                "width": 94.49590643274854,
                "left": 147.33823099415204,
                "top": 377.23981900452486
            },
            "points": [
                {
                    "x": 147.33823099415204,
                    "y": 377.23981900452486
                },
                {
                    "x": 241.83413742690058,
                    "y": 377.23981900452486
                },
                {
                    "x": 241.83413742690058,
                    "y": 393.868778280543
                },
                {
                    "x": 147.33823099415204,
                    "y": 393.868778280543
                }
            ]
        }
    ],
    "version": "2.2.0"
}