{
    "asset": {
        "format": "jpg",
        "id": "a13b18f71b2992d17623bc98914d28d8",
        "name": "1131-receipt.jpg",
        "path": "file:/home/administrator/ocr/Train-OCR/TrainYourOwnYOLO/Data/receipts_Source_Images/Train_receipt/1131-receipt.jpg",
        "size": {
            "width": 562,
            "height": 1000
        },
        "state": 2,
        "type": 1
    },
    "regions": [
        {
            "id": "OdfFuXRa5",
            "type": "RECTANGLE",
            "tags": [
                "Shop_Name"
            ],
            "boundingBox": {
                "height": 40.723981900452486,
                "width": 158.76924044265596,
                "left": 188.841046277666,
                "top": 208.1447963800905
            },
            "points": [
                {
                    "x": 188.841046277666,
                    "y": 208.1447963800905
                },
                {
                    "x": 347.61028672032194,
                    "y": 208.1447963800905
                },
                {
                    "x": 347.61028672032194,
                    "y": 248.86877828054298
                },
                {
                    "x": 188.841046277666,
                    "y": 248.86877828054298
                }
            ]
        },
        {
            "id": "DvB8inkzr",
            "type": "RECTANGLE",
            "tags": [
                "Shop_Address"
            ],
            "boundingBox": {
                "height": 27.149321266968325,
                "width": 280.43460764587525,
                "left": 133.89197686116702,
                "top": 233.03167420814478
            },
            "points": [
                {
                    "x": 133.89197686116702,
                    "y": 233.03167420814478
                },
                {
                    "x": 414.3265845070423,
                    "y": 233.03167420814478
                },
                {
                    "x": 414.3265845070423,
                    "y": 260.1809954751131
                },
                {
                    "x": 133.89197686116702,
                    "y": 260.1809954751131
                }
            ]
        },
        {
            "id": "g4KcECvC3",
            "type": "RECTANGLE",
            "tags": [
                "Mobile_no"
            ],
            "boundingBox": {
                "height": 26.018099547511312,
                "width": 115.3400402414487,
                "left": 236.79338531187125,
                "top": 256.7873303167421
            },
            "points": [
                {
                    "x": 236.79338531187125,
                    "y": 256.7873303167421
                },
                {
                    "x": 352.13342555331997,
                    "y": 256.7873303167421
                },
                {
                    "x": 352.13342555331997,
                    "y": 282.80542986425337
                },
                {
                    "x": 236.79338531187125,
                    "y": 282.80542986425337
                }
            ]
        },
        {
            "id": "k4hFTqNng",
            "type": "RECTANGLE",
            "tags": [
                "Date"
            ],
            "boundingBox": {
                "height": 28.28054298642534,
                "width": 96.11670020120725,
                "left": 218.7008299798793,
                "top": 305.42986425339365
            },
            "points": [
                {
                    "x": 218.7008299798793,
                    "y": 305.42986425339365
                },
                {
                    "x": 314.81753018108657,
                    "y": 305.42986425339365
                },
                {
                    "x": 314.81753018108657,
                    "y": 333.710407239819
                },
                {
                    "x": 218.7008299798793,
                    "y": 333.710407239819
                }
            ]
        },
        {
            "id": "Hv9XSJWZe",
            "type": "RECTANGLE",
            "tags": [
                "Content_Items"
            ],
            "boundingBox": {
                "height": 251.13122171945702,
                "width": 301.9195171026157,
                "left": 123.71491448692154,
                "top": 330.31674208144796
            },
            "points": [
                {
                    "x": 123.71491448692154,
                    "y": 330.31674208144796
                },
                {
                    "x": 425.63443158953726,
                    "y": 330.31674208144796
                },
                {
                    "x": 425.63443158953726,
                    "y": 581.447963800905
                },
                {
                    "x": 123.71491448692154,
                    "y": 581.447963800905
                }
            ]
        },
        {
            "id": "LWqFXI7UQ",
            "type": "RECTANGLE",
            "tags": [
                "tax"
            ],
            "boundingBox": {
                "height": 23.755656108597286,
                "width": 38.4466800804829,
                "left": 130.49962273641853,
                "top": 633.4841628959276
            },
            "points": [
                {
                    "x": 130.49962273641853,
                    "y": 633.4841628959276
                },
                {
                    "x": 168.9463028169014,
                    "y": 633.4841628959276
                },
                {
                    "x": 168.9463028169014,
                    "y": 657.2398190045249
                },
                {
                    "x": 130.49962273641853,
                    "y": 657.2398190045249
                }
            ]
        },
        {
            "id": "mwjeGc3r_",
            "type": "RECTANGLE",
            "tags": [
                "tax"
            ],
            "boundingBox": {
                "height": 22.62443438914027,
                "width": 61.06237424547284,
                "left": 355.52577967806843,
                "top": 644.7963800904977
            },
            "points": [
                {
                    "x": 355.52577967806843,
                    "y": 644.7963800904977
                },
                {
                    "x": 416.58815392354126,
                    "y": 644.7963800904977
                },
                {
                    "x": 416.58815392354126,
                    "y": 667.420814479638
                },
                {
                    "x": 355.52577967806843,
                    "y": 667.420814479638
                }
            ]
        },
        {
            "id": "B3e-zWgUE",
            "type": "RECTANGLE",
            "tags": [
                "amount_details"
            ],
            "boundingBox": {
                "height": 26.018099547511312,
                "width": 120.99396378269618,
                "left": 293.3326207243461,
                "top": 660.6334841628959
            },
            "points": [
                {
                    "x": 293.3326207243461,
                    "y": 660.6334841628959
                },
                {
                    "x": 414.3265845070423,
                    "y": 660.6334841628959
                },
                {
                    "x": 414.3265845070423,
                    "y": 686.6515837104072
                },
                {
                    "x": 293.3326207243461,
                    "y": 686.6515837104072
                }
            ]
        }
    ],
    "version": "2.2.0"
}