{
    "asset": {
        "format": "jpg",
        "id": "a15c7b1b4b4721647cdaecffe43aef8a",
        "name": "02421-receipt.jpg",
        "path": "file:/home/administrator/ocr/Train-OCR/TrainYourOwnYOLO/Data/receipts_Source_Images/Train_receipt/02421-receipt.jpg",
        "size": {
            "width": 253,
            "height": 450
        },
        "state": 2,
        "type": 1
    },
    "regions": [
        {
            "id": "xKD9PYYS1",
            "type": "RECTANGLE",
            "tags": [
                "Shop_Name"
            ],
            "boundingBox": {
                "height": 60.06787330316742,
                "width": 91.12072434607646,
                "left": 61.09447308853119,
                "top": 57.01357466063348
            },
            "points": [
                {
                    "x": 61.09447308853119,
                    "y": 57.01357466063348
                },
                {
                    "x": 152.21519743460766,
                    "y": 57.01357466063348
                },
                {
                    "x": 152.21519743460766,
                    "y": 117.0814479638009
                },
                {
                    "x": 61.09447308853119,
                    "y": 117.0814479638009
                }
            ]
        },
        {
            "id": "0TU1Qwo26",
            "type": "RECTANGLE",
            "tags": [
                "Content_Items"
            ],
            "boundingBox": {
                "height": 29.524886877828052,
                "width": 154.75251509054326,
                "left": 47.85906061368209,
                "top": 231.10859728506784
            },
            "points": [
                {
                    "x": 47.85906061368209,
                    "y": 231.10859728506784
                },
                {
                    "x": 202.61157570422534,
                    "y": 231.10859728506784
                },
                {
                    "x": 202.61157570422534,
                    "y": 260.6334841628959
                },
                {
                    "x": 47.85906061368209,
                    "y": 260.6334841628959
                }
            ]
        },
        {
            "id": "sXDmmbMTA",
            "type": "RECTANGLE",
            "tags": [
                "amount_details"
            ],
            "boundingBox": {
                "height": 10.180995475113122,
                "width": 24.943661971830988,
                "left": 179.19507671026156,
                "top": 266.2330316742081
            },
            "points": [
                {
                    "x": 179.19507671026156,
                    "y": 266.2330316742081
                },
                {
                    "x": 204.13873868209257,
                    "y": 266.2330316742081
                },
                {
                    "x": 204.13873868209257,
                    "y": 276.41402714932127
                },
                {
                    "x": 179.19507671026156,
                    "y": 276.41402714932127
                }
            ]
        }
    ],
    "version": "2.2.0"
}