{
    "asset": {
        "format": "JPG",
        "id": "a221a9ed14f4a80c6b64608f2ab38507",
        "name": "9e618708-85c0-4bad-afc3-e656d4477d36(1).JPG",
        "path": "file:/home/administrator/ocr/Train-OCR/TrainYourOwnYOLO/Data/receipts_Source_Images/Train_receipt/9e618708-85c0-4bad-afc3-e656d4477d36(1).JPG",
        "size": {
            "width": 576,
            "height": 1152
        },
        "state": 2,
        "type": 1
    },
    "regions": [
        {
            "id": "wPEaf5Zy8",
            "type": "RECTANGLE",
            "tags": [
                "Shop_Logo"
            ],
            "boundingBox": {
                "height": 57.339366515837106,
                "width": 59.94570135746606,
                "left": 190.26244343891403,
                "top": 88.61538461538461
            },
            "points": [
                {
                    "x": 190.26244343891403,
                    "y": 88.61538461538461
                },
                {
                    "x": 250.2081447963801,
                    "y": 88.61538461538461
                },
                {
                    "x": 250.2081447963801,
                    "y": 145.9547511312217
                },
                {
                    "x": 190.26244343891403,
                    "y": 145.9547511312217
                }
            ]
        },
        {
            "id": "kUEHMDjbf",
            "type": "RECTANGLE",
            "tags": [
                "Shop_Name"
            ],
            "boundingBox": {
                "height": 39.09502262443439,
                "width": 108.16289592760181,
                "left": 248.9049773755656,
                "top": 106.85972850678733
            },
            "points": [
                {
                    "x": 248.9049773755656,
                    "y": 106.85972850678733
                },
                {
                    "x": 357.0678733031674,
                    "y": 106.85972850678733
                },
                {
                    "x": 357.0678733031674,
                    "y": 145.9547511312217
                },
                {
                    "x": 248.9049773755656,
                    "y": 145.9547511312217
                }
            ]
        },
        {
            "id": "QTwmWB3uB",
            "type": "RECTANGLE",
            "tags": [
                "Shop_Address"
            ],
            "boundingBox": {
                "height": 16.941176470588236,
                "width": 147.25791855203622,
                "left": 200.68778280542986,
                "top": 155.0769230769231
            },
            "points": [
                {
                    "x": 200.68778280542986,
                    "y": 155.0769230769231
                },
                {
                    "x": 347.9457013574661,
                    "y": 155.0769230769231
                },
                {
                    "x": 347.9457013574661,
                    "y": 172.01809954751133
                },
                {
                    "x": 200.68778280542986,
                    "y": 172.01809954751133
                }
            ]
        },
        {
            "id": "pvWQizpTO",
            "type": "RECTANGLE",
            "tags": [
                "Content_Items"
            ],
            "boundingBox": {
                "height": 635.9457013574661,
                "width": 251.5113122171946,
                "left": 158.98642533936652,
                "top": 222.84162895927602
            },
            "points": [
                {
                    "x": 158.98642533936652,
                    "y": 222.84162895927602
                },
                {
                    "x": 410.4977375565611,
                    "y": 222.84162895927602
                },
                {
                    "x": 410.4977375565611,
                    "y": 858.7873303167421
                },
                {
                    "x": 158.98642533936652,
                    "y": 858.7873303167421
                }
            ]
        },
        {
            "id": "qAKi6bZ8I",
            "type": "RECTANGLE",
            "tags": [
                "amount_details"
            ],
            "boundingBox": {
                "height": 24.760180995475114,
                "width": 43.00452488687783,
                "left": 353.158371040724,
                "top": 892.6696832579186
            },
            "points": [
                {
                    "x": 353.158371040724,
                    "y": 892.6696832579186
                },
                {
                    "x": 396.1628959276018,
                    "y": 892.6696832579186
                },
                {
                    "x": 396.1628959276018,
                    "y": 917.4298642533937
                },
                {
                    "x": 353.158371040724,
                    "y": 917.4298642533937
                }
            ]
        },
        {
            "id": "MZglqv3mK",
            "type": "RECTANGLE",
            "tags": [
                "tax"
            ],
            "boundingBox": {
                "height": 11.728506787330318,
                "width": 23.457013574660635,
                "left": 207.20361990950227,
                "top": 879.6380090497738
            },
            "points": [
                {
                    "x": 207.20361990950227,
                    "y": 879.6380090497738
                },
                {
                    "x": 230.6606334841629,
                    "y": 879.6380090497738
                },
                {
                    "x": 230.6606334841629,
                    "y": 891.3665158371041
                },
                {
                    "x": 207.20361990950227,
                    "y": 891.3665158371041
                }
            ]
        },
        {
            "id": "F5EYgi3Rl",
            "type": "RECTANGLE",
            "tags": [
                "tax"
            ],
            "boundingBox": {
                "height": 11.728506787330318,
                "width": 39.09502262443439,
                "left": 357.0678733031674,
                "top": 880.9411764705883
            },
            "points": [
                {
                    "x": 357.0678733031674,
                    "y": 880.9411764705883
                },
                {
                    "x": 396.1628959276018,
                    "y": 880.9411764705883
                },
                {
                    "x": 396.1628959276018,
                    "y": 892.6696832579186
                },
                {
                    "x": 357.0678733031674,
                    "y": 892.6696832579186
                }
            ]
        }
    ],
    "version": "2.2.0"
}