{
    "asset": {
        "format": "jpg",
        "id": "a2aeb3f4c8e5a508964b21baead65dc5",
        "name": "02351-receipt.jpg",
        "path": "file:/home/administrator/ocr/Train-OCR/TrainYourOwnYOLO/Data/receipts_Source_Images/Train_receipt/02351-receipt.jpg",
        "size": {
            "width": 562,
            "height": 1000
        },
        "state": 2,
        "type": 1
    },
    "regions": [
        {
            "id": "eq0NbwK4D",
            "type": "RECTANGLE",
            "tags": [
                "Shop_Name"
            ],
            "boundingBox": {
                "height": 54.29864253393665,
                "width": 201.27967806841048,
                "left": 184.21189637826964,
                "top": 549.7737556561086
            },
            "points": [
                {
                    "x": 184.21189637826964,
                    "y": 549.7737556561086
                },
                {
                    "x": 385.4915744466801,
                    "y": 549.7737556561086
                },
                {
                    "x": 385.4915744466801,
                    "y": 604.0723981900452
                },
                {
                    "x": 184.21189637826964,
                    "y": 604.0723981900452
                }
            ]
        },
        {
            "id": "1xOImCdJG",
            "type": "RECTANGLE",
            "tags": [
                "Shop_Address"
            ],
            "boundingBox": {
                "height": 53.167420814479634,
                "width": 210.32595573440645,
                "left": 181.95032696177063,
                "top": 613.1221719457013
            },
            "points": [
                {
                    "x": 181.95032696177063,
                    "y": 613.1221719457013
                },
                {
                    "x": 392.2762826961771,
                    "y": 613.1221719457013
                },
                {
                    "x": 392.2762826961771,
                    "y": 666.289592760181
                },
                {
                    "x": 181.95032696177063,
                    "y": 666.289592760181
                }
            ]
        },
        {
            "id": "qS5W-Xw5n",
            "type": "RECTANGLE",
            "tags": [
                "Mobile_no"
            ],
            "boundingBox": {
                "height": 26.018099547511312,
                "width": 171.87927565392354,
                "left": 201.17366700201208,
                "top": 676.4705882352941
            },
            "points": [
                {
                    "x": 201.17366700201208,
                    "y": 676.4705882352941
                },
                {
                    "x": 373.0529426559356,
                    "y": 676.4705882352941
                },
                {
                    "x": 373.0529426559356,
                    "y": 702.4886877828054
                },
                {
                    "x": 201.17366700201208,
                    "y": 702.4886877828054
                }
            ]
        },
        {
            "id": "i67oLjrX_",
            "type": "RECTANGLE",
            "tags": [
                "Date"
            ],
            "boundingBox": {
                "height": 27.149321266968325,
                "width": 144.74044265593562,
                "left": 2.1555583501006037,
                "top": 748.868778280543
            },
            "points": [
                {
                    "x": 2.1555583501006037,
                    "y": 748.868778280543
                },
                {
                    "x": 146.89600100603622,
                    "y": 748.868778280543
                },
                {
                    "x": 146.89600100603622,
                    "y": 776.0180995475113
                },
                {
                    "x": 2.1555583501006037,
                    "y": 776.0180995475113
                }
            ]
        },
        {
            "id": "yR9r08nd7",
            "type": "RECTANGLE",
            "tags": [
                "Content_Items"
            ],
            "boundingBox": {
                "height": 173.07692307692307,
                "width": 494.1529175050302,
                "left": 38.34066901408451,
                "top": 826.9230769230769
            },
            "points": [
                {
                    "x": 38.34066901408451,
                    "y": 826.9230769230769
                },
                {
                    "x": 532.4935865191147,
                    "y": 826.9230769230769
                },
                {
                    "x": 532.4935865191147,
                    "y": 1000
                },
                {
                    "x": 38.34066901408451,
                    "y": 1000
                }
            ]
        }
    ],
    "version": "2.2.0"
}