{
    "asset": {
        "format": "jpg",
        "id": "a3d6190b98455213c45a2753c0d74c7d",
        "name": "01551-receipt.jpg",
        "path": "file:/home/administrator/ocr/Train-OCR/TrainYourOwnYOLO/Data/receipts_Source_Images/Train_receipt/01551-receipt.jpg",
        "size": {
            "width": 2448,
            "height": 3264
        },
        "state": 2,
        "type": 1
    },
    "regions": [
        {
            "id": "ZgaYcH7yw",
            "type": "RECTANGLE",
            "tags": [
                "Shop_Name"
            ],
            "boundingBox": {
                "height": 269.53846153846155,
                "width": 919.3846153846155,
                "left": 760.6153846153846,
                "top": 376.61538461538464
            },
            "points": [
                {
                    "x": 760.6153846153846,
                    "y": 376.61538461538464
                },
                {
                    "x": 1680,
                    "y": 376.61538461538464
                },
                {
                    "x": 1680,
                    "y": 646.1538461538462
                },
                {
                    "x": 760.6153846153846,
                    "y": 646.1538461538462
                }
            ]
        },
        {
            "id": "I4aa_QoS6",
            "type": "RECTANGLE",
            "tags": [
                "Shop_Address"
            ],
            "boundingBox": {
                "height": 169.84615384615387,
                "width": 612.9230769230769,
                "left": 882.4615384615386,
                "top": 631.3846153846155
            },
            "points": [
                {
                    "x": 882.4615384615386,
                    "y": 631.3846153846155
                },
                {
                    "x": 1495.3846153846155,
                    "y": 631.3846153846155
                },
                {
                    "x": 1495.3846153846155,
                    "y": 801.2307692307693
                },
                {
                    "x": 882.4615384615386,
                    "y": 801.2307692307693
                }
            ]
        },
        {
            "id": "eK3VJgV2R",
            "type": "RECTANGLE",
            "tags": [
                "Date"
            ],
            "boundingBox": {
                "height": 103.38461538461539,
                "width": 380.3076923076923,
                "left": 1192.6153846153848,
                "top": 893.5384615384615
            },
            "points": [
                {
                    "x": 1192.6153846153848,
                    "y": 893.5384615384615
                },
                {
                    "x": 1572.923076923077,
                    "y": 893.5384615384615
                },
                {
                    "x": 1572.923076923077,
                    "y": 996.923076923077
                },
                {
                    "x": 1192.6153846153848,
                    "y": 996.923076923077
                }
            ]
        },
        {
            "id": "tp7oPDZLf",
            "type": "RECTANGLE",
            "tags": [
                "Content_Items"
            ],
            "boundingBox": {
                "height": 409.84615384615387,
                "width": 1502.769230769231,
                "left": 395.0769230769231,
                "top": 1192.6153846153848
            },
            "points": [
                {
                    "x": 395.0769230769231,
                    "y": 1192.6153846153848
                },
                {
                    "x": 1897.846153846154,
                    "y": 1192.6153846153848
                },
                {
                    "x": 1897.846153846154,
                    "y": 1602.4615384615386
                },
                {
                    "x": 395.0769230769231,
                    "y": 1602.4615384615386
                }
            ]
        },
        {
            "id": "F3qSCX4qi",
            "type": "RECTANGLE",
            "tags": [
                "amount_details"
            ],
            "boundingBox": {
                "height": 88.61538461538461,
                "width": 276.92307692307696,
                "left": 1536,
                "top": 1694.769230769231
            },
            "points": [
                {
                    "x": 1536,
                    "y": 1694.769230769231
                },
                {
                    "x": 1812.9230769230771,
                    "y": 1694.769230769231
                },
                {
                    "x": 1812.9230769230771,
                    "y": 1783.3846153846155
                },
                {
                    "x": 1536,
                    "y": 1783.3846153846155
                }
            ]
        }
    ],
    "version": "2.2.0"
}