{
    "asset": {
        "format": "jpg",
        "id": "a57b511c0106d641c51c0497a2149859",
        "name": "02407-receipt.jpg",
        "path": "file:/home/administrator/ocr/Train-OCR/TrainYourOwnYOLO/Data/receipts_Source_Images/Train_receipt/02407-receipt.jpg",
        "size": {
            "width": 348,
            "height": 348
        },
        "state": 2,
        "type": 1
    },
    "regions": [
        {
            "id": "MMMziayIt",
            "type": "RECTANGLE",
            "tags": [
                "Mobile_no"
            ],
            "boundingBox": {
                "height": 11.416289592760181,
                "width": 68.10407239819004,
                "left": 138.3733031674208,
                "top": 2.755656108597285
            },
            "points": [
                {
                    "x": 138.3733031674208,
                    "y": 2.755656108597285
                },
                {
                    "x": 206.47737556561086,
                    "y": 2.755656108597285
                },
                {
                    "x": 206.47737556561086,
                    "y": 14.171945701357465
                },
                {
                    "x": 138.3733031674208,
                    "y": 14.171945701357465
                }
            ]
        },
        {
            "id": "jAPunknOq",
            "type": "RECTANGLE",
            "tags": [
                "Shop_Name"
            ],
            "boundingBox": {
                "height": 21.651583710407238,
                "width": 163.5678733031674,
                "left": 88.77149321266968,
                "top": 10.628959276018099
            },
            "points": [
                {
                    "x": 88.77149321266968,
                    "y": 10.628959276018099
                },
                {
                    "x": 252.3393665158371,
                    "y": 10.628959276018099
                },
                {
                    "x": 252.3393665158371,
                    "y": 32.28054298642534
                },
                {
                    "x": 88.77149321266968,
                    "y": 32.28054298642534
                }
            ]
        },
        {
            "id": "XxvUKWTn5",
            "type": "RECTANGLE",
            "tags": [
                "Content_Items"
            ],
            "boundingBox": {
                "height": 51.963800904977376,
                "width": 204.31221719457014,
                "left": 65.93891402714932,
                "top": 114.16289592760181
            },
            "points": [
                {
                    "x": 65.93891402714932,
                    "y": 114.16289592760181
                },
                {
                    "x": 270.25113122171945,
                    "y": 114.16289592760181
                },
                {
                    "x": 270.25113122171945,
                    "y": 166.12669683257917
                },
                {
                    "x": 65.93891402714932,
                    "y": 166.12669683257917
                }
            ]
        },
        {
            "id": "bKQRS_iO6",
            "type": "RECTANGLE",
            "tags": [
                "amount_details"
            ],
            "boundingBox": {
                "height": 14.959276018099548,
                "width": 70.46606334841628,
                "left": 217.5,
                "top": 216.12217194570135
            },
            "points": [
                {
                    "x": 217.5,
                    "y": 216.12217194570135
                },
                {
                    "x": 287.9660633484163,
                    "y": 216.12217194570135
                },
                {
                    "x": 287.9660633484163,
                    "y": 231.0814479638009
                },
                {
                    "x": 217.5,
                    "y": 231.0814479638009
                }
            ]
        },
        {
            "id": "osk69VYgh",
            "type": "RECTANGLE",
            "tags": [
                "Date"
            ],
            "boundingBox": {
                "height": 12.990950226244344,
                "width": 51.57013574660633,
                "left": 116.72171945701358,
                "top": 86.60633484162895
            },
            "points": [
                {
                    "x": 116.72171945701358,
                    "y": 86.60633484162895
                },
                {
                    "x": 168.29185520361992,
                    "y": 86.60633484162895
                },
                {
                    "x": 168.29185520361992,
                    "y": 99.5972850678733
                },
                {
                    "x": 116.72171945701358,
                    "y": 99.5972850678733
                }
            ]
        }
    ],
    "version": "2.2.0"
}