{
    "asset": {
        "format": "jpg",
        "id": "a5cabaed4da6998fc41a14f12059a019",
        "name": "PHOTO-2020-07-14-11-14-23.jpg",
        "path": "file:/home/administrator/ocr/Train-OCR/TrainYourOwnYOLO/Data/receipts_Source_Images/Train_receipt/PHOTO-2020-07-14-11-14-23.jpg",
        "size": {
            "width": 796,
            "height": 1280
        },
        "state": 2,
        "type": 1
    },
    "regions": [
        {
            "id": "0Bx60eelb",
            "type": "RECTANGLE",
            "tags": [
                "Shop_Name"
            ],
            "boundingBox": {
                "height": 89.77375565610859,
                "width": 335.7672727272727,
                "left": 262.4990909090909,
                "top": 191.13122171945702
            },
            "points": [
                {
                    "x": 262.4990909090909,
                    "y": 191.13122171945702
                },
                {
                    "x": 598.2663636363636,
                    "y": 191.13122171945702
                },
                {
                    "x": 598.2663636363636,
                    "y": 280.9049773755656
                },
                {
                    "x": 262.4990909090909,
                    "y": 280.9049773755656
                }
            ]
        },
        {
            "id": "yqp2WghMn",
            "type": "RECTANGLE",
            "tags": [
                "Content_Items"
            ],
            "boundingBox": {
                "height": 70.9502262443439,
                "width": 357.47636363636366,
                "left": 246.5790909090909,
                "top": 373.57466063348414
            },
            "points": [
                {
                    "x": 246.5790909090909,
                    "y": 373.57466063348414
                },
                {
                    "x": 604.0554545454545,
                    "y": 373.57466063348414
                },
                {
                    "x": 604.0554545454545,
                    "y": 444.52488687782807
                },
                {
                    "x": 246.5790909090909,
                    "y": 444.52488687782807
                }
            ]
        },
        {
            "id": "fHjaK_JDR",
            "type": "RECTANGLE",
            "tags": [
                "amount_details"
            ],
            "boundingBox": {
                "height": 24.615384615384613,
                "width": 50.654545454545456,
                "left": 536.0336363636363,
                "top": 498.0995475113122
            },
            "points": [
                {
                    "x": 536.0336363636363,
                    "y": 498.0995475113122
                },
                {
                    "x": 586.6881818181818,
                    "y": 498.0995475113122
                },
                {
                    "x": 586.6881818181818,
                    "y": 522.7149321266968
                },
                {
                    "x": 536.0336363636363,
                    "y": 522.7149321266968
                }
            ]
        },
        {
            "id": "1hmV_hgD2",
            "type": "RECTANGLE",
            "tags": [
                "tax"
            ],
            "boundingBox": {
                "height": 26.063348416289593,
                "width": 47.76,
                "left": 540.3754545454545,
                "top": 469.14027149321265
            },
            "points": [
                {
                    "x": 540.3754545454545,
                    "y": 469.14027149321265
                },
                {
                    "x": 588.1354545454545,
                    "y": 469.14027149321265
                },
                {
                    "x": 588.1354545454545,
                    "y": 495.20361990950227
                },
                {
                    "x": 540.3754545454545,
                    "y": 495.20361990950227
                }
            ]
        },
        {
            "id": "_T9TDZFoa",
            "type": "RECTANGLE",
            "tags": [
                "Date"
            ],
            "boundingBox": {
                "height": 30.407239819004523,
                "width": 85.38909090909091,
                "left": 323.2845454545455,
                "top": 806.5158371040724
            },
            "points": [
                {
                    "x": 323.2845454545455,
                    "y": 806.5158371040724
                },
                {
                    "x": 408.6736363636364,
                    "y": 806.5158371040724
                },
                {
                    "x": 408.6736363636364,
                    "y": 836.9230769230769
                },
                {
                    "x": 323.2845454545455,
                    "y": 836.9230769230769
                }
            ]
        }
    ],
    "version": "2.2.0"
}