{
    "asset": {
        "format": "jpg",
        "id": "a7fdfbdf0076aacfb08bf878bbfe66da",
        "name": "08585-receipt.jpg",
        "path": "file:/home/administrator/ocr/Train-OCR/TrainYourOwnYOLO/Data/receipts_Source_Images/Train_receipt/08585-receipt.jpg",
        "size": {
            "width": 450,
            "height": 450
        },
        "state": 2,
        "type": 1
    },
    "regions": [
        {
            "id": "I3iOzeU0S",
            "type": "RECTANGLE",
            "tags": [
                "Shop_Name"
            ],
            "boundingBox": {
                "height": 14.762443438914026,
                "width": 92.6470588235294,
                "left": 140.7522624434389,
                "top": 75.84841628959276
            },
            "points": [
                {
                    "x": 140.7522624434389,
                    "y": 75.84841628959276
                },
                {
                    "x": 233.39932126696831,
                    "y": 75.84841628959276
                },
                {
                    "x": 233.39932126696831,
                    "y": 90.61085972850678
                },
                {
                    "x": 140.7522624434389,
                    "y": 90.61085972850678
                }
            ]
        },
        {
            "id": "LZGca44YA",
            "type": "RECTANGLE",
            "tags": [
                "Shop_Address"
            ],
            "boundingBox": {
                "height": 20.361990950226243,
                "width": 104.3552036199095,
                "left": 136.170814479638,
                "top": 88.57466063348416
            },
            "points": [
                {
                    "x": 136.170814479638,
                    "y": 88.57466063348416
                },
                {
                    "x": 240.52601809954749,
                    "y": 88.57466063348416
                },
                {
                    "x": 240.52601809954749,
                    "y": 108.9366515837104
                },
                {
                    "x": 136.170814479638,
                    "y": 108.9366515837104
                }
            ]
        },
        {
            "id": "yv0f8sUcu",
            "type": "RECTANGLE",
            "tags": [
                "Mobile_no"
            ],
            "boundingBox": {
                "height": 13.744343891402714,
                "width": 74.83031674208144,
                "left": 166.71380090497738,
                "top": 108.9366515837104
            },
            "points": [
                {
                    "x": 166.71380090497738,
                    "y": 108.9366515837104
                },
                {
                    "x": 241.5441176470588,
                    "y": 108.9366515837104
                },
                {
                    "x": 241.5441176470588,
                    "y": 122.68099547511312
                },
                {
                    "x": 166.71380090497738,
                    "y": 122.68099547511312
                }
            ]
        },
        {
            "id": "aVDNgyXw9",
            "type": "RECTANGLE",
            "tags": [
                "Date"
            ],
            "boundingBox": {
                "height": 10.690045248868778,
                "width": 57.01357466063348,
                "left": 141.77036199095022,
                "top": 154.75113122171945
            },
            "points": [
                {
                    "x": 141.77036199095022,
                    "y": 154.75113122171945
                },
                {
                    "x": 198.7839366515837,
                    "y": 154.75113122171945
                },
                {
                    "x": 198.7839366515837,
                    "y": 165.44117647058823
                },
                {
                    "x": 141.77036199095022,
                    "y": 165.44117647058823
                }
            ]
        },
        {
            "id": "rO4eEO83g",
            "type": "RECTANGLE",
            "tags": [
                "Content_Items"
            ],
            "boundingBox": {
                "height": 71.77601809954751,
                "width": 218.38235294117646,
                "left": 84.75678733031674,
                "top": 225
            },
            "points": [
                {
                    "x": 84.75678733031674,
                    "y": 225
                },
                {
                    "x": 303.1391402714932,
                    "y": 225
                },
                {
                    "x": 303.1391402714932,
                    "y": 296.7760180995475
                },
                {
                    "x": 84.75678733031674,
                    "y": 296.7760180995475
                }
            ]
        },
        {
            "id": "jpuRmLfws",
            "type": "RECTANGLE",
            "tags": [
                "Content_Items"
            ],
            "boundingBox": {
                "height": 31.05203619909502,
                "width": 101.30090497737555,
                "left": 201.83823529411762,
                "top": 308.48416289592757
            },
            "points": [
                {
                    "x": 201.83823529411762,
                    "y": 308.48416289592757
                },
                {
                    "x": 303.1391402714932,
                    "y": 308.48416289592757
                },
                {
                    "x": 303.1391402714932,
                    "y": 339.5361990950226
                },
                {
                    "x": 201.83823529411762,
                    "y": 339.5361990950226
                }
            ]
        },
        {
            "id": "t7kMTMnfo",
            "type": "RECTANGLE",
            "tags": [
                "tax"
            ],
            "boundingBox": {
                "height": 18.834841628959275,
                "width": 29.524886877828052,
                "left": 194.71153846153845,
                "top": 372.1153846153846
            },
            "points": [
                {
                    "x": 194.71153846153845,
                    "y": 372.1153846153846
                },
                {
                    "x": 224.2364253393665,
                    "y": 372.1153846153846
                },
                {
                    "x": 224.2364253393665,
                    "y": 390.95022624434387
                },
                {
                    "x": 194.71153846153845,
                    "y": 390.95022624434387
                }
            ]
        }
    ],
    "version": "2.2.0"
}