{
    "asset": {
        "format": "jpg",
        "id": "a8ccd81589b48e4efe5ce3ec8f03c4bb",
        "name": "00080-receipt.jpg",
        "path": "file:/home/administrator/ocr/Train-OCR/TrainYourOwnYOLO/Data/receipts_Source_Images/Train_receipt/00080-receipt.jpg",
        "size": {
            "width": 750,
            "height": 1000
        },
        "state": 2,
        "type": 1
    },
    "regions": [
        {
            "id": "FxqIlJyhT",
            "type": "RECTANGLE",
            "tags": [
                "Shop_Name"
            ],
            "boundingBox": {
                "height": 26.018099547511312,
                "width": 228.50678733031674,
                "left": 301.4705882352941,
                "top": 132.35294117647058
            },
            "points": [
                {
                    "x": 301.4705882352941,
                    "y": 132.35294117647058
                },
                {
                    "x": 529.9773755656108,
                    "y": 132.35294117647058
                },
                {
                    "x": 529.9773755656108,
                    "y": 158.3710407239819
                },
                {
                    "x": 301.4705882352941,
                    "y": 158.3710407239819
                }
            ]
        },
        {
            "id": "9nMy3ASVW",
            "type": "RECTANGLE",
            "tags": [
                "Date"
            ],
            "boundingBox": {
                "height": 35.06787330316742,
                "width": 108.5972850678733,
                "left": 196.26696832579185,
                "top": 618.7782805429864
            },
            "points": [
                {
                    "x": 196.26696832579185,
                    "y": 618.7782805429864
                },
                {
                    "x": 304.86425339366514,
                    "y": 618.7782805429864
                },
                {
                    "x": 304.86425339366514,
                    "y": 653.8461538461538
                },
                {
                    "x": 196.26696832579185,
                    "y": 653.8461538461538
                }
            ]
        },
        {
            "id": "Q2mEBpQte",
            "type": "POLYGON",
            "tags": [
                "Shop_Address"
            ],
            "boundingBox": {
                "height": 66.7420814479638,
                "width": 334.841628959276,
                "left": 237.55656108597285,
                "top": 142.5339366515837
            },
            "points": [
                {
                    "x": 237.55656108597285,
                    "y": 165.15837104072398
                },
                {
                    "x": 572.3981900452488,
                    "y": 142.5339366515837
                },
                {
                    "x": 572.3981900452488,
                    "y": 185.52036199095022
                },
                {
                    "x": 245.47511312217193,
                    "y": 209.2760180995475
                }
            ]
        },
        {
            "id": "tdGshZ3pV",
            "type": "POLYGON",
            "tags": [
                "Mobile_no"
            ],
            "boundingBox": {
                "height": 33.93665158371041,
                "width": 147.05882352941177,
                "left": 338.2352941176471,
                "top": 185.52036199095022
            },
            "points": [
                {
                    "x": 340.4977375565611,
                    "y": 219.45701357466064
                },
                {
                    "x": 485.29411764705884,
                    "y": 214.93212669683257
                },
                {
                    "x": 476.2443438914027,
                    "y": 185.52036199095022
                },
                {
                    "x": 338.2352941176471,
                    "y": 195.70135746606334
                }
            ]
        },
        {
            "id": "NAdd5iJ6_",
            "type": "RECTANGLE",
            "tags": [
                "amount_details"
            ],
            "boundingBox": {
                "height": 57.69230769230769,
                "width": 207.01357466063348,
                "left": 434.3891402714932,
                "top": 529.4117647058823
            },
            "points": [
                {
                    "x": 434.3891402714932,
                    "y": 529.4117647058823
                },
                {
                    "x": 641.4027149321266,
                    "y": 529.4117647058823
                },
                {
                    "x": 641.4027149321266,
                    "y": 587.10407239819
                },
                {
                    "x": 434.3891402714932,
                    "y": 587.10407239819
                }
            ]
        }
    ],
    "version": "2.2.0"
}