{
    "asset": {
        "format": "jpg",
        "id": "a97a4f7797c6f2c90235e69c394e78d2",
        "name": "02330-receipt.jpg",
        "path": "file:/home/administrator/ocr/Train-OCR/TrainYourOwnYOLO/Data/receipts_Source_Images/Train_receipt/02330-receipt.jpg",
        "size": {
            "width": 348,
            "height": 348
        },
        "state": 2,
        "type": 1
    },
    "regions": [
        {
            "id": "i_vFZXCR7",
            "type": "RECTANGLE",
            "tags": [
                "Shop_Name"
            ],
            "boundingBox": {
                "height": 11.02262443438914,
                "width": 64.56108597285068,
                "left": 106.48642533936652,
                "top": 122.8235294117647
            },
            "points": [
                {
                    "x": 106.48642533936652,
                    "y": 122.8235294117647
                },
                {
                    "x": 171.04751131221718,
                    "y": 122.8235294117647
                },
                {
                    "x": 171.04751131221718,
                    "y": 133.84615384615384
                },
                {
                    "x": 106.48642533936652,
                    "y": 133.84615384615384
                }
            ]
        },
        {
            "id": "JbdQ3Cpj5",
            "type": "RECTANGLE",
            "tags": [
                "Mobile_no"
            ],
            "boundingBox": {
                "height": 9.841628959276019,
                "width": 72.04072398190046,
                "left": 102.94343891402714,
                "top": 139.35746606334843
            },
            "points": [
                {
                    "x": 102.94343891402714,
                    "y": 139.35746606334843
                },
                {
                    "x": 174.9841628959276,
                    "y": 139.35746606334843
                },
                {
                    "x": 174.9841628959276,
                    "y": 149.19909502262442
                },
                {
                    "x": 102.94343891402714,
                    "y": 149.19909502262442
                }
            ]
        },
        {
            "id": "9-ULbQTIJ",
            "type": "RECTANGLE",
            "tags": [
                "Content_Items"
            ],
            "boundingBox": {
                "height": 38.97285067873303,
                "width": 105.10859728506787,
                "left": 89.9524886877828,
                "top": 188.5656108597285
            },
            "points": [
                {
                    "x": 89.9524886877828,
                    "y": 188.5656108597285
                },
                {
                    "x": 195.06108597285066,
                    "y": 188.5656108597285
                },
                {
                    "x": 195.06108597285066,
                    "y": 227.53846153846152
                },
                {
                    "x": 89.9524886877828,
                    "y": 227.53846153846152
                }
            ]
        },
        {
            "id": "dxm3T749-",
            "type": "RECTANGLE",
            "tags": [
                "amount_details"
            ],
            "boundingBox": {
                "height": 7.873303167420814,
                "width": 33.06787330316742,
                "left": 164.74886877828052,
                "top": 258.2443438914027
            },
            "points": [
                {
                    "x": 164.74886877828052,
                    "y": 258.2443438914027
                },
                {
                    "x": 197.81674208144796,
                    "y": 258.2443438914027
                },
                {
                    "x": 197.81674208144796,
                    "y": 266.11764705882354
                },
                {
                    "x": 164.74886877828052,
                    "y": 266.11764705882354
                }
            ]
        }
    ],
    "version": "2.2.0"
}