{
    "asset": {
        "format": "jpg",
        "id": "aa892643659a2653626cb98c15536d23",
        "name": "02568-receipt.jpg",
        "path": "file:/home/administrator/ocr/Train-OCR/TrainYourOwnYOLO/Data/receipts_Source_Images/Train_receipt/02568-receipt.jpg",
        "size": {
            "width": 477,
            "height": 1200
        },
        "state": 2,
        "type": 1
    },
    "regions": [
        {
            "id": "P6a2bXo36",
            "type": "RECTANGLE",
            "tags": [
                "Shop_Name"
            ],
            "boundingBox": {
                "height": 40.72398190045249,
                "width": 92.41025641025641,
                "left": 204.12219551282053,
                "top": 73.30316742081449
            },
            "points": [
                {
                    "x": 204.12219551282053,
                    "y": 73.30316742081449
                },
                {
                    "x": 296.53245192307696,
                    "y": 73.30316742081449
                },
                {
                    "x": 296.53245192307696,
                    "y": 114.02714932126698
                },
                {
                    "x": 204.12219551282053,
                    "y": 114.02714932126698
                }
            ]
        },
        {
            "id": "SKPcDT9Kx",
            "type": "RECTANGLE",
            "tags": [
                "Shop_Address"
            ],
            "boundingBox": {
                "height": 74.6606334841629,
                "width": 383.2307692307692,
                "left": 50.55809294871795,
                "top": 116.74208144796381
            },
            "points": [
                {
                    "x": 50.55809294871795,
                    "y": 116.74208144796381
                },
                {
                    "x": 433.7888621794872,
                    "y": 116.74208144796381
                },
                {
                    "x": 433.7888621794872,
                    "y": 191.4027149321267
                },
                {
                    "x": 50.55809294871795,
                    "y": 191.4027149321267
                }
            ]
        },
        {
            "id": "0hVO-B5Be",
            "type": "RECTANGLE",
            "tags": [
                "Mobile_no"
            ],
            "boundingBox": {
                "height": 31.221719457013577,
                "width": 354.6923076923077,
                "left": 108.99399038461539,
                "top": 327.14932126696834
            },
            "points": [
                {
                    "x": 108.99399038461539,
                    "y": 327.14932126696834
                },
                {
                    "x": 463.6862980769231,
                    "y": 327.14932126696834
                },
                {
                    "x": 463.6862980769231,
                    "y": 358.37104072398193
                },
                {
                    "x": 108.99399038461539,
                    "y": 358.37104072398193
                }
            ]
        },
        {
            "id": "_Ogin9oUQ",
            "type": "RECTANGLE",
            "tags": [
                "Date"
            ],
            "boundingBox": {
                "height": 25.79185520361991,
                "width": 104.64102564102565,
                "left": 125.3016826923077,
                "top": 454.7511312217195
            },
            "points": [
                {
                    "x": 125.3016826923077,
                    "y": 454.7511312217195
                },
                {
                    "x": 229.94270833333334,
                    "y": 454.7511312217195
                },
                {
                    "x": 229.94270833333334,
                    "y": 480.5429864253394
                },
                {
                    "x": 125.3016826923077,
                    "y": 480.5429864253394
                }
            ]
        },
        {
            "id": "3aaAR1ol4",
            "type": "RECTANGLE",
            "tags": [
                "Content_Items"
            ],
            "boundingBox": {
                "height": 248.4162895927602,
                "width": 425.35897435897436,
                "left": 46.481169871794876,
                "top": 566.0633484162896
            },
            "points": [
                {
                    "x": 46.481169871794876,
                    "y": 566.0633484162896
                },
                {
                    "x": 471.8401442307692,
                    "y": 566.0633484162896
                },
                {
                    "x": 471.8401442307692,
                    "y": 814.4796380090498
                },
                {
                    "x": 46.481169871794876,
                    "y": 814.4796380090498
                }
            ]
        },
        {
            "id": "ZEaDGiVd3",
            "type": "RECTANGLE",
            "tags": [
                "amount_details"
            ],
            "boundingBox": {
                "height": 33.93665158371041,
                "width": 97.84615384615385,
                "left": 354.96834935897436,
                "top": 933.9366515837105
            },
            "points": [
                {
                    "x": 354.96834935897436,
                    "y": 933.9366515837105
                },
                {
                    "x": 452.81450320512823,
                    "y": 933.9366515837105
                },
                {
                    "x": 452.81450320512823,
                    "y": 967.8733031674209
                },
                {
                    "x": 354.96834935897436,
                    "y": 967.8733031674209
                }
            ]
        },
        {
            "id": "tWo-eTnER",
            "type": "RECTANGLE",
            "tags": [
                "tax"
            ],
            "boundingBox": {
                "height": 50.2262443438914,
                "width": 152.2051282051282,
                "left": 50.55809294871795,
                "top": 861.9909502262444
            },
            "points": [
                {
                    "x": 50.55809294871795,
                    "y": 861.9909502262444
                },
                {
                    "x": 202.76322115384616,
                    "y": 861.9909502262444
                },
                {
                    "x": 202.76322115384616,
                    "y": 912.2171945701358
                },
                {
                    "x": 50.55809294871795,
                    "y": 912.2171945701358
                }
            ]
        },
        {
            "id": "CfXklmzoM",
            "type": "RECTANGLE",
            "tags": [
                "tax"
            ],
            "boundingBox": {
                "height": 47.51131221719457,
                "width": 88.33333333333334,
                "left": 383.5068108974359,
                "top": 863.3484162895928
            },
            "points": [
                {
                    "x": 383.5068108974359,
                    "y": 863.3484162895928
                },
                {
                    "x": 471.8401442307692,
                    "y": 863.3484162895928
                },
                {
                    "x": 471.8401442307692,
                    "y": 910.8597285067874
                },
                {
                    "x": 383.5068108974359,
                    "y": 910.8597285067874
                }
            ]
        }
    ],
    "version": "2.2.0"
}