{
    "asset": {
        "format": "jpg",
        "id": "abf2ba617f61ecd5d9cb6087b304956f",
        "name": "09492-receipt.jpg",
        "path": "file:/home/administrator/ocr/Train-OCR/TrainYourOwnYOLO/Data/receipts_Source_Images/Train_receipt/09492-receipt.jpg",
        "size": {
            "width": 338,
            "height": 450
        },
        "state": 2,
        "type": 1
    },
    "regions": [
        {
            "id": "nL4S8TCpj",
            "type": "RECTANGLE",
            "tags": [
                "Shop_Name"
            ],
            "boundingBox": {
                "height": 30.542986425339365,
                "width": 68.21084337349397,
                "left": 141.00301204819277,
                "top": 71.26696832579185
            },
            "points": [
                {
                    "x": 141.00301204819277,
                    "y": 71.26696832579185
                },
                {
                    "x": 209.21385542168676,
                    "y": 71.26696832579185
                },
                {
                    "x": 209.21385542168676,
                    "y": 101.80995475113122
                },
                {
                    "x": 141.00301204819277,
                    "y": 101.80995475113122
                }
            ]
        },
        {
            "id": "HUY0adz1R",
            "type": "RECTANGLE",
            "tags": [
                "Shop_Address"
            ],
            "boundingBox": {
                "height": 21.88914027149321,
                "width": 79.40963855421687,
                "left": 134.89457831325302,
                "top": 100.7918552036199
            },
            "points": [
                {
                    "x": 134.89457831325302,
                    "y": 100.7918552036199
                },
                {
                    "x": 214.30421686746988,
                    "y": 100.7918552036199
                },
                {
                    "x": 214.30421686746988,
                    "y": 122.68099547511312
                },
                {
                    "x": 134.89457831325302,
                    "y": 122.68099547511312
                }
            ]
        },
        {
            "id": "mNDT_vXFn",
            "type": "RECTANGLE",
            "tags": [
                "Mobile_no"
            ],
            "boundingBox": {
                "height": 16.289592760180994,
                "width": 61.08433734939759,
                "left": 162.89156626506025,
                "top": 122.17194570135746
            },
            "points": [
                {
                    "x": 162.89156626506025,
                    "y": 122.17194570135746
                },
                {
                    "x": 223.97590361445782,
                    "y": 122.17194570135746
                },
                {
                    "x": 223.97590361445782,
                    "y": 138.46153846153845
                },
                {
                    "x": 162.89156626506025,
                    "y": 138.46153846153845
                }
            ]
        },
        {
            "id": "6oPWukACr",
            "type": "RECTANGLE",
            "tags": [
                "Date"
            ],
            "boundingBox": {
                "height": 16.79864253393665,
                "width": 50.903614457831324,
                "left": 159.83734939759037,
                "top": 153.73303167420812
            },
            "points": [
                {
                    "x": 159.83734939759037,
                    "y": 153.73303167420812
                },
                {
                    "x": 210.74096385542168,
                    "y": 153.73303167420812
                },
                {
                    "x": 210.74096385542168,
                    "y": 170.53167420814478
                },
                {
                    "x": 159.83734939759037,
                    "y": 170.53167420814478
                }
            ]
        },
        {
            "id": "1PRUCqhYG",
            "type": "RECTANGLE",
            "tags": [
                "Content_Items"
            ],
            "boundingBox": {
                "height": 110.97285067873302,
                "width": 189.36144578313252,
                "left": 74.82831325301206,
                "top": 200.5656108597285
            },
            "points": [
                {
                    "x": 74.82831325301206,
                    "y": 200.5656108597285
                },
                {
                    "x": 264.18975903614455,
                    "y": 200.5656108597285
                },
                {
                    "x": 264.18975903614455,
                    "y": 311.53846153846155
                },
                {
                    "x": 74.82831325301206,
                    "y": 311.53846153846155
                }
            ]
        },
        {
            "id": "6eYMphDqF",
            "type": "RECTANGLE",
            "tags": [
                "tax"
            ],
            "boundingBox": {
                "height": 14.25339366515837,
                "width": 29.52409638554217,
                "left": 223.97590361445782,
                "top": 320.7013574660633
            },
            "points": [
                {
                    "x": 223.97590361445782,
                    "y": 320.7013574660633
                },
                {
                    "x": 253.5,
                    "y": 320.7013574660633
                },
                {
                    "x": 253.5,
                    "y": 334.9547511312217
                },
                {
                    "x": 223.97590361445782,
                    "y": 334.9547511312217
                }
            ]
        },
        {
            "id": "1Q7jOqNxk",
            "type": "RECTANGLE",
            "tags": [
                "tax"
            ],
            "boundingBox": {
                "height": 14.762443438914026,
                "width": 91.11746987951807,
                "left": 145.07530120481928,
                "top": 344.11764705882354
            },
            "points": [
                {
                    "x": 145.07530120481928,
                    "y": 344.11764705882354
                },
                {
                    "x": 236.19277108433735,
                    "y": 344.11764705882354
                },
                {
                    "x": 236.19277108433735,
                    "y": 358.8800904977375
                },
                {
                    "x": 145.07530120481928,
                    "y": 358.8800904977375
                }
            ]
        }
    ],
    "version": "2.2.0"
}