{
    "asset": {
        "format": "jpg",
        "id": "ac75f087f4f615f8151c1756ba5dd986",
        "name": "00038-receipt.jpg",
        "path": "file:/home/administrator/ocr/Train-OCR/TrainYourOwnYOLO/Data/receipts_Source_Images/Train_receipt/00038-receipt.jpg",
        "size": {
            "width": 750,
            "height": 1000
        },
        "state": 2,
        "type": 1
    },
    "regions": [
        {
            "id": "5TIR0iBdp",
            "type": "RECTANGLE",
            "tags": [
                "Shop_Name"
            ],
            "boundingBox": {
                "height": 44.11764705882353,
                "width": 540.7239819004525,
                "left": 87.66968325791855,
                "top": 102.94117647058823
            },
            "points": [
                {
                    "x": 87.66968325791855,
                    "y": 102.94117647058823
                },
                {
                    "x": 628.393665158371,
                    "y": 102.94117647058823
                },
                {
                    "x": 628.393665158371,
                    "y": 147.05882352941177
                },
                {
                    "x": 87.66968325791855,
                    "y": 147.05882352941177
                }
            ]
        },
        {
            "id": "muDS6oWp8",
            "type": "RECTANGLE",
            "tags": [
                "Date"
            ],
            "boundingBox": {
                "height": 39.59276018099548,
                "width": 131.22171945701356,
                "left": 455.31674208144796,
                "top": 245.47511312217193
            },
            "points": [
                {
                    "x": 455.31674208144796,
                    "y": 245.47511312217193
                },
                {
                    "x": 586.5384615384615,
                    "y": 245.47511312217193
                },
                {
                    "x": 586.5384615384615,
                    "y": 285.0678733031674
                },
                {
                    "x": 455.31674208144796,
                    "y": 285.0678733031674
                }
            ]
        },
        {
            "id": "nTZEZJfLf",
            "type": "RECTANGLE",
            "tags": [
                "amount_details",
                "Content_Items"
            ],
            "boundingBox": {
                "height": 39.59276018099548,
                "width": 126.13122171945702,
                "left": 479.63800904977376,
                "top": 507.91855203619906
            },
            "points": [
                {
                    "x": 479.63800904977376,
                    "y": 507.91855203619906
                },
                {
                    "x": 605.7692307692307,
                    "y": 507.91855203619906
                },
                {
                    "x": 605.7692307692307,
                    "y": 547.5113122171946
                },
                {
                    "x": 479.63800904977376,
                    "y": 547.5113122171946
                }
            ]
        },
        {
            "id": "5NGr7hTBM",
            "type": "RECTANGLE",
            "tags": [
                "Content_Items"
            ],
            "boundingBox": {
                "height": 72.39819004524887,
                "width": 565.6108597285067,
                "left": 62.782805429864254,
                "top": 315.6108597285068
            },
            "points": [
                {
                    "x": 62.782805429864254,
                    "y": 315.6108597285068
                },
                {
                    "x": 628.393665158371,
                    "y": 315.6108597285068
                },
                {
                    "x": 628.393665158371,
                    "y": 388.00904977375563
                },
                {
                    "x": 62.782805429864254,
                    "y": 388.00904977375563
                }
            ]
        },
        {
            "id": "1QXENpdG7",
            "type": "RECTANGLE",
            "tags": [
                "tax"
            ],
            "boundingBox": {
                "height": 66.7420814479638,
                "width": 328.0542986425339,
                "left": 287.33031674208144,
                "top": 440.0452488687783
            },
            "points": [
                {
                    "x": 287.33031674208144,
                    "y": 440.0452488687783
                },
                {
                    "x": 615.3846153846154,
                    "y": 440.0452488687783
                },
                {
                    "x": 615.3846153846154,
                    "y": 506.7873303167421
                },
                {
                    "x": 287.33031674208144,
                    "y": 506.7873303167421
                }
            ]
        }
    ],
    "version": "2.2.0"
}