{
    "asset": {
        "format": "jpg",
        "id": "acc330b518759ac9334b63dffa8ce5c0",
        "name": "02373-receipt.jpg",
        "path": "file:/home/administrator/ocr/Train-OCR/TrainYourOwnYOLO/Data/receipts_Source_Images/Train_receipt/02373-receipt.jpg",
        "size": {
            "width": 750,
            "height": 1000
        },
        "state": 2,
        "type": 1
    },
    "regions": [
        {
            "id": "gk1_7tLjn",
            "type": "RECTANGLE",
            "tags": [
                "Shop_Name"
            ],
            "boundingBox": {
                "height": 27.149321266968325,
                "width": 220.58823529411768,
                "left": 243.21266968325787,
                "top": 124.43438914027149
            },
            "points": [
                {
                    "x": 243.21266968325787,
                    "y": 124.43438914027149
                },
                {
                    "x": 463.8009049773756,
                    "y": 124.43438914027149
                },
                {
                    "x": 463.8009049773756,
                    "y": 151.5837104072398
                },
                {
                    "x": 243.21266968325787,
                    "y": 151.5837104072398
                }
            ]
        },
        {
            "id": "BN9p1XgLq",
            "type": "RECTANGLE",
            "tags": [
                "Shop_Address"
            ],
            "boundingBox": {
                "height": 28.28054298642534,
                "width": 315.6108597285068,
                "left": 196.83257918552036,
                "top": 148.19004524886878
            },
            "points": [
                {
                    "x": 196.83257918552036,
                    "y": 148.19004524886878
                },
                {
                    "x": 512.4434389140272,
                    "y": 148.19004524886878
                },
                {
                    "x": 512.4434389140272,
                    "y": 176.47058823529412
                },
                {
                    "x": 196.83257918552036,
                    "y": 176.47058823529412
                }
            ]
        },
        {
            "id": "nDvG_vKg6",
            "type": "RECTANGLE",
            "tags": [
                "Mobile_no"
            ],
            "boundingBox": {
                "height": 22.62443438914027,
                "width": 121.04072398190046,
                "left": 294.11764705882354,
                "top": 187.78280542986425
            },
            "points": [
                {
                    "x": 294.11764705882354,
                    "y": 187.78280542986425
                },
                {
                    "x": 415.158371040724,
                    "y": 187.78280542986425
                },
                {
                    "x": 415.158371040724,
                    "y": 210.40723981900453
                },
                {
                    "x": 294.11764705882354,
                    "y": 210.40723981900453
                }
            ]
        },
        {
            "id": "i2CBTeLIs",
            "type": "RECTANGLE",
            "tags": [
                "Content_Items"
            ],
            "boundingBox": {
                "height": 134.6153846153846,
                "width": 290.7239819004525,
                "left": 227.37556561085972,
                "top": 285.0678733031674
            },
            "points": [
                {
                    "x": 227.37556561085972,
                    "y": 285.0678733031674
                },
                {
                    "x": 518.0995475113122,
                    "y": 285.0678733031674
                },
                {
                    "x": 518.0995475113122,
                    "y": 419.68325791855204
                },
                {
                    "x": 227.37556561085972,
                    "y": 419.68325791855204
                }
            ]
        },
        {
            "id": "vtKzMgyZO",
            "type": "RECTANGLE",
            "tags": [
                "Content_Items"
            ],
            "boundingBox": {
                "height": 98.41628959276018,
                "width": 289.59276018099547,
                "left": 227.37556561085972,
                "top": 433.2579185520362
            },
            "points": [
                {
                    "x": 227.37556561085972,
                    "y": 433.2579185520362
                },
                {
                    "x": 516.9683257918552,
                    "y": 433.2579185520362
                },
                {
                    "x": 516.9683257918552,
                    "y": 531.6742081447964
                },
                {
                    "x": 227.37556561085972,
                    "y": 531.6742081447964
                }
            ]
        },
        {
            "id": "Vz_zJhtKD",
            "type": "RECTANGLE",
            "tags": [
                "Content_Items"
            ],
            "boundingBox": {
                "height": 30.542986425339365,
                "width": 292.9864253393665,
                "left": 223.98190045248867,
                "top": 546.3800904977376
            },
            "points": [
                {
                    "x": 223.98190045248867,
                    "y": 546.3800904977376
                },
                {
                    "x": 516.9683257918552,
                    "y": 546.3800904977376
                },
                {
                    "x": 516.9683257918552,
                    "y": 576.9230769230769
                },
                {
                    "x": 223.98190045248867,
                    "y": 576.9230769230769
                }
            ]
        },
        {
            "id": "rAsWZEVq0",
            "type": "RECTANGLE",
            "tags": [
                "amount_details"
            ],
            "boundingBox": {
                "height": 41.8552036199095,
                "width": 169.68325791855204,
                "left": 363.1221719457013,
                "top": 685.5203619909502
            },
            "points": [
                {
                    "x": 363.1221719457013,
                    "y": 685.5203619909502
                },
                {
                    "x": 532.8054298642534,
                    "y": 685.5203619909502
                },
                {
                    "x": 532.8054298642534,
                    "y": 727.3755656108597
                },
                {
                    "x": 363.1221719457013,
                    "y": 727.3755656108597
                }
            ]
        }
    ],
    "version": "2.2.0"
}