{
    "asset": {
        "format": "jpg",
        "id": "ae021862dad41cad622bb38cf22a41cf",
        "name": "PHOTO-2020-06-24-08-39-44.jpg",
        "path": "file:/home/administrator/ocr/Train-OCR/TrainYourOwnYOLO/Data/receipts_Source_Images/Train_receipt/PHOTO-2020-06-24-08-39-44.jpg",
        "size": {
            "width": 576,
            "height": 1024
        },
        "state": 2,
        "type": 1
    },
    "regions": [
        {
            "id": "A78qub9u6",
            "type": "RECTANGLE",
            "tags": [
                "Shop_Logo"
            ],
            "boundingBox": {
                "height": 77.6108597285068,
                "width": 84.6036217303823,
                "left": 29.11871227364185,
                "top": 101.93665158371041
            },
            "points": [
                {
                    "x": 29.11871227364185,
                    "y": 101.93665158371041
                },
                {
                    "x": 113.72233400402415,
                    "y": 101.93665158371041
                },
                {
                    "x": 113.72233400402415,
                    "y": 179.5475113122172
                },
                {
                    "x": 29.11871227364185,
                    "y": 179.5475113122172
                }
            ]
        },
        {
            "id": "C_pxvANjX",
            "type": "RECTANGLE",
            "tags": [
                "Shop_Name"
            ],
            "boundingBox": {
                "height": 60.235294117647065,
                "width": 332.6197183098592,
                "left": 167.03420523138834,
                "top": 122.78733031674209
            },
            "points": [
                {
                    "x": 167.03420523138834,
                    "y": 122.78733031674209
                },
                {
                    "x": 499.6539235412475,
                    "y": 122.78733031674209
                },
                {
                    "x": 499.6539235412475,
                    "y": 183.02262443438914
                },
                {
                    "x": 167.03420523138834,
                    "y": 183.02262443438914
                }
            ]
        },
        {
            "id": "Eahz__TMF",
            "type": "RECTANGLE",
            "tags": [
                "Shop_Address"
            ],
            "boundingBox": {
                "height": 49.80995475113123,
                "width": 173.84305835010062,
                "left": 48.820925553319924,
                "top": 206.19004524886878
            },
            "points": [
                {
                    "x": 48.820925553319924,
                    "y": 206.19004524886878
                },
                {
                    "x": 222.66398390342053,
                    "y": 206.19004524886878
                },
                {
                    "x": 222.66398390342053,
                    "y": 256
                },
                {
                    "x": 48.820925553319924,
                    "y": 256
                }
            ]
        },
        {
            "id": "-yyGRKtG4",
            "type": "RECTANGLE",
            "tags": [
                "Content_Items"
            ],
            "boundingBox": {
                "height": 56.76018099547512,
                "width": 506.4627766599598,
                "left": 40.70824949698189,
                "top": 395.00452488687785
            },
            "points": [
                {
                    "x": 40.70824949698189,
                    "y": 395.00452488687785
                },
                {
                    "x": 547.1710261569417,
                    "y": 395.00452488687785
                },
                {
                    "x": 547.1710261569417,
                    "y": 451.764705882353
                },
                {
                    "x": 40.70824949698189,
                    "y": 451.764705882353
                }
            ]
        },
        {
            "id": "7kdTt5eUa",
            "type": "RECTANGLE",
            "tags": [
                "tax"
            ],
            "boundingBox": {
                "height": 46.33484162895928,
                "width": 381.29577464788736,
                "left": 176.30583501006038,
                "top": 462.19004524886884
            },
            "points": [
                {
                    "x": 176.30583501006038,
                    "y": 462.19004524886884
                },
                {
                    "x": 557.6016096579477,
                    "y": 462.19004524886884
                },
                {
                    "x": 557.6016096579477,
                    "y": 508.5248868778281
                },
                {
                    "x": 176.30583501006038,
                    "y": 508.5248868778281
                }
            ]
        },
        {
            "id": "oiZTUst-a",
            "type": "RECTANGLE",
            "tags": [
                "amount_details"
            ],
            "boundingBox": {
                "height": 27.800904977375566,
                "width": 76.49094567404427,
                "left": 491.5412474849095,
                "top": 622.0452488687783
            },
            "points": [
                {
                    "x": 491.5412474849095,
                    "y": 622.0452488687783
                },
                {
                    "x": 568.0321931589538,
                    "y": 622.0452488687783
                },
                {
                    "x": 568.0321931589538,
                    "y": 649.8461538461539
                },
                {
                    "x": 491.5412474849095,
                    "y": 649.8461538461539
                }
            ]
        }
    ],
    "version": "2.2.0"
}