{
    "asset": {
        "format": "jpg",
        "id": "aefaf12b27185806517270a523ee62e0",
        "name": "09364-receipt.jpg",
        "path": "file:/home/administrator/ocr/Train-OCR/TrainYourOwnYOLO/Data/receipts_Source_Images/Train_receipt/09364-receipt.jpg",
        "size": {
            "width": 338,
            "height": 450
        },
        "state": 2,
        "type": 1
    },
    "regions": [
        {
            "id": "HrtjCZl7b",
            "type": "POLYGON",
            "tags": [
                "Shop_Name"
            ],
            "boundingBox": {
                "height": 19.852941176470587,
                "width": 124.20481927710843,
                "left": 99.7710843373494,
                "top": 58.54072398190045
            },
            "points": [
                {
                    "x": 103.33433734939759,
                    "y": 78.39366515837104
                },
                {
                    "x": 223.97590361445782,
                    "y": 70.24886877828054
                },
                {
                    "x": 221.43072289156626,
                    "y": 58.54072398190045
                },
                {
                    "x": 99.7710843373494,
                    "y": 68.72171945701356
                }
            ]
        },
        {
            "id": "hLkTLqMoH",
            "type": "POLYGON",
            "tags": [
                "Shop_Address"
            ],
            "boundingBox": {
                "height": 21.88914027149321,
                "width": 172.5632530120482,
                "left": 73.81024096385542,
                "top": 69.73981900452489
            },
            "points": [
                {
                    "x": 73.81024096385542,
                    "y": 91.6289592760181
                },
                {
                    "x": 246.3734939759036,
                    "y": 83.99321266968326
                },
                {
                    "x": 242.3012048192771,
                    "y": 69.73981900452489
                },
                {
                    "x": 79.91867469879519,
                    "y": 78.90271493212668
                }
            ]
        },
        {
            "id": "h0DzWrZrK",
            "type": "POLYGON",
            "tags": [
                "Mobile_no"
            ],
            "boundingBox": {
                "height": 13.235294117647058,
                "width": 68.21084337349397,
                "left": 149.6566265060241,
                "top": 82.97511312217193
            },
            "points": [
                {
                    "x": 149.6566265060241,
                    "y": 96.210407239819
                },
                {
                    "x": 217.86746987951807,
                    "y": 91.11990950226243
                },
                {
                    "x": 217.35843373493975,
                    "y": 82.97511312217193
                },
                {
                    "x": 151.69277108433735,
                    "y": 84.50226244343891
                }
            ]
        },
        {
            "id": "TJ5FTFrfg",
            "type": "POLYGON",
            "tags": [
                "Content_Items"
            ],
            "boundingBox": {
                "height": 49.886877828054295,
                "width": 229.06626506024097,
                "left": 47.34036144578313,
                "top": 158.31447963800903
            },
            "points": [
                {
                    "x": 52.93975903614458,
                    "y": 170.53167420814478
                },
                {
                    "x": 272.8433734939759,
                    "y": 158.31447963800903
                },
                {
                    "x": 276.4066265060241,
                    "y": 195.47511312217193
                },
                {
                    "x": 47.34036144578313,
                    "y": 208.20135746606334
                }
            ]
        },
        {
            "id": "YjlOZBXeL",
            "type": "POLYGON",
            "tags": [
                "amount_details"
            ],
            "boundingBox": {
                "height": 34.10633484162896,
                "width": 53.95783132530121,
                "left": 235.17469879518072,
                "top": 293.2126696832579
            },
            "points": [
                {
                    "x": 238.7379518072289,
                    "y": 294.2307692307692
                },
                {
                    "x": 289.13253012048193,
                    "y": 293.2126696832579
                },
                {
                    "x": 289.13253012048193,
                    "y": 327.31900452488685
                },
                {
                    "x": 235.17469879518072,
                    "y": 322.2285067873303
                }
            ]
        },
        {
            "id": "LF05wmC4L",
            "type": "POLYGON",
            "tags": [
                "tax"
            ],
            "boundingBox": {
                "height": 18.32579185520362,
                "width": 246.3734939759036,
                "left": 34.6144578313253,
                "top": 265.7239819004525
            },
            "points": [
                {
                    "x": 34.6144578313253,
                    "y": 269.79638009049773
                },
                {
                    "x": 280.9879518072289,
                    "y": 265.7239819004525
                },
                {
                    "x": 280.4789156626506,
                    "y": 284.0497737556561
                },
                {
                    "x": 34.6144578313253,
                    "y": 283.54072398190044
                }
            ]
        },
        {
            "id": "sbm1_-sCa",
            "type": "RECTANGLE",
            "tags": [
                "Date"
            ],
            "boundingBox": {
                "height": 12.217194570135746,
                "width": 57.5210843373494,
                "left": 175.61746987951807,
                "top": 129.8076923076923
            },
            "points": [
                {
                    "x": 175.61746987951807,
                    "y": 129.8076923076923
                },
                {
                    "x": 233.13855421686748,
                    "y": 129.8076923076923
                },
                {
                    "x": 233.13855421686748,
                    "y": 142.02488687782804
                },
                {
                    "x": 175.61746987951807,
                    "y": 142.02488687782804
                }
            ]
        }
    ],
    "version": "2.2.0"
}