{
    "asset": {
        "format": "jpg",
        "id": "b23dfe7a05265bb8dadd6767762e3294",
        "name": "07312-receipt.jpg",
        "path": "file:/home/administrator/ocr/Train-OCR/TrainYourOwnYOLO/Data/receipts_Source_Images/Train_receipt/07312-receipt.jpg",
        "size": {
            "width": 805,
            "height": 1280
        },
        "state": 2,
        "type": 1
    },
    "regions": [
        {
            "id": "yOQgKVwMb",
            "type": "RECTANGLE",
            "tags": [
                "Shop_Name"
            ],
            "boundingBox": {
                "height": 41.990950226244344,
                "width": 218.62410071942446,
                "left": 88.29572279676259,
                "top": 72.39819004524887
            },
            "points": [
                {
                    "x": 88.29572279676259,
                    "y": 72.39819004524887
                },
                {
                    "x": 306.9198235161871,
                    "y": 72.39819004524887
                },
                {
                    "x": 306.9198235161871,
                    "y": 114.3891402714932
                },
                {
                    "x": 88.29572279676259,
                    "y": 114.3891402714932
                }
            ]
        },
        {
            "id": "uhj4PDRTU",
            "type": "RECTANGLE",
            "tags": [
                "Date"
            ],
            "boundingBox": {
                "height": 30.407239819004523,
                "width": 154.91906474820144,
                "left": 374.9683846672662,
                "top": 201.26696832579185
            },
            "points": [
                {
                    "x": 374.9683846672662,
                    "y": 201.26696832579185
                },
                {
                    "x": 529.8874494154677,
                    "y": 201.26696832579185
                },
                {
                    "x": 529.8874494154677,
                    "y": 231.67420814479638
                },
                {
                    "x": 374.9683846672662,
                    "y": 231.67420814479638
                }
            ]
        },
        {
            "id": "BxF8mNRrg",
            "type": "RECTANGLE",
            "tags": [
                "Content_Items"
            ],
            "boundingBox": {
                "height": 278.00904977375563,
                "width": 657.3201438848921,
                "left": 18.79931991906475,
                "top": 315.6561085972851
            },
            "points": [
                {
                    "x": 18.79931991906475,
                    "y": 315.6561085972851
                },
                {
                    "x": 676.1194638039569,
                    "y": 315.6561085972851
                },
                {
                    "x": 676.1194638039569,
                    "y": 593.6651583710407
                },
                {
                    "x": 18.79931991906475,
                    "y": 593.6651583710407
                }
            ]
        },
        {
            "id": "lFcPPjNLI",
            "type": "RECTANGLE",
            "tags": [
                "amount_details"
            ],
            "boundingBox": {
                "height": 40.542986425339365,
                "width": 147.67985611510792,
                "left": 361.2138882643885,
                "top": 794.9321266968326
            },
            "points": [
                {
                    "x": 361.2138882643885,
                    "y": 794.9321266968326
                },
                {
                    "x": 508.8937443794964,
                    "y": 794.9321266968326
                },
                {
                    "x": 508.8937443794964,
                    "y": 835.4751131221719
                },
                {
                    "x": 361.2138882643885,
                    "y": 835.4751131221719
                }
            ]
        },
        {
            "id": "TnmFQuuni",
            "type": "RECTANGLE",
            "tags": [
                "tax"
            ],
            "boundingBox": {
                "height": 39.095022624434385,
                "width": 72.39208633093526,
                "left": 16.627557329136692,
                "top": 674.7511312217194
            },
            "points": [
                {
                    "x": 16.627557329136692,
                    "y": 674.7511312217194
                },
                {
                    "x": 89.01964366007195,
                    "y": 674.7511312217194
                },
                {
                    "x": 89.01964366007195,
                    "y": 713.8461538461538
                },
                {
                    "x": 16.627557329136692,
                    "y": 713.8461538461538
                }
            ]
        },
        {
            "id": "XKN_5lwpO",
            "type": "RECTANGLE",
            "tags": [
                "tax"
            ],
            "boundingBox": {
                "height": 36.199095022624434,
                "width": 85.4226618705036,
                "left": 375.69230553057554,
                "top": 676.1990950226244
            },
            "points": [
                {
                    "x": 375.69230553057554,
                    "y": 676.1990950226244
                },
                {
                    "x": 461.1149674010792,
                    "y": 676.1990950226244
                },
                {
                    "x": 461.1149674010792,
                    "y": 712.3981900452488
                },
                {
                    "x": 375.69230553057554,
                    "y": 712.3981900452488
                }
            ]
        },
        {
            "id": "I9zRWVBDF",
            "type": "RECTANGLE",
            "tags": [
                "Shop_Address"
            ],
            "boundingBox": {
                "height": 73.84615384615384,
                "width": 330.10791366906477,
                "left": 90.46748538669065,
                "top": 121.6289592760181
            },
            "points": [
                {
                    "x": 90.46748538669065,
                    "y": 121.6289592760181
                },
                {
                    "x": 420.57539905575544,
                    "y": 121.6289592760181
                },
                {
                    "x": 420.57539905575544,
                    "y": 195.47511312217193
                },
                {
                    "x": 90.46748538669065,
                    "y": 195.47511312217193
                }
            ]
        }
    ],
    "version": "2.2.0"
}