{
    "asset": {
        "format": "jpg",
        "id": "b4d4175061543470679288c79aba4f04",
        "name": "09758-receipt.jpg",
        "path": "file:/home/administrator/ocr/Train-OCR/TrainYourOwnYOLO/Data/receipts_Source_Images/Train_receipt/09758-receipt.jpg",
        "size": {
            "width": 249,
            "height": 450
        },
        "state": 2,
        "type": 1
    },
    "regions": [
        {
            "id": "uRQRd4N0K",
            "type": "RECTANGLE",
            "tags": [
                "Shop_Name"
            ],
            "boundingBox": {
                "height": 54.977375565610856,
                "width": 185.34969325153372,
                "left": 18.116468558282207,
                "top": 2.0361990950226243
            },
            "points": [
                {
                    "x": 18.116468558282207,
                    "y": 2.0361990950226243
                },
                {
                    "x": 203.46616180981593,
                    "y": 2.0361990950226243
                },
                {
                    "x": 203.46616180981593,
                    "y": 57.01357466063348
                },
                {
                    "x": 18.116468558282207,
                    "y": 57.01357466063348
                }
            ]
        },
        {
            "id": "f8nZlXG4w",
            "type": "RECTANGLE",
            "tags": [
                "Shop_Address"
            ],
            "boundingBox": {
                "height": 30.542986425339365,
                "width": 239.3251533742331,
                "left": 4.877204754601227,
                "top": 93.15610859728505
            },
            "points": [
                {
                    "x": 4.877204754601227,
                    "y": 93.15610859728505
                },
                {
                    "x": 244.20235812883433,
                    "y": 93.15610859728505
                },
                {
                    "x": 244.20235812883433,
                    "y": 123.69909502262442
                },
                {
                    "x": 4.877204754601227,
                    "y": 123.69909502262442
                }
            ]
        },
        {
            "id": "86ZPmMktv",
            "type": "RECTANGLE",
            "tags": [
                "Mobile_no"
            ],
            "boundingBox": {
                "height": 14.762443438914026,
                "width": 122.71779141104294,
                "left": 70.05511886503066,
                "top": 123.69909502262442
            },
            "points": [
                {
                    "x": 70.05511886503066,
                    "y": 123.69909502262442
                },
                {
                    "x": 192.7729102760736,
                    "y": 123.69909502262442
                },
                {
                    "x": 192.7729102760736,
                    "y": 138.46153846153845
                },
                {
                    "x": 70.05511886503066,
                    "y": 138.46153846153845
                }
            ]
        },
        {
            "id": "E8GbU2deY",
            "type": "RECTANGLE",
            "tags": [
                "Date"
            ],
            "boundingBox": {
                "height": 15.780542986425338,
                "width": 70.77914110429447,
                "left": 170.87720475460122,
                "top": 172.5678733031674
            },
            "points": [
                {
                    "x": 170.87720475460122,
                    "y": 172.5678733031674
                },
                {
                    "x": 241.6563458588957,
                    "y": 172.5678733031674
                },
                {
                    "x": 241.6563458588957,
                    "y": 188.34841628959276
                },
                {
                    "x": 170.87720475460122,
                    "y": 188.34841628959276
                }
            ]
        },
        {
            "id": "GAD55HYTs",
            "type": "RECTANGLE",
            "tags": [
                "Content_Items"
            ],
            "boundingBox": {
                "height": 81.95701357466064,
                "width": 238.81595092024537,
                "left": 0.8035851226993864,
                "top": 260.6334841628959
            },
            "points": [
                {
                    "x": 0.8035851226993864,
                    "y": 260.6334841628959
                },
                {
                    "x": 239.61953604294476,
                    "y": 260.6334841628959
                },
                {
                    "x": 239.61953604294476,
                    "y": 342.5904977375565
                },
                {
                    "x": 0.8035851226993864,
                    "y": 342.5904977375565
                }
            ]
        },
        {
            "id": "RWFluuUpU",
            "type": "RECTANGLE",
            "tags": [
                "amount_details"
            ],
            "boundingBox": {
                "height": 26.470588235294116,
                "width": 99.80368098159508,
                "left": 137.26984279141104,
                "top": 352.77149321266967
            },
            "points": [
                {
                    "x": 137.26984279141104,
                    "y": 352.77149321266967
                },
                {
                    "x": 237.07352377300612,
                    "y": 352.77149321266967
                },
                {
                    "x": 237.07352377300612,
                    "y": 379.24208144796376
                },
                {
                    "x": 137.26984279141104,
                    "y": 379.24208144796376
                }
            ]
        },
        {
            "id": "miKG8oq3G",
            "type": "RECTANGLE",
            "tags": [
                "tax",
                "amount_details"
            ],
            "boundingBox": {
                "height": 10.690045248868778,
                "width": 53.97546012269938,
                "left": 2.3311924846625764,
                "top": 395.0226244343891
            },
            "points": [
                {
                    "x": 2.3311924846625764,
                    "y": 395.0226244343891
                },
                {
                    "x": 56.306652607361954,
                    "y": 395.0226244343891
                },
                {
                    "x": 56.306652607361954,
                    "y": 405.7126696832579
                },
                {
                    "x": 2.3311924846625764,
                    "y": 405.7126696832579
                }
            ]
        },
        {
            "id": "Kn_RI2YWG",
            "type": "RECTANGLE",
            "tags": [
                "tax"
            ],
            "boundingBox": {
                "height": 11.70814479638009,
                "width": 37.68098159509202,
                "left": 200.41094708588955,
                "top": 395.53167420814475
            },
            "points": [
                {
                    "x": 200.41094708588955,
                    "y": 395.53167420814475
                },
                {
                    "x": 238.09192868098157,
                    "y": 395.53167420814475
                },
                {
                    "x": 238.09192868098157,
                    "y": 407.23981900452486
                },
                {
                    "x": 200.41094708588955,
                    "y": 407.23981900452486
                }
            ]
        }
    ],
    "version": "2.2.0"
}