{
    "asset": {
        "format": "jpg",
        "id": "b5063cf8d3503326cfba5e9c66f4f58f",
        "name": "02222-receipt.jpg",
        "path": "file:/home/administrator/ocr/Train-OCR/TrainYourOwnYOLO/Data/receipts_Source_Images/Train_receipt/02222-receipt.jpg",
        "size": {
            "width": 900,
            "height": 1200
        },
        "state": 2,
        "type": 1
    },
    "regions": [
        {
            "id": "OlYRO_oiZ",
            "type": "RECTANGLE",
            "tags": [
                "Shop_Name"
            ],
            "boundingBox": {
                "height": 66.5158371040724,
                "width": 290.4977375565611,
                "left": 233.48416289592762,
                "top": 13.574660633484164
            },
            "points": [
                {
                    "x": 233.48416289592762,
                    "y": 13.574660633484164
                },
                {
                    "x": 523.9819004524887,
                    "y": 13.574660633484164
                },
                {
                    "x": 523.9819004524887,
                    "y": 80.09049773755656
                },
                {
                    "x": 233.48416289592762,
                    "y": 80.09049773755656
                }
            ]
        },
        {
            "id": "SJ0HyQeUR",
            "type": "RECTANGLE",
            "tags": [
                "Content_Items"
            ],
            "boundingBox": {
                "height": 93.66515837104073,
                "width": 427.60180995475116,
                "left": 158.82352941176472,
                "top": 428.95927601809956
            },
            "points": [
                {
                    "x": 158.82352941176472,
                    "y": 428.95927601809956
                },
                {
                    "x": 586.4253393665159,
                    "y": 428.95927601809956
                },
                {
                    "x": 586.4253393665159,
                    "y": 522.6244343891403
                },
                {
                    "x": 158.82352941176472,
                    "y": 522.6244343891403
                }
            ]
        },
        {
            "id": "2va-QSnRY",
            "type": "RECTANGLE",
            "tags": [
                "Shop_Address"
            ],
            "boundingBox": {
                "height": 78.73303167420815,
                "width": 226.69683257918552,
                "left": 253.84615384615387,
                "top": 142.53393665158373
            },
            "points": [
                {
                    "x": 253.84615384615387,
                    "y": 142.53393665158373
                },
                {
                    "x": 480.5429864253394,
                    "y": 142.53393665158373
                },
                {
                    "x": 480.5429864253394,
                    "y": 221.26696832579188
                },
                {
                    "x": 253.84615384615387,
                    "y": 221.26696832579188
                }
            ]
        },
        {
            "id": "KdXlkdaFL",
            "type": "RECTANGLE",
            "tags": [
                "Mobile_no"
            ],
            "boundingBox": {
                "height": 23.076923076923077,
                "width": 147.96380090497738,
                "left": 331.2217194570136,
                "top": 267.420814479638
            },
            "points": [
                {
                    "x": 331.2217194570136,
                    "y": 267.420814479638
                },
                {
                    "x": 479.185520361991,
                    "y": 267.420814479638
                },
                {
                    "x": 479.185520361991,
                    "y": 290.4977375565611
                },
                {
                    "x": 331.2217194570136,
                    "y": 290.4977375565611
                }
            ]
        }
    ],
    "version": "2.2.0"
}