{
    "asset": {
        "format": "jpg",
        "id": "b652cb4301c59320f7cb953987681f9f",
        "name": "02292-receipt.jpg",
        "path": "file:/home/administrator/ocr/Train-OCR/TrainYourOwnYOLO/Data/receipts_Source_Images/Train_receipt/02292-receipt.jpg",
        "size": {
            "width": 750,
            "height": 1000
        },
        "state": 2,
        "type": 1
    },
    "regions": [
        {
            "id": "rOLCtwQqA",
            "type": "RECTANGLE",
            "tags": [
                "Shop_Name"
            ],
            "boundingBox": {
                "height": 37.33031674208145,
                "width": 204.75113122171945,
                "left": 20.361990950226243,
                "top": 45.24886877828054
            },
            "points": [
                {
                    "x": 20.361990950226243,
                    "y": 45.24886877828054
                },
                {
                    "x": 225.1131221719457,
                    "y": 45.24886877828054
                },
                {
                    "x": 225.1131221719457,
                    "y": 82.57918552036199
                },
                {
                    "x": 20.361990950226243,
                    "y": 82.57918552036199
                }
            ]
        },
        {
            "id": "-mPn5pTlj",
            "type": "RECTANGLE",
            "tags": [
                "Shop_Address"
            ],
            "boundingBox": {
                "height": 58.8235294117647,
                "width": 271.49321266968326,
                "left": 4.524886877828054,
                "top": 67.87330316742081
            },
            "points": [
                {
                    "x": 4.524886877828054,
                    "y": 67.87330316742081
                },
                {
                    "x": 276.0180995475113,
                    "y": 67.87330316742081
                },
                {
                    "x": 276.0180995475113,
                    "y": 126.69683257918552
                },
                {
                    "x": 4.524886877828054,
                    "y": 126.69683257918552
                }
            ]
        },
        {
            "id": "wvYm_loIK",
            "type": "RECTANGLE",
            "tags": [
                "Mobile_no"
            ],
            "boundingBox": {
                "height": 59.95475113122172,
                "width": 201.35746606334843,
                "left": 54.29864253393665,
                "top": 121.04072398190046
            },
            "points": [
                {
                    "x": 54.29864253393665,
                    "y": 121.04072398190046
                },
                {
                    "x": 255.65610859728505,
                    "y": 121.04072398190046
                },
                {
                    "x": 255.65610859728505,
                    "y": 180.99547511312215
                },
                {
                    "x": 54.29864253393665,
                    "y": 180.99547511312215
                }
            ]
        },
        {
            "id": "BVzMknLOc",
            "type": "RECTANGLE",
            "tags": [
                "Content_Items"
            ],
            "boundingBox": {
                "height": 54.29864253393665,
                "width": 96.15384615384615,
                "left": 16.968325791855204,
                "top": 341.62895927601807
            },
            "points": [
                {
                    "x": 16.968325791855204,
                    "y": 341.62895927601807
                },
                {
                    "x": 113.12217194570135,
                    "y": 341.62895927601807
                },
                {
                    "x": 113.12217194570135,
                    "y": 395.92760180995475
                },
                {
                    "x": 16.968325791855204,
                    "y": 395.92760180995475
                }
            ]
        },
        {
            "id": "noeV7VC5r",
            "type": "RECTANGLE",
            "tags": [
                "Content_Items"
            ],
            "boundingBox": {
                "height": 66.7420814479638,
                "width": 131.22171945701356,
                "left": 357.4660633484163,
                "top": 257.9185520361991
            },
            "points": [
                {
                    "x": 357.4660633484163,
                    "y": 257.9185520361991
                },
                {
                    "x": 488.68778280542983,
                    "y": 257.9185520361991
                },
                {
                    "x": 488.68778280542983,
                    "y": 324.6606334841629
                },
                {
                    "x": 357.4660633484163,
                    "y": 324.6606334841629
                }
            ]
        },
        {
            "id": "B_94BxT2l",
            "type": "RECTANGLE",
            "tags": [
                "amount_details"
            ],
            "boundingBox": {
                "height": 75.7918552036199,
                "width": 207.01357466063348,
                "left": 304.29864253393663,
                "top": 459.2760180995475
            },
            "points": [
                {
                    "x": 304.29864253393663,
                    "y": 459.2760180995475
                },
                {
                    "x": 511.3122171945701,
                    "y": 459.2760180995475
                },
                {
                    "x": 511.3122171945701,
                    "y": 535.0678733031674
                },
                {
                    "x": 304.29864253393663,
                    "y": 535.0678733031674
                }
            ]
        }
    ],
    "version": "2.2.0"
}