{
    "asset": {
        "format": "jpg",
        "id": "b7bd82296d026cfa95ac248b57e8a731",
        "name": "02331-receipt.jpg",
        "path": "file:/home/administrator/ocr/Train-OCR/TrainYourOwnYOLO/Data/receipts_Source_Images/Train_receipt/02331-receipt.jpg",
        "size": {
            "width": 768,
            "height": 1024
        },
        "state": 2,
        "type": 1
    },
    "regions": [
        {
            "id": "1o7Q26fcf",
            "type": "RECTANGLE",
            "tags": [
                "Content_Items"
            ],
            "boundingBox": {
                "height": 130.89592760180997,
                "width": 652.1628959276019,
                "left": 48.651583710407245,
                "top": 375.31221719457017
            },
            "points": [
                {
                    "x": 48.651583710407245,
                    "y": 375.31221719457017
                },
                {
                    "x": 700.8144796380091,
                    "y": 375.31221719457017
                },
                {
                    "x": 700.8144796380091,
                    "y": 506.2081447963801
                },
                {
                    "x": 48.651583710407245,
                    "y": 506.2081447963801
                }
            ]
        },
        {
            "id": "BVvcKjmRt",
            "type": "RECTANGLE",
            "tags": [
                "amount_details"
            ],
            "boundingBox": {
                "height": 33.59276018099548,
                "width": 112.36199095022627,
                "left": 578.0271493212671,
                "top": 616.2533936651585
            },
            "points": [
                {
                    "x": 578.0271493212671,
                    "y": 616.2533936651585
                },
                {
                    "x": 690.3891402714933,
                    "y": 616.2533936651585
                },
                {
                    "x": 690.3891402714933,
                    "y": 649.8461538461539
                },
                {
                    "x": 578.0271493212671,
                    "y": 649.8461538461539
                }
            ]
        }
    ],
    "version": "2.2.0"
}