{
    "asset": {
        "format": "jpg",
        "id": "b8413bc1d56b1e6c8e3ca16d5f3cbcfb",
        "name": "08485-receipt.jpg",
        "path": "file:/home/administrator/ocr/Train-OCR/TrainYourOwnYOLO/Data/receipts_Source_Images/Train_receipt/08485-receipt.jpg",
        "size": {
            "width": 338,
            "height": 450
        },
        "state": 2,
        "type": 1
    },
    "regions": [
        {
            "id": "oiFdJl3hw",
            "type": "RECTANGLE",
            "tags": [
                "Shop_Name"
            ],
            "boundingBox": {
                "height": 20.361990950226243,
                "width": 118.605421686747,
                "left": 109.44277108433735,
                "top": 47.85067873303167
            },
            "points": [
                {
                    "x": 109.44277108433735,
                    "y": 47.85067873303167
                },
                {
                    "x": 228.04819277108433,
                    "y": 47.85067873303167
                },
                {
                    "x": 228.04819277108433,
                    "y": 68.21266968325791
                },
                {
                    "x": 109.44277108433735,
                    "y": 68.21266968325791
                }
            ]
        },
        {
            "id": "_roIChmF2",
            "type": "RECTANGLE",
            "tags": [
                "Shop_Address"
            ],
            "boundingBox": {
                "height": 22.907239819004523,
                "width": 73.81024096385542,
                "left": 128.27710843373495,
                "top": 67.1945701357466
            },
            "points": [
                {
                    "x": 128.27710843373495,
                    "y": 67.1945701357466
                },
                {
                    "x": 202.08734939759037,
                    "y": 67.1945701357466
                },
                {
                    "x": 202.08734939759037,
                    "y": 90.10180995475113
                },
                {
                    "x": 128.27710843373495,
                    "y": 90.10180995475113
                }
            ]
        },
        {
            "id": "D6xgXO8Ox",
            "type": "RECTANGLE",
            "tags": [
                "Mobile_no"
            ],
            "boundingBox": {
                "height": 13.235294117647058,
                "width": 83.48192771084338,
                "left": 168.49096385542168,
                "top": 90.61085972850678
            },
            "points": [
                {
                    "x": 168.49096385542168,
                    "y": 90.61085972850678
                },
                {
                    "x": 251.97289156626505,
                    "y": 90.61085972850678
                },
                {
                    "x": 251.97289156626505,
                    "y": 103.84615384615384
                },
                {
                    "x": 168.49096385542168,
                    "y": 103.84615384615384
                }
            ]
        },
        {
            "id": "WVn4Y9Al9",
            "type": "RECTANGLE",
            "tags": [
                "Content_Items"
            ],
            "boundingBox": {
                "height": 68.72171945701356,
                "width": 215.83132530120483,
                "left": 72.7921686746988,
                "top": 172.5678733031674
            },
            "points": [
                {
                    "x": 72.7921686746988,
                    "y": 172.5678733031674
                },
                {
                    "x": 288.6234939759036,
                    "y": 172.5678733031674
                },
                {
                    "x": 288.6234939759036,
                    "y": 241.289592760181
                },
                {
                    "x": 72.7921686746988,
                    "y": 241.289592760181
                }
            ]
        },
        {
            "id": "AavZIO2cf",
            "type": "RECTANGLE",
            "tags": [
                "amount_details"
            ],
            "boundingBox": {
                "height": 17.816742081447963,
                "width": 82.46385542168674,
                "left": 192.92469879518072,
                "top": 248.41628959276017
            },
            "points": [
                {
                    "x": 192.92469879518072,
                    "y": 248.41628959276017
                },
                {
                    "x": 275.3885542168675,
                    "y": 248.41628959276017
                },
                {
                    "x": 275.3885542168675,
                    "y": 266.2330316742081
                },
                {
                    "x": 192.92469879518072,
                    "y": 266.2330316742081
                }
            ]
        },
        {
            "id": "YFGG4Yc6a",
            "type": "RECTANGLE",
            "tags": [
                "tax"
            ],
            "boundingBox": {
                "height": 38.178733031674206,
                "width": 45.81325301204819,
                "left": 35.88704819277108,
                "top": 308.99321266968326
            },
            "points": [
                {
                    "x": 35.88704819277108,
                    "y": 308.99321266968326
                },
                {
                    "x": 81.70030120481928,
                    "y": 308.99321266968326
                },
                {
                    "x": 81.70030120481928,
                    "y": 347.17194570135746
                },
                {
                    "x": 35.88704819277108,
                    "y": 347.17194570135746
                }
            ]
        },
        {
            "id": "aVQuSdLHW",
            "type": "RECTANGLE",
            "tags": [
                "tax"
            ],
            "boundingBox": {
                "height": 34.61538461538461,
                "width": 32.06927710843374,
                "left": 201.8328313253012,
                "top": 306.9570135746606
            },
            "points": [
                {
                    "x": 201.8328313253012,
                    "y": 306.9570135746606
                },
                {
                    "x": 233.90210843373495,
                    "y": 306.9570135746606
                },
                {
                    "x": 233.90210843373495,
                    "y": 341.57239819004525
                },
                {
                    "x": 201.8328313253012,
                    "y": 341.57239819004525
                }
            ]
        }
    ],
    "version": "2.2.0"
}