{
    "asset": {
        "format": "jpg",
        "id": "bb8cbd15710d4e7a769da9750e9685fd",
        "name": "1114-receipt.jpg",
        "path": "file:/home/administrator/ocr/Train-OCR/TrainYourOwnYOLO/Data/receipts_Source_Images/Train_receipt/1114-receipt.jpg",
        "size": {
            "width": 250,
            "height": 250
        },
        "state": 2,
        "type": 1
    },
    "regions": [
        {
            "id": "fwJIgzXIQ",
            "type": "RECTANGLE",
            "tags": [
                "Shop_Name"
            ],
            "boundingBox": {
                "height": 33.93665158371041,
                "width": 123.30316742081448,
                "left": 58.54072398190045,
                "top": 20.92760180995475
            },
            "points": [
                {
                    "x": 58.54072398190045,
                    "y": 20.92760180995475
                },
                {
                    "x": 181.84389140271492,
                    "y": 20.92760180995475
                },
                {
                    "x": 181.84389140271492,
                    "y": 54.86425339366516
                },
                {
                    "x": 58.54072398190045,
                    "y": 54.86425339366516
                }
            ]
        },
        {
            "id": "R8DxM7MHr",
            "type": "RECTANGLE",
            "tags": [
                "Shop_Address"
            ],
            "boundingBox": {
                "height": 9.615384615384615,
                "width": 92.76018099547511,
                "left": 77.48868778280543,
                "top": 77.20588235294117
            },
            "points": [
                {
                    "x": 77.48868778280543,
                    "y": 77.20588235294117
                },
                {
                    "x": 170.24886877828055,
                    "y": 77.20588235294117
                },
                {
                    "x": 170.24886877828055,
                    "y": 86.82126696832579
                },
                {
                    "x": 77.48868778280543,
                    "y": 86.82126696832579
                }
            ]
        },
        {
            "id": "AVj3PUSEX",
            "type": "RECTANGLE",
            "tags": [
                "Shop_Address"
            ],
            "boundingBox": {
                "height": 29.41176470588235,
                "width": 158.08823529411765,
                "left": 43.26923076923077,
                "top": 124.43438914027149
            },
            "points": [
                {
                    "x": 43.26923076923077,
                    "y": 124.43438914027149
                },
                {
                    "x": 201.35746606334843,
                    "y": 124.43438914027149
                },
                {
                    "x": 201.35746606334843,
                    "y": 153.84615384615384
                },
                {
                    "x": 43.26923076923077,
                    "y": 153.84615384615384
                }
            ]
        },
        {
            "id": "Sd5XbDmDy",
            "type": "RECTANGLE",
            "tags": [
                "tax"
            ],
            "boundingBox": {
                "height": 16.968325791855204,
                "width": 57.97511312217195,
                "left": 35.91628959276018,
                "top": 178.73303167420815
            },
            "points": [
                {
                    "x": 35.91628959276018,
                    "y": 178.73303167420815
                },
                {
                    "x": 93.89140271493213,
                    "y": 178.73303167420815
                },
                {
                    "x": 93.89140271493213,
                    "y": 195.70135746606334
                },
                {
                    "x": 35.91628959276018,
                    "y": 195.70135746606334
                }
            ]
        },
        {
            "id": "VXRumIOMf",
            "type": "RECTANGLE",
            "tags": [
                "tax"
            ],
            "boundingBox": {
                "height": 17.251131221719458,
                "width": 30.82579185520362,
                "left": 177.60180995475113,
                "top": 176.47058823529412
            },
            "points": [
                {
                    "x": 177.60180995475113,
                    "y": 176.47058823529412
                },
                {
                    "x": 208.42760180995475,
                    "y": 176.47058823529412
                },
                {
                    "x": 208.42760180995475,
                    "y": 193.72171945701356
                },
                {
                    "x": 177.60180995475113,
                    "y": 193.72171945701356
                }
            ]
        },
        {
            "id": "ih_lFGHrd",
            "type": "RECTANGLE",
            "tags": [
                "amount_details"
            ],
            "boundingBox": {
                "height": 16.968325791855204,
                "width": 54.581447963800905,
                "left": 146.49321266968326,
                "top": 158.65384615384616
            },
            "points": [
                {
                    "x": 146.49321266968326,
                    "y": 158.65384615384616
                },
                {
                    "x": 201.07466063348417,
                    "y": 158.65384615384616
                },
                {
                    "x": 201.07466063348417,
                    "y": 175.62217194570135
                },
                {
                    "x": 146.49321266968326,
                    "y": 175.62217194570135
                }
            ]
        },
        {
            "id": "H_jFNUVJ_",
            "type": "RECTANGLE",
            "tags": [
                "Date"
            ],
            "boundingBox": {
                "height": 9.89819004524887,
                "width": 44.11764705882353,
                "left": 150.73529411764704,
                "top": 96.4366515837104
            },
            "points": [
                {
                    "x": 150.73529411764704,
                    "y": 96.4366515837104
                },
                {
                    "x": 194.85294117647058,
                    "y": 96.4366515837104
                },
                {
                    "x": 194.85294117647058,
                    "y": 106.33484162895927
                },
                {
                    "x": 150.73529411764704,
                    "y": 106.33484162895927
                }
            ]
        },
        {
            "id": "wgSrHp8wT",
            "type": "RECTANGLE",
            "tags": [
                "Mobile_no"
            ],
            "boundingBox": {
                "height": 9.89819004524887,
                "width": 68.43891402714932,
                "left": 101.80995475113122,
                "top": 214.64932126696831
            },
            "points": [
                {
                    "x": 101.80995475113122,
                    "y": 214.64932126696831
                },
                {
                    "x": 170.24886877828055,
                    "y": 214.64932126696831
                },
                {
                    "x": 170.24886877828055,
                    "y": 224.54751131221718
                },
                {
                    "x": 101.80995475113122,
                    "y": 224.54751131221718
                }
            ]
        }
    ],
    "version": "2.2.0"
}