{
    "asset": {
        "format": "jpg",
        "id": "be7dd309e0c124e964b4e88d5148f2b1",
        "name": "00095-receipt.jpg",
        "path": "file:/home/administrator/ocr/Train-OCR/TrainYourOwnYOLO/Data/receipts_Source_Images/Train_receipt/00095-receipt.jpg",
        "size": {
            "width": 750,
            "height": 1000
        },
        "state": 2,
        "type": 1
    },
    "regions": [
        {
            "id": "623KBmj_m",
            "type": "RECTANGLE",
            "tags": [
                "Shop_Name"
            ],
            "boundingBox": {
                "height": 45.24886877828054,
                "width": 323.52941176470586,
                "left": 148.7556561085973,
                "top": 233.03167420814478
            },
            "points": [
                {
                    "x": 148.7556561085973,
                    "y": 233.03167420814478
                },
                {
                    "x": 472.28506787330315,
                    "y": 233.03167420814478
                },
                {
                    "x": 472.28506787330315,
                    "y": 278.28054298642536
                },
                {
                    "x": 148.7556561085973,
                    "y": 278.28054298642536
                }
            ]
        },
        {
            "id": "TB2X19H0V",
            "type": "RECTANGLE",
            "tags": [
                "Shop_Address"
            ],
            "boundingBox": {
                "height": 75.7918552036199,
                "width": 244.34389140271492,
                "left": 152.14932126696831,
                "top": 294.11764705882354
            },
            "points": [
                {
                    "x": 152.14932126696831,
                    "y": 294.11764705882354
                },
                {
                    "x": 396.49321266968326,
                    "y": 294.11764705882354
                },
                {
                    "x": 396.49321266968326,
                    "y": 369.9095022624434
                },
                {
                    "x": 152.14932126696831,
                    "y": 369.9095022624434
                }
            ]
        },
        {
            "id": "SDXrIttK2",
            "type": "RECTANGLE",
            "tags": [
                "Date"
            ],
            "boundingBox": {
                "height": 26.018099547511312,
                "width": 148.19004524886878,
                "left": 468.8914027149321,
                "top": 287.33031674208144
            },
            "points": [
                {
                    "x": 468.8914027149321,
                    "y": 287.33031674208144
                },
                {
                    "x": 617.0814479638009,
                    "y": 287.33031674208144
                },
                {
                    "x": 617.0814479638009,
                    "y": 313.34841628959276
                },
                {
                    "x": 468.8914027149321,
                    "y": 313.34841628959276
                }
            ]
        },
        {
            "id": "7_WMRlU-f",
            "type": "RECTANGLE",
            "tags": [
                "Content_Items"
            ],
            "boundingBox": {
                "height": 93.89140271493213,
                "width": 509.0497737556561,
                "left": 131.78733031674207,
                "top": 704.7511312217194
            },
            "points": [
                {
                    "x": 131.78733031674207,
                    "y": 704.7511312217194
                },
                {
                    "x": 640.8371040723982,
                    "y": 704.7511312217194
                },
                {
                    "x": 640.8371040723982,
                    "y": 798.6425339366516
                },
                {
                    "x": 131.78733031674207,
                    "y": 798.6425339366516
                }
            ]
        },
        {
            "id": "wTT4AjHia",
            "type": "RECTANGLE",
            "tags": [
                "amount_details"
            ],
            "boundingBox": {
                "height": 46.380090497737555,
                "width": 93.89140271493213,
                "left": 558.8235294117646,
                "top": 933.2579185520361
            },
            "points": [
                {
                    "x": 558.8235294117646,
                    "y": 933.2579185520361
                },
                {
                    "x": 652.7149321266968,
                    "y": 933.2579185520361
                },
                {
                    "x": 652.7149321266968,
                    "y": 979.6380090497737
                },
                {
                    "x": 558.8235294117646,
                    "y": 979.6380090497737
                }
            ]
        },
        {
            "id": "RztVYBWNB",
            "type": "RECTANGLE",
            "tags": [
                "tax"
            ],
            "boundingBox": {
                "height": 46.380090497737555,
                "width": 140.27149321266967,
                "left": 122.17194570135746,
                "top": 863.1221719457013
            },
            "points": [
                {
                    "x": 122.17194570135746,
                    "y": 863.1221719457013
                },
                {
                    "x": 262.4434389140271,
                    "y": 863.1221719457013
                },
                {
                    "x": 262.4434389140271,
                    "y": 909.5022624434389
                },
                {
                    "x": 122.17194570135746,
                    "y": 909.5022624434389
                }
            ]
        },
        {
            "id": "iEMX2jzUk",
            "type": "RECTANGLE",
            "tags": [
                "tax"
            ],
            "boundingBox": {
                "height": 37.33031674208145,
                "width": 71.26696832579185,
                "left": 581.447963800905,
                "top": 858.5972850678733
            },
            "points": [
                {
                    "x": 581.447963800905,
                    "y": 858.5972850678733
                },
                {
                    "x": 652.7149321266968,
                    "y": 858.5972850678733
                },
                {
                    "x": 652.7149321266968,
                    "y": 895.9276018099547
                },
                {
                    "x": 581.447963800905,
                    "y": 895.9276018099547
                }
            ]
        }
    ],
    "version": "2.2.0"
}