{
    "asset": {
        "format": "jpg",
        "id": "bf391f6fc76a0a003bc21ec9402cbdb5",
        "name": "PHOTO-2020-07-12-16-15-10.jpg",
        "path": "file:/home/administrator/ocr/Train-OCR/TrainYourOwnYOLO/Data/receipts_Source_Images/Train_receipt/PHOTO-2020-07-12-16-15-10.jpg",
        "size": {
            "width": 960,
            "height": 1280
        },
        "state": 2,
        "type": 1
    },
    "regions": [
        {
            "id": "B4ppVHAWx",
            "type": "RECTANGLE",
            "tags": [
                "Shop_Name"
            ],
            "boundingBox": {
                "height": 53.574660633484164,
                "width": 324.3438914027149,
                "left": 308.41628959276017,
                "top": 249.0497737556561
            },
            "points": [
                {
                    "x": 308.41628959276017,
                    "y": 249.0497737556561
                },
                {
                    "x": 632.7601809954751,
                    "y": 249.0497737556561
                },
                {
                    "x": 632.7601809954751,
                    "y": 302.6244343891403
                },
                {
                    "x": 308.41628959276017,
                    "y": 302.6244343891403
                }
            ]
        },
        {
            "id": "g8-3fuZMj",
            "type": "RECTANGLE",
            "tags": [
                "Shop_Address"
            ],
            "boundingBox": {
                "height": 52.126696832579185,
                "width": 570.4977375565611,
                "left": 186.78733031674207,
                "top": 291.04072398190044
            },
            "points": [
                {
                    "x": 186.78733031674207,
                    "y": 291.04072398190044
                },
                {
                    "x": 757.2850678733031,
                    "y": 291.04072398190044
                },
                {
                    "x": 757.2850678733031,
                    "y": 343.1674208144796
                },
                {
                    "x": 186.78733031674207,
                    "y": 343.1674208144796
                }
            ]
        },
        {
            "id": "ScQ4xDC4q",
            "type": "RECTANGLE",
            "tags": [
                "Mobile_no"
            ],
            "boundingBox": {
                "height": 44.886877828054295,
                "width": 199.81900452488688,
                "left": 377.91855203619906,
                "top": 333.0316742081448
            },
            "points": [
                {
                    "x": 377.91855203619906,
                    "y": 333.0316742081448
                },
                {
                    "x": 577.737556561086,
                    "y": 333.0316742081448
                },
                {
                    "x": 577.737556561086,
                    "y": 377.91855203619906
                },
                {
                    "x": 377.91855203619906,
                    "y": 377.91855203619906
                }
            ]
        },
        {
            "id": "sorrC_kqp",
            "type": "RECTANGLE",
            "tags": [
                "Content_Items"
            ],
            "boundingBox": {
                "height": 70.9502262443439,
                "width": 783.3484162895927,
                "left": 86.87782805429865,
                "top": 524.1628959276018
            },
            "points": [
                {
                    "x": 86.87782805429865,
                    "y": 524.1628959276018
                },
                {
                    "x": 870.2262443438914,
                    "y": 524.1628959276018
                },
                {
                    "x": 870.2262443438914,
                    "y": 595.1131221719456
                },
                {
                    "x": 86.87782805429865,
                    "y": 595.1131221719456
                }
            ]
        },
        {
            "id": "wu1XSlgEv",
            "type": "RECTANGLE",
            "tags": [
                "amount_details"
            ],
            "boundingBox": {
                "height": 75.29411764705883,
                "width": 146.2443438914027,
                "left": 677.6470588235294,
                "top": 802.1719457013575
            },
            "points": [
                {
                    "x": 677.6470588235294,
                    "y": 802.1719457013575
                },
                {
                    "x": 823.8914027149322,
                    "y": 802.1719457013575
                },
                {
                    "x": 823.8914027149322,
                    "y": 877.4660633484162
                },
                {
                    "x": 677.6470588235294,
                    "y": 877.4660633484162
                }
            ]
        }
    ],
    "version": "2.2.0"
}