{
    "asset": {
        "format": "jpg",
        "id": "c0825fc88a2dc7978e48dca4e92bdecd",
        "name": "PHOTO-2020-06-24-08-39-53.jpg",
        "path": "file:/home/administrator/ocr/Train-OCR/TrainYourOwnYOLO/Data/receipts_Source_Images/Train_receipt/PHOTO-2020-06-24-08-39-53.jpg",
        "size": {
            "width": 576,
            "height": 1024
        },
        "state": 2,
        "type": 1
    },
    "regions": [
        {
            "id": "ptm_FdAZA",
            "type": "RECTANGLE",
            "tags": [
                "Shop_Logo"
            ],
            "boundingBox": {
                "height": 54.443438914027155,
                "width": 55.629778672032195,
                "left": 250.47887323943664,
                "top": 57.9185520361991
            },
            "points": [
                {
                    "x": 250.47887323943664,
                    "y": 57.9185520361991
                },
                {
                    "x": 306.1086519114688,
                    "y": 57.9185520361991
                },
                {
                    "x": 306.1086519114688,
                    "y": 112.36199095022626
                },
                {
                    "x": 250.47887323943664,
                    "y": 112.36199095022626
                }
            ]
        },
        {
            "id": "VrIUB3DTI",
            "type": "RECTANGLE",
            "tags": [
                "Shop_Name"
            ],
            "boundingBox": {
                "height": 20.850678733031675,
                "width": 125.16700201207244,
                "left": 219.18712273641853,
                "top": 118.15384615384616
            },
            "points": [
                {
                    "x": 219.18712273641853,
                    "y": 118.15384615384616
                },
                {
                    "x": 344.35412474849096,
                    "y": 118.15384615384616
                },
                {
                    "x": 344.35412474849096,
                    "y": 139.00452488687785
                },
                {
                    "x": 219.18712273641853,
                    "y": 139.00452488687785
                }
            ]
        },
        {
            "id": "BfhNHF0i6",
            "type": "RECTANGLE",
            "tags": [
                "Content_Items"
            ],
            "boundingBox": {
                "height": 46.33484162895928,
                "width": 493.7142857142857,
                "left": 46.503018108651915,
                "top": 349.82805429864254
            },
            "points": [
                {
                    "x": 46.503018108651915,
                    "y": 349.82805429864254
                },
                {
                    "x": 540.2173038229377,
                    "y": 349.82805429864254
                },
                {
                    "x": 540.2173038229377,
                    "y": 396.1628959276018
                },
                {
                    "x": 46.503018108651915,
                    "y": 396.1628959276018
                }
            ]
        },
        {
            "id": "QJFk0CByA",
            "type": "RECTANGLE",
            "tags": [
                "tax"
            ],
            "boundingBox": {
                "height": 47.49321266968326,
                "width": 340.7323943661972,
                "left": 206.43863179074447,
                "top": 401.95475113122177
            },
            "points": [
                {
                    "x": 206.43863179074447,
                    "y": 401.95475113122177
                },
                {
                    "x": 547.1710261569417,
                    "y": 401.95475113122177
                },
                {
                    "x": 547.1710261569417,
                    "y": 449.44796380090503
                },
                {
                    "x": 206.43863179074447,
                    "y": 449.44796380090503
                }
            ]
        },
        {
            "id": "cf6QiyWpm",
            "type": "RECTANGLE",
            "tags": [
                "amount_details"
            ],
            "boundingBox": {
                "height": 18.533936651583712,
                "width": 74.17303822937626,
                "left": 479.9517102615694,
                "top": 524.7420814479639
            },
            "points": [
                {
                    "x": 479.9517102615694,
                    "y": 524.7420814479639
                },
                {
                    "x": 554.1247484909456,
                    "y": 524.7420814479639
                },
                {
                    "x": 554.1247484909456,
                    "y": 543.2760180995475
                },
                {
                    "x": 479.9517102615694,
                    "y": 543.2760180995475
                }
            ]
        },
        {
            "id": "KI-GKhPbZ",
            "type": "RECTANGLE",
            "tags": [
                "Date"
            ],
            "boundingBox": {
                "height": 18.533936651583712,
                "width": 68.37826961770624,
                "left": 416.2092555331992,
                "top": 186.4977375565611
            },
            "points": [
                {
                    "x": 416.2092555331992,
                    "y": 186.4977375565611
                },
                {
                    "x": 484.58752515090544,
                    "y": 186.4977375565611
                },
                {
                    "x": 484.58752515090544,
                    "y": 205.0316742081448
                },
                {
                    "x": 416.2092555331992,
                    "y": 205.0316742081448
                }
            ]
        }
    ],
    "version": "2.2.0"
}