{
    "asset": {
        "format": "jpg",
        "id": "c17297768038fed0c04280bc1183b9a0",
        "name": "09206-receipt.jpg",
        "path": "file:/home/administrator/ocr/Train-OCR/TrainYourOwnYOLO/Data/receipts_Source_Images/Train_receipt/09206-receipt.jpg",
        "size": {
            "width": 338,
            "height": 450
        },
        "state": 2,
        "type": 1
    },
    "regions": [
        {
            "id": "5yhLmgJom",
            "type": "POLYGON",
            "tags": [
                "Shop_Name"
            ],
            "boundingBox": {
                "height": 35.12443438914027,
                "width": 97.73493975903614,
                "left": 113.00602409638554,
                "top": 39.705882352941174
            },
            "points": [
                {
                    "x": 113.00602409638554,
                    "y": 39.705882352941174
                },
                {
                    "x": 210.74096385542168,
                    "y": 53.959276018099544
                },
                {
                    "x": 210.23192771084337,
                    "y": 74.83031674208144
                },
                {
                    "x": 113.00602409638554,
                    "y": 60.06787330316742
                }
            ]
        },
        {
            "id": "lncfaN2ui",
            "type": "POLYGON",
            "tags": [
                "Shop_Address"
            ],
            "boundingBox": {
                "height": 31.05203619909502,
                "width": 105.87951807228916,
                "left": 109.95180722891567,
                "top": 60.06787330316742
            },
            "points": [
                {
                    "x": 111.4789156626506,
                    "y": 77.37556561085972
                },
                {
                    "x": 215.83132530120483,
                    "y": 91.11990950226243
                },
                {
                    "x": 215.3222891566265,
                    "y": 73.30316742081448
                },
                {
                    "x": 109.95180722891567,
                    "y": 60.06787330316742
                }
            ]
        },
        {
            "id": "pfHNauM3Q",
            "type": "POLYGON",
            "tags": [
                "Mobile_no"
            ],
            "boundingBox": {
                "height": 13.744343891402714,
                "width": 55.484939759036145,
                "left": 104.35240963855422,
                "top": 75.3393665158371
            },
            "points": [
                {
                    "x": 104.35240963855422,
                    "y": 83.4841628959276
                },
                {
                    "x": 159.83734939759037,
                    "y": 89.0837104072398
                },
                {
                    "x": 159.83734939759037,
                    "y": 83.4841628959276
                },
                {
                    "x": 104.35240963855422,
                    "y": 75.3393665158371
                }
            ]
        },
        {
            "id": "4W4W2bfOA",
            "type": "POLYGON",
            "tags": [
                "Content_Items"
            ],
            "boundingBox": {
                "height": 246.38009049773754,
                "width": 218.3765060240964,
                "left": 54.46686746987952,
                "top": 125.73529411764704
            },
            "points": [
                {
                    "x": 75.84638554216868,
                    "y": 125.73529411764704
                },
                {
                    "x": 249.4277108433735,
                    "y": 143.04298642533936
                },
                {
                    "x": 272.8433734939759,
                    "y": 371.60633484162895
                },
                {
                    "x": 54.46686746987952,
                    "y": 372.1153846153846
                }
            ]
        },
        {
            "id": "3cJwzbhUU",
            "type": "POLYGON",
            "tags": [
                "amount_details"
            ],
            "boundingBox": {
                "height": 27.488687782805428,
                "width": 72.28313253012048,
                "left": 203.10542168674698,
                "top": 379.24208144796376
            },
            "points": [
                {
                    "x": 203.6144578313253,
                    "y": 406.7307692307692
                },
                {
                    "x": 275.3885542168675,
                    "y": 405.2036199095022
                },
                {
                    "x": 272.8433734939759,
                    "y": 379.24208144796376
                },
                {
                    "x": 203.10542168674698,
                    "y": 382.29638009049773
                }
            ]
        },
        {
            "id": "C6sGK9qZT",
            "type": "RECTANGLE",
            "tags": [
                "tax"
            ],
            "boundingBox": {
                "height": 17.307692307692307,
                "width": 126.75,
                "left": 51.92168674698795,
                "top": 431.1651583710407
            },
            "points": [
                {
                    "x": 51.92168674698795,
                    "y": 431.1651583710407
                },
                {
                    "x": 178.67168674698794,
                    "y": 431.1651583710407
                },
                {
                    "x": 178.67168674698794,
                    "y": 448.472850678733
                },
                {
                    "x": 51.92168674698795,
                    "y": 448.472850678733
                }
            ]
        }
    ],
    "version": "2.2.0"
}