{
    "asset": {
        "format": "jpg",
        "id": "c286a773314e09221180a46597f0335d",
        "name": "02461-receipt.jpg",
        "path": "file:/home/administrator/ocr/Train-OCR/TrainYourOwnYOLO/Data/receipts_Source_Images/Train_receipt/02461-receipt.jpg",
        "size": {
            "width": 768,
            "height": 1024
        },
        "state": 2,
        "type": 1
    },
    "regions": [
        {
            "id": "OXKPTtTMA",
            "type": "RECTANGLE",
            "tags": [
                "Shop_Name"
            ],
            "boundingBox": {
                "height": 33.59276018099548,
                "width": 276.8506787330317,
                "left": 145.95475113122174,
                "top": 275.69230769230774
            },
            "points": [
                {
                    "x": 145.95475113122174,
                    "y": 275.69230769230774
                },
                {
                    "x": 422.8054298642534,
                    "y": 275.69230769230774
                },
                {
                    "x": 422.8054298642534,
                    "y": 309.2850678733032
                },
                {
                    "x": 145.95475113122174,
                    "y": 309.2850678733032
                }
            ]
        },
        {
            "id": "hTl2me0zc",
            "type": "RECTANGLE",
            "tags": [
                "Shop_Address"
            ],
            "boundingBox": {
                "height": 42.859728506787334,
                "width": 274.53393665158376,
                "left": 158.69683257918552,
                "top": 315.0769230769231
            },
            "points": [
                {
                    "x": 158.69683257918552,
                    "y": 315.0769230769231
                },
                {
                    "x": 433.2307692307693,
                    "y": 315.0769230769231
                },
                {
                    "x": 433.2307692307693,
                    "y": 357.93665158371044
                },
                {
                    "x": 158.69683257918552,
                    "y": 357.93665158371044
                }
            ]
        },
        {
            "id": "oRdkBbjwG",
            "type": "RECTANGLE",
            "tags": [
                "Mobile_no"
            ],
            "boundingBox": {
                "height": 24.325791855203622,
                "width": 156.38009049773757,
                "left": 220.09049773755657,
                "top": 357.93665158371044
            },
            "points": [
                {
                    "x": 220.09049773755657,
                    "y": 357.93665158371044
                },
                {
                    "x": 376.47058823529414,
                    "y": 357.93665158371044
                },
                {
                    "x": 376.47058823529414,
                    "y": 382.26244343891403
                },
                {
                    "x": 220.09049773755657,
                    "y": 382.26244343891403
                }
            ]
        },
        {
            "id": "GvA6txlkm",
            "type": "RECTANGLE",
            "tags": [
                "Date"
            ],
            "boundingBox": {
                "height": 26.642533936651585,
                "width": 94.98642533936652,
                "left": 310.4434389140272,
                "top": 435.54751131221724
            },
            "points": [
                {
                    "x": 310.4434389140272,
                    "y": 435.54751131221724
                },
                {
                    "x": 405.4298642533937,
                    "y": 435.54751131221724
                },
                {
                    "x": 405.4298642533937,
                    "y": 462.19004524886884
                },
                {
                    "x": 310.4434389140272,
                    "y": 462.19004524886884
                }
            ]
        },
        {
            "id": "Ry3UYEOwT",
            "type": "RECTANGLE",
            "tags": [
                "amount_details"
            ],
            "boundingBox": {
                "height": 30.117647058823533,
                "width": 116.99547511312218,
                "left": 405.4298642533937,
                "top": 726.2986425339367
            },
            "points": [
                {
                    "x": 405.4298642533937,
                    "y": 726.2986425339367
                },
                {
                    "x": 522.4253393665159,
                    "y": 726.2986425339367
                },
                {
                    "x": 522.4253393665159,
                    "y": 756.4162895927602
                },
                {
                    "x": 405.4298642533937,
                    "y": 756.4162895927602
                }
            ]
        }
    ],
    "version": "2.2.0"
}