{
    "asset": {
        "format": "jpg",
        "id": "c39fdddcf18353988265fff3d0d5a78d",
        "name": "02433-receipt.jpg",
        "path": "file:/home/administrator/ocr/Train-OCR/TrainYourOwnYOLO/Data/receipts_Source_Images/Train_receipt/02433-receipt.jpg",
        "size": {
            "width": 750,
            "height": 1000
        },
        "state": 2,
        "type": 1
    },
    "regions": [
        {
            "id": "IXMKGoQha",
            "type": "RECTANGLE",
            "tags": [
                "Content_Items"
            ],
            "boundingBox": {
                "height": 158.3710407239819,
                "width": 481.9004524886878,
                "left": 130.09049773755655,
                "top": 416.289592760181
            },
            "points": [
                {
                    "x": 130.09049773755655,
                    "y": 416.289592760181
                },
                {
                    "x": 611.9909502262443,
                    "y": 416.289592760181
                },
                {
                    "x": 611.9909502262443,
                    "y": 574.6606334841629
                },
                {
                    "x": 130.09049773755655,
                    "y": 574.6606334841629
                }
            ]
        },
        {
            "id": "zfaqBT5MB",
            "type": "RECTANGLE",
            "tags": [
                "Date"
            ],
            "boundingBox": {
                "height": 27.149321266968325,
                "width": 118.77828054298642,
                "left": 473.9819004524887,
                "top": 285.0678733031674
            },
            "points": [
                {
                    "x": 473.9819004524887,
                    "y": 285.0678733031674
                },
                {
                    "x": 592.7601809954751,
                    "y": 285.0678733031674
                },
                {
                    "x": 592.7601809954751,
                    "y": 312.21719457013575
                },
                {
                    "x": 473.9819004524887,
                    "y": 312.21719457013575
                }
            ]
        },
        {
            "id": "Do5VMTtIc",
            "type": "RECTANGLE",
            "tags": [
                "amount_details"
            ],
            "boundingBox": {
                "height": 31.67420814479638,
                "width": 121.04072398190046,
                "left": 475.1131221719457,
                "top": 751.131221719457
            },
            "points": [
                {
                    "x": 475.1131221719457,
                    "y": 751.131221719457
                },
                {
                    "x": 596.1538461538462,
                    "y": 751.131221719457
                },
                {
                    "x": 596.1538461538462,
                    "y": 782.8054298642534
                },
                {
                    "x": 475.1131221719457,
                    "y": 782.8054298642534
                }
            ]
        }
    ],
    "version": "2.2.0"
}