{
    "asset": {
        "format": "jpg",
        "id": "c8c70cf3a21936cbb2d6e7da7877dccf",
        "name": "1148-receipt.jpg",
        "path": "file:/home/administrator/ocr/Train-OCR/TrainYourOwnYOLO/Data/receipts_Source_Images/Train_receipt/1148-receipt.jpg",
        "size": {
            "width": 279,
            "height": 450
        },
        "state": 2,
        "type": 1
    },
    "regions": [
        {
            "id": "Guy2Z_Ut8",
            "type": "RECTANGLE",
            "tags": [
                "Shop_Name"
            ],
            "boundingBox": {
                "height": 18.834841628959275,
                "width": 123.20802919708028,
                "left": 76.39247833029196,
                "top": 30.03393665158371
            },
            "points": [
                {
                    "x": 76.39247833029196,
                    "y": 30.03393665158371
                },
                {
                    "x": 199.60050752737226,
                    "y": 30.03393665158371
                },
                {
                    "x": 199.60050752737226,
                    "y": 48.86877828054298
                },
                {
                    "x": 76.39247833029196,
                    "y": 48.86877828054298
                }
            ]
        },
        {
            "id": "djn2QHrbJ",
            "type": "RECTANGLE",
            "tags": [
                "Shop_Address"
            ],
            "boundingBox": {
                "height": 26.470588235294116,
                "width": 120.15328467153284,
                "left": 73.33773380474452,
                "top": 53.959276018099544
            },
            "points": [
                {
                    "x": 73.33773380474452,
                    "y": 53.959276018099544
                },
                {
                    "x": 193.49101847627736,
                    "y": 53.959276018099544
                },
                {
                    "x": 193.49101847627736,
                    "y": 80.42986425339366
                },
                {
                    "x": 73.33773380474452,
                    "y": 80.42986425339366
                }
            ]
        },
        {
            "id": "0kvpOyx1G",
            "type": "RECTANGLE",
            "tags": [
                "Mobile_no"
            ],
            "boundingBox": {
                "height": 12.726244343891402,
                "width": 65.67700729927007,
                "left": 101.33955862226277,
                "top": 80.42986425339366
            },
            "points": [
                {
                    "x": 101.33955862226277,
                    "y": 80.42986425339366
                },
                {
                    "x": 167.01656592153284,
                    "y": 80.42986425339366
                },
                {
                    "x": 167.01656592153284,
                    "y": 93.15610859728505
                },
                {
                    "x": 101.33955862226277,
                    "y": 93.15610859728505
                }
            ]
        },
        {
            "id": "FXSKkb12I",
            "type": "RECTANGLE",
            "tags": [
                "Content_Items"
            ],
            "boundingBox": {
                "height": 133.37104072398188,
                "width": 182.26642335766422,
                "left": 39.226419936131386,
                "top": 197.51131221719456
            },
            "points": [
                {
                    "x": 39.226419936131386,
                    "y": 197.51131221719456
                },
                {
                    "x": 221.4928432937956,
                    "y": 197.51131221719456
                },
                {
                    "x": 221.4928432937956,
                    "y": 330.88235294117646
                },
                {
                    "x": 39.226419936131386,
                    "y": 330.88235294117646
                }
            ]
        },
        {
            "id": "gT4ECwKEV",
            "type": "RECTANGLE",
            "tags": [
                "tax"
            ],
            "boundingBox": {
                "height": 15.271493212669682,
                "width": 29.52919708029197,
                "left": 184.32678489963502,
                "top": 333.42760180995475
            },
            "points": [
                {
                    "x": 184.32678489963502,
                    "y": 333.42760180995475
                },
                {
                    "x": 213.85598197992698,
                    "y": 333.42760180995475
                },
                {
                    "x": 213.85598197992698,
                    "y": 348.6990950226244
                },
                {
                    "x": 184.32678489963502,
                    "y": 348.6990950226244
                }
            ]
        },
        {
            "id": "3exFJt6sw",
            "type": "RECTANGLE",
            "tags": [
                "tax"
            ],
            "boundingBox": {
                "height": 12.726244343891402,
                "width": 23.92883211678832,
                "left": 34.64430314781021,
                "top": 336.9909502262443
            },
            "points": [
                {
                    "x": 34.64430314781021,
                    "y": 336.9909502262443
                },
                {
                    "x": 58.573135264598534,
                    "y": 336.9909502262443
                },
                {
                    "x": 58.573135264598534,
                    "y": 349.71719457013575
                },
                {
                    "x": 34.64430314781021,
                    "y": 349.71719457013575
                }
            ]
        },
        {
            "id": "SZsvWFuKE",
            "type": "RECTANGLE",
            "tags": [
                "tax"
            ],
            "boundingBox": {
                "height": 12.726244343891402,
                "width": 20.364963503649633,
                "left": 53.99101847627737,
                "top": 380.7692307692307
            },
            "points": [
                {
                    "x": 53.99101847627737,
                    "y": 380.7692307692307
                },
                {
                    "x": 74.355981979927,
                    "y": 380.7692307692307
                },
                {
                    "x": 74.355981979927,
                    "y": 393.49547511312215
                },
                {
                    "x": 53.99101847627737,
                    "y": 393.49547511312215
                }
            ]
        },
        {
            "id": "3qa5p8gnD",
            "type": "RECTANGLE",
            "tags": [
                "tax"
            ],
            "boundingBox": {
                "height": 8.653846153846153,
                "width": 20.364963503649633,
                "left": 187.38152942518246,
                "top": 380.7692307692307
            },
            "points": [
                {
                    "x": 187.38152942518246,
                    "y": 380.7692307692307
                },
                {
                    "x": 207.7464929288321,
                    "y": 380.7692307692307
                },
                {
                    "x": 207.7464929288321,
                    "y": 389.4230769230769
                },
                {
                    "x": 187.38152942518246,
                    "y": 389.4230769230769
                }
            ]
        },
        {
            "id": "-7xtLiJW6",
            "type": "RECTANGLE",
            "tags": [
                "amount_details"
            ],
            "boundingBox": {
                "height": 14.762443438914026,
                "width": 46.83941605839416,
                "left": 162.9435732208029,
                "top": 389.4230769230769
            },
            "points": [
                {
                    "x": 162.9435732208029,
                    "y": 389.4230769230769
                },
                {
                    "x": 209.78298927919707,
                    "y": 389.4230769230769
                },
                {
                    "x": 209.78298927919707,
                    "y": 404.18552036199094
                },
                {
                    "x": 162.9435732208029,
                    "y": 404.18552036199094
                }
            ]
        },
        {
            "id": "MILU9v9td",
            "type": "RECTANGLE",
            "tags": [
                "Date"
            ],
            "boundingBox": {
                "height": 13.235294117647058,
                "width": 46.33029197080292,
                "left": 89.62970460766422,
                "top": 149.15158371040724
            },
            "points": [
                {
                    "x": 89.62970460766422,
                    "y": 149.15158371040724
                },
                {
                    "x": 135.95999657846716,
                    "y": 149.15158371040724
                },
                {
                    "x": 135.95999657846716,
                    "y": 162.38687782805428
                },
                {
                    "x": 89.62970460766422,
                    "y": 162.38687782805428
                }
            ]
        }
    ],
    "version": "2.2.0"
}