{
    "asset": {
        "format": "jpg",
        "id": "c991dfe581b0317ea6a1dc65bc35a6bf",
        "name": "08382-receipt.jpg",
        "path": "file:/home/administrator/ocr/Train-OCR/TrainYourOwnYOLO/Data/receipts_Source_Images/Train_receipt/08382-receipt.jpg",
        "size": {
            "width": 450,
            "height": 450
        },
        "state": 2,
        "type": 1
    },
    "regions": [
        {
            "id": "3MNVEz2AR",
            "type": "RECTANGLE",
            "tags": [
                "Date"
            ],
            "boundingBox": {
                "height": 15.271493212669682,
                "width": 87.55656108597285,
                "left": 160.35067873303166,
                "top": 40.723981900452486
            },
            "points": [
                {
                    "x": 160.35067873303166,
                    "y": 40.723981900452486
                },
                {
                    "x": 247.9072398190045,
                    "y": 40.723981900452486
                },
                {
                    "x": 247.9072398190045,
                    "y": 55.99547511312217
                },
                {
                    "x": 160.35067873303166,
                    "y": 55.99547511312217
                }
            ]
        },
        {
            "id": "cpPqyNSYD",
            "type": "RECTANGLE",
            "tags": [
                "Content_Items"
            ],
            "boundingBox": {
                "height": 43.26923076923085,
                "width": 336.4819004524887,
                "left": 62.104072398190034,
                "top": 239.25339366515826
            },
            "points": [
                {
                    "x": 62.104072398190034,
                    "y": 239.25339366515826
                },
                {
                    "x": 398.58597285067873,
                    "y": 239.25339366515826
                },
                {
                    "x": 398.58597285067873,
                    "y": 282.5226244343891
                },
                {
                    "x": 62.104072398190034,
                    "y": 282.5226244343891
                }
            ]
        },
        {
            "id": "CRnCQggMy",
            "type": "RECTANGLE",
            "tags": [
                "amount_details"
            ],
            "boundingBox": {
                "height": 29.015837104072396,
                "width": 71.26696832579185,
                "left": 280.99547511312215,
                "top": 378.7330316742081
            },
            "points": [
                {
                    "x": 280.99547511312215,
                    "y": 378.7330316742081
                },
                {
                    "x": 352.26244343891403,
                    "y": 378.7330316742081
                },
                {
                    "x": 352.26244343891403,
                    "y": 407.7488687782805
                },
                {
                    "x": 280.99547511312215,
                    "y": 407.7488687782805
                }
            ]
        },
        {
            "id": "U2AW8YKjg",
            "type": "RECTANGLE",
            "tags": [
                "tax"
            ],
            "boundingBox": {
                "height": 12.726244343891402,
                "width": 78.39366515837104,
                "left": 10.944570135746606,
                "top": 312.5565610859728
            },
            "points": [
                {
                    "x": 10.944570135746606,
                    "y": 312.5565610859728
                },
                {
                    "x": 89.33823529411764,
                    "y": 312.5565610859728
                },
                {
                    "x": 89.33823529411764,
                    "y": 325.28280542986425
                },
                {
                    "x": 10.944570135746606,
                    "y": 325.28280542986425
                }
            ]
        },
        {
            "id": "1p08nZS71",
            "type": "RECTANGLE",
            "tags": [
                "tax"
            ],
            "boundingBox": {
                "height": 12.726244343891402,
                "width": 36.65158371040724,
                "left": 359.64366515837094,
                "top": 301.3574660633484
            },
            "points": [
                {
                    "x": 359.64366515837094,
                    "y": 301.3574660633484
                },
                {
                    "x": 396.2952488687782,
                    "y": 301.3574660633484
                },
                {
                    "x": 396.2952488687782,
                    "y": 314.0837104072398
                },
                {
                    "x": 359.64366515837094,
                    "y": 314.0837104072398
                }
            ]
        }
    ],
    "version": "2.2.0"
}