{
    "asset": {
        "format": "jpg",
        "id": "cbcb5d34896a3b102144434f4920de27",
        "name": "08516-receipt.jpg",
        "path": "file:/home/administrator/ocr/Train-OCR/TrainYourOwnYOLO/Data/receipts_Source_Images/Train_receipt/08516-receipt.jpg",
        "size": {
            "width": 338,
            "height": 450
        },
        "state": 2,
        "type": 1
    },
    "regions": [
        {
            "id": "2QpnVZ-2w",
            "type": "RECTANGLE",
            "tags": [
                "Shop_Name"
            ],
            "boundingBox": {
                "height": 57.01357466063348,
                "width": 149.6566265060241,
                "left": 81.70030120481928,
                "top": 14.25339366515837
            },
            "points": [
                {
                    "x": 81.70030120481928,
                    "y": 14.25339366515837
                },
                {
                    "x": 231.35692771084337,
                    "y": 14.25339366515837
                },
                {
                    "x": 231.35692771084337,
                    "y": 71.26696832579185
                },
                {
                    "x": 81.70030120481928,
                    "y": 71.26696832579185
                }
            ]
        },
        {
            "id": "rJg7Zj9No",
            "type": "RECTANGLE",
            "tags": [
                "Shop_Address"
            ],
            "boundingBox": {
                "height": 37.160633484162894,
                "width": 268.2620481927711,
                "left": 25.70632530120482,
                "top": 66.68552036199094
            },
            "points": [
                {
                    "x": 25.70632530120482,
                    "y": 66.68552036199094
                },
                {
                    "x": 293.9683734939759,
                    "y": 66.68552036199094
                },
                {
                    "x": 293.9683734939759,
                    "y": 103.84615384615384
                },
                {
                    "x": 25.70632530120482,
                    "y": 103.84615384615384
                }
            ]
        },
        {
            "id": "7eZCZqwE5",
            "type": "RECTANGLE",
            "tags": [
                "Mobile_no"
            ],
            "boundingBox": {
                "height": 18.32579185520362,
                "width": 109.95180722891567,
                "left": 115.80572289156626,
                "top": 106.90045248868778
            },
            "points": [
                {
                    "x": 115.80572289156626,
                    "y": 106.90045248868778
                },
                {
                    "x": 225.75753012048193,
                    "y": 106.90045248868778
                },
                {
                    "x": 225.75753012048193,
                    "y": 125.2262443438914
                },
                {
                    "x": 115.80572289156626,
                    "y": 125.2262443438914
                }
            ]
        },
        {
            "id": "0gc0Ap9Su",
            "type": "RECTANGLE",
            "tags": [
                "Date"
            ],
            "boundingBox": {
                "height": 21.88914027149321,
                "width": 83.48192771084338,
                "left": 244.59186746987953,
                "top": 182.74886877828052
            },
            "points": [
                {
                    "x": 244.59186746987953,
                    "y": 182.74886877828052
                },
                {
                    "x": 328.07379518072287,
                    "y": 182.74886877828052
                },
                {
                    "x": 328.07379518072287,
                    "y": 204.63800904977376
                },
                {
                    "x": 244.59186746987953,
                    "y": 204.63800904977376
                }
            ]
        },
        {
            "id": "xkFOk8uG7",
            "type": "RECTANGLE",
            "tags": [
                "Content_Items"
            ],
            "boundingBox": {
                "height": 40.723981900452486,
                "width": 305.9307228915663,
                "left": 24.688253012048193,
                "top": 242.81674208144796
            },
            "points": [
                {
                    "x": 24.688253012048193,
                    "y": 242.81674208144796
                },
                {
                    "x": 330.61897590361446,
                    "y": 242.81674208144796
                },
                {
                    "x": 330.61897590361446,
                    "y": 283.54072398190044
                },
                {
                    "x": 24.688253012048193,
                    "y": 283.54072398190044
                }
            ]
        },
        {
            "id": "dJLDtmSiF",
            "type": "RECTANGLE",
            "tags": [
                "amount_details"
            ],
            "boundingBox": {
                "height": 20.8710407239819,
                "width": 83.48192771084338,
                "left": 247.1370481927711,
                "top": 320.1923076923077
            },
            "points": [
                {
                    "x": 247.1370481927711,
                    "y": 320.1923076923077
                },
                {
                    "x": 330.61897590361446,
                    "y": 320.1923076923077
                },
                {
                    "x": 330.61897590361446,
                    "y": 341.06334841628956
                },
                {
                    "x": 247.1370481927711,
                    "y": 341.06334841628956
                }
            ]
        },
        {
            "id": "h-K7AIThM",
            "type": "RECTANGLE",
            "tags": [
                "tax"
            ],
            "boundingBox": {
                "height": 17.816742081447963,
                "width": 282.00602409638554,
                "left": 52.17620481927711,
                "top": 345.1357466063348
            },
            "points": [
                {
                    "x": 52.17620481927711,
                    "y": 345.1357466063348
                },
                {
                    "x": 334.1822289156627,
                    "y": 345.1357466063348
                },
                {
                    "x": 334.1822289156627,
                    "y": 362.95248868778276
                },
                {
                    "x": 52.17620481927711,
                    "y": 362.95248868778276
                }
            ]
        }
    ],
    "version": "2.2.0"
}