{
    "asset": {
        "format": "jpg",
        "id": "cc327902a4e8c5c815584f9bae441c0e",
        "name": "02290-receipt.jpg",
        "path": "file:/home/administrator/ocr/Train-OCR/TrainYourOwnYOLO/Data/receipts_Source_Images/Train_receipt/02290-receipt.jpg",
        "size": {
            "width": 223,
            "height": 373
        },
        "state": 2,
        "type": 1
    },
    "regions": [
        {
            "id": "F9XxXdfVd",
            "type": "RECTANGLE",
            "tags": [
                "Shop_Name"
            ],
            "boundingBox": {
                "height": 11.392533936651583,
                "width": 113.81852551984876,
                "left": 10.439951559546314,
                "top": 10.548642533936652
            },
            "points": [
                {
                    "x": 10.439951559546314,
                    "y": 10.548642533936652
                },
                {
                    "x": 124.25847707939508,
                    "y": 10.548642533936652
                },
                {
                    "x": 124.25847707939508,
                    "y": 21.941176470588236
                },
                {
                    "x": 10.439951559546314,
                    "y": 21.941176470588236
                }
            ]
        },
        {
            "id": "cqZVrM1Ja",
            "type": "RECTANGLE",
            "tags": [
                "Shop_Address"
            ],
            "boundingBox": {
                "height": 24.894796380090497,
                "width": 130.25897920604913,
                "left": 11.28305174858223,
                "top": 24.894796380090497
            },
            "points": [
                {
                    "x": 11.28305174858223,
                    "y": 24.894796380090497
                },
                {
                    "x": 141.54203095463137,
                    "y": 24.894796380090497
                },
                {
                    "x": 141.54203095463137,
                    "y": 49.789592760180994
                },
                {
                    "x": 11.28305174858223,
                    "y": 49.789592760180994
                }
            ]
        },
        {
            "id": "qfd9FzVBd",
            "type": "RECTANGLE",
            "tags": [
                "Date"
            ],
            "boundingBox": {
                "height": 13.080316742081449,
                "width": 62.8109640831758,
                "left": 11.28305174858223,
                "top": 66.24547511312217
            },
            "points": [
                {
                    "x": 11.28305174858223,
                    "y": 66.24547511312217
                },
                {
                    "x": 74.09401583175803,
                    "y": 66.24547511312217
                },
                {
                    "x": 74.09401583175803,
                    "y": 79.32579185520362
                },
                {
                    "x": 11.28305174858223,
                    "y": 79.32579185520362
                }
            ]
        },
        {
            "id": "FThd2e57l",
            "type": "RECTANGLE",
            "tags": [
                "Content_Items"
            ],
            "boundingBox": {
                "height": 22.785067873303166,
                "width": 91.054820415879,
                "left": 11.28305174858223,
                "top": 90.71832579185521
            },
            "points": [
                {
                    "x": 11.28305174858223,
                    "y": 90.71832579185521
                },
                {
                    "x": 102.33787216446125,
                    "y": 90.71832579185521
                },
                {
                    "x": 102.33787216446125,
                    "y": 113.50339366515837
                },
                {
                    "x": 11.28305174858223,
                    "y": 113.50339366515837
                }
            ]
        },
        {
            "id": "Q0rp-jPSg",
            "type": "RECTANGLE",
            "tags": [
                "amount_details"
            ],
            "boundingBox": {
                "height": 10.548642533936652,
                "width": 32.459357277882795,
                "left": 153.76698369565216,
                "top": 174.26357466063348
            },
            "points": [
                {
                    "x": 153.76698369565216,
                    "y": 174.26357466063348
                },
                {
                    "x": 186.22634097353495,
                    "y": 174.26357466063348
                },
                {
                    "x": 186.22634097353495,
                    "y": 184.81221719457014
                },
                {
                    "x": 153.76698369565216,
                    "y": 184.81221719457014
                }
            ]
        }
    ],
    "version": "2.2.0"
}