{
    "asset": {
        "format": "jpg",
        "id": "cc5a3d6f3b63592347ac5b6422e14f96",
        "name": "07827-receipt.jpg",
        "path": "file:/home/administrator/ocr/Train-OCR/TrainYourOwnYOLO/Data/receipts_Source_Images/Train_receipt/07827-receipt.jpg",
        "size": {
            "width": 338,
            "height": 450
        },
        "state": 2,
        "type": 1
    },
    "regions": [
        {
            "id": "-_NpyQErG",
            "type": "RECTANGLE",
            "tags": [
                "Shop_Name"
            ],
            "boundingBox": {
                "height": 53.959276018099544,
                "width": 161.3644578313253,
                "left": 86.02710843373494,
                "top": 62.6131221719457
            },
            "points": [
                {
                    "x": 86.02710843373494,
                    "y": 62.6131221719457
                },
                {
                    "x": 247.39156626506025,
                    "y": 62.6131221719457
                },
                {
                    "x": 247.39156626506025,
                    "y": 116.57239819004525
                },
                {
                    "x": 86.02710843373494,
                    "y": 116.57239819004525
                }
            ]
        },
        {
            "id": "DMgdbLXyL",
            "type": "RECTANGLE",
            "tags": [
                "Shop_Address"
            ],
            "boundingBox": {
                "height": 23.925339366515836,
                "width": 156.27409638554218,
                "left": 85.51807228915662,
                "top": 121.6628959276018
            },
            "points": [
                {
                    "x": 85.51807228915662,
                    "y": 121.6628959276018
                },
                {
                    "x": 241.7921686746988,
                    "y": 121.6628959276018
                },
                {
                    "x": 241.7921686746988,
                    "y": 145.58823529411762
                },
                {
                    "x": 85.51807228915662,
                    "y": 145.58823529411762
                }
            ]
        },
        {
            "id": "UvxySoysF",
            "type": "RECTANGLE",
            "tags": [
                "Mobile_no"
            ],
            "boundingBox": {
                "height": 13.235294117647058,
                "width": 62.102409638554214,
                "left": 145.07530120481928,
                "top": 151.69683257918552
            },
            "points": [
                {
                    "x": 145.07530120481928,
                    "y": 151.69683257918552
                },
                {
                    "x": 207.1777108433735,
                    "y": 151.69683257918552
                },
                {
                    "x": 207.1777108433735,
                    "y": 164.93212669683257
                },
                {
                    "x": 145.07530120481928,
                    "y": 164.93212669683257
                }
            ]
        },
        {
            "id": "3halkY4Gi",
            "type": "RECTANGLE",
            "tags": [
                "Date"
            ],
            "boundingBox": {
                "height": 14.762443438914026,
                "width": 45.30421686746988,
                "left": 159.83734939759037,
                "top": 192.420814479638
            },
            "points": [
                {
                    "x": 159.83734939759037,
                    "y": 192.420814479638
                },
                {
                    "x": 205.14156626506025,
                    "y": 192.420814479638
                },
                {
                    "x": 205.14156626506025,
                    "y": 207.18325791855202
                },
                {
                    "x": 159.83734939759037,
                    "y": 207.18325791855202
                }
            ]
        },
        {
            "id": "01fkhp3xN",
            "type": "RECTANGLE",
            "tags": [
                "Content_Items"
            ],
            "boundingBox": {
                "height": 31.05203619909502,
                "width": 144.56626506024097,
                "left": 104.35240963855422,
                "top": 254.01583710407238
            },
            "points": [
                {
                    "x": 104.35240963855422,
                    "y": 254.01583710407238
                },
                {
                    "x": 248.91867469879517,
                    "y": 254.01583710407238
                },
                {
                    "x": 248.91867469879517,
                    "y": 285.0678733031674
                },
                {
                    "x": 104.35240963855422,
                    "y": 285.0678733031674
                }
            ]
        },
        {
            "id": "LzqYViJMz",
            "type": "RECTANGLE",
            "tags": [
                "amount_details"
            ],
            "boundingBox": {
                "height": 29.524886877828052,
                "width": 51.92168674698795,
                "left": 190.37951807228916,
                "top": 371.60633484162895
            },
            "points": [
                {
                    "x": 190.37951807228916,
                    "y": 371.60633484162895
                },
                {
                    "x": 242.3012048192771,
                    "y": 371.60633484162895
                },
                {
                    "x": 242.3012048192771,
                    "y": 401.131221719457
                },
                {
                    "x": 190.37951807228916,
                    "y": 401.131221719457
                }
            ]
        }
    ],
    "version": "2.2.0"
}