{
    "asset": {
        "format": "jpg",
        "id": "cf9f6bf6feff95be629d65d85f77446f",
        "name": "02435-receipt.jpg",
        "path": "file:/home/administrator/ocr/Train-OCR/TrainYourOwnYOLO/Data/receipts_Source_Images/Train_receipt/02435-receipt.jpg",
        "size": {
            "width": 348,
            "height": 348
        },
        "state": 2,
        "type": 1
    },
    "regions": [
        {
            "id": "v8cfQzsew",
            "type": "RECTANGLE",
            "tags": [
                "Content_Items"
            ],
            "boundingBox": {
                "height": 303.5158371040724,
                "width": 89.75565610859728,
                "left": 0.19683257918552036,
                "top": 24.800904977375566
            },
            "points": [
                {
                    "x": 0.19683257918552036,
                    "y": 24.800904977375566
                },
                {
                    "x": 89.9524886877828,
                    "y": 24.800904977375566
                },
                {
                    "x": 89.9524886877828,
                    "y": 328.31674208144796
                },
                {
                    "x": 0.19683257918552036,
                    "y": 328.31674208144796
                }
            ]
        },
        {
            "id": "X_JEwjLVX",
            "type": "RECTANGLE",
            "tags": [
                "Shop_Address"
            ],
            "boundingBox": {
                "height": 211.79185520361992,
                "width": 46.05882352941176,
                "left": 190.73076923076923,
                "top": 61.01809954751131
            },
            "points": [
                {
                    "x": 190.73076923076923,
                    "y": 61.01809954751131
                },
                {
                    "x": 236.789592760181,
                    "y": 61.01809954751131
                },
                {
                    "x": 236.789592760181,
                    "y": 272.8099547511312
                },
                {
                    "x": 190.73076923076923,
                    "y": 272.8099547511312
                }
            ]
        },
        {
            "id": "_b_XZJAKB",
            "type": "RECTANGLE",
            "tags": [
                "Mobile_no"
            ],
            "boundingBox": {
                "height": 104.71493212669682,
                "width": 37.004524886877824,
                "left": 161.20588235294116,
                "top": 113.76923076923076
            },
            "points": [
                {
                    "x": 161.20588235294116,
                    "y": 113.76923076923076
                },
                {
                    "x": 198.210407239819,
                    "y": 113.76923076923076
                },
                {
                    "x": 198.210407239819,
                    "y": 218.4841628959276
                },
                {
                    "x": 161.20588235294116,
                    "y": 218.4841628959276
                }
            ]
        },
        {
            "id": "jaEihRjTt",
            "type": "RECTANGLE",
            "tags": [
                "Date"
            ],
            "boundingBox": {
                "height": 68.89140271493213,
                "width": 19.683257918552037,
                "left": 143.8846153846154,
                "top": 12.203619909502262
            },
            "points": [
                {
                    "x": 143.8846153846154,
                    "y": 12.203619909502262
                },
                {
                    "x": 163.5678733031674,
                    "y": 12.203619909502262
                },
                {
                    "x": 163.5678733031674,
                    "y": 81.09502262443439
                },
                {
                    "x": 143.8846153846154,
                    "y": 81.09502262443439
                }
            ]
        }
    ],
    "version": "2.2.0"
}