{
    "asset": {
        "format": "jpg",
        "id": "d12f9a964248fd0632eb4f63c89bcd6a",
        "name": "PHOTO-2020-07-14-11-38-46.jpg",
        "path": "file:/home/administrator/ocr/Train-OCR/TrainYourOwnYOLO/Data/receipts_Source_Images/Train_receipt/PHOTO-2020-07-14-11-38-46.jpg",
        "size": {
            "width": 1079,
            "height": 1280
        },
        "state": 2,
        "type": 1
    },
    "regions": [
        {
            "id": "bCtZJBMpd",
            "type": "RECTANGLE",
            "tags": [
                "Content_Items"
            ],
            "boundingBox": {
                "height": 285.24886877828055,
                "width": 515.6026845637583,
                "left": 250.69551174496644,
                "top": 293.9366515837104
            },
            "points": [
                {
                    "x": 250.69551174496644,
                    "y": 293.9366515837104
                },
                {
                    "x": 766.2981963087248,
                    "y": 293.9366515837104
                },
                {
                    "x": 766.2981963087248,
                    "y": 579.1855203619909
                },
                {
                    "x": 250.69551174496644,
                    "y": 579.1855203619909
                }
            ]
        },
        {
            "id": "wC91tbgGH",
            "type": "RECTANGLE",
            "tags": [
                "amount_details"
            ],
            "boundingBox": {
                "height": 40.542986425339365,
                "width": 160.76375838926174,
                "left": 602.6377936241611,
                "top": 616.8325791855203
            },
            "points": [
                {
                    "x": 602.6377936241611,
                    "y": 616.8325791855203
                },
                {
                    "x": 763.4015520134228,
                    "y": 616.8325791855203
                },
                {
                    "x": 763.4015520134228,
                    "y": 657.3755656108597
                },
                {
                    "x": 602.6377936241611,
                    "y": 657.3755656108597
                }
            ]
        },
        {
            "id": "eF09acmwb",
            "type": "RECTANGLE",
            "tags": [
                "Date"
            ],
            "boundingBox": {
                "height": 49.230769230769226,
                "width": 140.48724832214765,
                "left": 533.1183305369127,
                "top": 160.7239819004525
            },
            "points": [
                {
                    "x": 533.1183305369127,
                    "y": 160.7239819004525
                },
                {
                    "x": 673.6055788590604,
                    "y": 160.7239819004525
                },
                {
                    "x": 673.6055788590604,
                    "y": 209.9547511312217
                },
                {
                    "x": 533.1183305369127,
                    "y": 209.9547511312217
                }
            ]
        },
        {
            "id": "2HRBmt6_g",
            "type": "RECTANGLE",
            "tags": [
                "tax"
            ],
            "boundingBox": {
                "height": 37.64705882352941,
                "width": 104.27919463087248,
                "left": 677.9505453020134,
                "top": 915.1131221719456
            },
            "points": [
                {
                    "x": 677.9505453020134,
                    "y": 915.1131221719456
                },
                {
                    "x": 782.2297399328859,
                    "y": 915.1131221719456
                },
                {
                    "x": 782.2297399328859,
                    "y": 952.7601809954751
                },
                {
                    "x": 677.9505453020134,
                    "y": 952.7601809954751
                }
            ]
        }
    ],
    "version": "2.2.0"
}