{
    "asset": {
        "format": "JPG",
        "id": "d24de67040778fd57bdca9b3e0045743",
        "name": "IMG_1883.JPG",
        "path": "file:/home/administrator/ocr/Train-OCR/TrainYourOwnYOLO/Data/receipts_Source_Images/Train_receipt/IMG_1883.JPG",
        "size": {
            "width": 834,
            "height": 1280
        },
        "state": 2,
        "type": 1
    },
    "regions": [
        {
            "id": "eavmNIh9x",
            "type": "RECTANGLE",
            "tags": [
                "Shop_Name"
            ],
            "boundingBox": {
                "height": 26.063348416289593,
                "width": 182.4375,
                "left": 44.161458333333336,
                "top": 47.782805429864254
            },
            "points": [
                {
                    "x": 44.161458333333336,
                    "y": 47.782805429864254
                },
                {
                    "x": 226.59895833333334,
                    "y": 47.782805429864254
                },
                {
                    "x": 226.59895833333334,
                    "y": 73.84615384615384
                },
                {
                    "x": 44.161458333333336,
                    "y": 73.84615384615384
                }
            ]
        },
        {
            "id": "jEag-y47J",
            "type": "RECTANGLE",
            "tags": [
                "Shop_Address"
            ],
            "boundingBox": {
                "height": 86.87782805429865,
                "width": 282.34375,
                "left": 45.609375,
                "top": 81.08597285067873
            },
            "points": [
                {
                    "x": 45.609375,
                    "y": 81.08597285067873
                },
                {
                    "x": 327.953125,
                    "y": 81.08597285067873
                },
                {
                    "x": 327.953125,
                    "y": 167.96380090497738
                },
                {
                    "x": 45.609375,
                    "y": 167.96380090497738
                }
            ]
        },
        {
            "id": "MhDPwq7c3",
            "type": "RECTANGLE",
            "tags": [
                "Date"
            ],
            "boundingBox": {
                "height": 37.64705882352941,
                "width": 99.90625,
                "left": 611.7447916666667,
                "top": 53.574660633484164
            },
            "points": [
                {
                    "x": 611.7447916666667,
                    "y": 53.574660633484164
                },
                {
                    "x": 711.6510416666667,
                    "y": 53.574660633484164
                },
                {
                    "x": 711.6510416666667,
                    "y": 91.22171945701358
                },
                {
                    "x": 611.7447916666667,
                    "y": 91.22171945701358
                }
            ]
        },
        {
            "id": "eDDiMgCPW",
            "type": "RECTANGLE",
            "tags": [
                "Content_Items"
            ],
            "boundingBox": {
                "height": 120.18099547511312,
                "width": 758.7083333333334,
                "left": 39.817708333333336,
                "top": 395.29411764705884
            },
            "points": [
                {
                    "x": 39.817708333333336,
                    "y": 395.29411764705884
                },
                {
                    "x": 798.5260416666667,
                    "y": 395.29411764705884
                },
                {
                    "x": 798.5260416666667,
                    "y": 515.4751131221719
                },
                {
                    "x": 39.817708333333336,
                    "y": 515.4751131221719
                }
            ]
        },
        {
            "id": "4WDc77Ptj",
            "type": "RECTANGLE",
            "tags": [
                "tax"
            ],
            "boundingBox": {
                "height": 37.64705882352941,
                "width": 75.29166666666667,
                "left": 727.578125,
                "top": 544.4343891402715
            },
            "points": [
                {
                    "x": 727.578125,
                    "y": 544.4343891402715
                },
                {
                    "x": 802.8697916666667,
                    "y": 544.4343891402715
                },
                {
                    "x": 802.8697916666667,
                    "y": 582.0814479638009
                },
                {
                    "x": 727.578125,
                    "y": 582.0814479638009
                }
            ]
        },
        {
            "id": "K7M4T_VhA",
            "type": "RECTANGLE",
            "tags": [
                "tax"
            ],
            "boundingBox": {
                "height": 33.30316742081448,
                "width": 62.26041666666667,
                "left": 345.328125,
                "top": 540.0904977375566
            },
            "points": [
                {
                    "x": 345.328125,
                    "y": 540.0904977375566
                },
                {
                    "x": 407.5885416666667,
                    "y": 540.0904977375566
                },
                {
                    "x": 407.5885416666667,
                    "y": 573.393665158371
                },
                {
                    "x": 345.328125,
                    "y": 573.393665158371
                }
            ]
        },
        {
            "id": "MZ92vlRa1",
            "type": "RECTANGLE",
            "tags": [
                "amount_details"
            ],
            "boundingBox": {
                "height": 31.855203619909503,
                "width": 91.21875,
                "left": 702.9635416666667,
                "top": 793.4841628959276
            },
            "points": [
                {
                    "x": 702.9635416666667,
                    "y": 793.4841628959276
                },
                {
                    "x": 794.1822916666667,
                    "y": 793.4841628959276
                },
                {
                    "x": 794.1822916666667,
                    "y": 825.3393665158371
                },
                {
                    "x": 702.9635416666667,
                    "y": 825.3393665158371
                }
            ]
        }
    ],
    "version": "2.2.0"
}