{
    "asset": {
        "format": "jpg",
        "id": "d25d600b571ee1f089dc9217b7afaf41",
        "name": "01154-receipt.jpg",
        "path": "file:/home/administrator/ocr/Train-OCR/TrainYourOwnYOLO/Data/receipts_Source_Images/Train_receipt/01154-receipt.jpg",
        "size": {
            "width": 450,
            "height": 450
        },
        "state": 2,
        "type": 1
    },
    "regions": [
        {
            "id": "Al03EY2iM",
            "type": "RECTANGLE",
            "tags": [
                "Shop_Logo"
            ],
            "boundingBox": {
                "height": 167.47737556561086,
                "width": 180.71266968325787,
                "left": 106.1368778280543,
                "top": 16.289592760180994
            },
            "points": [
                {
                    "x": 106.1368778280543,
                    "y": 16.289592760180994
                },
                {
                    "x": 286.84954751131215,
                    "y": 16.289592760180994
                },
                {
                    "x": 286.84954751131215,
                    "y": 183.76696832579182
                },
                {
                    "x": 106.1368778280543,
                    "y": 183.76696832579182
                }
            ]
        },
        {
            "id": "LcCz5k-RB",
            "type": "RECTANGLE",
            "tags": [
                "Date"
            ],
            "boundingBox": {
                "height": 16.289592760180994,
                "width": 86.53846153846153,
                "left": 83.22963800904976,
                "top": 319.68325791855204
            },
            "points": [
                {
                    "x": 83.22963800904976,
                    "y": 319.68325791855204
                },
                {
                    "x": 169.7680995475113,
                    "y": 319.68325791855204
                },
                {
                    "x": 169.7680995475113,
                    "y": 335.97285067873304
                },
                {
                    "x": 83.22963800904976,
                    "y": 335.97285067873304
                }
            ]
        },
        {
            "id": "f9wIdoD42",
            "type": "RECTANGLE",
            "tags": [
                "amount_details"
            ],
            "boundingBox": {
                "height": 19.852941176470587,
                "width": 100.28280542986425,
                "left": 264.4513574660633,
                "top": 297.28506787330315
            },
            "points": [
                {
                    "x": 264.4513574660633,
                    "y": 297.28506787330315
                },
                {
                    "x": 364.73416289592757,
                    "y": 297.28506787330315
                },
                {
                    "x": 364.73416289592757,
                    "y": 317.13800904977376
                },
                {
                    "x": 264.4513574660633,
                    "y": 317.13800904977376
                }
            ]
        },
        {
            "id": "aYJU4rzMm",
            "type": "RECTANGLE",
            "tags": [
                "Content_Items"
            ],
            "boundingBox": {
                "height": 70.75791855203619,
                "width": 245.36199095022624,
                "left": 88.32013574660633,
                "top": 357.35294117647055
            },
            "points": [
                {
                    "x": 88.32013574660633,
                    "y": 357.35294117647055
                },
                {
                    "x": 333.68212669683254,
                    "y": 357.35294117647055
                },
                {
                    "x": 333.68212669683254,
                    "y": 428.11085972850674
                },
                {
                    "x": 88.32013574660633,
                    "y": 428.11085972850674
                }
            ]
        }
    ],
    "version": "2.2.0"
}