{
    "asset": {
        "format": "jpg",
        "id": "d5dad16c869112f5227d772a6894c8a8",
        "name": "09139-receipt.jpg",
        "path": "file:/home/administrator/ocr/Train-OCR/TrainYourOwnYOLO/Data/receipts_Source_Images/Train_receipt/09139-receipt.jpg",
        "size": {
            "width": 338,
            "height": 450
        },
        "state": 2,
        "type": 1
    },
    "regions": [
        {
            "id": "stfgRQE9h",
            "type": "RECTANGLE",
            "tags": [
                "Shop_Logo"
            ],
            "boundingBox": {
                "height": 65.66742081447964,
                "width": 160.85542168674698,
                "left": 114.02409638554217,
                "top": 1.0180995475113122
            },
            "points": [
                {
                    "x": 114.02409638554217,
                    "y": 1.0180995475113122
                },
                {
                    "x": 274.87951807228916,
                    "y": 1.0180995475113122
                },
                {
                    "x": 274.87951807228916,
                    "y": 66.68552036199094
                },
                {
                    "x": 114.02409638554217,
                    "y": 66.68552036199094
                }
            ]
        },
        {
            "id": "QdZqwPVQ8",
            "type": "RECTANGLE",
            "tags": [
                "Shop_Name"
            ],
            "boundingBox": {
                "height": 10.180995475113122,
                "width": 58.03012048192771,
                "left": 110.96987951807229,
                "top": 77.37556561085972
            },
            "points": [
                {
                    "x": 110.96987951807229,
                    "y": 77.37556561085972
                },
                {
                    "x": 169,
                    "y": 77.37556561085972
                },
                {
                    "x": 169,
                    "y": 87.55656108597285
                },
                {
                    "x": 110.96987951807229,
                    "y": 87.55656108597285
                }
            ]
        },
        {
            "id": "tqQZhAGf9",
            "type": "RECTANGLE",
            "tags": [
                "Shop_Address"
            ],
            "boundingBox": {
                "height": 8.144796380090497,
                "width": 106.89759036144578,
                "left": 171.03614457831324,
                "top": 76.35746606334841
            },
            "points": [
                {
                    "x": 171.03614457831324,
                    "y": 76.35746606334841
                },
                {
                    "x": 277.93373493975906,
                    "y": 76.35746606334841
                },
                {
                    "x": 277.93373493975906,
                    "y": 84.50226244343891
                },
                {
                    "x": 171.03614457831324,
                    "y": 84.50226244343891
                }
            ]
        },
        {
            "id": "OBU22brJc",
            "type": "RECTANGLE",
            "tags": [
                "Mobile_no"
            ],
            "boundingBox": {
                "height": 9.671945701357465,
                "width": 59.55722891566265,
                "left": 179.68975903614458,
                "top": 86.53846153846153
            },
            "points": [
                {
                    "x": 179.68975903614458,
                    "y": 86.53846153846153
                },
                {
                    "x": 239.24698795180723,
                    "y": 86.53846153846153
                },
                {
                    "x": 239.24698795180723,
                    "y": 96.210407239819
                },
                {
                    "x": 179.68975903614458,
                    "y": 96.210407239819
                }
            ]
        },
        {
            "id": "db2htKWJT",
            "type": "RECTANGLE",
            "tags": [
                "Mobile_no"
            ],
            "boundingBox": {
                "height": 11.70814479638009,
                "width": 47.84939759036145,
                "left": 233.6475903614458,
                "top": 101.80995475113122
            },
            "points": [
                {
                    "x": 233.6475903614458,
                    "y": 101.80995475113122
                },
                {
                    "x": 281.4969879518072,
                    "y": 101.80995475113122
                },
                {
                    "x": 281.4969879518072,
                    "y": 113.5180995475113
                },
                {
                    "x": 233.6475903614458,
                    "y": 113.5180995475113
                }
            ]
        },
        {
            "id": "-gyUyYoDj",
            "type": "RECTANGLE",
            "tags": [
                "Content_Items"
            ],
            "boundingBox": {
                "height": 116.57239819004525,
                "width": 174.09036144578315,
                "left": 94.68072289156626,
                "top": 174.60407239819003
            },
            "points": [
                {
                    "x": 94.68072289156626,
                    "y": 174.60407239819003
                },
                {
                    "x": 268.7710843373494,
                    "y": 174.60407239819003
                },
                {
                    "x": 268.7710843373494,
                    "y": 291.17647058823525
                },
                {
                    "x": 94.68072289156626,
                    "y": 291.17647058823525
                }
            ]
        },
        {
            "id": "5uYT2t6A6",
            "type": "RECTANGLE",
            "tags": [
                "amount_details"
            ],
            "boundingBox": {
                "height": 19.852941176470587,
                "width": 33.596385542168676,
                "left": 232.12048192771084,
                "top": 312.5565610859728
            },
            "points": [
                {
                    "x": 232.12048192771084,
                    "y": 312.5565610859728
                },
                {
                    "x": 265.7168674698795,
                    "y": 312.5565610859728
                },
                {
                    "x": 265.7168674698795,
                    "y": 332.4095022624434
                },
                {
                    "x": 232.12048192771084,
                    "y": 332.4095022624434
                }
            ]
        },
        {
            "id": "BHLJkXW4f",
            "type": "RECTANGLE",
            "tags": [
                "tax"
            ],
            "boundingBox": {
                "height": 24.43438914027149,
                "width": 123.69578313253012,
                "left": 113.51506024096386,
                "top": 358.3710407239819
            },
            "points": [
                {
                    "x": 113.51506024096386,
                    "y": 358.3710407239819
                },
                {
                    "x": 237.210843373494,
                    "y": 358.3710407239819
                },
                {
                    "x": 237.210843373494,
                    "y": 382.80542986425337
                },
                {
                    "x": 113.51506024096386,
                    "y": 382.80542986425337
                }
            ]
        }
    ],
    "version": "2.2.0"
}