{
    "asset": {
        "format": "jpg",
        "id": "d5f6ccfeb4cb9e506b49e7d2823f1445",
        "name": "08947-receipt.jpg",
        "path": "file:/home/administrator/ocr/Train-OCR/TrainYourOwnYOLO/Data/receipts_Source_Images/Train_receipt/08947-receipt.jpg",
        "size": {
            "width": 450,
            "height": 450
        },
        "state": 2,
        "type": 1
    },
    "regions": [
        {
            "id": "q0veeexYM",
            "type": "RECTANGLE",
            "tags": [
                "Shop_Logo"
            ],
            "boundingBox": {
                "height": 36.14253393665158,
                "width": 165.95022624434387,
                "left": 140.49773755656108,
                "top": 4.072398190045249
            },
            "points": [
                {
                    "x": 140.49773755656108,
                    "y": 4.072398190045249
                },
                {
                    "x": 306.447963800905,
                    "y": 4.072398190045249
                },
                {
                    "x": 306.447963800905,
                    "y": 40.21493212669683
                },
                {
                    "x": 140.49773755656108,
                    "y": 40.21493212669683
                }
            ]
        },
        {
            "id": "aMxoo9iY5",
            "type": "RECTANGLE",
            "tags": [
                "Shop_Name"
            ],
            "boundingBox": {
                "height": 11.199095022624434,
                "width": 82.46606334841628,
                "left": 177.14932126696831,
                "top": 45.30542986425339
            },
            "points": [
                {
                    "x": 177.14932126696831,
                    "y": 45.30542986425339
                },
                {
                    "x": 259.6153846153846,
                    "y": 45.30542986425339
                },
                {
                    "x": 259.6153846153846,
                    "y": 56.504524886877824
                },
                {
                    "x": 177.14932126696831,
                    "y": 56.504524886877824
                }
            ]
        },
        {
            "id": "ISFZMrDa7",
            "type": "RECTANGLE",
            "tags": [
                "Shop_Address"
            ],
            "boundingBox": {
                "height": 16.289592760180994,
                "width": 99.26470588235293,
                "left": 165.95022624434387,
                "top": 56.504524886877824
            },
            "points": [
                {
                    "x": 165.95022624434387,
                    "y": 56.504524886877824
                },
                {
                    "x": 265.2149321266968,
                    "y": 56.504524886877824
                },
                {
                    "x": 265.2149321266968,
                    "y": 72.79411764705881
                },
                {
                    "x": 165.95022624434387,
                    "y": 72.79411764705881
                }
            ]
        },
        {
            "id": "Rtwb4G-Qo",
            "type": "RECTANGLE",
            "tags": [
                "Mobile_no"
            ],
            "boundingBox": {
                "height": 9.671945701357465,
                "width": 65.15837104072398,
                "left": 200.05656108597285,
                "top": 72.28506787330316
            },
            "points": [
                {
                    "x": 200.05656108597285,
                    "y": 72.28506787330316
                },
                {
                    "x": 265.2149321266968,
                    "y": 72.28506787330316
                },
                {
                    "x": 265.2149321266968,
                    "y": 81.95701357466064
                },
                {
                    "x": 200.05656108597285,
                    "y": 81.95701357466064
                }
            ]
        },
        {
            "id": "AiFqnUael",
            "type": "RECTANGLE",
            "tags": [
                "Date"
            ],
            "boundingBox": {
                "height": 14.762443438914026,
                "width": 49.37782805429864,
                "left": 285.0678733031674,
                "top": 94.68325791855203
            },
            "points": [
                {
                    "x": 285.0678733031674,
                    "y": 94.68325791855203
                },
                {
                    "x": 334.445701357466,
                    "y": 94.68325791855203
                },
                {
                    "x": 334.445701357466,
                    "y": 109.44570135746605
                },
                {
                    "x": 285.0678733031674,
                    "y": 109.44570135746605
                }
            ]
        },
        {
            "id": "6y62FHMlL",
            "type": "RECTANGLE",
            "tags": [
                "Content_Items"
            ],
            "boundingBox": {
                "height": 31.05203619909502,
                "width": 247.39819004524884,
                "left": 100.28280542986425,
                "top": 161.87782805429862
            },
            "points": [
                {
                    "x": 100.28280542986425,
                    "y": 161.87782805429862
                },
                {
                    "x": 347.6809954751131,
                    "y": 161.87782805429862
                },
                {
                    "x": 347.6809954751131,
                    "y": 192.92986425339365
                },
                {
                    "x": 100.28280542986425,
                    "y": 192.92986425339365
                }
            ]
        },
        {
            "id": "HooBSJSMq",
            "type": "RECTANGLE",
            "tags": [
                "amount_details"
            ],
            "boundingBox": {
                "height": 20.361990950226243,
                "width": 33.5972850678733,
                "left": 296.2669683257918,
                "top": 229.58144796380088
            },
            "points": [
                {
                    "x": 296.2669683257918,
                    "y": 229.58144796380088
                },
                {
                    "x": 329.86425339366514,
                    "y": 229.58144796380088
                },
                {
                    "x": 329.86425339366514,
                    "y": 249.94343891402713
                },
                {
                    "x": 296.2669683257918,
                    "y": 249.94343891402713
                }
            ]
        },
        {
            "id": "66BZHuGKb",
            "type": "RECTANGLE",
            "tags": [
                "tax"
            ],
            "boundingBox": {
                "height": 30.542986425339365,
                "width": 165.44117647058823,
                "left": 98.24660633484163,
                "top": 277.94117647058823
            },
            "points": [
                {
                    "x": 98.24660633484163,
                    "y": 277.94117647058823
                },
                {
                    "x": 263.68778280542983,
                    "y": 277.94117647058823
                },
                {
                    "x": 263.68778280542983,
                    "y": 308.48416289592757
                },
                {
                    "x": 98.24660633484163,
                    "y": 308.48416289592757
                }
            ]
        }
    ],
    "version": "2.2.0"
}