{
    "asset": {
        "format": "jpg",
        "id": "d649e2fe6f9d257edddd4398bd4950fd",
        "name": "07748-receipt.jpg",
        "path": "file:/home/administrator/ocr/Train-OCR/TrainYourOwnYOLO/Data/receipts_Source_Images/Train_receipt/07748-receipt.jpg",
        "size": {
            "width": 450,
            "height": 450
        },
        "state": 2,
        "type": 1
    },
    "regions": [
        {
            "id": "O09e3tOwF",
            "type": "RECTANGLE",
            "tags": [
                "Date"
            ],
            "boundingBox": {
                "height": 24.943438914027148,
                "width": 72.28506787330316,
                "left": 271.3235294117647,
                "top": 29.015837104072396
            },
            "points": [
                {
                    "x": 271.3235294117647,
                    "y": 29.015837104072396
                },
                {
                    "x": 343.60859728506784,
                    "y": 29.015837104072396
                },
                {
                    "x": 343.60859728506784,
                    "y": 53.959276018099544
                },
                {
                    "x": 271.3235294117647,
                    "y": 53.959276018099544
                }
            ]
        },
        {
            "id": "cb3oSSjki",
            "type": "RECTANGLE",
            "tags": [
                "Content_Items"
            ],
            "boundingBox": {
                "height": 53.959276018099544,
                "width": 321.210407239819,
                "left": 67.70361990950227,
                "top": 134.3891402714932
            },
            "points": [
                {
                    "x": 67.70361990950227,
                    "y": 134.3891402714932
                },
                {
                    "x": 388.9140271493212,
                    "y": 134.3891402714932
                },
                {
                    "x": 388.9140271493212,
                    "y": 188.34841628959276
                },
                {
                    "x": 67.70361990950227,
                    "y": 188.34841628959276
                }
            ]
        },
        {
            "id": "nKgyRcGXW",
            "type": "RECTANGLE",
            "tags": [
                "amount_details"
            ],
            "boundingBox": {
                "height": 31.05203619909502,
                "width": 41.7420814479638,
                "left": 345.6447963800905,
                "top": 204.63800904977376
            },
            "points": [
                {
                    "x": 345.6447963800905,
                    "y": 204.63800904977376
                },
                {
                    "x": 387.38687782805425,
                    "y": 204.63800904977376
                },
                {
                    "x": 387.38687782805425,
                    "y": 235.69004524886876
                },
                {
                    "x": 345.6447963800905,
                    "y": 235.69004524886876
                }
            ]
        },
        {
            "id": "NeYMQniaH",
            "type": "RECTANGLE",
            "tags": [
                "tax"
            ],
            "boundingBox": {
                "height": 85.01131221719456,
                "width": 171.5497737556561,
                "left": 39.45135746606334,
                "top": 264.70588235294116
            },
            "points": [
                {
                    "x": 39.45135746606334,
                    "y": 264.70588235294116
                },
                {
                    "x": 211.00113122171945,
                    "y": 264.70588235294116
                },
                {
                    "x": 211.00113122171945,
                    "y": 349.71719457013575
                },
                {
                    "x": 39.45135746606334,
                    "y": 349.71719457013575
                }
            ]
        }
    ],
    "version": "2.2.0"
}