{
    "asset": {
        "format": "jpg",
        "id": "d650a817a99fc9e4aea44a910906511e",
        "name": "00609-receipt.jpg",
        "path": "file:/home/administrator/ocr/Train-OCR/TrainYourOwnYOLO/Data/receipts_Source_Images/Train_receipt/00609-receipt.jpg",
        "size": {
            "width": 615,
            "height": 1093
        },
        "state": 2,
        "type": 1
    },
    "regions": [
        {
            "id": "f8KBTpU5_",
            "type": "RECTANGLE",
            "tags": [
                "Shop_Name"
            ],
            "boundingBox": {
                "height": 23.492081447963802,
                "width": 105.18108651911469,
                "left": 214.94451081488933,
                "top": 79.13122171945702
            },
            "points": [
                {
                    "x": 214.94451081488933,
                    "y": 79.13122171945702
                },
                {
                    "x": 320.125597334004,
                    "y": 79.13122171945702
                },
                {
                    "x": 320.125597334004,
                    "y": 102.62330316742081
                },
                {
                    "x": 214.94451081488933,
                    "y": 102.62330316742081
                }
            ]
        },
        {
            "id": "CYnH8k-PY",
            "type": "RECTANGLE",
            "tags": [
                "Shop_Address"
            ],
            "boundingBox": {
                "height": 51.92986425339365,
                "width": 167.0523138832998,
                "left": 185.24632168008048,
                "top": 105.09615384615387
            },
            "points": [
                {
                    "x": 185.24632168008048,
                    "y": 105.09615384615387
                },
                {
                    "x": 352.2986355633803,
                    "y": 105.09615384615387
                },
                {
                    "x": 352.2986355633803,
                    "y": 157.0260180995475
                },
                {
                    "x": 185.24632168008048,
                    "y": 157.0260180995475
                }
            ]
        },
        {
            "id": "7RxrJZNdp",
            "type": "RECTANGLE",
            "tags": [
                "Content_Items"
            ],
            "boundingBox": {
                "height": 479.7330316742082,
                "width": 310.59356136820924,
                "left": 118.42539612676056,
                "top": 186.7002262443439
            },
            "points": [
                {
                    "x": 118.42539612676056,
                    "y": 186.7002262443439
                },
                {
                    "x": 429.0189574949698,
                    "y": 186.7002262443439
                },
                {
                    "x": 429.0189574949698,
                    "y": 666.433257918552
                },
                {
                    "x": 118.42539612676056,
                    "y": 666.433257918552
                }
            ]
        },
        {
            "id": "ILvmkHHra",
            "type": "RECTANGLE",
            "tags": [
                "amount_details"
            ],
            "boundingBox": {
                "height": 33.383484162895925,
                "width": 77.95774647887323,
                "left": 348.5863619215292,
                "top": 778.947963800905
            },
            "points": [
                {
                    "x": 348.5863619215292,
                    "y": 778.947963800905
                },
                {
                    "x": 426.5441084004024,
                    "y": 778.947963800905
                },
                {
                    "x": 426.5441084004024,
                    "y": 812.3314479638009
                },
                {
                    "x": 348.5863619215292,
                    "y": 812.3314479638009
                }
            ]
        },
        {
            "id": "B3vO2zEpg",
            "type": "RECTANGLE",
            "tags": [
                "Date"
            ],
            "boundingBox": {
                "height": 24.728506787330318,
                "width": 74.24547283702213,
                "left": 208.75738807847083,
                "top": 891.4626696832579
            },
            "points": [
                {
                    "x": 208.75738807847083,
                    "y": 891.4626696832579
                },
                {
                    "x": 283.00286091549293,
                    "y": 891.4626696832579
                },
                {
                    "x": 283.00286091549293,
                    "y": 916.1911764705883
                },
                {
                    "x": 208.75738807847083,
                    "y": 916.1911764705883
                }
            ]
        },
        {
            "id": "C-BYd7rwR",
            "type": "RECTANGLE",
            "tags": [
                "tax"
            ],
            "boundingBox": {
                "height": 27.20135746606335,
                "width": 143.54124748490946,
                "left": 125.23123113682092,
                "top": 942.1561085972851
            },
            "points": [
                {
                    "x": 125.23123113682092,
                    "y": 942.1561085972851
                },
                {
                    "x": 268.7724786217304,
                    "y": 942.1561085972851
                },
                {
                    "x": 268.7724786217304,
                    "y": 969.3574660633485
                },
                {
                    "x": 125.23123113682092,
                    "y": 969.3574660633485
                }
            ]
        },
        {
            "id": "nujA24NaD",
            "type": "RECTANGLE",
            "tags": [
                "tax"
            ],
            "boundingBox": {
                "height": 17.309954751131222,
                "width": 33.41046277665996,
                "left": 385.09038606639837,
                "top": 943.3925339366516
            },
            "points": [
                {
                    "x": 385.09038606639837,
                    "y": 943.3925339366516
                },
                {
                    "x": 418.50084884305835,
                    "y": 943.3925339366516
                },
                {
                    "x": 418.50084884305835,
                    "y": 960.7024886877829
                },
                {
                    "x": 385.09038606639837,
                    "y": 960.7024886877829
                }
            ]
        },
        {
            "id": "THVriMhOm",
            "type": "RECTANGLE",
            "tags": [
                "Mobile_no"
            ],
            "boundingBox": {
                "height": 22.255656108597286,
                "width": 117.5553319919517,
                "left": 227.9374685613682,
                "top": 157.0260180995475
            },
            "points": [
                {
                    "x": 227.9374685613682,
                    "y": 157.0260180995475
                },
                {
                    "x": 345.4928005533199,
                    "y": 157.0260180995475
                },
                {
                    "x": 345.4928005533199,
                    "y": 179.2816742081448
                },
                {
                    "x": 227.9374685613682,
                    "y": 179.2816742081448
                }
            ]
        }
    ],
    "version": "2.2.0"
}