{
    "asset": {
        "format": "jpg",
        "id": "da3f7462813183f670c34ca63aaf9705",
        "name": "09270-receipt.jpg",
        "path": "file:/home/administrator/ocr/Train-OCR/TrainYourOwnYOLO/Data/receipts_Source_Images/Train_receipt/09270-receipt.jpg",
        "size": {
            "width": 253,
            "height": 450
        },
        "state": 2,
        "type": 1
    },
    "regions": [
        {
            "id": "41lgPXUUD",
            "type": "POLYGON",
            "tags": [
                "Shop_Name"
            ],
            "boundingBox": {
                "height": 19.34389140271493,
                "width": 132.35412474849096,
                "left": 64.9123805331992,
                "top": 35.633484162895925
            },
            "points": [
                {
                    "x": 65.93048918511066,
                    "y": 54.977375565610856
                },
                {
                    "x": 197.26650528169014,
                    "y": 45.81447963800905
                },
                {
                    "x": 194.72123365191146,
                    "y": 35.633484162895925
                },
                {
                    "x": 64.9123805331992,
                    "y": 46.3235294117647
                }
            ]
        },
        {
            "id": "Nbop1Mfjh",
            "type": "POLYGON",
            "tags": [
                "Shop_Address"
            ],
            "boundingBox": {
                "height": 28.50678733031674,
                "width": 103.33802816901408,
                "left": 78.65684733400403,
                "top": 48.35972850678733
            },
            "points": [
                {
                    "x": 79.16590165995976,
                    "y": 76.86651583710406
                },
                {
                    "x": 180.46771252515092,
                    "y": 69.73981900452489
                },
                {
                    "x": 181.9948755030181,
                    "y": 48.35972850678733
                },
                {
                    "x": 78.65684733400403,
                    "y": 53.45022624434389
                }
            ]
        },
        {
            "id": "iQOPVtR2F",
            "type": "POLYGON",
            "tags": [
                "Mobile_no"
            ],
            "boundingBox": {
                "height": 15.271493212669682,
                "width": 76.8672032193159,
                "left": 103.09145497987927,
                "top": 68.21266968325791
            },
            "points": [
                {
                    "x": 103.600509305835,
                    "y": 83.4841628959276
                },
                {
                    "x": 179.95865819919518,
                    "y": 78.39366515837104
                },
                {
                    "x": 179.44960387323943,
                    "y": 68.21266968325791
                },
                {
                    "x": 103.09145497987927,
                    "y": 73.81221719457014
                }
            ]
        },
        {
            "id": "SC0w9wNUP",
            "type": "POLYGON",
            "tags": [
                "Date"
            ],
            "boundingBox": {
                "height": 14.25339366515837,
                "width": 39.70623742454728,
                "left": 103.600509305835,
                "top": 113.5180995475113
            },
            "points": [
                {
                    "x": 105.63672660965796,
                    "y": 127.77149321266967
                },
                {
                    "x": 143.3067467303823,
                    "y": 127.26244343891402
                },
                {
                    "x": 143.3067467303823,
                    "y": 113.5180995475113
                },
                {
                    "x": 103.600509305835,
                    "y": 116.06334841628959
                }
            ]
        },
        {
            "id": "a4BUy7jF7",
            "type": "POLYGON",
            "tags": [
                "Content_Items"
            ],
            "boundingBox": {
                "height": 48.86877828054298,
                "width": 141.51710261569417,
                "left": 65.42143485915493,
                "top": 139.47963800904978
            },
            "points": [
                {
                    "x": 65.42143485915493,
                    "y": 150.16968325791854
                },
                {
                    "x": 203.8842115191147,
                    "y": 139.47963800904978
                },
                {
                    "x": 206.93853747484908,
                    "y": 182.74886877828052
                },
                {
                    "x": 65.42143485915493,
                    "y": 188.34841628959276
                }
            ]
        },
        {
            "id": "s5hD-HkEX",
            "type": "POLYGON",
            "tags": [
                "tax"
            ],
            "boundingBox": {
                "height": 16.289592760180994,
                "width": 141.51710261569417,
                "left": 71.02103244466801,
                "top": 201.5837104072398
            },
            "points": [
                {
                    "x": 71.02103244466801,
                    "y": 217.8733031674208
                },
                {
                    "x": 212.53813506036218,
                    "y": 212.78280542986425
                },
                {
                    "x": 211.52002640845072,
                    "y": 201.5837104072398
                },
                {
                    "x": 71.53008677062374,
                    "y": 207.69230769230768
                }
            ]
        },
        {
            "id": "zugGMd6P_",
            "type": "POLYGON",
            "tags": [
                "amount_details"
            ],
            "boundingBox": {
                "height": 17.816742081447963,
                "width": 37.160965794768615,
                "left": 177.92244089537223,
                "top": 248.41628959276017
            },
            "points": [
                {
                    "x": 180.46771252515092,
                    "y": 266.2330316742081
                },
                {
                    "x": 215.08340669014083,
                    "y": 266.2330316742081
                },
                {
                    "x": 215.08340669014083,
                    "y": 248.41628959276017
                },
                {
                    "x": 177.92244089537223,
                    "y": 252.4886877828054
                }
            ]
        }
    ],
    "version": "2.2.0"
}