{
    "asset": {
        "format": "jpg",
        "id": "dcc583746d928785df9819a7b8422312",
        "name": "01417-receipt.jpg",
        "path": "file:/home/administrator/ocr/Train-OCR/TrainYourOwnYOLO/Data/receipts_Source_Images/Train_receipt/01417-receipt.jpg",
        "size": {
            "width": 338,
            "height": 450
        },
        "state": 2,
        "type": 1
    },
    "regions": [
        {
            "id": "sViGH9lOY",
            "type": "RECTANGLE",
            "tags": [
                "Shop_Name"
            ],
            "boundingBox": {
                "height": 22.398190045248867,
                "width": 188.34337349397592,
                "left": 55.230421686746986,
                "top": 1.5271493212669682
            },
            "points": [
                {
                    "x": 55.230421686746986,
                    "y": 1.5271493212669682
                },
                {
                    "x": 243.5737951807229,
                    "y": 1.5271493212669682
                },
                {
                    "x": 243.5737951807229,
                    "y": 23.925339366515836
                },
                {
                    "x": 55.230421686746986,
                    "y": 23.925339366515836
                }
            ]
        },
        {
            "id": "_SeXXD64d",
            "type": "RECTANGLE",
            "tags": [
                "Shop_Address"
            ],
            "boundingBox": {
                "height": 25.452488687782804,
                "width": 129.80421686746988,
                "left": 85.26355421686748,
                "top": 32.57918552036199
            },
            "points": [
                {
                    "x": 85.26355421686748,
                    "y": 32.57918552036199
                },
                {
                    "x": 215.06777108433735,
                    "y": 32.57918552036199
                },
                {
                    "x": 215.06777108433735,
                    "y": 58.03167420814479
                },
                {
                    "x": 85.26355421686748,
                    "y": 58.03167420814479
                }
            ]
        },
        {
            "id": "6pjEZzT0T",
            "type": "RECTANGLE",
            "tags": [
                "Content_Items"
            ],
            "boundingBox": {
                "height": 38.68778280542986,
                "width": 185.289156626506,
                "left": 68.97439759036145,
                "top": 147.1153846153846
            },
            "points": [
                {
                    "x": 68.97439759036145,
                    "y": 147.1153846153846
                },
                {
                    "x": 254.26355421686748,
                    "y": 147.1153846153846
                },
                {
                    "x": 254.26355421686748,
                    "y": 185.80316742081448
                },
                {
                    "x": 68.97439759036145,
                    "y": 185.80316742081448
                }
            ]
        },
        {
            "id": "B0xqQMlJV",
            "type": "RECTANGLE",
            "tags": [
                "amount_details"
            ],
            "boundingBox": {
                "height": 16.79864253393665,
                "width": 29.015060240963855,
                "left": 229.32078313253012,
                "top": 198.02036199095022
            },
            "points": [
                {
                    "x": 229.32078313253012,
                    "y": 198.02036199095022
                },
                {
                    "x": 258.33584337349396,
                    "y": 198.02036199095022
                },
                {
                    "x": 258.33584337349396,
                    "y": 214.81900452488685
                },
                {
                    "x": 229.32078313253012,
                    "y": 214.81900452488685
                }
            ]
        }
    ],
    "version": "2.2.0"
}