{
    "asset": {
        "format": "jpg",
        "id": "df5da07908b70b5866708bdc2632a900",
        "name": "10005-receipt.jpg",
        "path": "file:/home/administrator/ocr/Train-OCR/TrainYourOwnYOLO/Data/receipts_Source_Images/Train_receipt/10005-receipt.jpg",
        "size": {
            "width": 338,
            "height": 450
        },
        "state": 2,
        "type": 1
    },
    "regions": [
        {
            "id": "pUQBoCxIp",
            "type": "RECTANGLE",
            "tags": [
                "Shop_Name"
            ],
            "boundingBox": {
                "height": 32.07013574660633,
                "width": 191.3975903614458,
                "left": 66.17469879518072,
                "top": 46.3235294117647
            },
            "points": [
                {
                    "x": 66.17469879518072,
                    "y": 46.3235294117647
                },
                {
                    "x": 257.5722891566265,
                    "y": 46.3235294117647
                },
                {
                    "x": 257.5722891566265,
                    "y": 78.39366515837104
                },
                {
                    "x": 66.17469879518072,
                    "y": 78.39366515837104
                }
            ]
        },
        {
            "id": "l60Ztoy9z",
            "type": "RECTANGLE",
            "tags": [
                "Shop_Address"
            ],
            "boundingBox": {
                "height": 29.015837104072396,
                "width": 151.18373493975903,
                "left": 93.66265060240964,
                "top": 78.90271493212668
            },
            "points": [
                {
                    "x": 93.66265060240964,
                    "y": 78.90271493212668
                },
                {
                    "x": 244.84638554216866,
                    "y": 78.90271493212668
                },
                {
                    "x": 244.84638554216866,
                    "y": 107.91855203619909
                },
                {
                    "x": 93.66265060240964,
                    "y": 107.91855203619909
                }
            ]
        },
        {
            "id": "ngglSCDZj",
            "type": "RECTANGLE",
            "tags": [
                "Date"
            ],
            "boundingBox": {
                "height": 20.8710407239819,
                "width": 80.42771084337349,
                "left": 248.91867469879517,
                "top": 139.9886877828054
            },
            "points": [
                {
                    "x": 248.91867469879517,
                    "y": 139.9886877828054
                },
                {
                    "x": 329.34638554216866,
                    "y": 139.9886877828054
                },
                {
                    "x": 329.34638554216866,
                    "y": 160.85972850678732
                },
                {
                    "x": 248.91867469879517,
                    "y": 160.85972850678732
                }
            ]
        },
        {
            "id": "Q2mZkaRZu",
            "type": "RECTANGLE",
            "tags": [
                "Content_Items"
            ],
            "boundingBox": {
                "height": 67.70361990950227,
                "width": 318.1475903614458,
                "left": 11.707831325301205,
                "top": 178.1674208144796
            },
            "points": [
                {
                    "x": 11.707831325301205,
                    "y": 178.1674208144796
                },
                {
                    "x": 329.855421686747,
                    "y": 178.1674208144796
                },
                {
                    "x": 329.855421686747,
                    "y": 245.87104072398188
                },
                {
                    "x": 11.707831325301205,
                    "y": 245.87104072398188
                }
            ]
        },
        {
            "id": "pmX4Vv6dH",
            "type": "RECTANGLE",
            "tags": [
                "tax"
            ],
            "boundingBox": {
                "height": 37.160633484162894,
                "width": 114.02409638554217,
                "left": 214.30421686746988,
                "top": 271.83257918552033
            },
            "points": [
                {
                    "x": 214.30421686746988,
                    "y": 271.83257918552033
                },
                {
                    "x": 328.328313253012,
                    "y": 271.83257918552033
                },
                {
                    "x": 328.328313253012,
                    "y": 308.99321266968326
                },
                {
                    "x": 214.30421686746988,
                    "y": 308.99321266968326
                }
            ]
        },
        {
            "id": "nLLcaGNJu",
            "type": "RECTANGLE",
            "tags": [
                "tax"
            ],
            "boundingBox": {
                "height": 32.07013574660633,
                "width": 46.3222891566265,
                "left": 9.162650602409638,
                "top": 381.78733031674204
            },
            "points": [
                {
                    "x": 9.162650602409638,
                    "y": 381.78733031674204
                },
                {
                    "x": 55.484939759036145,
                    "y": 381.78733031674204
                },
                {
                    "x": 55.484939759036145,
                    "y": 413.8574660633484
                },
                {
                    "x": 9.162650602409638,
                    "y": 413.8574660633484
                }
            ]
        },
        {
            "id": "I8A7id1GJ",
            "type": "RECTANGLE",
            "tags": [
                "tax"
            ],
            "boundingBox": {
                "height": 41.23303167420814,
                "width": 55.484939759036145,
                "left": 275.8975903614458,
                "top": 381.78733031674204
            },
            "points": [
                {
                    "x": 275.8975903614458,
                    "y": 381.78733031674204
                },
                {
                    "x": 331.38253012048193,
                    "y": 381.78733031674204
                },
                {
                    "x": 331.38253012048193,
                    "y": 423.0203619909502
                },
                {
                    "x": 275.8975903614458,
                    "y": 423.0203619909502
                }
            ]
        }
    ],
    "version": "2.2.0"
}