{
    "asset": {
        "format": "jpg",
        "id": "e264e3a576eb8ae29b168f56f10f6373",
        "name": "08401-receipt.jpg",
        "path": "file:/home/administrator/ocr/Train-OCR/TrainYourOwnYOLO/Data/receipts_Source_Images/Train_receipt/08401-receipt.jpg",
        "size": {
            "width": 253,
            "height": 450
        },
        "state": 2,
        "type": 1
    },
    "regions": [
        {
            "id": "JdtfzsUvT",
            "type": "RECTANGLE",
            "tags": [
                "Shop_Name"
            ],
            "boundingBox": {
                "height": 32.57918552036199,
                "width": 114.02816901408451,
                "left": 62.87616322937626,
                "top": 53.45022624434389
            },
            "points": [
                {
                    "x": 62.87616322937626,
                    "y": 53.45022624434389
                },
                {
                    "x": 176.90433224346077,
                    "y": 53.45022624434389
                },
                {
                    "x": 176.90433224346077,
                    "y": 86.02941176470588
                },
                {
                    "x": 62.87616322937626,
                    "y": 86.02941176470588
                }
            ]
        },
        {
            "id": "ZNGax7KJy",
            "type": "RECTANGLE",
            "tags": [
                "Content_Items"
            ],
            "boundingBox": {
                "height": 46.83257918552036,
                "width": 137.95372233400403,
                "left": 46.586424798792756,
                "top": 136.9343891402715
            },
            "points": [
                {
                    "x": 46.586424798792756,
                    "y": 136.9343891402715
                },
                {
                    "x": 184.5401471327968,
                    "y": 136.9343891402715
                },
                {
                    "x": 184.5401471327968,
                    "y": 183.76696832579185
                },
                {
                    "x": 46.586424798792756,
                    "y": 183.76696832579185
                }
            ]
        },
        {
            "id": "e_nJtDJoi",
            "type": "RECTANGLE",
            "tags": [
                "amount_details"
            ],
            "boundingBox": {
                "height": 17.307692307692307,
                "width": 44.287726358148895,
                "left": 144.8339097082495,
                "top": 188.8574660633484
            },
            "points": [
                {
                    "x": 144.8339097082495,
                    "y": 188.8574660633484
                },
                {
                    "x": 189.1216360663984,
                    "y": 188.8574660633484
                },
                {
                    "x": 189.1216360663984,
                    "y": 206.16515837104072
                },
                {
                    "x": 144.8339097082495,
                    "y": 206.16515837104072
                }
            ]
        },
        {
            "id": "oP9xSppWv",
            "type": "RECTANGLE",
            "tags": [
                "Date"
            ],
            "boundingBox": {
                "height": 14.762443438914026,
                "width": 44.287726358148895,
                "left": 92.14678697183099,
                "top": 271.3235294117647
            },
            "points": [
                {
                    "x": 92.14678697183099,
                    "y": 271.3235294117647
                },
                {
                    "x": 136.4345133299799,
                    "y": 271.3235294117647
                },
                {
                    "x": 136.4345133299799,
                    "y": 286.08597285067873
                },
                {
                    "x": 92.14678697183099,
                    "y": 286.08597285067873
                }
            ]
        },
        {
            "id": "PE1oil5vf",
            "type": "RECTANGLE",
            "tags": [
                "Mobile_no"
            ],
            "boundingBox": {
                "height": 14.762443438914026,
                "width": 47.3420523138833,
                "left": 107.41841675050301,
                "top": 82.46606334841628
            },
            "points": [
                {
                    "x": 107.41841675050301,
                    "y": 82.46606334841628
                },
                {
                    "x": 154.7604690643863,
                    "y": 82.46606334841628
                },
                {
                    "x": 154.7604690643863,
                    "y": 97.2285067873303
                },
                {
                    "x": 107.41841675050301,
                    "y": 97.2285067873303
                }
            ]
        },
        {
            "id": "0CEz_sA6O",
            "type": "RECTANGLE",
            "tags": [
                "tax"
            ],
            "boundingBox": {
                "height": 22.398190045248867,
                "width": 150.68008048289738,
                "left": 42.259463028169016,
                "top": 243.3257918552036
            },
            "points": [
                {
                    "x": 42.259463028169016,
                    "y": 243.3257918552036
                },
                {
                    "x": 192.9395435110664,
                    "y": 243.3257918552036
                },
                {
                    "x": 192.9395435110664,
                    "y": 265.7239819004525
                },
                {
                    "x": 42.259463028169016,
                    "y": 265.7239819004525
                }
            ]
        }
    ],
    "version": "2.2.0"
}