{
    "asset": {
        "format": "jpg",
        "id": "e44a402c9bffe21708b43281ba62bd99",
        "name": "02243-receipt.jpg",
        "path": "file:/home/administrator/ocr/Train-OCR/TrainYourOwnYOLO/Data/receipts_Source_Images/Train_receipt/02243-receipt.jpg",
        "size": {
            "width": 337,
            "height": 450
        },
        "state": 2,
        "type": 1
    },
    "regions": [
        {
            "id": "OgT031ACQ",
            "type": "RECTANGLE",
            "tags": [
                "others"
            ],
            "boundingBox": {
                "height": 20.8710407239819,
                "width": 209.7341389728097,
                "left": 35.89692692598187,
                "top": 12.217194570135746
            },
            "points": [
                {
                    "x": 35.89692692598187,
                    "y": 12.217194570135746
                },
                {
                    "x": 245.63106589879155,
                    "y": 12.217194570135746
                },
                {
                    "x": 245.63106589879155,
                    "y": 33.088235294117645
                },
                {
                    "x": 35.89692692598187,
                    "y": 33.088235294117645
                }
            ]
        },
        {
            "id": "K1AqO-I9O",
            "type": "RECTANGLE",
            "tags": [
                "Date"
            ],
            "boundingBox": {
                "height": 14.25339366515837,
                "width": 90.10422960725076,
                "left": 66.44073357250755,
                "top": 118.60859728506787
            },
            "points": [
                {
                    "x": 66.44073357250755,
                    "y": 118.60859728506787
                },
                {
                    "x": 156.54496317975833,
                    "y": 118.60859728506787
                },
                {
                    "x": 156.54496317975833,
                    "y": 132.86199095022624
                },
                {
                    "x": 66.44073357250755,
                    "y": 132.86199095022624
                }
            ]
        },
        {
            "id": "Q62VXYXOm",
            "type": "RECTANGLE",
            "tags": [
                "Content_Items"
            ],
            "boundingBox": {
                "height": 83.4841628959276,
                "width": 274.38519637462235,
                "left": 5.353120279456194,
                "top": 175.1131221719457
            },
            "points": [
                {
                    "x": 5.353120279456194,
                    "y": 175.1131221719457
                },
                {
                    "x": 279.7383166540786,
                    "y": 175.1131221719457
                },
                {
                    "x": 279.7383166540786,
                    "y": 258.59728506787326
                },
                {
                    "x": 5.353120279456194,
                    "y": 258.59728506787326
                }
            ]
        },
        {
            "id": "RkY0oO2HZ",
            "type": "RECTANGLE",
            "tags": [
                "amount_details"
            ],
            "boundingBox": {
                "height": 26.470588235294116,
                "width": 131.8474320241692,
                "left": 197.779102152568,
                "top": 399.60407239819
            },
            "points": [
                {
                    "x": 197.779102152568,
                    "y": 399.60407239819
                },
                {
                    "x": 329.6265341767372,
                    "y": 399.60407239819
                },
                {
                    "x": 329.6265341767372,
                    "y": 426.07466063348414
                },
                {
                    "x": 197.779102152568,
                    "y": 426.07466063348414
                }
            ]
        }
    ],
    "version": "2.2.0"
}