{
    "asset": {
        "format": "jpg",
        "id": "e49e69969d9c1aeaef8c9423ce95274e",
        "name": "1118-receipt.jpg",
        "path": "file:/home/administrator/ocr/Train-OCR/TrainYourOwnYOLO/Data/receipts_Source_Images/Train_receipt/1118-receipt.jpg",
        "size": {
            "width": 300,
            "height": 400
        },
        "state": 2,
        "type": 1
    },
    "regions": [
        {
            "id": "NabP4JZ2D",
            "type": "RECTANGLE",
            "tags": [
                "Shop_Name"
            ],
            "boundingBox": {
                "height": 7.6923076923076925,
                "width": 126.69683257918552,
                "left": 84.38914027149322,
                "top": 58.3710407239819
            },
            "points": [
                {
                    "x": 84.38914027149322,
                    "y": 58.3710407239819
                },
                {
                    "x": 211.08597285067873,
                    "y": 58.3710407239819
                },
                {
                    "x": 211.08597285067873,
                    "y": 66.0633484162896
                },
                {
                    "x": 84.38914027149322,
                    "y": 66.0633484162896
                }
            ]
        },
        {
            "id": "HftS-FIVv",
            "type": "RECTANGLE",
            "tags": [
                "Shop_Address"
            ],
            "boundingBox": {
                "height": 23.076923076923077,
                "width": 90.04524886877829,
                "left": 103.84615384615384,
                "top": 66.0633484162896
            },
            "points": [
                {
                    "x": 103.84615384615384,
                    "y": 66.0633484162896
                },
                {
                    "x": 193.89140271493213,
                    "y": 66.0633484162896
                },
                {
                    "x": 193.89140271493213,
                    "y": 89.14027149321267
                },
                {
                    "x": 103.84615384615384,
                    "y": 89.14027149321267
                }
            ]
        },
        {
            "id": "WsUxoi9Mi",
            "type": "RECTANGLE",
            "tags": [
                "Mobile_no"
            ],
            "boundingBox": {
                "height": 10.85972850678733,
                "width": 67.87330316742081,
                "left": 118.32579185520362,
                "top": 87.78280542986425
            },
            "points": [
                {
                    "x": 118.32579185520362,
                    "y": 87.78280542986425
                },
                {
                    "x": 186.19909502262445,
                    "y": 87.78280542986425
                },
                {
                    "x": 186.19909502262445,
                    "y": 98.64253393665159
                },
                {
                    "x": 118.32579185520362,
                    "y": 98.64253393665159
                }
            ]
        },
        {
            "id": "EIgbGSDaK",
            "type": "RECTANGLE",
            "tags": [
                "Date"
            ],
            "boundingBox": {
                "height": 10.407239819004525,
                "width": 52.036199095022624,
                "left": 197.51131221719456,
                "top": 127.60180995475113
            },
            "points": [
                {
                    "x": 197.51131221719456,
                    "y": 127.60180995475113
                },
                {
                    "x": 249.54751131221718,
                    "y": 127.60180995475113
                },
                {
                    "x": 249.54751131221718,
                    "y": 138.00904977375566
                },
                {
                    "x": 197.51131221719456,
                    "y": 138.00904977375566
                }
            ]
        },
        {
            "id": "gz1Ms8J-m",
            "type": "RECTANGLE",
            "tags": [
                "Content_Items",
                "amount_details"
            ],
            "boundingBox": {
                "height": 69.68325791855203,
                "width": 206.78733031674207,
                "left": 48.19004524886878,
                "top": 184.16289592760182
            },
            "points": [
                {
                    "x": 48.19004524886878,
                    "y": 184.16289592760182
                },
                {
                    "x": 254.97737556561086,
                    "y": 184.16289592760182
                },
                {
                    "x": 254.97737556561086,
                    "y": 253.84615384615384
                },
                {
                    "x": 48.19004524886878,
                    "y": 253.84615384615384
                }
            ]
        },
        {
            "id": "4LwGOMd3mq",
            "type": "RECTANGLE",
            "tags": [
                "amount_details"
            ],
            "boundingBox": {
                "height": 12.217194570135746,
                "width": 42.98642533936652,
                "left": 211.99095022624434,
                "top": 299.09502262443436
            },
            "points": [
                {
                    "x": 211.99095022624434,
                    "y": 299.09502262443436
                },
                {
                    "x": 254.97737556561086,
                    "y": 299.09502262443436
                },
                {
                    "x": 254.97737556561086,
                    "y": 311.3122171945701
                },
                {
                    "x": 211.99095022624434,
                    "y": 311.3122171945701
                }
            ]
        },
        {
            "id": "xh4GvpgXI",
            "type": "RECTANGLE",
            "tags": [
                "tax"
            ],
            "boundingBox": {
                "height": 11.764705882352942,
                "width": 19.004524886877828,
                "left": 49.547511312217196,
                "top": 277.3755656108597
            },
            "points": [
                {
                    "x": 49.547511312217196,
                    "y": 277.3755656108597
                },
                {
                    "x": 68.55203619909503,
                    "y": 277.3755656108597
                },
                {
                    "x": 68.55203619909503,
                    "y": 289.14027149321265
                },
                {
                    "x": 49.547511312217196,
                    "y": 289.14027149321265
                }
            ]
        },
        {
            "id": "IdhpnW-ZA",
            "type": "RECTANGLE",
            "tags": [
                "tax"
            ],
            "boundingBox": {
                "height": 10.407239819004525,
                "width": 26.69683257918552,
                "left": 227.37556561085972,
                "top": 275.5656108597285
            },
            "points": [
                {
                    "x": 227.37556561085972,
                    "y": 275.5656108597285
                },
                {
                    "x": 254.07239819004525,
                    "y": 275.5656108597285
                },
                {
                    "x": 254.07239819004525,
                    "y": 285.97285067873304
                },
                {
                    "x": 227.37556561085972,
                    "y": 285.97285067873304
                }
            ]
        }
    ],
    "version": "2.2.0"
}