{
    "asset": {
        "format": "png",
        "id": "e5d59d8b5d11b2cf6ab1ac658f0213d3",
        "name": "02255-receipt.png",
        "path": "file:/home/administrator/ocr/Train-OCR/TrainYourOwnYOLO/Data/receipts_Source_Images/Train_receipt/02255-receipt.png",
        "size": {
            "width": 444,
            "height": 468
        },
        "state": 2,
        "type": 1
    },
    "regions": [
        {
            "id": "vWtpa6oqZ",
            "type": "RECTANGLE",
            "tags": [
                "amount_details"
            ],
            "boundingBox": {
                "height": 27,
                "width": 79.90941597139452,
                "left": 271.39764600715137,
                "top": 229.76470588235296
            },
            "points": [
                {
                    "x": 271.39764600715137,
                    "y": 229.76470588235296
                },
                {
                    "x": 351.3070619785459,
                    "y": 229.76470588235296
                },
                {
                    "x": 351.3070619785459,
                    "y": 256.7647058823529
                },
                {
                    "x": 271.39764600715137,
                    "y": 256.7647058823529
                }
            ]
        },
        {
            "id": "oXdho59de",
            "type": "RECTANGLE",
            "tags": [
                "Date"
            ],
            "boundingBox": {
                "height": 18.529411764705884,
                "width": 55.036948748510135,
                "left": 94.64436829559,
                "top": 113.29411764705883
            },
            "points": [
                {
                    "x": 94.64436829559,
                    "y": 113.29411764705883
                },
                {
                    "x": 149.68131704410013,
                    "y": 113.29411764705883
                },
                {
                    "x": 149.68131704410013,
                    "y": 131.8235294117647
                },
                {
                    "x": 94.64436829559,
                    "y": 131.8235294117647
                }
            ]
        },
        {
            "id": "0PvUb65Uz",
            "type": "RECTANGLE",
            "tags": [
                "others"
            ],
            "boundingBox": {
                "height": 78.3529411764706,
                "width": 261.95470798569727,
                "left": 93.05676400476759,
                "top": 34.94117647058824
            },
            "points": [
                {
                    "x": 93.05676400476759,
                    "y": 34.94117647058824
                },
                {
                    "x": 355.0114719904649,
                    "y": 34.94117647058824
                },
                {
                    "x": 355.0114719904649,
                    "y": 113.29411764705883
                },
                {
                    "x": 93.05676400476759,
                    "y": 113.29411764705883
                }
            ]
        }
    ],
    "version": "2.2.0"
}