{
    "asset": {
        "format": "jpg",
        "id": "e699218d73d4c53a607c156b80356538",
        "name": "08739-receipt.jpg",
        "path": "file:/home/administrator/ocr/Train-OCR/TrainYourOwnYOLO/Data/receipts_Source_Images/Train_receipt/08739-receipt.jpg",
        "size": {
            "width": 338,
            "height": 450
        },
        "state": 2,
        "type": 1
    },
    "regions": [
        {
            "id": "C-23sHtZ4",
            "type": "RECTANGLE",
            "tags": [
                "Shop_Name"
            ],
            "boundingBox": {
                "height": 11.70814479638009,
                "width": 130.8222891566265,
                "left": 30.542168674698797,
                "top": 102.31900452488688
            },
            "points": [
                {
                    "x": 30.542168674698797,
                    "y": 102.31900452488688
                },
                {
                    "x": 161.3644578313253,
                    "y": 102.31900452488688
                },
                {
                    "x": 161.3644578313253,
                    "y": 114.02714932126696
                },
                {
                    "x": 30.542168674698797,
                    "y": 114.02714932126696
                }
            ]
        },
        {
            "id": "11_0xDVqo",
            "type": "RECTANGLE",
            "tags": [
                "Shop_Address"
            ],
            "boundingBox": {
                "height": 29.015837104072396,
                "width": 135.91265060240963,
                "left": 36.65060240963855,
                "top": 114.02714932126696
            },
            "points": [
                {
                    "x": 36.65060240963855,
                    "y": 114.02714932126696
                },
                {
                    "x": 172.5632530120482,
                    "y": 114.02714932126696
                },
                {
                    "x": 172.5632530120482,
                    "y": 143.04298642533936
                },
                {
                    "x": 36.65060240963855,
                    "y": 143.04298642533936
                }
            ]
        },
        {
            "id": "_ZBbcfNcO",
            "type": "RECTANGLE",
            "tags": [
                "Mobile_no"
            ],
            "boundingBox": {
                "height": 12.726244343891402,
                "width": 79.40963855421687,
                "left": 70.24698795180723,
                "top": 143.55203619909503
            },
            "points": [
                {
                    "x": 70.24698795180723,
                    "y": 143.55203619909503
                },
                {
                    "x": 149.6566265060241,
                    "y": 143.55203619909503
                },
                {
                    "x": 149.6566265060241,
                    "y": 156.2782805429864
                },
                {
                    "x": 70.24698795180723,
                    "y": 156.2782805429864
                }
            ]
        },
        {
            "id": "iOrLYN7lN",
            "type": "RECTANGLE",
            "tags": [
                "amount_details"
            ],
            "boundingBox": {
                "height": 17.307692307692307,
                "width": 60.066265060240966,
                "left": 202.59638554216866,
                "top": 251.4705882352941
            },
            "points": [
                {
                    "x": 202.59638554216866,
                    "y": 251.4705882352941
                },
                {
                    "x": 262.66265060240966,
                    "y": 251.4705882352941
                },
                {
                    "x": 262.66265060240966,
                    "y": 268.7782805429864
                },
                {
                    "x": 202.59638554216866,
                    "y": 268.7782805429864
                }
            ]
        },
        {
            "id": "OOLGCJtMh",
            "type": "RECTANGLE",
            "tags": [
                "tax"
            ],
            "boundingBox": {
                "height": 45.81447963800905,
                "width": 26.46987951807229,
                "left": 42.25,
                "top": 280.4864253393665
            },
            "points": [
                {
                    "x": 42.25,
                    "y": 280.4864253393665
                },
                {
                    "x": 68.71987951807229,
                    "y": 280.4864253393665
                },
                {
                    "x": 68.71987951807229,
                    "y": 326.3009049773755
                },
                {
                    "x": 42.25,
                    "y": 326.3009049773755
                }
            ]
        },
        {
            "id": "2KHX4E4em",
            "type": "RECTANGLE",
            "tags": [
                "tax"
            ],
            "boundingBox": {
                "height": 43.77828054298642,
                "width": 30.542168674698797,
                "left": 215.83132530120483,
                "top": 282.5226244343891
            },
            "points": [
                {
                    "x": 215.83132530120483,
                    "y": 282.5226244343891
                },
                {
                    "x": 246.3734939759036,
                    "y": 282.5226244343891
                },
                {
                    "x": 246.3734939759036,
                    "y": 326.3009049773755
                },
                {
                    "x": 215.83132530120483,
                    "y": 326.3009049773755
                }
            ]
        }
    ],
    "version": "2.2.0"
}