{
    "asset": {
        "format": "jpg",
        "id": "e6bf087dea4dc67da621f3066d098819",
        "name": "07213-receipt.jpg",
        "path": "file:/home/administrator/ocr/Train-OCR/TrainYourOwnYOLO/Data/receipts_Source_Images/Train_receipt/07213-receipt.jpg",
        "size": {
            "width": 300,
            "height": 400
        },
        "state": 2,
        "type": 1
    },
    "regions": [
        {
            "id": "3m8gT5BLr",
            "type": "RECTANGLE",
            "tags": [
                "Content_Items"
            ],
            "boundingBox": {
                "height": 40.27149321266968,
                "width": 242.98642533936652,
                "left": 24.8868778280543,
                "top": 147.96380090497738
            },
            "points": [
                {
                    "x": 24.8868778280543,
                    "y": 147.96380090497738
                },
                {
                    "x": 267.87330316742083,
                    "y": 147.96380090497738
                },
                {
                    "x": 267.87330316742083,
                    "y": 188.23529411764707
                },
                {
                    "x": 24.8868778280543,
                    "y": 188.23529411764707
                }
            ]
        },
        {
            "id": "GDFSy5_wg",
            "type": "RECTANGLE",
            "tags": [
                "amount_details"
            ],
            "boundingBox": {
                "height": 22.171945701357465,
                "width": 43.89140271493213,
                "left": 228.50678733031674,
                "top": 261.99095022624437
            },
            "points": [
                {
                    "x": 228.50678733031674,
                    "y": 261.99095022624437
                },
                {
                    "x": 272.3981900452489,
                    "y": 261.99095022624437
                },
                {
                    "x": 272.3981900452489,
                    "y": 284.1628959276018
                },
                {
                    "x": 228.50678733031674,
                    "y": 284.1628959276018
                }
            ]
        },
        {
            "id": "LtBjxQe66",
            "type": "RECTANGLE",
            "tags": [
                "tax"
            ],
            "boundingBox": {
                "height": 11.312217194570136,
                "width": 162.89592760180994,
                "left": 103.61990950226244,
                "top": 215.8371040723982
            },
            "points": [
                {
                    "x": 103.61990950226244,
                    "y": 215.8371040723982
                },
                {
                    "x": 266.5158371040724,
                    "y": 215.8371040723982
                },
                {
                    "x": 266.5158371040724,
                    "y": 227.14932126696831
                },
                {
                    "x": 103.61990950226244,
                    "y": 227.14932126696831
                }
            ]
        }
    ],
    "version": "2.2.0"
}