{
    "asset": {
        "format": "jpg",
        "id": "e6eccdc6ea57b1ba61fb29e630a4c684",
        "name": "09840-receipt.jpg",
        "path": "file:/home/administrator/ocr/Train-OCR/TrainYourOwnYOLO/Data/receipts_Source_Images/Train_receipt/09840-receipt.jpg",
        "size": {
            "width": 338,
            "height": 450
        },
        "state": 2,
        "type": 1
    },
    "regions": [
        {
            "id": "5h6Y3N1xa",
            "type": "RECTANGLE",
            "tags": [
                "Shop_Address"
            ],
            "boundingBox": {
                "height": 40.723981900452486,
                "width": 141.5120481927711,
                "left": 75.84638554216868,
                "top": 32.07013574660633
            },
            "points": [
                {
                    "x": 75.84638554216868,
                    "y": 32.07013574660633
                },
                {
                    "x": 217.35843373493975,
                    "y": 32.07013574660633
                },
                {
                    "x": 217.35843373493975,
                    "y": 72.79411764705881
                },
                {
                    "x": 75.84638554216868,
                    "y": 72.79411764705881
                }
            ]
        },
        {
            "id": "IJvAsDeXR",
            "type": "RECTANGLE",
            "tags": [
                "Date"
            ],
            "boundingBox": {
                "height": 10.690045248868778,
                "width": 58.53915662650603,
                "left": 185.79819277108433,
                "top": 96.210407239819
            },
            "points": [
                {
                    "x": 185.79819277108433,
                    "y": 96.210407239819
                },
                {
                    "x": 244.33734939759037,
                    "y": 96.210407239819
                },
                {
                    "x": 244.33734939759037,
                    "y": 106.90045248868778
                },
                {
                    "x": 185.79819277108433,
                    "y": 106.90045248868778
                }
            ]
        },
        {
            "id": "cus9yc-9D",
            "type": "RECTANGLE",
            "tags": [
                "Content_Items"
            ],
            "boundingBox": {
                "height": 64.14027149321267,
                "width": 211.25,
                "left": 39.19578313253012,
                "top": 157.80542986425337
            },
            "points": [
                {
                    "x": 39.19578313253012,
                    "y": 157.80542986425337
                },
                {
                    "x": 250.44578313253012,
                    "y": 157.80542986425337
                },
                {
                    "x": 250.44578313253012,
                    "y": 221.94570135746605
                },
                {
                    "x": 39.19578313253012,
                    "y": 221.94570135746605
                }
            ]
        },
        {
            "id": "DlX8qP_uF",
            "type": "RECTANGLE",
            "tags": [
                "amount_details"
            ],
            "boundingBox": {
                "height": 25.96153846153846,
                "width": 72.7921686746988,
                "left": 174.59939759036143,
                "top": 231.10859728506784
            },
            "points": [
                {
                    "x": 174.59939759036143,
                    "y": 231.10859728506784
                },
                {
                    "x": 247.39156626506025,
                    "y": 231.10859728506784
                },
                {
                    "x": 247.39156626506025,
                    "y": 257.0701357466063
                },
                {
                    "x": 174.59939759036143,
                    "y": 257.0701357466063
                }
            ]
        },
        {
            "id": "ctYmGxEfR",
            "type": "RECTANGLE",
            "tags": [
                "tax"
            ],
            "boundingBox": {
                "height": 15.271493212669682,
                "width": 55.484939759036145,
                "left": 36.65060240963855,
                "top": 270.30542986425337
            },
            "points": [
                {
                    "x": 36.65060240963855,
                    "y": 270.30542986425337
                },
                {
                    "x": 92.1355421686747,
                    "y": 270.30542986425337
                },
                {
                    "x": 92.1355421686747,
                    "y": 285.57692307692304
                },
                {
                    "x": 36.65060240963855,
                    "y": 285.57692307692304
                }
            ]
        },
        {
            "id": "bmZ4n6qeY",
            "type": "RECTANGLE",
            "tags": [
                "tax"
            ],
            "boundingBox": {
                "height": 14.762443438914026,
                "width": 37.66867469879518,
                "left": 215.83132530120483,
                "top": 270.81447963800906
            },
            "points": [
                {
                    "x": 215.83132530120483,
                    "y": 270.81447963800906
                },
                {
                    "x": 253.5,
                    "y": 270.81447963800906
                },
                {
                    "x": 253.5,
                    "y": 285.57692307692304
                },
                {
                    "x": 215.83132530120483,
                    "y": 285.57692307692304
                }
            ]
        }
    ],
    "version": "2.2.0"
}