{
    "asset": {
        "format": "jpg",
        "id": "e77f97f976b2cb2972246d8dfd68f124",
        "name": "08495-receipt.jpg",
        "path": "file:/home/administrator/ocr/Train-OCR/TrainYourOwnYOLO/Data/receipts_Source_Images/Train_receipt/08495-receipt.jpg",
        "size": {
            "width": 550,
            "height": 413
        },
        "state": 2,
        "type": 1
    },
    "regions": [
        {
            "id": "Dodemd5yJ",
            "type": "RECTANGLE",
            "tags": [
                "Shop_Name"
            ],
            "boundingBox": {
                "height": 19.622171945701357,
                "width": 61.6822429906542,
                "left": 244.68457943925233,
                "top": 61.202488687782804
            },
            "points": [
                {
                    "x": 244.68457943925233,
                    "y": 61.202488687782804
                },
                {
                    "x": 306.36682242990656,
                    "y": 61.202488687782804
                },
                {
                    "x": 306.36682242990656,
                    "y": 80.82466063348416
                },
                {
                    "x": 244.68457943925233,
                    "y": 80.82466063348416
                }
            ]
        },
        {
            "id": "THJLze8_G",
            "type": "RECTANGLE",
            "tags": [
                "Shop_Address"
            ],
            "boundingBox": {
                "height": 31.302036199095024,
                "width": 119.1588785046729,
                "left": 223.1892523364486,
                "top": 76.61990950226244
            },
            "points": [
                {
                    "x": 223.1892523364486,
                    "y": 76.61990950226244
                },
                {
                    "x": 342.3481308411215,
                    "y": 76.61990950226244
                },
                {
                    "x": 342.3481308411215,
                    "y": 107.92194570135747
                },
                {
                    "x": 223.1892523364486,
                    "y": 107.92194570135747
                }
            ]
        },
        {
            "id": "ls8-UFcPn",
            "type": "RECTANGLE",
            "tags": [
                "Date"
            ],
            "boundingBox": {
                "height": 16.81900452488688,
                "width": 71.96261682242991,
                "left": 261.0397196261682,
                "top": 121.00339366515837
            },
            "points": [
                {
                    "x": 261.0397196261682,
                    "y": 121.00339366515837
                },
                {
                    "x": 333.0023364485981,
                    "y": 121.00339366515837
                },
                {
                    "x": 333.0023364485981,
                    "y": 137.82239819004525
                },
                {
                    "x": 261.0397196261682,
                    "y": 137.82239819004525
                }
            ]
        },
        {
            "id": "KraDfRXBj",
            "type": "RECTANGLE",
            "tags": [
                "Content_Items"
            ],
            "boundingBox": {
                "height": 39.71153846153846,
                "width": 235.0467289719626,
                "left": 176.92757009345794,
                "top": 173.79638009049773
            },
            "points": [
                {
                    "x": 176.92757009345794,
                    "y": 173.79638009049773
                },
                {
                    "x": 411.97429906542055,
                    "y": 173.79638009049773
                },
                {
                    "x": 411.97429906542055,
                    "y": 213.5079185520362
                },
                {
                    "x": 176.92757009345794,
                    "y": 213.5079185520362
                }
            ]
        },
        {
            "id": "QxL2rqL9y",
            "type": "RECTANGLE",
            "tags": [
                "amount_details"
            ],
            "boundingBox": {
                "height": 23.35972850678733,
                "width": 64.48598130841121,
                "left": 338.14252336448595,
                "top": 282.6527149321267
            },
            "points": [
                {
                    "x": 338.14252336448595,
                    "y": 282.6527149321267
                },
                {
                    "x": 402.6285046728972,
                    "y": 282.6527149321267
                },
                {
                    "x": 402.6285046728972,
                    "y": 306.01244343891403
                },
                {
                    "x": 338.14252336448595,
                    "y": 306.01244343891403
                }
            ]
        },
        {
            "id": "yxYg7MZK0",
            "type": "RECTANGLE",
            "tags": [
                "others"
            ],
            "boundingBox": {
                "height": 22.425339366515836,
                "width": 241.58878504672896,
                "left": 133.00233644859813,
                "top": 247.6131221719457
            },
            "points": [
                {
                    "x": 133.00233644859813,
                    "y": 247.6131221719457
                },
                {
                    "x": 374.5911214953271,
                    "y": 247.6131221719457
                },
                {
                    "x": 374.5911214953271,
                    "y": 270.03846153846155
                },
                {
                    "x": 133.00233644859813,
                    "y": 270.03846153846155
                }
            ]
        }
    ],
    "version": "2.2.0"
}