{
    "asset": {
        "format": "jpg",
        "id": "e7d708c33885f04105ae0f205ff979b5",
        "name": "09713-receipt.jpg",
        "path": "file:/home/administrator/ocr/Train-OCR/TrainYourOwnYOLO/Data/receipts_Source_Images/Train_receipt/09713-receipt.jpg",
        "size": {
            "width": 248,
            "height": 450
        },
        "state": 2,
        "type": 1
    },
    "regions": [
        {
            "id": "PtSUpcV4s",
            "type": "RECTANGLE",
            "tags": [
                "Shop_Logo"
            ],
            "boundingBox": {
                "height": 67.1945701357466,
                "width": 200.64065708418892,
                "left": 19.653490759753595,
                "top": 18.834841628959275
            },
            "points": [
                {
                    "x": 19.653490759753595,
                    "y": 18.834841628959275
                },
                {
                    "x": 220.2941478439425,
                    "y": 18.834841628959275
                },
                {
                    "x": 220.2941478439425,
                    "y": 86.02941176470588
                },
                {
                    "x": 19.653490759753595,
                    "y": 86.02941176470588
                }
            ]
        },
        {
            "id": "nignH5tOG",
            "type": "RECTANGLE",
            "tags": [
                "Shop_Address"
            ],
            "boundingBox": {
                "height": 15.271493212669682,
                "width": 195.03901437371664,
                "left": 32.384496919917865,
                "top": 88.57466063348416
            },
            "points": [
                {
                    "x": 32.384496919917865,
                    "y": 88.57466063348416
                },
                {
                    "x": 227.4235112936345,
                    "y": 88.57466063348416
                },
                {
                    "x": 227.4235112936345,
                    "y": 103.84615384615384
                },
                {
                    "x": 32.384496919917865,
                    "y": 103.84615384615384
                }
            ]
        },
        {
            "id": "HXS-edIx9",
            "type": "RECTANGLE",
            "tags": [
                "Mobile_no"
            ],
            "boundingBox": {
                "height": 8.653846153846153,
                "width": 73.3305954825462,
                "left": 116.40913757700206,
                "top": 106.90045248868778
            },
            "points": [
                {
                    "x": 116.40913757700206,
                    "y": 106.90045248868778
                },
                {
                    "x": 189.73973305954826,
                    "y": 106.90045248868778
                },
                {
                    "x": 189.73973305954826,
                    "y": 115.55429864253392
                },
                {
                    "x": 116.40913757700206,
                    "y": 115.55429864253392
                }
            ]
        },
        {
            "id": "f_k-JuiLL",
            "type": "RECTANGLE",
            "tags": [
                "Content_Items"
            ],
            "boundingBox": {
                "height": 45.81447963800905,
                "width": 239.85215605749485,
                "left": 4.376283367556468,
                "top": 172.05882352941177
            },
            "points": [
                {
                    "x": 4.376283367556468,
                    "y": 172.05882352941177
                },
                {
                    "x": 244.22843942505133,
                    "y": 172.05882352941177
                },
                {
                    "x": 244.22843942505133,
                    "y": 217.8733031674208
                },
                {
                    "x": 4.376283367556468,
                    "y": 217.8733031674208
                }
            ]
        },
        {
            "id": "cPupzNr4p",
            "type": "RECTANGLE",
            "tags": [
                "amount_details"
            ],
            "boundingBox": {
                "height": 22.398190045248867,
                "width": 93.70020533880904,
                "left": 150.01899383983573,
                "top": 223.472850678733
            },
            "points": [
                {
                    "x": 150.01899383983573,
                    "y": 223.472850678733
                },
                {
                    "x": 243.71919917864477,
                    "y": 223.472850678733
                },
                {
                    "x": 243.71919917864477,
                    "y": 245.87104072398188
                },
                {
                    "x": 150.01899383983573,
                    "y": 245.87104072398188
                }
            ]
        },
        {
            "id": "O-vqVbUyj",
            "type": "RECTANGLE",
            "tags": [
                "tax"
            ],
            "boundingBox": {
                "height": 13.744343891402714,
                "width": 67.72895277207392,
                "left": 23.72741273100616,
                "top": 278.95927601809956
            },
            "points": [
                {
                    "x": 23.72741273100616,
                    "y": 278.95927601809956
                },
                {
                    "x": 91.45636550308008,
                    "y": 278.95927601809956
                },
                {
                    "x": 91.45636550308008,
                    "y": 292.70361990950227
                },
                {
                    "x": 23.72741273100616,
                    "y": 292.70361990950227
                }
            ]
        },
        {
            "id": "aixgHgFai",
            "type": "RECTANGLE",
            "tags": [
                "tax"
            ],
            "boundingBox": {
                "height": 8.653846153846153,
                "width": 20.878850102669404,
                "left": 155.620636550308,
                "top": 285.0678733031674
            },
            "points": [
                {
                    "x": 155.620636550308,
                    "y": 285.0678733031674
                },
                {
                    "x": 176.49948665297742,
                    "y": 285.0678733031674
                },
                {
                    "x": 176.49948665297742,
                    "y": 293.72171945701353
                },
                {
                    "x": 155.620636550308,
                    "y": 293.72171945701353
                }
            ]
        }
    ],
    "version": "2.2.0"
}