{
    "asset": {
        "format": "jpg",
        "id": "e7f4a18358c55aacdc683cbbfa5d870d",
        "name": "07209-receipt.jpg",
        "path": "file:/home/administrator/ocr/Train-OCR/TrainYourOwnYOLO/Data/receipts_Source_Images/Train_receipt/07209-receipt.jpg",
        "size": {
            "width": 805,
            "height": 1280
        },
        "state": 2,
        "type": 1
    },
    "regions": [
        {
            "id": "CoaUptSmd",
            "type": "RECTANGLE",
            "tags": [
                "Shop_Name"
            ],
            "boundingBox": {
                "height": 46.334841628959275,
                "width": 360.5125899280576,
                "left": 89.01964366007195,
                "top": 72.39819004524887
            },
            "points": [
                {
                    "x": 89.01964366007195,
                    "y": 72.39819004524887
                },
                {
                    "x": 449.53223358812954,
                    "y": 72.39819004524887
                },
                {
                    "x": 449.53223358812954,
                    "y": 118.73303167420814
                },
                {
                    "x": 89.01964366007195,
                    "y": 118.73303167420814
                }
            ]
        },
        {
            "id": "Ia-2qI-r3",
            "type": "RECTANGLE",
            "tags": [
                "Shop_Address"
            ],
            "boundingBox": {
                "height": 70.9502262443439,
                "width": 331.55575539568355,
                "left": 90.46748538669067,
                "top": 125.97285067873302
            },
            "points": [
                {
                    "x": 90.46748538669067,
                    "y": 125.97285067873302
                },
                {
                    "x": 422.0232407823742,
                    "y": 125.97285067873302
                },
                {
                    "x": 422.0232407823742,
                    "y": 196.9230769230769
                },
                {
                    "x": 90.46748538669067,
                    "y": 196.9230769230769
                }
            ]
        },
        {
            "id": "fDOd8nOWv",
            "type": "RECTANGLE",
            "tags": [
                "Date"
            ],
            "boundingBox": {
                "height": 34.751131221719454,
                "width": 159.26258992805757,
                "left": 371.34878035071944,
                "top": 204.1628959276018
            },
            "points": [
                {
                    "x": 371.34878035071944,
                    "y": 204.1628959276018
                },
                {
                    "x": 530.611370278777,
                    "y": 204.1628959276018
                },
                {
                    "x": 530.611370278777,
                    "y": 238.91402714932127
                },
                {
                    "x": 371.34878035071944,
                    "y": 238.91402714932127
                }
            ]
        },
        {
            "id": "m8qVP08pB",
            "type": "RECTANGLE",
            "tags": [
                "Content_Items"
            ],
            "boundingBox": {
                "height": 291.04072398190044,
                "width": 666.0071942446043,
                "left": 16.627557329136692,
                "top": 305.5203619909502
            },
            "points": [
                {
                    "x": 16.627557329136692,
                    "y": 305.5203619909502
                },
                {
                    "x": 682.634751573741,
                    "y": 305.5203619909502
                },
                {
                    "x": 682.634751573741,
                    "y": 596.5610859728507
                },
                {
                    "x": 16.627557329136692,
                    "y": 596.5610859728507
                }
            ]
        },
        {
            "id": "-_dkMu3ys",
            "type": "RECTANGLE",
            "tags": [
                "amount_details"
            ],
            "boundingBox": {
                "height": 52.126696832579185,
                "width": 124.51438848920864,
                "left": 369.9009386241007,
                "top": 787.6923076923076
            },
            "points": [
                {
                    "x": 369.9009386241007,
                    "y": 787.6923076923076
                },
                {
                    "x": 494.4153271133094,
                    "y": 787.6923076923076
                },
                {
                    "x": 494.4153271133094,
                    "y": 839.8190045248869
                },
                {
                    "x": 369.9009386241007,
                    "y": 839.8190045248869
                }
            ]
        },
        {
            "id": "bAr6xZ328",
            "type": "RECTANGLE",
            "tags": [
                "tax"
            ],
            "boundingBox": {
                "height": 33.30316742081448,
                "width": 78.18345323741008,
                "left": 9.388348696043167,
                "top": 679.0950226244344
            },
            "points": [
                {
                    "x": 9.388348696043167,
                    "y": 679.0950226244344
                },
                {
                    "x": 87.57180193345324,
                    "y": 679.0950226244344
                },
                {
                    "x": 87.57180193345324,
                    "y": 712.3981900452488
                },
                {
                    "x": 9.388348696043167,
                    "y": 712.3981900452488
                }
            ]
        },
        {
            "id": "a8y3Liv0v",
            "type": "RECTANGLE",
            "tags": [
                "tax"
            ],
            "boundingBox": {
                "height": 30.407239819004523,
                "width": 78.18345323741008,
                "left": 378.587988983813,
                "top": 677.6470588235294
            },
            "points": [
                {
                    "x": 378.587988983813,
                    "y": 677.6470588235294
                },
                {
                    "x": 456.771442221223,
                    "y": 677.6470588235294
                },
                {
                    "x": 456.771442221223,
                    "y": 708.0542986425339
                },
                {
                    "x": 378.587988983813,
                    "y": 708.0542986425339
                }
            ]
        }
    ],
    "version": "2.2.0"
}