{
    "asset": {
        "format": "jpg",
        "id": "e81788b2bee0214bdc894bd70b2531df",
        "name": "08544-receipt.jpg",
        "path": "file:/home/administrator/ocr/Train-OCR/TrainYourOwnYOLO/Data/receipts_Source_Images/Train_receipt/08544-receipt.jpg",
        "size": {
            "width": 450,
            "height": 450
        },
        "state": 2,
        "type": 1
    },
    "regions": [
        {
            "id": "x7nVmmEmG",
            "type": "RECTANGLE",
            "tags": [
                "Shop_Name"
            ],
            "boundingBox": {
                "height": 46.3235294117647,
                "width": 189.36651583710406,
                "left": 108.17307692307692,
                "top": 53.959276018099544
            },
            "points": [
                {
                    "x": 108.17307692307692,
                    "y": 53.959276018099544
                },
                {
                    "x": 297.539592760181,
                    "y": 53.959276018099544
                },
                {
                    "x": 297.539592760181,
                    "y": 100.28280542986425
                },
                {
                    "x": 108.17307692307692,
                    "y": 100.28280542986425
                }
            ]
        },
        {
            "id": "dHS8uYVhB",
            "type": "RECTANGLE",
            "tags": [
                "Shop_Address"
            ],
            "boundingBox": {
                "height": 38.68778280542986,
                "width": 102.31900452488688,
                "left": 161.6233031674208,
                "top": 110.46380090497738
            },
            "points": [
                {
                    "x": 161.6233031674208,
                    "y": 110.46380090497738
                },
                {
                    "x": 263.9423076923077,
                    "y": 110.46380090497738
                },
                {
                    "x": 263.9423076923077,
                    "y": 149.15158371040724
                },
                {
                    "x": 161.6233031674208,
                    "y": 149.15158371040724
                }
            ]
        },
        {
            "id": "CGZvHKTjj",
            "type": "RECTANGLE",
            "tags": [
                "Date"
            ],
            "boundingBox": {
                "height": 14.25339366515837,
                "width": 52.432126696832576,
                "left": 236.45361990950224,
                "top": 191.91176470588235
            },
            "points": [
                {
                    "x": 236.45361990950224,
                    "y": 191.91176470588235
                },
                {
                    "x": 288.8857466063348,
                    "y": 191.91176470588235
                },
                {
                    "x": 288.8857466063348,
                    "y": 206.16515837104072
                },
                {
                    "x": 236.45361990950224,
                    "y": 206.16515837104072
                }
            ]
        },
        {
            "id": "9PmY0asyU",
            "type": "RECTANGLE",
            "tags": [
                "Content_Items"
            ],
            "boundingBox": {
                "height": 46.83257918552036,
                "width": 238.23529411764704,
                "left": 92.90158371040724,
                "top": 227.0361990950226
            },
            "points": [
                {
                    "x": 92.90158371040724,
                    "y": 227.0361990950226
                },
                {
                    "x": 331.13687782805425,
                    "y": 227.0361990950226
                },
                {
                    "x": 331.13687782805425,
                    "y": 273.868778280543
                },
                {
                    "x": 92.90158371040724,
                    "y": 273.868778280543
                }
            ]
        },
        {
            "id": "ergby-ye5",
            "type": "RECTANGLE",
            "tags": [
                "amount_details"
            ],
            "boundingBox": {
                "height": 18.834841628959275,
                "width": 72.28506787330316,
                "left": 259.3608597285068,
                "top": 288.1221719457013
            },
            "points": [
                {
                    "x": 259.3608597285068,
                    "y": 288.1221719457013
                },
                {
                    "x": 331.64592760180994,
                    "y": 288.1221719457013
                },
                {
                    "x": 331.64592760180994,
                    "y": 306.9570135746606
                },
                {
                    "x": 259.3608597285068,
                    "y": 306.9570135746606
                }
            ]
        },
        {
            "id": "jOxGPgQYq",
            "type": "RECTANGLE",
            "tags": [
                "tax"
            ],
            "boundingBox": {
                "height": 11.70814479638009,
                "width": 73.30316742081448,
                "left": 92.39253393665157,
                "top": 304.4117647058823
            },
            "points": [
                {
                    "x": 92.39253393665157,
                    "y": 304.4117647058823
                },
                {
                    "x": 165.69570135746605,
                    "y": 304.4117647058823
                },
                {
                    "x": 165.69570135746605,
                    "y": 316.11990950226243
                },
                {
                    "x": 92.39253393665157,
                    "y": 316.11990950226243
                }
            ]
        },
        {
            "id": "7WzjpgE8h",
            "type": "RECTANGLE",
            "tags": [
                "tax"
            ],
            "boundingBox": {
                "height": 11.70814479638009,
                "width": 38.68778280542986,
                "left": 296.01244343891403,
                "top": 308.48416289592757
            },
            "points": [
                {
                    "x": 296.01244343891403,
                    "y": 308.48416289592757
                },
                {
                    "x": 334.70022624434387,
                    "y": 308.48416289592757
                },
                {
                    "x": 334.70022624434387,
                    "y": 320.1923076923077
                },
                {
                    "x": 296.01244343891403,
                    "y": 320.1923076923077
                }
            ]
        }
    ],
    "version": "2.2.0"
}