{
    "asset": {
        "format": "jpg",
        "id": "e908abf3f6dd02906f7c033386c7b06b",
        "name": "08904-receipt.jpg",
        "path": "file:/home/administrator/ocr/Train-OCR/TrainYourOwnYOLO/Data/receipts_Source_Images/Train_receipt/08904-receipt.jpg",
        "size": {
            "width": 253,
            "height": 450
        },
        "state": 2,
        "type": 1
    },
    "regions": [
        {
            "id": "hg6YVRkV8",
            "type": "RECTANGLE",
            "tags": [
                "Shop_Logo"
            ],
            "boundingBox": {
                "height": 36.65158371040724,
                "width": 27.997987927565394,
                "left": 90.36509683098592,
                "top": 20.361990950226243
            },
            "points": [
                {
                    "x": 90.36509683098592,
                    "y": 20.361990950226243
                },
                {
                    "x": 118.36308475855131,
                    "y": 20.361990950226243
                },
                {
                    "x": 118.36308475855131,
                    "y": 57.01357466063348
                },
                {
                    "x": 90.36509683098592,
                    "y": 57.01357466063348
                }
            ]
        },
        {
            "id": "KQCyvlkKA",
            "type": "RECTANGLE",
            "tags": [
                "Shop_Name"
            ],
            "boundingBox": {
                "height": 29.015837104072396,
                "width": 63.12273641851107,
                "left": 118.36308475855131,
                "top": 22.907239819004523
            },
            "points": [
                {
                    "x": 118.36308475855131,
                    "y": 22.907239819004523
                },
                {
                    "x": 181.48582117706238,
                    "y": 22.907239819004523
                },
                {
                    "x": 181.48582117706238,
                    "y": 51.92307692307692
                },
                {
                    "x": 118.36308475855131,
                    "y": 51.92307692307692
                }
            ]
        },
        {
            "id": "47Xt6ei_C",
            "type": "RECTANGLE",
            "tags": [
                "Shop_Address"
            ],
            "boundingBox": {
                "height": 22.398190045248867,
                "width": 82.46680080482898,
                "left": 93.41942278672032,
                "top": 59.55882352941176
            },
            "points": [
                {
                    "x": 93.41942278672032,
                    "y": 59.55882352941176
                },
                {
                    "x": 175.8862235915493,
                    "y": 59.55882352941176
                },
                {
                    "x": 175.8862235915493,
                    "y": 81.95701357466064
                },
                {
                    "x": 93.41942278672032,
                    "y": 81.95701357466064
                }
            ]
        },
        {
            "id": "M8ZW3-9KY",
            "type": "RECTANGLE",
            "tags": [
                "Content_Items"
            ],
            "boundingBox": {
                "height": 34.10633484162896,
                "width": 124.2092555331992,
                "left": 77.63873868209255,
                "top": 115.04524886877827
            },
            "points": [
                {
                    "x": 77.63873868209255,
                    "y": 115.04524886877827
                },
                {
                    "x": 201.84799421529175,
                    "y": 115.04524886877827
                },
                {
                    "x": 201.84799421529175,
                    "y": 149.15158371040724
                },
                {
                    "x": 77.63873868209255,
                    "y": 149.15158371040724
                }
            ]
        },
        {
            "id": "7XFFXycI7",
            "type": "RECTANGLE",
            "tags": [
                "amount_details"
            ],
            "boundingBox": {
                "height": 9.671945701357465,
                "width": 23.925553319919516,
                "left": 176.90433224346077,
                "top": 152.20588235294116
            },
            "points": [
                {
                    "x": 176.90433224346077,
                    "y": 152.20588235294116
                },
                {
                    "x": 200.8298855633803,
                    "y": 152.20588235294116
                },
                {
                    "x": 200.8298855633803,
                    "y": 161.87782805429862
                },
                {
                    "x": 176.90433224346077,
                    "y": 161.87782805429862
                }
            ]
        }
    ],
    "version": "2.2.0"
}