{
    "asset": {
        "format": "jpg",
        "id": "ebe3e8e218a992328893517b9be6457e",
        "name": "02537-receipt.jpg",
        "path": "file:/home/administrator/ocr/Train-OCR/TrainYourOwnYOLO/Data/receipts_Source_Images/Train_receipt/02537-receipt.jpg",
        "size": {
            "width": 600,
            "height": 800
        },
        "state": 2,
        "type": 1
    },
    "regions": [
        {
            "id": "8ahdOHOek",
            "type": "RECTANGLE",
            "tags": [
                "Shop_Name"
            ],
            "boundingBox": {
                "height": 25.339366515837103,
                "width": 295.92760180995475,
                "left": 118.55203619909503,
                "top": 19.90950226244344
            },
            "points": [
                {
                    "x": 118.55203619909503,
                    "y": 19.90950226244344
                },
                {
                    "x": 414.4796380090498,
                    "y": 19.90950226244344
                },
                {
                    "x": 414.4796380090498,
                    "y": 45.248868778280546
                },
                {
                    "x": 118.55203619909503,
                    "y": 45.248868778280546
                }
            ]
        },
        {
            "id": "s28O_fsVJ",
            "type": "RECTANGLE",
            "tags": [
                "Shop_Address"
            ],
            "boundingBox": {
                "height": 35.294117647058826,
                "width": 220.81447963800906,
                "left": 161.08597285067873,
                "top": 42.53393665158371
            },
            "points": [
                {
                    "x": 161.08597285067873,
                    "y": 42.53393665158371
                },
                {
                    "x": 381.9004524886878,
                    "y": 42.53393665158371
                },
                {
                    "x": 381.9004524886878,
                    "y": 77.82805429864253
                },
                {
                    "x": 161.08597285067873,
                    "y": 77.82805429864253
                }
            ]
        },
        {
            "id": "3czZI6c1d",
            "type": "RECTANGLE",
            "tags": [
                "Mobile_no"
            ],
            "boundingBox": {
                "height": 26.244343891402714,
                "width": 146.60633484162895,
                "left": 205.42986425339367,
                "top": 72.39819004524887
            },
            "points": [
                {
                    "x": 205.42986425339367,
                    "y": 72.39819004524887
                },
                {
                    "x": 352.03619909502265,
                    "y": 72.39819004524887
                },
                {
                    "x": 352.03619909502265,
                    "y": 98.64253393665159
                },
                {
                    "x": 205.42986425339367,
                    "y": 98.64253393665159
                }
            ]
        },
        {
            "id": "8vgQfD7hM",
            "type": "RECTANGLE",
            "tags": [
                "Date"
            ],
            "boundingBox": {
                "height": 31.67420814479638,
                "width": 129.41176470588235,
                "left": 140.2714932126697,
                "top": 215.3846153846154
            },
            "points": [
                {
                    "x": 140.2714932126697,
                    "y": 215.3846153846154
                },
                {
                    "x": 269.68325791855204,
                    "y": 215.3846153846154
                },
                {
                    "x": 269.68325791855204,
                    "y": 247.05882352941177
                },
                {
                    "x": 140.2714932126697,
                    "y": 247.05882352941177
                }
            ]
        },
        {
            "id": "49Ug-hsbp",
            "type": "RECTANGLE",
            "tags": [
                "Content_Items"
            ],
            "boundingBox": {
                "height": 104.07239819004525,
                "width": 530.316742081448,
                "left": 6.334841628959276,
                "top": 361.99095022624437
            },
            "points": [
                {
                    "x": 6.334841628959276,
                    "y": 361.99095022624437
                },
                {
                    "x": 536.6515837104073,
                    "y": 361.99095022624437
                },
                {
                    "x": 536.6515837104073,
                    "y": 466.0633484162896
                },
                {
                    "x": 6.334841628959276,
                    "y": 466.0633484162896
                }
            ]
        },
        {
            "id": "o7eIhYgFp",
            "type": "RECTANGLE",
            "tags": [
                "amount_details"
            ],
            "boundingBox": {
                "height": 60.633484162895925,
                "width": 104.97737556561086,
                "left": 463.34841628959276,
                "top": 627.1493212669683
            },
            "points": [
                {
                    "x": 463.34841628959276,
                    "y": 627.1493212669683
                },
                {
                    "x": 568.3257918552036,
                    "y": 627.1493212669683
                },
                {
                    "x": 568.3257918552036,
                    "y": 687.7828054298643
                },
                {
                    "x": 463.34841628959276,
                    "y": 687.7828054298643
                }
            ]
        },
        {
            "id": "S2Bsi1fFv",
            "type": "RECTANGLE",
            "tags": [
                "tax"
            ],
            "boundingBox": {
                "height": 32.57918552036199,
                "width": 355.6561085972851,
                "left": 189.14027149321268,
                "top": 523.9819004524887
            },
            "points": [
                {
                    "x": 189.14027149321268,
                    "y": 523.9819004524887
                },
                {
                    "x": 544.7963800904978,
                    "y": 523.9819004524887
                },
                {
                    "x": 544.7963800904978,
                    "y": 556.5610859728507
                },
                {
                    "x": 189.14027149321268,
                    "y": 556.5610859728507
                }
            ]
        },
        {
            "id": "ql1QltOzL",
            "type": "RECTANGLE",
            "tags": [
                "others"
            ],
            "boundingBox": {
                "height": 28.959276018099548,
                "width": 323.0769230769231,
                "left": 241.6289592760181,
                "top": 756.5610859728507
            },
            "points": [
                {
                    "x": 241.6289592760181,
                    "y": 756.5610859728507
                },
                {
                    "x": 564.7058823529412,
                    "y": 756.5610859728507
                },
                {
                    "x": 564.7058823529412,
                    "y": 785.5203619909503
                },
                {
                    "x": 241.6289592760181,
                    "y": 785.5203619909503
                }
            ]
        }
    ],
    "version": "2.2.0"
}