{
    "asset": {
        "format": "jpg",
        "id": "ec8b94301819ca6ca2b1b5978b5abe71",
        "name": "07554-receipt.jpg",
        "path": "file:/home/administrator/ocr/Train-OCR/TrainYourOwnYOLO/Data/receipts_Source_Images/Train_receipt/07554-receipt.jpg",
        "size": {
            "width": 338,
            "height": 450
        },
        "state": 2,
        "type": 1
    },
    "regions": [
        {
            "id": "5LWy4YWYD",
            "type": "RECTANGLE",
            "tags": [
                "Shop_Name"
            ],
            "boundingBox": {
                "height": 38.178733031674206,
                "width": 124.71385542168674,
                "left": 110.46084337349397,
                "top": 128.28054298642533
            },
            "points": [
                {
                    "x": 110.46084337349397,
                    "y": 128.28054298642533
                },
                {
                    "x": 235.17469879518072,
                    "y": 128.28054298642533
                },
                {
                    "x": 235.17469879518072,
                    "y": 166.45927601809953
                },
                {
                    "x": 110.46084337349397,
                    "y": 166.45927601809953
                }
            ]
        },
        {
            "id": "JPJgu9luw",
            "type": "RECTANGLE",
            "tags": [
                "Content_Items"
            ],
            "boundingBox": {
                "height": 81.95701357466064,
                "width": 169.50903614457832,
                "left": 99.26204819277109,
                "top": 195.47511312217193
            },
            "points": [
                {
                    "x": 99.26204819277109,
                    "y": 195.47511312217193
                },
                {
                    "x": 268.7710843373494,
                    "y": 195.47511312217193
                },
                {
                    "x": 268.7710843373494,
                    "y": 277.43212669683254
                },
                {
                    "x": 99.26204819277109,
                    "y": 277.43212669683254
                }
            ]
        },
        {
            "id": "xXjJJS-j7",
            "type": "RECTANGLE",
            "tags": [
                "amount_details"
            ],
            "boundingBox": {
                "height": 14.762443438914026,
                "width": 48.35843373493976,
                "left": 222.4487951807229,
                "top": 289.14027149321265
            },
            "points": [
                {
                    "x": 222.4487951807229,
                    "y": 289.14027149321265
                },
                {
                    "x": 270.8072289156627,
                    "y": 289.14027149321265
                },
                {
                    "x": 270.8072289156627,
                    "y": 303.9027149321267
                },
                {
                    "x": 222.4487951807229,
                    "y": 303.9027149321267
                }
            ]
        },
        {
            "id": "x1t3B4NYz",
            "type": "RECTANGLE",
            "tags": [
                "Date"
            ],
            "boundingBox": {
                "height": 10.180995475113122,
                "width": 36.65060240963855,
                "left": 153.47439759036143,
                "top": 109.44570135746605
            },
            "points": [
                {
                    "x": 153.47439759036143,
                    "y": 109.44570135746605
                },
                {
                    "x": 190.125,
                    "y": 109.44570135746605
                },
                {
                    "x": 190.125,
                    "y": 119.62669683257917
                },
                {
                    "x": 153.47439759036143,
                    "y": 119.62669683257917
                }
            ]
        }
    ],
    "version": "2.2.0"
}