{
    "asset": {
        "format": "jpg",
        "id": "ed4ffed90da2bf2ae4a679800415e860",
        "name": "02224-receipt.jpg",
        "path": "file:/home/administrator/ocr/Train-OCR/TrainYourOwnYOLO/Data/receipts_Source_Images/Train_receipt/02224-receipt.jpg",
        "size": {
            "width": 338,
            "height": 450
        },
        "state": 2,
        "type": 1
    },
    "regions": [
        {
            "id": "1MJ7IwHuq",
            "type": "RECTANGLE",
            "tags": [
                "Shop_Name"
            ],
            "boundingBox": {
                "height": 21.88914027149321,
                "width": 136.93072289156626,
                "left": 91.88102409638554,
                "top": 20.361990950226243
            },
            "points": [
                {
                    "x": 91.88102409638554,
                    "y": 20.361990950226243
                },
                {
                    "x": 228.8117469879518,
                    "y": 20.361990950226243
                },
                {
                    "x": 228.8117469879518,
                    "y": 42.251131221719454
                },
                {
                    "x": 91.88102409638554,
                    "y": 42.251131221719454
                }
            ]
        },
        {
            "id": "nciyzL8aL",
            "type": "RECTANGLE",
            "tags": [
                "Shop_Address"
            ],
            "boundingBox": {
                "height": 36.14253393665158,
                "width": 130.3132530120482,
                "left": 96.46234939759036,
                "top": 45.30542986425339
            },
            "points": [
                {
                    "x": 96.46234939759036,
                    "y": 45.30542986425339
                },
                {
                    "x": 226.77560240963857,
                    "y": 45.30542986425339
                },
                {
                    "x": 226.77560240963857,
                    "y": 81.44796380090497
                },
                {
                    "x": 96.46234939759036,
                    "y": 81.44796380090497
                }
            ]
        },
        {
            "id": "5C9yQ-eYW",
            "type": "RECTANGLE",
            "tags": [
                "Content_Items"
            ],
            "boundingBox": {
                "height": 183.2579185520362,
                "width": 195.46987951807228,
                "left": 66.9382530120482,
                "top": 197.51131221719456
            },
            "points": [
                {
                    "x": 66.9382530120482,
                    "y": 197.51131221719456
                },
                {
                    "x": 262.4081325301205,
                    "y": 197.51131221719456
                },
                {
                    "x": 262.4081325301205,
                    "y": 380.7692307692307
                },
                {
                    "x": 66.9382530120482,
                    "y": 380.7692307692307
                }
            ]
        },
        {
            "id": "ajQMvVyCj",
            "type": "RECTANGLE",
            "tags": [
                "amount_details"
            ],
            "boundingBox": {
                "height": 22.907239819004523,
                "width": 34.105421686746986,
                "left": 226.77560240963857,
                "top": 415.893665158371
            },
            "points": [
                {
                    "x": 226.77560240963857,
                    "y": 415.893665158371
                },
                {
                    "x": 260.88102409638554,
                    "y": 415.893665158371
                },
                {
                    "x": 260.88102409638554,
                    "y": 438.8009049773755
                },
                {
                    "x": 226.77560240963857,
                    "y": 438.8009049773755
                }
            ]
        }
    ],
    "version": "2.2.0"
}