{
    "asset": {
        "format": "jpg",
        "id": "ee72cb4031034846a2d188f5bd504f1c",
        "name": "09528-receipt.jpg",
        "path": "file:/home/administrator/ocr/Train-OCR/TrainYourOwnYOLO/Data/receipts_Source_Images/Train_receipt/09528-receipt.jpg",
        "size": {
            "width": 450,
            "height": 450
        },
        "state": 2,
        "type": 1
    },
    "regions": [
        {
            "id": "AXnMKUD6Q",
            "type": "RECTANGLE",
            "tags": [
                "Content_Items"
            ],
            "boundingBox": {
                "height": 154.24208144796378,
                "width": 413.3484162895927,
                "left": 4.581447963800905,
                "top": 22.907239819004523
            },
            "points": [
                {
                    "x": 4.581447963800905,
                    "y": 22.907239819004523
                },
                {
                    "x": 417.92986425339365,
                    "y": 22.907239819004523
                },
                {
                    "x": 417.92986425339365,
                    "y": 177.14932126696831
                },
                {
                    "x": 4.581447963800905,
                    "y": 177.14932126696831
                }
            ]
        },
        {
            "id": "PhWyo0X0P",
            "type": "RECTANGLE",
            "tags": [
                "amount_details"
            ],
            "boundingBox": {
                "height": 32.57918552036199,
                "width": 153.2239819004525,
                "left": 260.1244343891403,
                "top": 230.5995475113122
            },
            "points": [
                {
                    "x": 260.1244343891403,
                    "y": 230.5995475113122
                },
                {
                    "x": 413.3484162895927,
                    "y": 230.5995475113122
                },
                {
                    "x": 413.3484162895927,
                    "y": 263.1787330316742
                },
                {
                    "x": 260.1244343891403,
                    "y": 263.1787330316742
                }
            ]
        },
        {
            "id": "PGhu53p8e",
            "type": "RECTANGLE",
            "tags": [
                "tax"
            ],
            "boundingBox": {
                "height": 51.92307692307692,
                "width": 43.26923076923077,
                "left": 15.271493212669682,
                "top": 333.42760180995475
            },
            "points": [
                {
                    "x": 15.271493212669682,
                    "y": 333.42760180995475
                },
                {
                    "x": 58.54072398190045,
                    "y": 333.42760180995475
                },
                {
                    "x": 58.54072398190045,
                    "y": 385.35067873303166
                },
                {
                    "x": 15.271493212669682,
                    "y": 385.35067873303166
                }
            ]
        },
        {
            "id": "qx81hrZGQ",
            "type": "RECTANGLE",
            "tags": [
                "tax"
            ],
            "boundingBox": {
                "height": 50.39592760180995,
                "width": 78.90271493212668,
                "left": 329.86425339366514,
                "top": 334.9547511312217
            },
            "points": [
                {
                    "x": 329.86425339366514,
                    "y": 334.9547511312217
                },
                {
                    "x": 408.7669683257918,
                    "y": 334.9547511312217
                },
                {
                    "x": 408.7669683257918,
                    "y": 385.35067873303166
                },
                {
                    "x": 329.86425339366514,
                    "y": 385.35067873303166
                }
            ]
        }
    ],
    "version": "2.2.0"
}