{
    "asset": {
        "format": "jpg",
        "id": "eee0ea9134a2af7a691db27a7057f5a3",
        "name": "08698-receipt.jpg",
        "path": "file:/home/administrator/ocr/Train-OCR/TrainYourOwnYOLO/Data/receipts_Source_Images/Train_receipt/08698-receipt.jpg",
        "size": {
            "width": 338,
            "height": 450
        },
        "state": 2,
        "type": 1
    },
    "regions": [
        {
            "id": "yIziNLVJq",
            "type": "RECTANGLE",
            "tags": [
                "Shop_Logo"
            ],
            "boundingBox": {
                "height": 70.75791855203619,
                "width": 108.42469879518072,
                "left": 85.77259036144578,
                "top": 51.92307692307692
            },
            "points": [
                {
                    "x": 85.77259036144578,
                    "y": 51.92307692307692
                },
                {
                    "x": 194.1972891566265,
                    "y": 51.92307692307692
                },
                {
                    "x": 194.1972891566265,
                    "y": 122.68099547511312
                },
                {
                    "x": 85.77259036144578,
                    "y": 122.68099547511312
                }
            ]
        },
        {
            "id": "jvjY3b0o6",
            "type": "RECTANGLE",
            "tags": [
                "Shop_Name"
            ],
            "boundingBox": {
                "height": 29.524886877828052,
                "width": 178.67168674698794,
                "left": 39.450301204819276,
                "top": 154.75113122171945
            },
            "points": [
                {
                    "x": 39.450301204819276,
                    "y": 154.75113122171945
                },
                {
                    "x": 218.12198795180723,
                    "y": 154.75113122171945
                },
                {
                    "x": 218.12198795180723,
                    "y": 184.2760180995475
                },
                {
                    "x": 39.450301204819276,
                    "y": 184.2760180995475
                }
            ]
        },
        {
            "id": "9dkWEmv-p",
            "type": "RECTANGLE",
            "tags": [
                "Content_Items"
            ],
            "boundingBox": {
                "height": 39.705882352941174,
                "width": 241.28313253012047,
                "left": 24.688253012048193,
                "top": 257.579185520362
            },
            "points": [
                {
                    "x": 24.688253012048193,
                    "y": 257.579185520362
                },
                {
                    "x": 265.97138554216866,
                    "y": 257.579185520362
                },
                {
                    "x": 265.97138554216866,
                    "y": 297.28506787330315
                },
                {
                    "x": 24.688253012048193,
                    "y": 297.28506787330315
                }
            ]
        },
        {
            "id": "S-eXfWe2z",
            "type": "RECTANGLE",
            "tags": [
                "Date"
            ],
            "boundingBox": {
                "height": 15.271493212669682,
                "width": 64.13855421686748,
                "left": 199.28765060240963,
                "top": 208.710407239819
            },
            "points": [
                {
                    "x": 199.28765060240963,
                    "y": 208.710407239819
                },
                {
                    "x": 263.42620481927713,
                    "y": 208.710407239819
                },
                {
                    "x": 263.42620481927713,
                    "y": 223.98190045248867
                },
                {
                    "x": 199.28765060240963,
                    "y": 223.98190045248867
                }
            ]
        },
        {
            "id": "R0dRs59Vy",
            "type": "RECTANGLE",
            "tags": [
                "amount_details"
            ],
            "boundingBox": {
                "height": 24.43438914027149,
                "width": 58.53915662650603,
                "left": 197.2515060240964,
                "top": 295.7579185520362
            },
            "points": [
                {
                    "x": 197.2515060240964,
                    "y": 295.7579185520362
                },
                {
                    "x": 255.7906626506024,
                    "y": 295.7579185520362
                },
                {
                    "x": 255.7906626506024,
                    "y": 320.1923076923077
                },
                {
                    "x": 197.2515060240964,
                    "y": 320.1923076923077
                }
            ]
        },
        {
            "id": "-MJu_t-Xx",
            "type": "RECTANGLE",
            "tags": [
                "tax"
            ],
            "boundingBox": {
                "height": 22.398190045248867,
                "width": 29.015060240963855,
                "left": 182.9984939759036,
                "top": 336.4819004524887
            },
            "points": [
                {
                    "x": 182.9984939759036,
                    "y": 336.4819004524887
                },
                {
                    "x": 212.01355421686748,
                    "y": 336.4819004524887
                },
                {
                    "x": 212.01355421686748,
                    "y": 358.8800904977375
                },
                {
                    "x": 182.9984939759036,
                    "y": 358.8800904977375
                }
            ]
        }
    ],
    "version": "2.2.0"
}