{
    "asset": {
        "format": "jpg",
        "id": "f021af65c5405c1aee25e5a0a5a847f0",
        "name": "00052-receipt.jpg",
        "path": "file:/home/administrator/ocr/Train-OCR/TrainYourOwnYOLO/Data/receipts_Source_Images/Train_receipt/00052-receipt.jpg",
        "size": {
            "width": 750,
            "height": 1000
        },
        "state": 2,
        "type": 1
    },
    "regions": [
        {
            "id": "a2FUvDsSe",
            "type": "RECTANGLE",
            "tags": [
                "Shop_Name"
            ],
            "boundingBox": {
                "height": 27.149321266968325,
                "width": 190.0452488687783,
                "left": 300.33936651583707,
                "top": 52.036199095022624
            },
            "points": [
                {
                    "x": 300.33936651583707,
                    "y": 52.036199095022624
                },
                {
                    "x": 490.38461538461536,
                    "y": 52.036199095022624
                },
                {
                    "x": 490.38461538461536,
                    "y": 79.18552036199095
                },
                {
                    "x": 300.33936651583707,
                    "y": 79.18552036199095
                }
            ]
        },
        {
            "id": "dx-OqMimh",
            "type": "RECTANGLE",
            "tags": [
                "Date"
            ],
            "boundingBox": {
                "height": 20.361990950226243,
                "width": 75.7918552036199,
                "left": 480.20361990950227,
                "top": 148.19004524886878
            },
            "points": [
                {
                    "x": 480.20361990950227,
                    "y": 148.19004524886878
                },
                {
                    "x": 555.9954751131222,
                    "y": 148.19004524886878
                },
                {
                    "x": 555.9954751131222,
                    "y": 168.55203619909503
                },
                {
                    "x": 480.20361990950227,
                    "y": 168.55203619909503
                }
            ]
        },
        {
            "id": "NHb9wDC5p",
            "type": "RECTANGLE",
            "tags": [
                "Content_Items"
            ],
            "boundingBox": {
                "height": 63.34841628959276,
                "width": 330.31674208144796,
                "left": 235.85972850678732,
                "top": 248.86877828054298
            },
            "points": [
                {
                    "x": 235.85972850678732,
                    "y": 248.86877828054298
                },
                {
                    "x": 566.1764705882352,
                    "y": 248.86877828054298
                },
                {
                    "x": 566.1764705882352,
                    "y": 312.21719457013575
                },
                {
                    "x": 235.85972850678732,
                    "y": 312.21719457013575
                }
            ]
        },
        {
            "id": "YiaQZVlUs",
            "type": "RECTANGLE",
            "tags": [
                "amount_details"
            ],
            "boundingBox": {
                "height": 28.28054298642534,
                "width": 119.90950226244344,
                "left": 461.53846153846155,
                "top": 790.7239819004525
            },
            "points": [
                {
                    "x": 461.53846153846155,
                    "y": 790.7239819004525
                },
                {
                    "x": 581.447963800905,
                    "y": 790.7239819004525
                },
                {
                    "x": 581.447963800905,
                    "y": 819.0045248868778
                },
                {
                    "x": 461.53846153846155,
                    "y": 819.0045248868778
                }
            ]
        },
        {
            "id": "64APjzZBA",
            "type": "POLYGON",
            "tags": [
                "Shop_Address"
            ],
            "boundingBox": {
                "height": 32.80542986425339,
                "width": 196.83257918552036,
                "left": 292.9864253393665,
                "top": 81.44796380090497
            },
            "points": [
                {
                    "x": 296.38009049773757,
                    "y": 88.23529411764706
                },
                {
                    "x": 489.81900452488685,
                    "y": 81.44796380090497
                },
                {
                    "x": 486.4253393665158,
                    "y": 114.25339366515837
                },
                {
                    "x": 292.9864253393665,
                    "y": 102.94117647058823
                }
            ]
        },
        {
            "id": "_uyBG7RHF",
            "type": "POLYGON",
            "tags": [
                "Mobile_no"
            ],
            "boundingBox": {
                "height": 24.8868778280543,
                "width": 104.07239819004525,
                "left": 343.8914027149321,
                "top": 107.46606334841628
            },
            "points": [
                {
                    "x": 347.28506787330315,
                    "y": 126.69683257918552
                },
                {
                    "x": 447.96380090497735,
                    "y": 132.35294117647058
                },
                {
                    "x": 444.57013574660635,
                    "y": 108.5972850678733
                },
                {
                    "x": 343.8914027149321,
                    "y": 107.46606334841628
                }
            ]
        },
        {
            "id": "5PxO1d0vs",
            "type": "RECTANGLE",
            "tags": [
                "tax"
            ],
            "boundingBox": {
                "height": 28.28054298642534,
                "width": 36.199095022624434,
                "left": 223.98190045248867,
                "top": 717.1945701357466
            },
            "points": [
                {
                    "x": 223.98190045248867,
                    "y": 717.1945701357466
                },
                {
                    "x": 260.1809954751131,
                    "y": 717.1945701357466
                },
                {
                    "x": 260.1809954751131,
                    "y": 745.4751131221719
                },
                {
                    "x": 223.98190045248867,
                    "y": 745.4751131221719
                }
            ]
        },
        {
            "id": "KjtW4AAaE",
            "type": "RECTANGLE",
            "tags": [
                "tax"
            ],
            "boundingBox": {
                "height": 19.23076923076923,
                "width": 56.56108597285068,
                "left": 526.0180995475113,
                "top": 711.5384615384615
            },
            "points": [
                {
                    "x": 526.0180995475113,
                    "y": 711.5384615384615
                },
                {
                    "x": 582.579185520362,
                    "y": 711.5384615384615
                },
                {
                    "x": 582.579185520362,
                    "y": 730.7692307692307
                },
                {
                    "x": 526.0180995475113,
                    "y": 730.7692307692307
                }
            ]
        }
    ],
    "version": "2.2.0"
}