{
    "asset": {
        "format": "jpg",
        "id": "f19dcd318f87c5b898ce61d09c784871",
        "name": "00130-receipt.jpg",
        "path": "file:/home/administrator/ocr/Train-OCR/TrainYourOwnYOLO/Data/receipts_Source_Images/Train_receipt/00130-receipt.jpg",
        "size": {
            "width": 750,
            "height": 1000
        },
        "state": 2,
        "type": 1
    },
    "regions": [
        {
            "id": "I4xWTB8iG",
            "type": "RECTANGLE",
            "tags": [
                "Shop_Name"
            ],
            "boundingBox": {
                "height": 47.51131221719457,
                "width": 244.34389140271492,
                "left": 94.45701357466064,
                "top": 95.02262443438914
            },
            "points": [
                {
                    "x": 94.45701357466064,
                    "y": 95.02262443438914
                },
                {
                    "x": 338.8009049773756,
                    "y": 95.02262443438914
                },
                {
                    "x": 338.8009049773756,
                    "y": 142.5339366515837
                },
                {
                    "x": 94.45701357466064,
                    "y": 142.5339366515837
                }
            ]
        },
        {
            "id": "MeVcvDh34",
            "type": "RECTANGLE",
            "tags": [
                "Shop_Address"
            ],
            "boundingBox": {
                "height": 106.33484162895927,
                "width": 234.1628959276018,
                "left": 94.45701357466064,
                "top": 157.2398190045249
            },
            "points": [
                {
                    "x": 94.45701357466064,
                    "y": 157.2398190045249
                },
                {
                    "x": 328.61990950226243,
                    "y": 157.2398190045249
                },
                {
                    "x": 328.61990950226243,
                    "y": 263.57466063348414
                },
                {
                    "x": 94.45701357466064,
                    "y": 263.57466063348414
                }
            ]
        },
        {
            "id": "Na0PAp_Tj",
            "type": "RECTANGLE",
            "tags": [
                "Date"
            ],
            "boundingBox": {
                "height": 42.98642533936651,
                "width": 159.50226244343892,
                "left": 436.08597285067873,
                "top": 133.4841628959276
            },
            "points": [
                {
                    "x": 436.08597285067873,
                    "y": 133.4841628959276
                },
                {
                    "x": 595.5882352941177,
                    "y": 133.4841628959276
                },
                {
                    "x": 595.5882352941177,
                    "y": 176.47058823529412
                },
                {
                    "x": 436.08597285067873,
                    "y": 176.47058823529412
                }
            ]
        },
        {
            "id": "3hppFZseF",
            "type": "RECTANGLE",
            "tags": [
                "Content_Items"
            ],
            "boundingBox": {
                "height": 271.49321266968326,
                "width": 540.7239819004525,
                "left": 88.80090497737557,
                "top": 384.6153846153846
            },
            "points": [
                {
                    "x": 88.80090497737557,
                    "y": 384.6153846153846
                },
                {
                    "x": 629.5248868778281,
                    "y": 384.6153846153846
                },
                {
                    "x": 629.5248868778281,
                    "y": 656.1085972850678
                },
                {
                    "x": 88.80090497737557,
                    "y": 656.1085972850678
                }
            ]
        },
        {
            "id": "bb41LrUHr",
            "type": "RECTANGLE",
            "tags": [
                "amount_details"
            ],
            "boundingBox": {
                "height": 50.90497737556561,
                "width": 105.20361990950227,
                "left": 540.7239819004525,
                "top": 795.2488687782806
            },
            "points": [
                {
                    "x": 540.7239819004525,
                    "y": 795.2488687782806
                },
                {
                    "x": 645.9276018099547,
                    "y": 795.2488687782806
                },
                {
                    "x": 645.9276018099547,
                    "y": 846.1538461538462
                },
                {
                    "x": 540.7239819004525,
                    "y": 846.1538461538462
                }
            ]
        },
        {
            "id": "Ydw00bAVl",
            "type": "RECTANGLE",
            "tags": [
                "tax"
            ],
            "boundingBox": {
                "height": 36.199095022624434,
                "width": 175.3393665158371,
                "left": 78.05429864253394,
                "top": 723.9819004524886
            },
            "points": [
                {
                    "x": 78.05429864253394,
                    "y": 723.9819004524886
                },
                {
                    "x": 253.39366515837105,
                    "y": 723.9819004524886
                },
                {
                    "x": 253.39366515837105,
                    "y": 760.1809954751131
                },
                {
                    "x": 78.05429864253394,
                    "y": 760.1809954751131
                }
            ]
        },
        {
            "id": "io4AQe-P1",
            "type": "RECTANGLE",
            "tags": [
                "tax"
            ],
            "boundingBox": {
                "height": 33.93665158371041,
                "width": 80.31674208144796,
                "left": 554.2986425339367,
                "top": 716.0633484162896
            },
            "points": [
                {
                    "x": 554.2986425339367,
                    "y": 716.0633484162896
                },
                {
                    "x": 634.6153846153846,
                    "y": 716.0633484162896
                },
                {
                    "x": 634.6153846153846,
                    "y": 750
                },
                {
                    "x": 554.2986425339367,
                    "y": 750
                }
            ]
        }
    ],
    "version": "2.2.0"
}