{
    "asset": {
        "format": "jpg",
        "id": "f3bb18b4de8de8b0026a5114ced8e883",
        "name": "02439-receipt.jpg",
        "path": "file:/home/administrator/ocr/Train-OCR/TrainYourOwnYOLO/Data/receipts_Source_Images/Train_receipt/02439-receipt.jpg",
        "size": {
            "width": 856,
            "height": 1000
        },
        "state": 2,
        "type": 1
    },
    "regions": [
        {
            "id": "qTMQrTcmV",
            "type": "RECTANGLE",
            "tags": [
                "amount_details"
            ],
            "boundingBox": {
                "height": 29.41176470588235,
                "width": 62.192866578599734,
                "left": 534.6996367239102,
                "top": 213.80090497737555
            },
            "points": [
                {
                    "x": 534.6996367239102,
                    "y": 213.80090497737555
                },
                {
                    "x": 596.8925033025099,
                    "y": 213.80090497737555
                },
                {
                    "x": 596.8925033025099,
                    "y": 243.2126696832579
                },
                {
                    "x": 534.6996367239102,
                    "y": 243.2126696832579
                }
            ]
        }
    ],
    "version": "2.2.0"
}