{
    "asset": {
        "format": "jpg",
        "id": "f40dbfec65a921a298b0a4171e644dc9",
        "name": "1028-receipt.jpg",
        "path": "file:/home/administrator/ocr/Train-OCR/TrainYourOwnYOLO/Data/receipts_Source_Images/Train_receipt/1028-receipt.jpg",
        "size": {
            "width": 299,
            "height": 400
        },
        "state": 2,
        "type": 1
    },
    "regions": [
        {
            "id": "OVSBKeN8k",
            "type": "RECTANGLE",
            "tags": [
                "Shop_Name"
            ],
            "boundingBox": {
                "height": 11.764705882352942,
                "width": 88.65960665658093,
                "left": 92.91447617246595,
                "top": 48.86877828054298
            },
            "points": [
                {
                    "x": 92.91447617246595,
                    "y": 48.86877828054298
                },
                {
                    "x": 181.5740828290469,
                    "y": 48.86877828054298
                },
                {
                    "x": 181.5740828290469,
                    "y": 60.633484162895925
                },
                {
                    "x": 92.91447617246595,
                    "y": 60.633484162895925
                }
            ]
        },
        {
            "id": "QxBHLZOlF",
            "type": "RECTANGLE",
            "tags": [
                "Shop_Address"
            ],
            "boundingBox": {
                "height": 22.171945701357465,
                "width": 100.42057488653555,
                "left": 89.2957167170953,
                "top": 59.72850678733032
            },
            "points": [
                {
                    "x": 89.2957167170953,
                    "y": 59.72850678733032
                },
                {
                    "x": 189.71629160363085,
                    "y": 59.72850678733032
                },
                {
                    "x": 189.71629160363085,
                    "y": 81.90045248868779
                },
                {
                    "x": 89.2957167170953,
                    "y": 81.90045248868779
                }
            ]
        },
        {
            "id": "uVu8w3NlI",
            "type": "RECTANGLE",
            "tags": [
                "Mobile_no"
            ],
            "boundingBox": {
                "height": 15.83710407239819,
                "width": 69.66111951588502,
                "left": 108.29420385779122,
                "top": 78.73303167420815
            },
            "points": [
                {
                    "x": 108.29420385779122,
                    "y": 78.73303167420815
                },
                {
                    "x": 177.95532337367624,
                    "y": 78.73303167420815
                },
                {
                    "x": 177.95532337367624,
                    "y": 94.57013574660634
                },
                {
                    "x": 108.29420385779122,
                    "y": 94.57013574660634
                }
            ]
        },
        {
            "id": "os5X-1uQ8",
            "type": "RECTANGLE",
            "tags": [
                "Date"
            ],
            "boundingBox": {
                "height": 13.122171945701357,
                "width": 39.35400907715582,
                "left": 120.50751701966716,
                "top": 111.31221719457014
            },
            "points": [
                {
                    "x": 120.50751701966716,
                    "y": 111.31221719457014
                },
                {
                    "x": 159.86152609682298,
                    "y": 111.31221719457014
                },
                {
                    "x": 159.86152609682298,
                    "y": 124.43438914027149
                },
                {
                    "x": 120.50751701966716,
                    "y": 124.43438914027149
                }
            ]
        },
        {
            "id": "Xeay3TIUp",
            "type": "RECTANGLE",
            "tags": [
                "Content_Items"
            ],
            "boundingBox": {
                "height": 171.94570135746608,
                "width": 174.15279878971256,
                "left": 43.60887859304084,
                "top": 124.43438914027149
            },
            "points": [
                {
                    "x": 43.60887859304084,
                    "y": 124.43438914027149
                },
                {
                    "x": 217.7616773827534,
                    "y": 124.43438914027149
                },
                {
                    "x": 217.7616773827534,
                    "y": 296.38009049773757
                },
                {
                    "x": 43.60887859304084,
                    "y": 296.38009049773757
                }
            ]
        },
        {
            "id": "5dDRKd1IE",
            "type": "RECTANGLE",
            "tags": [
                "tax"
            ],
            "boundingBox": {
                "height": 13.122171945701357,
                "width": 18.093797276853252,
                "left": 46.32294818456883,
                "top": 341.1764705882353
            },
            "points": [
                {
                    "x": 46.32294818456883,
                    "y": 341.1764705882353
                },
                {
                    "x": 64.41674546142208,
                    "y": 341.1764705882353
                },
                {
                    "x": 64.41674546142208,
                    "y": 354.29864253393663
                },
                {
                    "x": 46.32294818456883,
                    "y": 354.29864253393663
                }
            ]
        },
        {
            "id": "7kXwntCMM",
            "type": "RECTANGLE",
            "tags": [
                "tax"
            ],
            "boundingBox": {
                "height": 9.95475113122172,
                "width": 23.97428139183056,
                "left": 194.23974092284416,
                "top": 345.70135746606337
            },
            "points": [
                {
                    "x": 194.23974092284416,
                    "y": 345.70135746606337
                },
                {
                    "x": 218.21402231467474,
                    "y": 345.70135746606337
                },
                {
                    "x": 218.21402231467474,
                    "y": 355.6561085972851
                },
                {
                    "x": 194.23974092284416,
                    "y": 355.6561085972851
                }
            ]
        },
        {
            "id": "js2bMep1k",
            "type": "RECTANGLE",
            "tags": [
                "amount_details"
            ],
            "boundingBox": {
                "height": 14.479638009049774,
                "width": 52.0196671709531,
                "left": 169.81311459909227,
                "top": 356.56108597285066
            },
            "points": [
                {
                    "x": 169.81311459909227,
                    "y": 356.56108597285066
                },
                {
                    "x": 221.8327817700454,
                    "y": 356.56108597285066
                },
                {
                    "x": 221.8327817700454,
                    "y": 371.04072398190044
                },
                {
                    "x": 169.81311459909227,
                    "y": 371.04072398190044
                }
            ]
        }
    ],
    "version": "2.2.0"
}