{
    "asset": {
        "format": "jpg",
        "id": "f7730ea536d00d5507a4a1e826db1b7f",
        "name": "09390-receipt.jpg",
        "path": "file:/home/administrator/ocr/Train-OCR/TrainYourOwnYOLO/Data/receipts_Source_Images/Train_receipt/09390-receipt.jpg",
        "size": {
            "width": 338,
            "height": 450
        },
        "state": 2,
        "type": 1
    },
    "regions": [
        {
            "id": "h2Ga2-C2A",
            "type": "RECTANGLE",
            "tags": [
                "Shop_Name"
            ],
            "boundingBox": {
                "height": 32.07013574660633,
                "width": 205.65060240963857,
                "left": 74.31927710843374,
                "top": 38.178733031674206
            },
            "points": [
                {
                    "x": 74.31927710843374,
                    "y": 38.178733031674206
                },
                {
                    "x": 279.9698795180723,
                    "y": 38.178733031674206
                },
                {
                    "x": 279.9698795180723,
                    "y": 70.24886877828054
                },
                {
                    "x": 74.31927710843374,
                    "y": 70.24886877828054
                }
            ]
        },
        {
            "id": "AmnsOhztV",
            "type": "RECTANGLE",
            "tags": [
                "Shop_Address"
            ],
            "boundingBox": {
                "height": 23.41628959276018,
                "width": 107.91566265060241,
                "left": 111.98795180722891,
                "top": 67.70361990950227
            },
            "points": [
                {
                    "x": 111.98795180722891,
                    "y": 67.70361990950227
                },
                {
                    "x": 219.90361445783134,
                    "y": 67.70361990950227
                },
                {
                    "x": 219.90361445783134,
                    "y": 91.11990950226243
                },
                {
                    "x": 111.98795180722891,
                    "y": 91.11990950226243
                }
            ]
        },
        {
            "id": "LB5KwOdy2",
            "type": "RECTANGLE",
            "tags": [
                "Mobile_no"
            ],
            "boundingBox": {
                "height": 10.690045248868778,
                "width": 73.3012048192771,
                "left": 142.53012048192772,
                "top": 93.66515837104072
            },
            "points": [
                {
                    "x": 142.53012048192772,
                    "y": 93.66515837104072
                },
                {
                    "x": 215.83132530120483,
                    "y": 93.66515837104072
                },
                {
                    "x": 215.83132530120483,
                    "y": 104.3552036199095
                },
                {
                    "x": 142.53012048192772,
                    "y": 104.3552036199095
                }
            ]
        },
        {
            "id": "vSBSA-srI",
            "type": "RECTANGLE",
            "tags": [
                "Date"
            ],
            "boundingBox": {
                "height": 11.199095022624434,
                "width": 68.71987951807229,
                "left": 165.4367469879518,
                "top": 170.02262443438912
            },
            "points": [
                {
                    "x": 165.4367469879518,
                    "y": 170.02262443438912
                },
                {
                    "x": 234.1566265060241,
                    "y": 170.02262443438912
                },
                {
                    "x": 234.1566265060241,
                    "y": 181.22171945701356
                },
                {
                    "x": 165.4367469879518,
                    "y": 181.22171945701356
                }
            ]
        },
        {
            "id": "eDiE6tGs4",
            "type": "RECTANGLE",
            "tags": [
                "Content_Items"
            ],
            "boundingBox": {
                "height": 134.89819004524887,
                "width": 296.76807228915663,
                "left": 21.379518072289155,
                "top": 209.7285067873303
            },
            "points": [
                {
                    "x": 21.379518072289155,
                    "y": 209.7285067873303
                },
                {
                    "x": 318.1475903614458,
                    "y": 209.7285067873303
                },
                {
                    "x": 318.1475903614458,
                    "y": 344.62669683257917
                },
                {
                    "x": 21.379518072289155,
                    "y": 344.62669683257917
                }
            ]
        },
        {
            "id": "CW6xELKd2",
            "type": "RECTANGLE",
            "tags": [
                "amount_details"
            ],
            "boundingBox": {
                "height": 29.524886877828052,
                "width": 81.95481927710843,
                "left": 234.1566265060241,
                "top": 356.8438914027149
            },
            "points": [
                {
                    "x": 234.1566265060241,
                    "y": 356.8438914027149
                },
                {
                    "x": 316.1114457831325,
                    "y": 356.8438914027149
                },
                {
                    "x": 316.1114457831325,
                    "y": 386.368778280543
                },
                {
                    "x": 234.1566265060241,
                    "y": 386.368778280543
                }
            ]
        }
    ],
    "version": "2.2.0"
}