{
    "asset": {
        "format": "jpg",
        "id": "f8645ee6400672d2db1c17dabc002653",
        "name": "09891-receipt.jpg",
        "path": "file:/home/administrator/ocr/Train-OCR/TrainYourOwnYOLO/Data/receipts_Source_Images/Train_receipt/09891-receipt.jpg",
        "size": {
            "width": 338,
            "height": 450
        },
        "state": 2,
        "type": 1
    },
    "regions": [
        {
            "id": "_hi8hlnWI",
            "type": "RECTANGLE",
            "tags": [
                "Shop_Name"
            ],
            "boundingBox": {
                "height": 18.32579185520362,
                "width": 125.73192771084338,
                "left": 82.46385542168674,
                "top": 10.690045248868778
            },
            "points": [
                {
                    "x": 82.46385542168674,
                    "y": 10.690045248868778
                },
                {
                    "x": 208.19578313253012,
                    "y": 10.690045248868778
                },
                {
                    "x": 208.19578313253012,
                    "y": 29.015837104072396
                },
                {
                    "x": 82.46385542168674,
                    "y": 29.015837104072396
                }
            ]
        },
        {
            "id": "mqx8OXAw4",
            "type": "RECTANGLE",
            "tags": [
                "Shop_Address"
            ],
            "boundingBox": {
                "height": 26.470588235294116,
                "width": 96.2078313253012,
                "left": 96.2078313253012,
                "top": 43.26923076923077
            },
            "points": [
                {
                    "x": 96.2078313253012,
                    "y": 43.26923076923077
                },
                {
                    "x": 192.4156626506024,
                    "y": 43.26923076923077
                },
                {
                    "x": 192.4156626506024,
                    "y": 69.73981900452489
                },
                {
                    "x": 96.2078313253012,
                    "y": 69.73981900452489
                }
            ]
        },
        {
            "id": "5i7XPHRxZ",
            "type": "RECTANGLE",
            "tags": [
                "Mobile_no"
            ],
            "boundingBox": {
                "height": 13.235294117647058,
                "width": 77.37349397590361,
                "left": 117.58734939759036,
                "top": 69.73981900452489
            },
            "points": [
                {
                    "x": 117.58734939759036,
                    "y": 69.73981900452489
                },
                {
                    "x": 194.960843373494,
                    "y": 69.73981900452489
                },
                {
                    "x": 194.960843373494,
                    "y": 82.97511312217193
                },
                {
                    "x": 117.58734939759036,
                    "y": 82.97511312217193
                }
            ]
        },
        {
            "id": "Te6ABmypg",
            "type": "RECTANGLE",
            "tags": [
                "Date"
            ],
            "boundingBox": {
                "height": 14.25339366515837,
                "width": 51.41265060240964,
                "left": 61.08433734939759,
                "top": 137.44343891402713
            },
            "points": [
                {
                    "x": 61.08433734939759,
                    "y": 137.44343891402713
                },
                {
                    "x": 112.49698795180723,
                    "y": 137.44343891402713
                },
                {
                    "x": 112.49698795180723,
                    "y": 151.69683257918552
                },
                {
                    "x": 61.08433734939759,
                    "y": 151.69683257918552
                }
            ]
        },
        {
            "id": "XJ5JmAj_G",
            "type": "RECTANGLE",
            "tags": [
                "Content_Items"
            ],
            "boundingBox": {
                "height": 124.20814479638008,
                "width": 195.9789156626506,
                "left": 26.46987951807229,
                "top": 206.16515837104072
            },
            "points": [
                {
                    "x": 26.46987951807229,
                    "y": 206.16515837104072
                },
                {
                    "x": 222.4487951807229,
                    "y": 206.16515837104072
                },
                {
                    "x": 222.4487951807229,
                    "y": 330.3733031674208
                },
                {
                    "x": 26.46987951807229,
                    "y": 330.3733031674208
                }
            ]
        },
        {
            "id": "Uh1LAPN5c",
            "type": "RECTANGLE",
            "tags": [
                "tax"
            ],
            "boundingBox": {
                "height": 14.762443438914026,
                "width": 138.96686746987953,
                "left": 27.996987951807228,
                "top": 359.89819004524884
            },
            "points": [
                {
                    "x": 27.996987951807228,
                    "y": 359.89819004524884
                },
                {
                    "x": 166.96385542168676,
                    "y": 359.89819004524884
                },
                {
                    "x": 166.96385542168676,
                    "y": 374.6606334841629
                },
                {
                    "x": 27.996987951807228,
                    "y": 374.6606334841629
                }
            ]
        },
        {
            "id": "xIGFfzY50",
            "type": "RECTANGLE",
            "tags": [
                "amount_details"
            ],
            "boundingBox": {
                "height": 21.88914027149321,
                "width": 49.376506024096386,
                "left": 159.83734939759037,
                "top": 386.368778280543
            },
            "points": [
                {
                    "x": 159.83734939759037,
                    "y": 386.368778280543
                },
                {
                    "x": 209.21385542168676,
                    "y": 386.368778280543
                },
                {
                    "x": 209.21385542168676,
                    "y": 408.2579185520362
                },
                {
                    "x": 159.83734939759037,
                    "y": 408.2579185520362
                }
            ]
        }
    ],
    "version": "2.2.0"
}