{
    "asset": {
        "format": "jpg",
        "id": "f8d8a6eb2f07f755b0a4a8175b23dabd",
        "name": "PHOTO-2020-06-11-16-06-54.jpg",
        "path": "file:/home/administrator/ocr/Train-OCR/TrainYourOwnYOLO/Data/receipts_Source_Images/Train_receipt/PHOTO-2020-06-11-16-06-54.jpg",
        "size": {
            "width": 648,
            "height": 1152
        },
        "state": 2,
        "type": 1
    },
    "regions": [
        {
            "id": "iJzbHaDRR",
            "type": "RECTANGLE",
            "tags": [
                "Shop_Logo"
            ],
            "boundingBox": {
                "height": 62.55203619909503,
                "width": 238.5995975855131,
                "left": 75.78470824949699,
                "top": 115.98190045248869
            },
            "points": [
                {
                    "x": 75.78470824949699,
                    "y": 115.98190045248869
                },
                {
                    "x": 314.3843058350101,
                    "y": 115.98190045248869
                },
                {
                    "x": 314.3843058350101,
                    "y": 178.5339366515837
                },
                {
                    "x": 75.78470824949699,
                    "y": 178.5339366515837
                }
            ]
        },
        {
            "id": "k_vrsRMZb",
            "type": "RECTANGLE",
            "tags": [
                "Date"
            ],
            "boundingBox": {
                "height": 18.244343891402714,
                "width": 69.102615694165,
                "left": 126.63380281690142,
                "top": 258.02714932126696
            },
            "points": [
                {
                    "x": 126.63380281690142,
                    "y": 258.02714932126696
                },
                {
                    "x": 195.7364185110664,
                    "y": 258.02714932126696
                },
                {
                    "x": 195.7364185110664,
                    "y": 276.27149321266967
                },
                {
                    "x": 126.63380281690142,
                    "y": 276.27149321266967
                }
            ]
        }
    ],
    "version": "2.2.0"
}