{
    "asset": {
        "format": "jpeg",
        "id": "fa54823672312b6c4d20f1f291a5c812",
        "name": "01180-receipt.jpeg",
        "path": "file:/home/administrator/ocr/Train-OCR/TrainYourOwnYOLO/Data/receipts_Source_Images/Train_receipt/01180-receipt.jpeg",
        "size": {
            "width": 800,
            "height": 797
        },
        "state": 2,
        "type": 1
    },
    "regions": [
        {
            "id": "G8s_XxSyF",
            "type": "RECTANGLE",
            "tags": [
                "Content_Items"
            ],
            "boundingBox": {
                "height": 195.64366515837105,
                "width": 569.1093573844419,
                "left": 179.63641488162344,
                "top": 365.14140271493216
            },
            "points": [
                {
                    "x": 179.63641488162344,
                    "y": 365.14140271493216
                },
                {
                    "x": 748.7457722660654,
                    "y": 365.14140271493216
                },
                {
                    "x": 748.7457722660654,
                    "y": 560.7850678733032
                },
                {
                    "x": 179.63641488162344,
                    "y": 560.7850678733032
                }
            ]
        },
        {
            "id": "Ek2riTCsU",
            "type": "RECTANGLE",
            "tags": [
                "Date"
            ],
            "boundingBox": {
                "height": 27.949095022624434,
                "width": 149.71815107102591,
                "left": 469.15163472378805,
                "top": 265.0656108597285
            },
            "points": [
                {
                    "x": 469.15163472378805,
                    "y": 265.0656108597285
                },
                {
                    "x": 618.869785794814,
                    "y": 265.0656108597285
                },
                {
                    "x": 618.869785794814,
                    "y": 293.0147058823529
                },
                {
                    "x": 469.15163472378805,
                    "y": 293.0147058823529
                }
            ]
        },
        {
            "id": "ytZFf30PV",
            "type": "RECTANGLE",
            "tags": [
                "amount_details"
            ],
            "boundingBox": {
                "height": 52.29185520361991,
                "width": 711.6121758737316,
                "left": 66.89684329199548,
                "top": 641.9276018099548
            },
            "points": [
                {
                    "x": 66.89684329199548,
                    "y": 641.9276018099548
                },
                {
                    "x": 778.5090191657272,
                    "y": 641.9276018099548
                },
                {
                    "x": 778.5090191657272,
                    "y": 694.2194570135747
                },
                {
                    "x": 66.89684329199548,
                    "y": 694.2194570135747
                }
            ]
        }
    ],
    "version": "2.2.0"
}