{
    "asset": {
        "format": "jpg",
        "id": "fbf97fc0a55d50616c641d6a01ffaa52",
        "name": "02226-receipt.jpg",
        "path": "file:/home/administrator/ocr/Train-OCR/TrainYourOwnYOLO/Data/receipts_Source_Images/Train_receipt/02226-receipt.jpg",
        "size": {
            "width": 750,
            "height": 1000
        },
        "state": 2,
        "type": 1
    },
    "regions": [
        {
            "id": "Ik-gmA9WW",
            "type": "RECTANGLE",
            "tags": [
                "Shop_Logo"
            ],
            "boundingBox": {
                "height": 164.02714932126696,
                "width": 430.99547511312215,
                "left": 99.5475113122172,
                "top": 7.918552036199095
            },
            "points": [
                {
                    "x": 99.5475113122172,
                    "y": 7.918552036199095
                },
                {
                    "x": 530.5429864253393,
                    "y": 7.918552036199095
                },
                {
                    "x": 530.5429864253393,
                    "y": 171.94570135746605
                },
                {
                    "x": 99.5475113122172,
                    "y": 171.94570135746605
                }
            ]
        },
        {
            "id": "z0qS26fUw",
            "type": "RECTANGLE",
            "tags": [
                "Shop_Name"
            ],
            "boundingBox": {
                "height": 33.93665158371041,
                "width": 367.6470588235294,
                "left": 110.85972850678733,
                "top": 178.73303167420815
            },
            "points": [
                {
                    "x": 110.85972850678733,
                    "y": 178.73303167420815
                },
                {
                    "x": 478.50678733031674,
                    "y": 178.73303167420815
                },
                {
                    "x": 478.50678733031674,
                    "y": 212.66968325791854
                },
                {
                    "x": 110.85972850678733,
                    "y": 212.66968325791854
                }
            ]
        },
        {
            "id": "JhqpCrsDP",
            "type": "RECTANGLE",
            "tags": [
                "Shop_Address"
            ],
            "boundingBox": {
                "height": 45.24886877828054,
                "width": 209.2760180995475,
                "left": 194.57013574660633,
                "top": 222.85067873303166
            },
            "points": [
                {
                    "x": 194.57013574660633,
                    "y": 222.85067873303166
                },
                {
                    "x": 403.8461538461538,
                    "y": 222.85067873303166
                },
                {
                    "x": 403.8461538461538,
                    "y": 268.0995475113122
                },
                {
                    "x": 194.57013574660633,
                    "y": 268.0995475113122
                }
            ]
        },
        {
            "id": "kS25hGhjf",
            "type": "RECTANGLE",
            "tags": [
                "Mobile_no"
            ],
            "boundingBox": {
                "height": 26.018099547511312,
                "width": 166.289592760181,
                "left": 214.93212669683257,
                "top": 269.2307692307692
            },
            "points": [
                {
                    "x": 214.93212669683257,
                    "y": 269.2307692307692
                },
                {
                    "x": 381.2217194570136,
                    "y": 269.2307692307692
                },
                {
                    "x": 381.2217194570136,
                    "y": 295.24886877828055
                },
                {
                    "x": 214.93212669683257,
                    "y": 295.24886877828055
                }
            ]
        },
        {
            "id": "SKYmqCZXA",
            "type": "RECTANGLE",
            "tags": [
                "Content_Items"
            ],
            "boundingBox": {
                "height": 202.4886877828054,
                "width": 449.09502262443436,
                "left": 83.710407239819,
                "top": 432.12669683257917
            },
            "points": [
                {
                    "x": 83.710407239819,
                    "y": 432.12669683257917
                },
                {
                    "x": 532.8054298642534,
                    "y": 432.12669683257917
                },
                {
                    "x": 532.8054298642534,
                    "y": 634.6153846153846
                },
                {
                    "x": 83.710407239819,
                    "y": 634.6153846153846
                }
            ]
        },
        {
            "id": "lTP-S_gnT",
            "type": "RECTANGLE",
            "tags": [
                "amount_details"
            ],
            "boundingBox": {
                "height": 55.42986425339367,
                "width": 147.05882352941177,
                "left": 392.5339366515837,
                "top": 778.2805429864253
            },
            "points": [
                {
                    "x": 392.5339366515837,
                    "y": 778.2805429864253
                },
                {
                    "x": 539.5927601809955,
                    "y": 778.2805429864253
                },
                {
                    "x": 539.5927601809955,
                    "y": 833.710407239819
                },
                {
                    "x": 392.5339366515837,
                    "y": 833.710407239819
                }
            ]
        }
    ],
    "version": "2.2.0"
}