{
    "asset": {
        "format": "jpg",
        "id": "fdfd2520b36fa5ff68f043634ec1d7f5",
        "name": "02229-receipt.jpg",
        "path": "file:/home/administrator/ocr/Train-OCR/TrainYourOwnYOLO/Data/receipts_Source_Images/Train_receipt/02229-receipt.jpg",
        "size": {
            "width": 729,
            "height": 1024
        },
        "state": 2,
        "type": 1
    },
    "regions": [
        {
            "id": "PUBEGp0Uz",
            "type": "RECTANGLE",
            "tags": [
                "Shop_Name"
            ],
            "boundingBox": {
                "height": 33.59276018099548,
                "width": 267.724960254372,
                "left": 156.6618392289348,
                "top": 41.70135746606335
            },
            "points": [
                {
                    "x": 156.6618392289348,
                    "y": 41.70135746606335
                },
                {
                    "x": 424.3867994833068,
                    "y": 41.70135746606335
                },
                {
                    "x": 424.3867994833068,
                    "y": 75.29411764705883
                },
                {
                    "x": 156.6618392289348,
                    "y": 75.29411764705883
                }
            ]
        },
        {
            "id": "ptT5Yi11f",
            "type": "RECTANGLE",
            "tags": [
                "Content_Items"
            ],
            "boundingBox": {
                "height": 273.3755656108598,
                "width": 493.72655007949123,
                "left": 62.78425576311605,
                "top": 171.43891402714934
            },
            "points": [
                {
                    "x": 62.78425576311605,
                    "y": 171.43891402714934
                },
                {
                    "x": 556.5108058426073,
                    "y": 171.43891402714934
                },
                {
                    "x": 556.5108058426073,
                    "y": 444.81447963800906
                },
                {
                    "x": 62.78425576311605,
                    "y": 444.81447963800906
                }
            ]
        },
        {
            "id": "22Jeie42q",
            "type": "RECTANGLE",
            "tags": [
                "amount_details"
            ],
            "boundingBox": {
                "height": 34.75113122171946,
                "width": 154.14467408585054,
                "left": 430.18171204292526,
                "top": 528.2171945701358
            },
            "points": [
                {
                    "x": 430.18171204292526,
                    "y": 528.2171945701358
                },
                {
                    "x": 584.3263861287758,
                    "y": 528.2171945701358
                },
                {
                    "x": 584.3263861287758,
                    "y": 562.9683257918552
                },
                {
                    "x": 430.18171204292526,
                    "y": 562.9683257918552
                }
            ]
        },
        {
            "id": "JUguvcJOn",
            "type": "RECTANGLE",
            "tags": [
                "Shop_Address"
            ],
            "boundingBox": {
                "height": 68.34389140271495,
                "width": 275.8378378378378,
                "left": 223.8828249205087,
                "top": 770.3167420814481
            },
            "points": [
                {
                    "x": 223.8828249205087,
                    "y": 770.3167420814481
                },
                {
                    "x": 499.7206627583465,
                    "y": 770.3167420814481
                },
                {
                    "x": 499.7206627583465,
                    "y": 838.660633484163
                },
                {
                    "x": 223.8828249205087,
                    "y": 838.660633484163
                }
            ]
        },
        {
            "id": "mMj10mipK",
            "type": "RECTANGLE",
            "tags": [
                "Mobile_no"
            ],
            "boundingBox": {
                "height": 23.16742081447964,
                "width": 193.55007949125596,
                "left": 259.8112827901431,
                "top": 842.1357466063349
            },
            "points": [
                {
                    "x": 259.8112827901431,
                    "y": 842.1357466063349
                },
                {
                    "x": 453.361362281399,
                    "y": 842.1357466063349
                },
                {
                    "x": 453.361362281399,
                    "y": 865.3031674208146
                },
                {
                    "x": 259.8112827901431,
                    "y": 865.3031674208146
                }
            ]
        }
    ],
    "version": "2.2.0"
}