{
    "asset": {
        "format": "jpg",
        "id": "fe04c8cec4e7aaa4115f5c74ce8daec8",
        "name": "1014-receipt.jpg",
        "path": "file:/home/administrator/ocr/Train-OCR/TrainYourOwnYOLO/Data/receipts_Source_Images/Train_receipt/1014-receipt.jpg",
        "size": {
            "width": 750,
            "height": 1000
        },
        "state": 2,
        "type": 1
    },
    "regions": [
        {
            "id": "U8yhjx8Kl",
            "type": "RECTANGLE",
            "tags": [
                "Shop_Name"
            ],
            "boundingBox": {
                "height": 21.493212669683256,
                "width": 138.00904977375566,
                "left": 260.7466063348416,
                "top": 196.83257918552036
            },
            "points": [
                {
                    "x": 260.7466063348416,
                    "y": 196.83257918552036
                },
                {
                    "x": 398.7556561085973,
                    "y": 196.83257918552036
                },
                {
                    "x": 398.7556561085973,
                    "y": 218.32579185520362
                },
                {
                    "x": 260.7466063348416,
                    "y": 218.32579185520362
                }
            ]
        },
        {
            "id": "elcXzhzF2",
            "type": "RECTANGLE",
            "tags": [
                "Shop_Address"
            ],
            "boundingBox": {
                "height": 52.036199095022624,
                "width": 265.8371040723982,
                "left": 200.79185520361992,
                "top": 210.40723981900453
            },
            "points": [
                {
                    "x": 200.79185520361992,
                    "y": 210.40723981900453
                },
                {
                    "x": 466.62895927601807,
                    "y": 210.40723981900453
                },
                {
                    "x": 466.62895927601807,
                    "y": 262.4434389140271
                },
                {
                    "x": 200.79185520361992,
                    "y": 262.4434389140271
                }
            ]
        },
        {
            "id": "yqOAL-UcD",
            "type": "RECTANGLE",
            "tags": [
                "Date"
            ],
            "boundingBox": {
                "height": 21.493212669683256,
                "width": 128.95927601809956,
                "left": 207.579185520362,
                "top": 342.7601809954751
            },
            "points": [
                {
                    "x": 207.579185520362,
                    "y": 342.7601809954751
                },
                {
                    "x": 336.53846153846155,
                    "y": 342.7601809954751
                },
                {
                    "x": 336.53846153846155,
                    "y": 364.25339366515834
                },
                {
                    "x": 207.579185520362,
                    "y": 364.25339366515834
                }
            ]
        },
        {
            "id": "oBsbBpj8Z",
            "type": "RECTANGLE",
            "tags": [
                "Content_Items"
            ],
            "boundingBox": {
                "height": 265.8371040723982,
                "width": 520.3619909502262,
                "left": 67.3076923076923,
                "top": 407.23981900452486
            },
            "points": [
                {
                    "x": 67.3076923076923,
                    "y": 407.23981900452486
                },
                {
                    "x": 587.6696832579186,
                    "y": 407.23981900452486
                },
                {
                    "x": 587.6696832579186,
                    "y": 673.0769230769231
                },
                {
                    "x": 67.3076923076923,
                    "y": 673.0769230769231
                }
            ]
        },
        {
            "id": "fcLazRaPp",
            "type": "RECTANGLE",
            "tags": [
                "amount_details"
            ],
            "boundingBox": {
                "height": 40.723981900452486,
                "width": 164.02714932126696,
                "left": 423.6425339366516,
                "top": 753.393665158371
            },
            "points": [
                {
                    "x": 423.6425339366516,
                    "y": 753.393665158371
                },
                {
                    "x": 587.6696832579186,
                    "y": 753.393665158371
                },
                {
                    "x": 587.6696832579186,
                    "y": 794.1176470588235
                },
                {
                    "x": 423.6425339366516,
                    "y": 794.1176470588235
                }
            ]
        },
        {
            "id": "9WbzHMybp",
            "type": "RECTANGLE",
            "tags": [
                "tax"
            ],
            "boundingBox": {
                "height": 33.93665158371041,
                "width": 67.87330316742081,
                "left": 83.1447963800905,
                "top": 718.3257918552036
            },
            "points": [
                {
                    "x": 83.1447963800905,
                    "y": 718.3257918552036
                },
                {
                    "x": 151.0180995475113,
                    "y": 718.3257918552036
                },
                {
                    "x": 151.0180995475113,
                    "y": 752.262443438914
                },
                {
                    "x": 83.1447963800905,
                    "y": 752.262443438914
                }
            ]
        },
        {
            "id": "MKH-bdxsA",
            "type": "RECTANGLE",
            "tags": [
                "tax"
            ],
            "boundingBox": {
                "height": 31.67420814479638,
                "width": 79.18552036199095,
                "left": 508.48416289592757,
                "top": 723.9819004524886
            },
            "points": [
                {
                    "x": 508.48416289592757,
                    "y": 723.9819004524886
                },
                {
                    "x": 587.6696832579186,
                    "y": 723.9819004524886
                },
                {
                    "x": 587.6696832579186,
                    "y": 755.6561085972851
                },
                {
                    "x": 508.48416289592757,
                    "y": 755.6561085972851
                }
            ]
        }
    ],
    "version": "2.2.0"
}