{
    "asset": {
        "format": "jpg",
        "id": "fe044f07dbb7617cdf71583ffc54737b",
        "name": "02237-receipt.jpg",
        "path": "file:/home/administrator/ocr/Train-OCR/TrainYourOwnYOLO/Data/receipts_Source_Images/Train_receipt/02237-receipt.jpg",
        "size": {
            "width": 348,
            "height": 348
        },
        "state": 2,
        "type": 1
    },
    "regions": [
        {
            "id": "UxgE2KjUH",
            "type": "RECTANGLE",
            "tags": [
                "Shop_Address"
            ],
            "boundingBox": {
                "height": 29.524886877828052,
                "width": 99.5972850678733,
                "left": 115.93438914027149,
                "top": 41.72850678733032
            },
            "points": [
                {
                    "x": 115.93438914027149,
                    "y": 41.72850678733032
                },
                {
                    "x": 215.53167420814478,
                    "y": 41.72850678733032
                },
                {
                    "x": 215.53167420814478,
                    "y": 71.25339366515837
                },
                {
                    "x": 115.93438914027149,
                    "y": 71.25339366515837
                }
            ]
        },
        {
            "id": "_veJR7EAr",
            "type": "RECTANGLE",
            "tags": [
                "Content_Items"
            ],
            "boundingBox": {
                "height": 22.43891402714932,
                "width": 115.34389140271493,
                "left": 114.75339366515837,
                "top": 98.41628959276018
            },
            "points": [
                {
                    "x": 114.75339366515837,
                    "y": 98.41628959276018
                },
                {
                    "x": 230.0972850678733,
                    "y": 98.41628959276018
                },
                {
                    "x": 230.0972850678733,
                    "y": 120.8552036199095
                },
                {
                    "x": 114.75339366515837,
                    "y": 120.8552036199095
                }
            ]
        },
        {
            "id": "5iZ_XGUNH",
            "type": "RECTANGLE",
            "tags": [
                "amount_details"
            ],
            "boundingBox": {
                "height": 8.266968325791854,
                "width": 21.257918552036198,
                "left": 206.47737556561086,
                "top": 166.12669683257917
            },
            "points": [
                {
                    "x": 206.47737556561086,
                    "y": 166.12669683257917
                },
                {
                    "x": 227.73529411764704,
                    "y": 166.12669683257917
                },
                {
                    "x": 227.73529411764704,
                    "y": 174.39366515837105
                },
                {
                    "x": 206.47737556561086,
                    "y": 174.39366515837105
                }
            ]
        }
    ],
    "version": "2.2.0"
}